#
# Wavefront material file
# Converted by Meshlab Group
#

newmtl material_0
Ka 0.200000 0.200000 0.200000
Kd 0.000000 0.000000 0.000000
Ks 1.000000 1.000000 1.000000
Tr 0.000000
illum 2
Ns 0.000000
map_Kd Plan_04_textures.png

