# vtk DataFile Version 5.1
vtk output
ASCII
DATASET POLYDATA
POINTS 1175 float
19.1548 24.05 1.10688 22.2651 24.6485 1.16816 21.7068 26.0444 0.781801 
19.284 26.4977 1.54713 24.9308 26.5514 0.870449 25.1493 28.4622 1.11941 
29.5655 29.4395 0.875785 31.1565 29.4159 1.22873 30.7369 31.14 1.56113 
33.2739 31.17 1.33586 35.4065 31.6571 1.55261 13.4951 21.4886 1.97198 
14.0322 22.1063 1.52865 16.3088 21.9945 1.75107 14.6243 23.2316 1.7331 
14.7834 23.3216 1.66096 21.617 22.4243 2.57128 24.6217 24.7646 1.76173 
17.1211 25.6402 1.93551 36.1085 33.4248 1.84391 11.3842 19.6019 3.33295 
13.4645 19.953 2.74605 11.6393 21.1559 3.27571 16.6812 20.7359 2.61655 
13.9797 24.0871 3.04843 27.6058 24.3983 3.30817 16.5795 26.3689 3.01618 
33.6215 28.5731 2.5497 39.016 31.7115 2.72016 39.424 34.229 2.25421 
41.8982 33.8596 2.87661 36.9482 35.4796 3.02843 41.7235 36.0863 2.73425 
44.1563 34.902 3.33637 45.0072 36.4965 3.26454 11.036 19.7256 3.33876 
13.4505 18.8432 3.84339 19.1711 19.5809 4.6531 11.4714 21.8192 3.85721 
13.4082 24.1152 4.00752 24.2433 32.1904 4.09726 25.3487 33.3602 4.53069 
27.4003 34.178 4.39883 47.3333 36.6934 3.8719 41.889 38.7571 4.25111 
47.5913 38.8333 3.73529 44.6988 38.9248 3.83196 49.954 39.0277 4.23613 
50.364 40.7688 4.44299 5.95199 15.8176 6.09836 9.41248 18.2172 5.06215 
8.12528 17.3996 5.71206 10.5283 17.0627 5.63519 12.3776 17.7706 4.99087 
8.81327 19.0993 5.50356 10.5572 21.4719 5.2962 27.4312 22.3809 5.10719 
21.9877 31.6298 5.3419 24.8462 33.8158 5.43156 27.85 35.7489 5.72546 
52.3207 39.7889 4.92871 53.0249 41.2962 4.87735 53.4177 41.1795 4.91434 
53.3388 43.4425 5.52355 55.2275 43.0119 5.35927 20.0249 30.4511 6.17427 
33.1967 38.7388 6.05636 50.8499 38.2427 4.86022 53.1103 38.9645 5.63972 
58.2359 45.0604 6.26638 1.62332 13.1705 7.8925 1.47224 13.14 8.08077 
5.43317 15.0682 7.14699 5.48333 16.4382 7.11741 6.54406 16.1315 6.41687 
10.7601 16.3482 6.55307 7.85357 19.1211 6.85059 41.7933 26.7123 7.40406 
32.7476 39.6074 6.84705 57.8595 43.8385 6.24505 58.9701 43.6351 6.68224 
56.4347 45.1625 6.28693 58.5916 45.5645 6.50208 4.48029 14.3718 7.87709 
10.6088 15.3292 7.86523 41.7274 24.4339 8.99746 42.1327 26.1346 7.95541 
30.559 39.3921 8.17448 33.0493 41.4513 8.45333 41.8338 43.9084 7.97882 
61.7571 48.0748 7.76712 63.425 46.3082 8.18254 59.1836 47.7756 7.59328 
61.923 48.4247 7.83375 64.2233 48.5967 8.3223 1.81073 12.998 8.56113 
1.03065 13.7839 9.17122 3.95712 16.0759 8.28668 52.8618 31.7739 9.26562 
61.046 39.2618 9.70123 35.4229 44.2409 9.78006 4.75109 13.0031 9.42321 
27.6248 17.2133 10.3674 59.264 38.336 9.1815 61.9674 40.9273 9.45405 
36.2667 46.0698 11.033 38.4473 46.4433 9.98514 67.2821 51.0432 9.74207 
64.4473 51.2412 9.30983 67.4538 53.0634 10.1673 2.33242 12.0151 11.4442 
0.794521 13.9547 10.8646 33.556 43.4588 11.055 37.2429 47.3808 11.6807 
38.9969 48.2018 11.1593 69.9648 51.1644 10.9005 70.8174 53.7642 10.9002 
67.8128 55.0686 11.1616 70.2165 55.4094 11.2001 2.46785 11.4834 12.8827 
10.6846 12.7473 11.8032 1.70257 17.1158 12.7701 37.2949 47.8098 12.5262 
39.371 49.3701 12.4954 42.2449 51.3532 12.8717 72.9235 55.4012 11.8684 
72.8183 57.246 12.3122 3.25928 9.49301 14.3835 4.52404 11.2188 12.5917 
4.1868 9.86962 14.1573 1.05221 13.8769 11.8735 38.8985 17.2895 13.3749 
2.68122 18.8676 12.9358 2.00789 18.7277 13.9916 4.01107 19.6962 12.4407 
4.06274 8.84572 15.4467 1.31452 13.9934 13.0305 4.47389 21.4967 14.122 
42.4142 52.8913 14.2452 75.7689 56.1208 13.7042 75.9627 58.1861 13.8651 
72.9588 58.7776 13.2192 3.21209 9.45423 15.5204 7.85735 10.2984 15.4215 
1.84163 18.9278 15.4201 3.22389 21.2363 15.6198 56.0286 21.6889 15.5332 
7.73429 24.4327 15.238 13.7195 28.8194 15.5125 42.0596 53.341 15.2297 
44.588 55.4132 15.5018 78.3725 61.0674 15.3186 76.3341 62.5705 15.4963 
78.4188 62.7382 15.7642 4.08715 8.32846 16.3687 33.3218 12.3098 15.9103 
1.87138 16.9875 16.3056 1.87549 18.7293 16.3165 3.0566 21.8181 17.4138 
13.4582 29.1731 16.7402 19.3213 33.7616 16.8648 13.6163 9.76364 17.0047 
30.4971 10.1436 17.4829 44.7362 14.3555 16.8559 11.4017 28.0453 17.3 
67.3928 28.9354 16.7935 67.6797 31.1689 16.1866 70.0422 31.4927 17.1855 
45.0443 57.9545 18.0326 47.5602 58.9444 16.8759 79.0915 63.2548 16.2161 
78.8218 65.0513 17.2948 4.02656 8.54741 16.8617 3.49123 10.0037 17.8769 
7.70244 8.98225 18.1248 19.2763 9.18621 18.0489 3.07148 11.5542 17.8467 
53.1977 14.4138 18.3806 55.807 17.2301 17.7271 2.43055 19.1897 17.9747 
59.0078 19.0333 17.8221 2.83218 21.5056 18.0009 4.72425 24.141 17.9939 
16.1233 31.8156 18.038 17.4218 32.5233 17.3664 75.9999 38.6184 17.9683 
30.7598 43.3789 18.297 46.4417 59.1727 17.7929 47.4815 60.5061 18.3731 
49.9183 61.0456 17.8708 81.9077 63.0554 18.0028 81.283 65.5275 18.2192 
79.0285 66.2594 18.2097 4.35656 8.89986 18.7076 7.6665 8.4278 20.0053 
19.2537 8.56975 19.0832 36.1639 8.79588 19.4959 3.46681 11.5656 19.0856 
50.2537 12.4611 18.7843 53.0574 12.3819 19.2513 55.8587 14.739 18.7868 
58.787 14.5757 19.7324 59.1447 15.9011 19.1515 61.9624 16.2478 19.8573 
3.07562 21.697 19.4889 5.24332 26.0116 19.944 81.9926 53.1675 18.8683 
44.6497 58.3032 19.2816 83.7993 58.3769 19.1713 84.8523 58.6199 19.9155 
84.0511 60.2545 19.5273 48.267 62.7374 19.9756 50.5939 62.6481 18.798 
56.0791 62.794 18.6242 49.8423 62.9632 19.1136 82.7828 63.1718 19.4869 
64.5299 65.5315 19.5172 81.6596 65.6126 18.6815 78.6483 67.1605 19.0344 
19.3194 7.95923 20.1445 44.6994 9.68026 19.5867 50.0945 10.4111 20.8747 
52.6043 11.7431 19.6831 53.0923 11.2568 20.8112 55.6867 12.8796 19.8869 
58.6111 13.6088 20.7647 3.8879 24.4003 20.7452 5.02705 26.3431 20.7523 
78.5733 36.3042 19.8532 84.562 56.0058 20.0288 84.8592 60.3187 20.7365 
47.8705 62.8995 20.6573 50.6295 66.5112 21.0523 50.6487 65.1179 20.1285 
52.2824 65.3354 20.0733 78.8181 67.9176 19.9209 80.7367 66.8992 19.9677 
78.9084 68.5977 20.9043 36.2489 7.19026 21.1567 42.7762 8.13606 20.9484 
4.74432 9.19866 21.0118 6.79244 8.37012 20.9433 50.7767 10.5942 21.1197 
61.7764 14.7765 21.1433 64.662 16.4975 20.9772 67.676 18.3761 21.0054 
3.29963 21.4705 20.8196 85.2112 58.6914 20.6616 85.9924 55.9541 21.2787 
85.8865 57.1417 21.5162 46.5814 61.3294 20.7217 83.4921 62.3437 20.8147 
82.9149 63.6104 21.1378 53.1085 67.737 21.4764 80.8187 67.1615 20.8376 
76.0371 68.6524 20.2429 75.924 70.028 21.4727 24.8826 6.40992 21.9379 
30.8843 6.00415 22.2987 39.8047 7.04525 22.274 7.06604 8.08544 22.2934 
41.9131 7.64737 22.335 4.92877 9.13016 21.2946 47.5201 9.60784 22.2588 
50.7523 10.6863 22.5404 61.9799 14.5532 22.1001 67.3342 16.8695 22.4026 
69.974 18.3291 22.1466 69.2492 17.8309 22.4857 72.8291 19.7154 22.5037 
73.3985 21.0444 21.8867 3.8372 24.9729 22.5816 5.80993 28.3053 22.9368 
10.965 30.8986 22.7217 81.6793 31.3009 21.9219 13.2896 31.9217 22.1035 
22.4011 38.2715 22.5982 87.2719 48.4948 22.707 86.1933 50.5816 21.7218 
86.1482 53.1479 21.4702 86.9662 53.8804 22.2403 86.5218 55.7531 22.1492 
84.816 60.2982 22.3276 83.3925 62.6668 22.0134 81.9818 65.6884 21.8075 
50.679 67.3741 22.1447 80.6578 67.5537 22.1445 52.7693 68.4793 22.1199 
78.0619 69.8258 21.9151 79.6598 68.5584 22.008 78.6133 69.921 22.4527 
73.2947 70.9356 22.1059 76.2109 70.606 22.2078 24.9036 4.95873 23.9565 
25.0325 5.57185 23.0831 31.0467 5.10469 23.7658 36.23 6.15503 23.5898 
7.43352 7.59755 23.8743 5.60981 9.21035 24.0742 69.3351 17.552 23.5062 
73.1906 19.0997 23.7271 75.2567 20.0317 23.5683 76.4112 20.7756 23.6429 
77.8995 22.89 22.9597 10.8919 31.4424 23.6679 13.044 32.3809 23.2262 
84.2782 33.8312 22.57 88.2421 50.9625 23.519 87.6954 53.3902 23.5126 
86.967 55.5053 23.5139 48.3721 64.8827 22.6986 50.4727 67.9985 23.6555 
53.4975 69.6504 22.8913 79.8562 68.7551 23.7296 78.422 70.2302 23.3755 
70.3741 72.457 23.1646 76.7816 71.3076 23.5734 73.1481 72.866 23.8945 
44.9073 8.91189 23.6451 59.1016 13.6899 23.7796 78.5639 21.7492 23.9796 
81.6226 23.5022 23.8367 87.1707 26.3609 24.001 5.10975 28.7925 24.7225 
7.09814 29.4297 23.3148 90.9054 28.8993 24.0294 87.5734 38.7536 24.0214 
87.5406 41.2074 23.9375 87.9987 45.953 23.8334 88.8057 48.5509 24.2148 
89.1503 48.5693 24.839 53.9675 73.0178 25.3719 55.5447 72.5929 24.1981 
16.5635 5.61208 25.4159 33.2316 5.41134 25.2277 7.53036 7.14404 25.1449 
38.9371 7.00726 24.823 5.72798 9.40314 24.6933 67.3508 16.8748 25.0991 
76.2917 20.2922 25.2572 79.2895 21.2319 25.3969 82.2144 22.009 25.2245 
83.6303 22.2272 25.479 84.2395 23.0025 24.8804 87.404 23.8262 24.9976 
86.9939 24.9621 24.3994 92.7631 24.6989 25.0614 93.6262 26.0306 25.0345 
93.7111 29.0469 25.1249 93.0914 30.4096 25.1592 88.996 33.8795 24.4296 
90.3246 34.2173 25.2343 91.6914 32.8289 25.5133 89.3119 36.2755 25.2125 
16.674 35.9162 25.3634 18.7968 36.9883 24.7751 88.3016 41.2324 24.5357 
89.0594 41.379 25.2775 88.9027 43.7608 25.2153 30.4057 46.1797 25.0708 
88.6904 51.5801 25.1465 39.4028 55.437 25.3417 55.4407 73.5448 24.7958 
73.3207 73.5881 25.101 64.8672 75.5955 25.6044 72.1872 74.1111 25.0963 
22.2645 3.41936 26.9596 13.4751 5.86978 26.1831 7.57508 6.56256 27.4098 
9.82756 6.1156 26.5718 6.15478 9.10957 26.6563 84.3623 22.2595 26.5367 
87.825 22.9933 26.3228 92.8825 24.257 26.1981 94.1594 26.198 26.3485 
4.61804 26.5999 26.4326 4.76462 28.97 26.5139 94.275 29.1415 26.287 
5.60397 30.7167 26.7083 90.7677 34.6429 26.503 16.3805 36.3586 26.5033 
90.0672 36.4601 26.5275 89.7865 40.8655 26.5892 89.486 46.0077 26.6509 
89.2606 50.688 26.8494 53.3395 72.9128 26.1909 75.8645 72.4221 26.8421 
55.6171 75.1995 26.1875 72.5104 74.4428 26.4426 23.9713 3.36044 27.0046 
22.1742 3.1763 27.523 8.64019 5.54293 28.1238 5.08831 19.2101 26.5744 
33.3378 22.3713 26.7519 31.0302 22.2268 26.8062 33.786 20.9209 27.7587 
31.0255 23.9154 26.5352 33.5623 24.1522 26.2494 35.6934 22.3107 27.7246 
35.6333 23.6667 26.9749 36.7851 23.8306 27.8301 30.8611 26.7598 26.6894 
33.4573 26.1978 26.3891 35.5282 26.8036 27.055 36.8161 26.1324 27.7884 
31.0433 27.9721 27.0233 33.3082 28.4788 27.1601 33.3864 29.3755 27.6627 
89.2808 50.8156 27.8199 86.6834 55.4338 27.8844 47.1994 65.7701 27.7702 
54.2028 74.528 26.9381 56.6257 76.8839 27.3314 56.6436 77.557 28.1626 
58.6174 77.402 27.1776 67.6332 76.7433 26.9685 64.6709 78.0679 28.0989 
67.2982 77.3031 27.8945 19.2151 2.52521 28.7032 24.9288 3.61953 27.5808 
13.9109 4.97263 28.3931 27.8339 4.42567 28.0654 7.38664 6.43291 28.4871 
6.64195 8.18946 27.9511 30.4652 21.018 27.4469 30.6604 20.159 28.3402 
33.0294 20.1838 28.1297 28.1058 21.6973 28.1342 81.483 21.8192 27.7411 
28.2584 24.409 27.5572 27.867 26.7761 27.87 92.9732 24.5408 27.1595 
93.826 26.3116 27.9732 35.8563 28.5554 27.8975 93.5766 28.9771 28.157 
30.5431 29.2318 27.7946 7.3124 32.2497 27.9349 10.7804 33.8404 27.9371 
89.723 41.4106 28.0192 44.764 63.0089 27.9624 45.8087 64.5545 28.4942 
78.1346 70.3032 27.6847 75.6333 72.514 27.8829 58.8208 78.6652 28.1763 
19.0119 2.17556 29.3697 8.04163 4.35574 29.404 10.4992 4.54769 29.0897 
30.3711 5.36501 29.1364 7.20113 6.82715 29.356 6.76248 9.18236 29.533 
6.44917 11.9762 28.9769 31.0355 19.6907 29.0012 27.3574 21.1497 28.9353 
28.4503 20.0916 29.7965 33.3296 19.8696 29.1939 35.7041 21.4403 29.2264 
25.6206 23.9922 29.4208 90.5226 24.3403 29.5096 37.9251 24.4789 29.6178 
38.1863 26.8692 29.6611 27.3104 29.1054 29.0322 36.7196 28.4544 28.4765 
5.9725 31.3235 29.099 33.2985 30.7486 28.831 89.9084 38.6198 29.1775 
24.91 43.5879 29.3194 89.4186 48.4036 29.2069 88.9891 51.4399 29.6992 
87.727 53.5616 29.706 70.408 75.8854 29.0147 56.2754 77.827 28.8976 
67.4209 77.5375 29.306 58.7536 80.0762 29.634 64.9572 78.5753 29.3839 
8.14233 1.82101 30.2588 8.58805 2.97271 29.7933 17.1579 3.01966 29.794 
19.3426 2.23911 29.5839 21.7706 3.10837 30.4631 7.59934 5.08554 30.592 
6.65514 11.847 29.6997 7.02285 11.8637 31.0016 27.9779 19.9157 30.958 
30.5828 19.4616 30.4648 33.1668 19.7234 30.8591 26.7639 20.696 30.6398 
26.5857 21.8919 29.1496 25.4913 21.9277 30.6256 90.5638 24.8412 30.797 
92.0885 24.8494 28.8286 25.0992 26.2101 30.3423 5.85358 29.2461 30.3782 
35.6248 31.0412 29.8884 6.41124 31.5453 31.0831 27.7002 30.9702 30.5178 
36.5845 31.6178 30.9034 30.3813 32.2424 30.7927 6.83595 32.5299 30.1965 
10.2564 34.9336 30.0185 89.9397 36.3061 30.8926 16.4673 38.658 30.7434 
86.4123 55.2689 30.5781 57.1056 79.3592 29.7317 58.8153 80.9752 30.8792 
10.0071 1.97222 30.8943 10.3116 1.16748 32.0472 16.5805 2.72274 30.9911 
7.30508 14.3076 32.3228 25.4546 21.921 31.881 36.1749 21.7214 30.7338 
24.8009 23.8143 30.7443 37.5513 23.2764 30.8455 91.9225 26.4761 31.24 
25.8668 29.1983 30.8862 38.2453 28.4174 30.2691 33.6297 31.9857 30.2276 
7.23743 34.1308 32.0817 33.2673 32.9194 31.3849 88.953 48.5032 30.6714 
88.8824 50.8181 30.3239 56.7763 80.1109 30.8786 58.8944 81.2375 31.5704 
8.55211 1.46609 31.9058 13.8399 1.95015 32.2894 17.0269 2.51659 31.9756 
7.86123 4.55256 31.8593 28.5667 19.8447 31.7373 30.5818 19.6556 31.9639 
32.9759 19.9048 32.0467 27.1767 20.7125 32.5021 34.4327 20.6177 32.3531 
24.5925 23.9487 31.8435 38.7352 24.3971 32.4713 39.2287 26.1369 31.6552 
90.9871 26.0195 32.3035 91.5654 27.1485 32.0912 25.005 28.7846 32.2291 
38.0088 30.7694 31.5552 91.2743 28.853 32.6745 27.3695 31.5011 31.723 
6.61774 31.8251 32.5445 36.8586 32.0546 31.7356 30.7339 33.1634 32.2497 
33.3684 33.3757 32.2046 35.1251 33.156 32.2801 13.9213 38.1439 32.4475 
14.2426 37.6474 31.3421 9.81009 0.892576 33.016 9.01777 1.90155 33.3129 
16.3841 2.36538 33.4112 8.21113 7.06136 33.4002 39.0494 9.56184 33.481 
33.7049 20.9145 33.7799 27.4854 20.8855 33.0951 36.0269 21.9511 33.3903 
75.7185 22.1383 33.3656 24.8545 23.4412 32.9381 37.415 23.0623 33.4138 
38.9217 24.513 33.7001 24.3667 26.515 33.3443 40.1464 26.3905 34.1065 
90.1722 26.5252 34.7717 40.1387 28.9135 34.0602 24.7318 29.0967 33.9506 
26.0659 30.6067 32.5075 27.1991 31.9495 33.69 38.831 31.4255 33.6329 
6.76359 31.8479 33.2041 7.07182 34.0657 33.2189 36.6252 33.2331 33.5099 
33.0235 33.9687 33.558 8.29716 35.7084 33.6137 10.1385 36.669 33.1841 
85.5171 55.5499 33.4837 70.2036 75.2051 33.5039 53.3186 77.2836 33.639 
67.2875 77.4026 33.539 68.3623 76.5458 33.8092 55.2481 80.9365 34.9799 
61.7744 80.2353 33.5422 27.6213 21.9087 34.7775 75.6208 22.4701 34.661 
38.3225 24.064 34.8436 40.1958 26.3941 34.9791 87.8922 25.5014 35.358 
40.3047 29.2341 35.0308 24.7272 29.1435 34.9528 38.9299 31.703 34.9917 
7.44298 34.1348 34.9351 30.6591 33.4625 35.1589 33.1606 34.0948 34.6978 
36.6859 33.3821 34.5651 88.9177 35.9388 34.4784 84.8929 55.9396 34.9297 
75.8619 70.2825 34.8755 54.4362 79.3611 34.1345 55.869 81.2047 34.7323 
58.618 81.2054 34.3136 10.2607 1.59979 34.3695 10.8402 2.49991 36.1845 
13.1782 1.73866 34.7115 9.26008 3.1136 34.3823 73.0013 21.7419 34.8643 
81.5384 23.981 34.9226 24.6827 26.1501 34.8381 90.0661 26.5521 34.9917 
25.9628 30.8231 36.2697 10.5451 38.2067 35.2345 52.0955 76.1266 34.2549 
64.0831 79.0573 34.8309 12.7244 2.25084 36.4554 9.98736 4.49466 36.6659 
8.78452 11.9957 35.9564 26.9042 23.4203 36.3216 28.2566 22.4572 36.2163 
36.8734 23.7202 36.5083 40.0078 26.6213 35.9398 84.1939 24.869 36.05 
87.6886 25.7564 36.603 89.2366 26.484 36.0191 25.3012 26.6867 36.3899 
40.1505 29.0968 36.1374 89.7795 28.4676 36.1004 24.9364 28.8857 35.9871 
38.9878 31.615 36.509 27.5141 32.1756 36.3604 33.6365 33.7473 36.3771 
36.264 33.2841 36.4785 8.64008 36.7105 36.2676 10.1586 38.9202 36.6734 
13.8687 40.5788 36.5854 19.2839 43.5466 36.2852 22.3345 45.676 36.4453 
83.7982 57.5343 35.8854 81.6495 60.6819 36.3462 78.6666 65.4534 36.2731 
53.9069 79.7777 36.4619 56.1193 80.9956 36.0274 58.9231 80.5751 36.436 
11.2781 3.19776 37.4565 10.7719 4.18607 37.8662 9.24821 12.0726 37.1312 
30.3463 22.4441 37.5472 33.4428 23.1868 37.9756 27.2681 23.7817 37.5243 
38.1431 24.9743 37.3808 38.8571 26.3598 37.8963 88.236 25.9899 36.9006 
89.0566 28.7156 37.9403 25.8128 29.3366 37.6808 26.1254 30.6399 37.5311 
27.6012 31.7921 38.2705 30.8377 32.966 37.5271 8.25355 34.623 37.506 
8.43188 36.0449 37.6603 9.04511 37.9826 37.6317 13.6307 41.0989 37.6826 
16.7781 42.9945 38.0082 17.0978 42.5119 36.8853 81.19 60.395 37.4778 
78.1736 65.7781 37.4082 53.6874 79.9027 37.6238 13.5423 3.00329 39.027 
9.70283 11.7691 38.1169 28.7386 22.7441 37.488 87.6435 26.687 38.6706 
89.0892 27.3482 37.0543 39.2758 29.0072 37.6137 38.0373 31.4567 38.0592 
36.819 32.2719 38.2014 8.97986 38.3281 39.0829 11.0801 40.2284 38.2032 
15.9875 41.9785 37.136 82.0273 58.4526 37.9895 79.1513 63.3344 37.9343 
76.6077 68.2318 37.9032 44.555 70.4874 38.9425 53.1905 79.8333 38.9501 
62.1867 78.7356 38.1734 8.90946 21.6799 38.7394 29.0574 22.7142 39.4312 
28.1819 23.6464 39.9261 75.9183 23.9135 39.1163 8.98092 28.9952 38.7078 
27.1266 29.1847 39.3508 36.9666 28.9575 39.5537 87.9567 28.7586 39.6769 
36.8667 31.4988 39.0161 87.9477 31.1558 39.2121 27.7795 31.1002 39.319 
37.8274 31.1032 38.3793 29.9985 31.9686 39.2497 33.7889 32.384 38.9104 
9.73171 39.4866 39.0814 10.6565 40.5282 39.2569 13.3616 41.65 38.7091 
85.9818 45.7854 38.5554 21.7539 46.4728 38.804 76.2938 67.9378 39.1821 
55.8405 80.2156 38.9265 12.6206 3.55048 39.7435 12.6259 3.70184 40.2428 
9.32404 21.6464 39.9669 9.63864 21.6431 40.8414 28.0933 23.7995 39.8316 
29.7147 22.7298 40.0824 30.0748 22.8684 41.0873 33.7375 24.3605 40.1312 
27.9592 26.801 40.5502 84.7699 26.7682 40.7689 86.563 27.2376 40.281 
35.0461 28.8573 40.631 87.5194 28.4421 40.1989 28.8207 28.6259 40.7745 
35.0925 30.4779 40.071 31.0481 30.6092 40.5333 33.0771 30.6664 40.4903 
8.89266 36.2112 40.1782 9.19817 38.4402 40.3529 9.74314 39.8451 40.5868 
10.7466 41.5037 40.6425 16.2385 43.9942 40.2112 19.2795 45.7254 40.559 
28.0207 53.025 40.6012 29.7148 54.2067 39.888 30.7342 55.5871 40.5335 
33.3397 58.2384 40.3932 75.5905 67.94 40.5742 73.0255 70.3275 40.4418 
50.1847 78.1441 40.3611 51.0798 78.9388 40.7671 58.3524 79.2949 39.8416 
59.1881 78.458 40.8786 53.2013 79.7236 40.482 13.2729 3.85076 42.0871 
32.9392 24.3432 41.7235 28.6855 26.4488 41.8964 34.8595 26.5429 40.8051 
34.335 26.3205 41.5903 30.4566 29.0264 41.9685 30.1002 29.5073 41.0535 
33.6854 29.3214 41.9173 33.3378 30.1429 40.9887 10.1854 41.3649 41.8308 
13.1977 43.6393 42.0463 16.0374 44.5025 41.3436 24.9701 50.8215 41.8546 
64.8864 75.2917 41.904 59.0004 77.9394 41.9929 13.2769 4.37951 43.3499 
28.6239 24.5137 41.3476 33.6309 26.5992 44.0621 29.5197 27.6802 42.2911 
30.9919 28.5756 43.485 85.0419 28.8902 42.5481 33.2833 28.9369 43.5582 
12.06 43.0981 42.1819 73.6124 68.7543 42.2209 30.2949 24.1749 43.2059 
32.7802 25.0601 43.7811 28.9911 25.5373 42.5561 30.2172 26.5525 44.1351 
9.80791 39.0073 42.9108 10.0943 40.8098 43.1101 11.3284 42.8401 43.2905 
73.6304 67.8424 43.4523 47.881 77.6074 43.4374 50.7194 79.1983 43.3139 
15.8169 4.4055 44.9374 12.6319 9.30209 44.9653 11.6441 14.4455 44.3097 
75.929 26.3521 44.6846 31.3262 26.4565 44.8594 31.549 28.5385 44.9103 
12.5304 44.3326 44.4858 70.0995 70.2021 44.527 47.6513 78.0822 44.7424 
50.0167 79.0794 44.5236 50.0965 79.0164 44.6721 52.9737 78.6524 44.6781 
12.963 6.16317 44.1519 14.2535 5.3148 45.5365 13.7569 6.52088 46.1614 
12.0733 14.4913 45.5458 32.9899 26.6243 45.0853 75.7389 26.8117 45.8714 
32.6337 28.2295 44.9021 81.7012 28.3658 44.8998 81.8932 29.1787 46.137 
83.973 31.0674 44.5503 11.7822 43.847 46.2103 46.3098 77.9163 47.5152 
16.1224 4.71892 46.1004 12.4169 14.2052 46.4362 73.2917 25.9007 46.2666 
83.3296 38.6032 45.4428 12.2505 44.4608 45.5381 13.0497 45.3956 46.0957 
50.1017 78.6318 45.926 14.4236 6.62903 47.6377 15.9676 5.18648 47.3733 
18.8913 5.31018 47.2805 24.774 7.44476 47.3098 28.0351 8.75433 47.5248 
11.7785 24.1204 47.0614 80.9196 29.5039 47.4143 82.1983 31.1411 47.5763 
11.5676 36.2478 47.1271 82.2044 36.3149 47.795 13.3432 46.1364 47.1599 
80.9191 50.7531 47.4715 44.9737 76.8586 47.5849 46.9781 78.2581 47.3263 
50.1734 78.0821 47.3129 15.5249 6.10254 49.0816 16.7717 5.43256 48.491 
27.2385 8.39571 47.1466 12.1886 24.1451 48.3275 79.2797 29.3155 48.8822 
81.1029 30.9326 48.9937 12.3339 44.4051 48.4636 12.8156 45.9388 48.7326 
14.4461 47.4853 47.9714 16.2426 48.8998 48.7608 33.0445 63.3781 48.5549 
36.5765 67.6181 48.9446 45.2823 77.3672 48.7413 12.4623 24.0293 49.1556 
12.8566 46.4261 50.5575 14.0389 47.904 49.0329 42.424 75.4136 49.9819 
44.1094 76.9677 50.6302 15.9727 6.24352 50.313 17.2683 5.7581 49.7226 
18.9003 6.09005 50.5447 14.7007 8.61376 49.9837 36.0441 12.4519 50.0402 
58.9083 21.5868 50.1831 12.517 43.8276 50.144 13.7745 47.9884 49.9174 
79.2447 50.8166 50.507 78.5873 53.2652 50.1125 73.1526 62.7971 50.0102 
70.4558 65.7053 50.369 55.9579 74.9476 50.018 47.3338 77.3438 49.8535 
18.7982 6.35957 51.9147 15.337 9.14394 51.9814 39.205 14.0365 51.6256 
13.6882 19.2231 51.522 70.1615 26.6157 51.5192 12.8111 36.2677 51.7671 
12.9254 41.1332 51.7653 12.9355 46.0189 51.4084 79.0437 48.2234 51.6455 
13.9159 48.324 51.3905 33.3957 65.4891 51.5376 42.5525 75.9239 50.8084 
44.3143 76.5384 51.8949 15.8917 8.85785 53.3226 15.5365 11.8059 53.3044 
77.9042 29.7925 52.4121 79.3255 31.2324 51.9364 79.6306 33.3295 52.0918 
14.145 48.6223 53.1336 36.5726 70.0883 53.1231 61.099 71.4377 52.0749 
41.6359 75.6092 53.0564 19.295 6.72987 53.0328 42.3486 15.7387 53.2107 
13.4225 28.9375 53.0133 15.9571 50.5905 52.8225 18.5806 52.0112 52.3746 
64.0353 69.5826 52.3473 39.8628 74.5704 53.3977 53.4954 73.5842 53.4977 
44.3504 76.0496 52.9661 17.0749 7.48388 53.8425 21.7443 7.51371 54.3514 
15.9415 8.5326 53.2692 75.8477 29.3985 54.3405 77.9882 31.0958 53.8709 
78.1672 41.1036 54.0067 16.0209 51.1216 54.2324 32.7096 66.0891 53.9305 
39.2658 74.541 54.6395 18.7007 7.60361 55.1561 47.7639 18.7656 55.8448 
76.8653 30.635 55.0968 14.7432 48.9667 55.7571 15.5825 50.8461 55.7268 
19.8757 54.8753 56.172 70.2436 60.5719 55.7443 36.8201 72.6082 55.8485 
38.255 73.8642 55.464 39.3515 74.468 55.7716 17.3205 9.05201 55.5515 
18.4477 8.70984 56.8452 17.6539 9.68114 56.5214 76.3099 30.9765 56.0807 
76.7022 33.342 56.3643 15.7827 51.1794 57.1781 61.8225 68.082 55.8783 
17.1836 12.0549 56.757 33.9678 13.117 57.3518 14.7637 36.2876 56.7107 
14.7615 41.0822 56.7284 15.0233 41.1685 57.5414 15.1667 48.5856 57.0866 
74.9819 50.5834 56.4049 16.8913 53.099 56.9121 72.5947 55.483 56.7321 
35.0715 71.3074 57.1343 36.023 72.5396 57.3221 36.2824 72.7896 58.1269 
38.3087 73.7137 57.218 39.3535 74.101 56.7738 41.4215 73.7794 57.1902 
19.4088 9.37618 59.9137 21.7214 8.50984 58.8094 75.3649 41.0945 58.067 
15.4106 41.1697 58.8031 16.4613 53.4719 58.2359 18.2014 54.8707 58.4977 
22.5345 57.9035 58.56 30.1347 65.8874 58.2692 38.8554 73.0459 58.4438 
70.6165 29.0214 60.2291 73.7681 31.1396 59.2099 72.4653 50.6642 59.3586 
18.3634 55.5106 59.9776 24.5 60.2042 59.8504 33.6507 70.2077 60.0199 
44.7925 70.6397 60.164 17.1483 21.7643 60.9358 16.9261 53.4889 59.4498 
64.276 62.7167 59.561 59.0196 65.7061 60.1187 50.2842 69.9662 59.5364 
35.7522 71.6008 60.5471 36.2547 71.8411 60.1016 20.0878 9.72855 61.1248 
19.2966 11.3459 61.4438 70.2122 29.3015 61.1152 72.4084 31.4852 60.5883 
16.0746 36.2493 61.3819 17.5417 53.4166 61.3717 66.8017 58.3645 61.0637 
28.3004 65.376 61.2784 34.0185 70.1595 61.1788 35.6642 71.0563 61.2433 
21.9708 9.75362 62.8467 17.6864 21.8412 62.055 70.1621 30.9607 62.4163 
16.6934 33.6532 62.8456 67.6624 53.436 62.9733 28.0556 65.3873 62.8775 
55.8931 65.108 62.2614 35.8991 70.4635 61.7634 18.2897 21.497 63.1616 
17.2768 26.5782 62.2393 18.3454 26.4401 64.4559 17.8478 26.6222 63.3855 
17.0485 41.3851 63.6666 29.4672 66.4281 62.8156 33.3112 68.3903 62.8726 
22.3018 10.3685 64.2605 64.9303 27.994 64.3465 69.9104 38.7036 63.7332 
69.7146 45.9019 63.5221 67.812 48.5615 64.5647 18.4251 50.8894 64.3748 
18.9664 55.903 64.0048 21.1551 59.0243 64.3033 59.6167 60.6431 64.3951 
30.3765 66.5279 63.9257 21.6689 11.5049 65.7536 24.9075 10.9066 65.7965 
20.3054 14.5358 65.0069 38.8448 17.2494 65.3051 39.7562 17.853 65.8351 
42.0621 18.9131 65.5283 17.5143 38.6838 64.8943 18.1018 38.7025 66.0504 
63.8239 56.06 64.8308 20.2356 57.9274 65.2786 61.5461 58.0352 65.2104 
25.2797 62.8518 65.7016 26.9405 64.2326 65.6255 27.9917 65.0033 65.3474 
47.6301 65.0204 64.9925 22.1601 11.4432 66.1467 27.6184 11.8614 66.8709 
21.2872 14.1701 67.1798 61.0426 27.2456 66.8926 62.1431 28.2878 67.3116 
18.6886 38.7008 67.1404 20.7842 58.4756 66.4285 25.2076 62.7916 66.8142 
27.1435 63.9552 67.2073 64.9372 46.0768 67.3472 56.205 58.4571 67.2729 
28.3784 64.5513 66.5857 33.5109 64.9576 66.6063 22.2872 12.2363 67.4729 
24.5293 11.6509 68.4899 58.8961 26.7979 68.3272 60.9526 27.579 67.5205 
61.1367 28.7192 68.3218 62.0868 30.7324 68.3014 64.4287 38.7014 68.0544 
19.8055 43.7596 68.2844 61.8716 50.9161 68.4129 20.2196 53.1163 68.1395 
21.232 58.3302 68.4505 22.5557 60.6201 69.1781 24.708 62.23 68.4057 
39.0634 62.926 68.0804 27.4209 63.2058 68.2997 30.3965 63.6332 68.0919 
36.15 63.3584 68.0634 22.5484 14.0008 69.6063 23.2151 12.5884 68.8878 
24.9797 12.0476 69.5944 20.0865 26.564 69.2424 58.5551 27.353 69.3626 
59.6632 28.0625 69.1491 59.4023 28.6455 69.5924 61.8421 38.6708 69.8083 
63.7882 38.7882 68.5245 61.853 43.573 69.8201 61.4371 48.4226 69.3813 
58.9986 53.0461 69.1726 53.2251 55.7259 69.5963 21.6319 58.4341 69.8916 
22.3631 60.0745 69.9031 44.6502 60.3249 69.1683 24.2132 61.1355 69.8259 
23.6393 13.3081 70.4402 39.2221 19.0655 70.9436 25.255 12.5925 70.942 
27.9178 12.6708 71.5284 36.0922 17.0226 70.9597 37.18 17.8051 71.2555 
47.8382 23.6992 71.1104 55.423 26.6889 71.1171 20.4077 33.872 70.5121 
20.5853 41.1312 70.7761 59.0311 45.9796 71.0987 56.0334 50.8331 70.9082 
53.168 53.193 70.7372 22.3164 58.775 71.075 22.5976 59.3203 70.7803 
39.1046 58.3259 71.1118 24.9198 60.3415 70.5487 33.4056 60.2493 70.3761 
27.5252 12.7888 72.6778 24.5435 13.8498 72.6634 30.4518 13.5881 72.4956 
22.8341 16.4326 72.3658 50.2332 24.7398 72.6117 20.8249 33.7583 71.5071 
21.2197 33.7363 72.5853 21.1759 53.5778 72.6115 44.7479 53.3122 72.4304 
22.2375 56.3401 72.274 41.8671 55.5977 72.0367 24.262 57.7584 72.1041 
22.8884 57.7931 71.9072 24.5625 58.7441 71.5442 28.2292 13.0119 74.0919 
24.6154 13.6678 72.5119 36.0324 17.1088 73.7602 49.5629 24.6864 73.8686 
52.6664 27.3223 73.2767 53.6838 28.6739 72.9337 56.1121 41.1282 72.5477 
20.9349 45.8488 73.9789 20.7862 51.1616 73.9915 21.7541 53.225 73.763 
24.4694 55.4667 73.1676 28.5805 13.2218 75.1903 23.1327 19.0834 74.9116 
23.096 21.6567 75.3884 50.7097 26.1058 74.013 50.4922 41.1459 74.1303 
21.5102 43.5333 75.2581 50.3484 45.9469 73.5544 30.6306 13.7118 75.3141 
27.8674 13.3985 75.0542 25.3396 15.2847 75.8007 24.0511 16.7655 75.5283 
37.33 18.1002 75.3394 38.6479 19.3692 75.3176 39.9676 20.5593 75.2835 
47.6807 24.1574 75.3476 48.1078 25.8957 75.4048 21.6009 38.6365 75.4824 
21.5684 41.1238 75.3642 44.7338 43.5523 75.1221 21.3708 47.9911 75.6736 
21.4791 51.3827 74.894 22.5575 52.7044 74.3174 30.5109 14.0652 76.5842 
27.5412 14.8211 76.6433 32.7061 15.1736 76.5224 25.295 16.1014 76.5114 
33.698 16.0196 76.9379 35.5993 17.2343 76.7596 37.1063 18.6408 76.768 
24.2617 19.1459 76.6773 41.4301 22.2137 76.4982 44.675 22.8523 76.5273 
45.2531 23.2667 77.1828 47.0933 26.3941 75.7584 44.805 26.5457 76.6039 
23.0681 29.0101 76.3311 23.0014 31.3958 76.1877 22.9282 33.9314 76.6567 
39.5573 33.1455 76.3505 22.5245 36.4502 76.8163 22.093 40.3622 76.8057 
22.1207 40.377 76.8152 39.0041 43.464 75.915 36.3036 46.1159 75.6085 
30.6238 46.0144 76.666 33.5414 46.2451 75.9452 22.0845 47.7638 76.1679 
24.7867 48.5517 75.9712 39.3197 21.2972 76.7496 24.8517 22.1223 77.9922 
23.6076 24.3214 77.1887 39.1102 23.9391 77.4881 42.1989 23.535 77.1525 
38.3452 29.2716 77.5894 23.5628 29.681 76.8949 23.9529 31.7841 77.0673 
36.3063 33.9012 76.743 33.934 33.4334 77.318 32.9898 33.9104 77.5239 
33.4997 41.1837 76.9903 24.9387 43.8322 77.6141 27.8831 44.4644 77.6731 
22.5531 46.1188 76.5289 27.2478 16.2898 77.3057 30.5926 15.2643 77.3521 
28.0178 16.8754 77.6915 31.0619 16.2842 77.8149 33.803 18.8629 78.3094 
36.0233 19.5182 77.6501 36.4068 21.1934 77.7836 24.3791 24.0592 78.3809 
33.8637 24.2948 78.0797 31.0181 26.4528 78.087 32.3796 26.1899 77.8111 
24.8042 28.3321 78.1334 27.525 29.0096 78.1493 36.8397 29.1654 77.6799 
25.0891 31.5346 77.57 24.2733 37.074 77.8214 31.5251 36.1819 78.1715 
28.3276 36.6671 78.1977 23.0574 38.1447 77.6588 23.0639 41.0385 77.2937 
30.6378 41.3571 77.3679 30.716 41.2592 77.4054 25.0078 45.2413 77.3797 
27.7306 45.257 77.6323 30.5084 22.4826 79.1869 32.4528 21.642 78.8957 
25.7334 24.1845 79.8323 30.5277 23.5524 79.2761 27.6577 26.2647 79.1881 
27.1383 24.0813 80.1853 25.4921 26.4198 79.0124 
POLYGONS 2368 7101
OFFSETS vtktypeint64
0 3 6 9 12 15 18 21 24 
27 30 33 36 39 42 45 48 51 
54 57 60 63 66 69 72 75 78 
81 84 87 90 93 96 99 102 105 
108 111 114 117 120 123 126 129 132 
135 138 141 144 147 150 153 156 159 
162 165 168 171 174 177 180 183 186 
189 192 195 198 201 204 207 210 213 
216 219 222 225 228 231 234 237 240 
243 246 249 252 255 258 261 264 267 
270 273 276 279 282 285 288 291 294 
297 300 303 306 309 312 315 318 321 
324 327 330 333 336 339 342 345 348 
351 354 357 360 363 366 369 372 375 
378 381 384 387 390 393 396 399 402 
405 408 411 414 417 420 423 426 429 
432 435 438 441 444 447 450 453 456 
459 462 465 468 471 474 477 480 483 
486 489 492 495 498 501 504 507 510 
513 516 519 522 525 528 531 534 537 
540 543 546 549 552 555 558 561 564 
567 570 573 576 579 582 585 588 591 
594 597 600 603 606 609 612 615 618 
621 624 627 630 633 636 639 642 645 
648 651 654 657 660 663 666 669 672 
675 678 681 684 687 690 693 696 699 
702 705 708 711 714 717 720 723 726 
729 732 735 738 741 744 747 750 753 
756 759 762 765 768 771 774 777 780 
783 786 789 792 795 798 801 804 807 
810 813 816 819 822 825 828 831 834 
837 840 843 846 849 852 855 858 861 
864 867 870 873 876 879 882 885 888 
891 894 897 900 903 906 909 912 915 
918 921 924 927 930 933 936 939 942 
945 948 951 954 957 960 963 966 969 
972 975 978 981 984 987 990 993 996 
999 1002 1005 1008 1011 1014 1017 1020 1023 
1026 1029 1032 1035 1038 1041 1044 1047 1050 
1053 1056 1059 1062 1065 1068 1071 1074 1077 
1080 1083 1086 1089 1092 1095 1098 1101 1104 
1107 1110 1113 1116 1119 1122 1125 1128 1131 
1134 1137 1140 1143 1146 1149 1152 1155 1158 
1161 1164 1167 1170 1173 1176 1179 1182 1185 
1188 1191 1194 1197 1200 1203 1206 1209 1212 
1215 1218 1221 1224 1227 1230 1233 1236 1239 
1242 1245 1248 1251 1254 1257 1260 1263 1266 
1269 1272 1275 1278 1281 1284 1287 1290 1293 
1296 1299 1302 1305 1308 1311 1314 1317 1320 
1323 1326 1329 1332 1335 1338 1341 1344 1347 
1350 1353 1356 1359 1362 1365 1368 1371 1374 
1377 1380 1383 1386 1389 1392 1395 1398 1401 
1404 1407 1410 1413 1416 1419 1422 1425 1428 
1431 1434 1437 1440 1443 1446 1449 1452 1455 
1458 1461 1464 1467 1470 1473 1476 1479 1482 
1485 1488 1491 1494 1497 1500 1503 1506 1509 
1512 1515 1518 1521 1524 1527 1530 1533 1536 
1539 1542 1545 1548 1551 1554 1557 1560 1563 
1566 1569 1572 1575 1578 1581 1584 1587 1590 
1593 1596 1599 1602 1605 1608 1611 1614 1617 
1620 1623 1626 1629 1632 1635 1638 1641 1644 
1647 1650 1653 1656 1659 1662 1665 1668 1671 
1674 1677 1680 1683 1686 1689 1692 1695 1698 
1701 1704 1707 1710 1713 1716 1719 1722 1725 
1728 1731 1734 1737 1740 1743 1746 1749 1752 
1755 1758 1761 1764 1767 1770 1773 1776 1779 
1782 1785 1788 1791 1794 1797 1800 1803 1806 
1809 1812 1815 1818 1821 1824 1827 1830 1833 
1836 1839 1842 1845 1848 1851 1854 1857 1860 
1863 1866 1869 1872 1875 1878 1881 1884 1887 
1890 1893 1896 1899 1902 1905 1908 1911 1914 
1917 1920 1923 1926 1929 1932 1935 1938 1941 
1944 1947 1950 1953 1956 1959 1962 1965 1968 
1971 1974 1977 1980 1983 1986 1989 1992 1995 
1998 2001 2004 2007 2010 2013 2016 2019 2022 
2025 2028 2031 2034 2037 2040 2043 2046 2049 
2052 2055 2058 2061 2064 2067 2070 2073 2076 
2079 2082 2085 2088 2091 2094 2097 2100 2103 
2106 2109 2112 2115 2118 2121 2124 2127 2130 
2133 2136 2139 2142 2145 2148 2151 2154 2157 
2160 2163 2166 2169 2172 2175 2178 2181 2184 
2187 2190 2193 2196 2199 2202 2205 2208 2211 
2214 2217 2220 2223 2226 2229 2232 2235 2238 
2241 2244 2247 2250 2253 2256 2259 2262 2265 
2268 2271 2274 2277 2280 2283 2286 2289 2292 
2295 2298 2301 2304 2307 2310 2313 2316 2319 
2322 2325 2328 2331 2334 2337 2340 2343 2346 
2349 2352 2355 2358 2361 2364 2367 2370 2373 
2376 2379 2382 2385 2388 2391 2394 2397 2400 
2403 2406 2409 2412 2415 2418 2421 2424 2427 
2430 2433 2436 2439 2442 2445 2448 2451 2454 
2457 2460 2463 2466 2469 2472 2475 2478 2481 
2484 2487 2490 2493 2496 2499 2502 2505 2508 
2511 2514 2517 2520 2523 2526 2529 2532 2535 
2538 2541 2544 2547 2550 2553 2556 2559 2562 
2565 2568 2571 2574 2577 2580 2583 2586 2589 
2592 2595 2598 2601 2604 2607 2610 2613 2616 
2619 2622 2625 2628 2631 2634 2637 2640 2643 
2646 2649 2652 2655 2658 2661 2664 2667 2670 
2673 2676 2679 2682 2685 2688 2691 2694 2697 
2700 2703 2706 2709 2712 2715 2718 2721 2724 
2727 2730 2733 2736 2739 2742 2745 2748 2751 
2754 2757 2760 2763 2766 2769 2772 2775 2778 
2781 2784 2787 2790 2793 2796 2799 2802 2805 
2808 2811 2814 2817 2820 2823 2826 2829 2832 
2835 2838 2841 2844 2847 2850 2853 2856 2859 
2862 2865 2868 2871 2874 2877 2880 2883 2886 
2889 2892 2895 2898 2901 2904 2907 2910 2913 
2916 2919 2922 2925 2928 2931 2934 2937 2940 
2943 2946 2949 2952 2955 2958 2961 2964 2967 
2970 2973 2976 2979 2982 2985 2988 2991 2994 
2997 3000 3003 3006 3009 3012 3015 3018 3021 
3024 3027 3030 3033 3036 3039 3042 3045 3048 
3051 3054 3057 3060 3063 3066 3069 3072 3075 
3078 3081 3084 3087 3090 3093 3096 3099 3102 
3105 3108 3111 3114 3117 3120 3123 3126 3129 
3132 3135 3138 3141 3144 3147 3150 3153 3156 
3159 3162 3165 3168 3171 3174 3177 3180 3183 
3186 3189 3192 3195 3198 3201 3204 3207 3210 
3213 3216 3219 3222 3225 3228 3231 3234 3237 
3240 3243 3246 3249 3252 3255 3258 3261 3264 
3267 3270 3273 3276 3279 3282 3285 3288 3291 
3294 3297 3300 3303 3306 3309 3312 3315 3318 
3321 3324 3327 3330 3333 3336 3339 3342 3345 
3348 3351 3354 3357 3360 3363 3366 3369 3372 
3375 3378 3381 3384 3387 3390 3393 3396 3399 
3402 3405 3408 3411 3414 3417 3420 3423 3426 
3429 3432 3435 3438 3441 3444 3447 3450 3453 
3456 3459 3462 3465 3468 3471 3474 3477 3480 
3483 3486 3489 3492 3495 3498 3501 3504 3507 
3510 3513 3516 3519 3522 3525 3528 3531 3534 
3537 3540 3543 3546 3549 3552 3555 3558 3561 
3564 3567 3570 3573 3576 3579 3582 3585 3588 
3591 3594 3597 3600 3603 3606 3609 3612 3615 
3618 3621 3624 3627 3630 3633 3636 3639 3642 
3645 3648 3651 3654 3657 3660 3663 3666 3669 
3672 3675 3678 3681 3684 3687 3690 3693 3696 
3699 3702 3705 3708 3711 3714 3717 3720 3723 
3726 3729 3732 3735 3738 3741 3744 3747 3750 
3753 3756 3759 3762 3765 3768 3771 3774 3777 
3780 3783 3786 3789 3792 3795 3798 3801 3804 
3807 3810 3813 3816 3819 3822 3825 3828 3831 
3834 3837 3840 3843 3846 3849 3852 3855 3858 
3861 3864 3867 3870 3873 3876 3879 3882 3885 
3888 3891 3894 3897 3900 3903 3906 3909 3912 
3915 3918 3921 3924 3927 3930 3933 3936 3939 
3942 3945 3948 3951 3954 3957 3960 3963 3966 
3969 3972 3975 3978 3981 3984 3987 3990 3993 
3996 3999 4002 4005 4008 4011 4014 4017 4020 
4023 4026 4029 4032 4035 4038 4041 4044 4047 
4050 4053 4056 4059 4062 4065 4068 4071 4074 
4077 4080 4083 4086 4089 4092 4095 4098 4101 
4104 4107 4110 4113 4116 4119 4122 4125 4128 
4131 4134 4137 4140 4143 4146 4149 4152 4155 
4158 4161 4164 4167 4170 4173 4176 4179 4182 
4185 4188 4191 4194 4197 4200 4203 4206 4209 
4212 4215 4218 4221 4224 4227 4230 4233 4236 
4239 4242 4245 4248 4251 4254 4257 4260 4263 
4266 4269 4272 4275 4278 4281 4284 4287 4290 
4293 4296 4299 4302 4305 4308 4311 4314 4317 
4320 4323 4326 4329 4332 4335 4338 4341 4344 
4347 4350 4353 4356 4359 4362 4365 4368 4371 
4374 4377 4380 4383 4386 4389 4392 4395 4398 
4401 4404 4407 4410 4413 4416 4419 4422 4425 
4428 4431 4434 4437 4440 4443 4446 4449 4452 
4455 4458 4461 4464 4467 4470 4473 4476 4479 
4482 4485 4488 4491 4494 4497 4500 4503 4506 
4509 4512 4515 4518 4521 4524 4527 4530 4533 
4536 4539 4542 4545 4548 4551 4554 4557 4560 
4563 4566 4569 4572 4575 4578 4581 4584 4587 
4590 4593 4596 4599 4602 4605 4608 4611 4614 
4617 4620 4623 4626 4629 4632 4635 4638 4641 
4644 4647 4650 4653 4656 4659 4662 4665 4668 
4671 4674 4677 4680 4683 4686 4689 4692 4695 
4698 4701 4704 4707 4710 4713 4716 4719 4722 
4725 4728 4731 4734 4737 4740 4743 4746 4749 
4752 4755 4758 4761 4764 4767 4770 4773 4776 
4779 4782 4785 4788 4791 4794 4797 4800 4803 
4806 4809 4812 4815 4818 4821 4824 4827 4830 
4833 4836 4839 4842 4845 4848 4851 4854 4857 
4860 4863 4866 4869 4872 4875 4878 4881 4884 
4887 4890 4893 4896 4899 4902 4905 4908 4911 
4914 4917 4920 4923 4926 4929 4932 4935 4938 
4941 4944 4947 4950 4953 4956 4959 4962 4965 
4968 4971 4974 4977 4980 4983 4986 4989 4992 
4995 4998 5001 5004 5007 5010 5013 5016 5019 
5022 5025 5028 5031 5034 5037 5040 5043 5046 
5049 5052 5055 5058 5061 5064 5067 5070 5073 
5076 5079 5082 5085 5088 5091 5094 5097 5100 
5103 5106 5109 5112 5115 5118 5121 5124 5127 
5130 5133 5136 5139 5142 5145 5148 5151 5154 
5157 5160 5163 5166 5169 5172 5175 5178 5181 
5184 5187 5190 5193 5196 5199 5202 5205 5208 
5211 5214 5217 5220 5223 5226 5229 5232 5235 
5238 5241 5244 5247 5250 5253 5256 5259 5262 
5265 5268 5271 5274 5277 5280 5283 5286 5289 
5292 5295 5298 5301 5304 5307 5310 5313 5316 
5319 5322 5325 5328 5331 5334 5337 5340 5343 
5346 5349 5352 5355 5358 5361 5364 5367 5370 
5373 5376 5379 5382 5385 5388 5391 5394 5397 
5400 5403 5406 5409 5412 5415 5418 5421 5424 
5427 5430 5433 5436 5439 5442 5445 5448 5451 
5454 5457 5460 5463 5466 5469 5472 5475 5478 
5481 5484 5487 5490 5493 5496 5499 5502 5505 
5508 5511 5514 5517 5520 5523 5526 5529 5532 
5535 5538 5541 5544 5547 5550 5553 5556 5559 
5562 5565 5568 5571 5574 5577 5580 5583 5586 
5589 5592 5595 5598 5601 5604 5607 5610 5613 
5616 5619 5622 5625 5628 5631 5634 5637 5640 
5643 5646 5649 5652 5655 5658 5661 5664 5667 
5670 5673 5676 5679 5682 5685 5688 5691 5694 
5697 5700 5703 5706 5709 5712 5715 5718 5721 
5724 5727 5730 5733 5736 5739 5742 5745 5748 
5751 5754 5757 5760 5763 5766 5769 5772 5775 
5778 5781 5784 5787 5790 5793 5796 5799 5802 
5805 5808 5811 5814 5817 5820 5823 5826 5829 
5832 5835 5838 5841 5844 5847 5850 5853 5856 
5859 5862 5865 5868 5871 5874 5877 5880 5883 
5886 5889 5892 5895 5898 5901 5904 5907 5910 
5913 5916 5919 5922 5925 5928 5931 5934 5937 
5940 5943 5946 5949 5952 5955 5958 5961 5964 
5967 5970 5973 5976 5979 5982 5985 5988 5991 
5994 5997 6000 6003 6006 6009 6012 6015 6018 
6021 6024 6027 6030 6033 6036 6039 6042 6045 
6048 6051 6054 6057 6060 6063 6066 6069 6072 
6075 6078 6081 6084 6087 6090 6093 6096 6099 
6102 6105 6108 6111 6114 6117 6120 6123 6126 
6129 6132 6135 6138 6141 6144 6147 6150 6153 
6156 6159 6162 6165 6168 6171 6174 6177 6180 
6183 6186 6189 6192 6195 6198 6201 6204 6207 
6210 6213 6216 6219 6222 6225 6228 6231 6234 
6237 6240 6243 6246 6249 6252 6255 6258 6261 
6264 6267 6270 6273 6276 6279 6282 6285 6288 
6291 6294 6297 6300 6303 6306 6309 6312 6315 
6318 6321 6324 6327 6330 6333 6336 6339 6342 
6345 6348 6351 6354 6357 6360 6363 6366 6369 
6372 6375 6378 6381 6384 6387 6390 6393 6396 
6399 6402 6405 6408 6411 6414 6417 6420 6423 
6426 6429 6432 6435 6438 6441 6444 6447 6450 
6453 6456 6459 6462 6465 6468 6471 6474 6477 
6480 6483 6486 6489 6492 6495 6498 6501 6504 
6507 6510 6513 6516 6519 6522 6525 6528 6531 
6534 6537 6540 6543 6546 6549 6552 6555 6558 
6561 6564 6567 6570 6573 6576 6579 6582 6585 
6588 6591 6594 6597 6600 6603 6606 6609 6612 
6615 6618 6621 6624 6627 6630 6633 6636 6639 
6642 6645 6648 6651 6654 6657 6660 6663 6666 
6669 6672 6675 6678 6681 6684 6687 6690 6693 
6696 6699 6702 6705 6708 6711 6714 6717 6720 
6723 6726 6729 6732 6735 6738 6741 6744 6747 
6750 6753 6756 6759 6762 6765 6768 6771 6774 
6777 6780 6783 6786 6789 6792 6795 6798 6801 
6804 6807 6810 6813 6816 6819 6822 6825 6828 
6831 6834 6837 6840 6843 6846 6849 6852 6855 
6858 6861 6864 6867 6870 6873 6876 6879 6882 
6885 6888 6891 6894 6897 6900 6903 6906 6909 
6912 6915 6918 6921 6924 6927 6930 6933 6936 
6939 6942 6945 6948 6951 6954 6957 6960 6963 
6966 6969 6972 6975 6978 6981 6984 6987 6990 
6993 6996 6999 7002 7005 7008 7011 7014 7017 
7020 7023 7026 7029 7032 7035 7038 7041 7044 
7047 7050 7053 7056 7059 7062 7065 7068 7071 
7074 7077 7080 7083 7086 7089 7092 7095 7098 
7101 
CONNECTIVITY vtktypeint64
1 0 3 2 1 3 6 4 5 
11 14 13 15 13 14 0 13 15 
0 1 16 3 15 18 15 3 0 
17 1 2 4 17 2 4 2 5 
2 40 5 6 7 4 9 27 7 
8 7 6 8 9 7 10 9 19 
29 10 19 22 12 20 20 12 21 
11 13 12 12 13 23 0 23 13 
11 12 14 12 24 14 1 17 16 
14 24 15 24 26 15 15 26 18 
25 17 4 18 26 3 26 40 3 
3 40 2 5 40 6 27 9 10 
29 28 10 30 29 32 30 32 33 
29 19 31 32 29 31 34 33 32 
20 21 36 35 20 36 20 35 38 
22 20 38 21 12 23 23 0 37 
12 22 38 39 12 38 16 17 56 
17 25 56 24 12 39 26 24 39 
4 7 25 7 27 131 65 40 26 
131 27 10 41 42 8 41 8 40 
40 8 6 29 30 28 33 77 30 
9 31 19 33 34 30 77 33 34 
31 9 87 44 32 89 32 46 34 
44 46 32 43 34 45 45 34 46 
47 45 48 50 35 52 51 50 52 
52 35 53 50 51 54 35 50 54 
35 36 53 23 36 21 16 37 0 
102 37 16 56 25 102 25 131 102 
7 131 25 10 28 131 28 30 77 
41 57 58 40 57 41 42 41 58 
8 87 9 8 42 59 87 8 59 
77 34 43 31 87 66 32 31 89 
89 31 66 45 47 43 60 47 61 
61 47 48 61 48 63 62 61 63 
53 37 52 53 36 37 23 37 36 
35 54 55 38 35 55 16 56 102 
39 38 55 26 39 65 40 65 57 
42 58 59 77 43 146 43 98 146 
47 98 43 47 67 98 68 98 67 
47 68 67 44 89 46 47 60 68 
60 62 68 60 61 62 64 68 62 
62 63 64 49 72 73 49 74 72 
51 74 73 73 74 49 74 51 75 
51 52 75 75 52 37 51 74 76 
54 51 76 55 54 76 39 55 65 
28 77 131 57 65 58 66 87 78 
100 89 66 64 98 68 66 78 88 
100 66 88 89 45 46 79 80 64 
213 63 48 63 81 64 64 81 79 
69 79 81 69 82 79 82 80 79 
81 63 213 69 81 82 74 75 84 
74 84 72 75 37 120 84 75 120 
74 73 76 86 85 131 86 131 77 
87 88 78 103 98 80 80 98 64 
45 213 48 82 91 80 82 90 91 
92 81 213 81 92 82 90 82 92 
93 91 90 94 91 93 90 92 93 
71 121 97 71 97 83 72 97 73 
83 97 72 120 72 84 76 97 134 
76 73 97 77 85 86 77 146 86 
103 80 99 88 87 112 104 99 80 
92 108 93 93 108 94 70 95 96 
71 70 96 70 101 95 70 71 101 
83 101 71 101 83 72 96 121 71 
37 102 175 98 103 104 112 87 59 
99 104 103 80 185 104 100 106 89 
105 106 100 91 94 107 94 108 107 
92 213 108 107 108 109 95 110 96 
101 128 95 95 128 110 101 143 128 
101 72 143 111 121 96 121 134 97 
146 85 86 58 65 160 59 58 112 
100 88 112 112 105 100 114 89 106 
105 113 114 105 114 106 45 89 213 
278 107 115 109 115 107 116 115 109 
109 108 117 116 109 117 118 116 117 
96 110 111 120 143 72 37 161 120 
55 183 65 160 65 183 80 278 185 
278 80 91 91 107 278 113 122 114 
89 114 123 125 115 116 118 125 116 
119 128 129 127 119 129 110 128 119 
110 130 111 119 130 110 175 161 37 
111 130 121 131 162 102 132 121 133 
121 132 134 276 112 58 186 105 112 
113 105 122 114 122 123 123 124 89 
115 125 278 124 150 89 89 150 213 
117 126 118 118 126 125 126 139 125 
135 127 129 129 128 143 119 136 130 
162 175 102 130 136 121 131 155 162 
133 134 132 134 133 145 137 134 145 
76 134 137 148 55 76 104 180 98 
276 58 160 166 180 104 185 166 104 
112 276 186 105 186 122 124 138 150 
139 278 125 108 213 117 139 126 140 
126 141 140 141 126 216 127 135 142 
136 156 121 121 156 133 156 144 133 
85 146 131 145 133 144 137 158 182 
76 137 182 76 182 147 98 180 146 
55 148 183 149 138 124 138 149 150 
140 190 139 117 213 216 117 216 126 
151 190 140 151 140 152 153 151 152 
127 142 119 143 135 129 120 161 143 
220 131 163 131 146 178 144 157 145 
158 145 157 145 158 137 159 148 76 
148 159 183 165 180 166 185 167 166 
186 123 122 149 124 123 169 150 168 
189 150 169 213 150 189 141 152 140 
135 154 142 154 173 142 143 174 135 
135 174 154 173 119 142 161 174 143 
131 198 163 131 178 198 157 144 156 
76 164 159 159 164 148 166 165 167 
139 206 278 190 151 170 141 216 152 
151 153 170 153 152 170 170 152 216 
170 216 171 172 154 174 175 195 161 
162 155 196 155 131 196 196 131 220 
176 119 173 136 119 176 163 198 220 
177 198 178 200 177 178 146 200 178 
180 200 146 157 179 158 179 181 158 
181 204 158 158 204 182 76 273 164 
159 164 273 159 275 183 165 166 167 
184 160 183 274 167 185 139 190 206 
187 169 168 187 188 169 190 210 206 
188 189 169 171 191 170 170 191 190 
171 216 192 191 171 192 194 193 172 
195 175 257 257 175 162 154 172 173 
172 174 194 172 176 173 176 197 136 
197 156 136 199 198 177 200 180 201 
201 180 202 156 179 157 182 204 226 
147 182 205 167 180 165 76 147 273 
361 149 123 168 149 207 150 149 168 
208 206 210 168 207 188 187 168 188 
210 209 208 189 234 213 212 234 189 
214 188 211 189 188 214 212 189 214 
210 190 215 190 191 215 215 191 217 
192 216 218 217 192 218 191 192 217 
175 219 195 219 195 257 293 162 258 
196 220 239 161 194 174 220 222 239 
239 222 221 193 197 172 172 197 176 
222 224 225 223 222 225 198 222 220 
198 199 222 177 222 199 224 222 177 
224 201 225 224 177 200 201 224 200 
201 202 203 156 392 179 203 202 180 
180 244 203 204 181 392 392 181 179 
180 245 244 167 245 180 205 226 227 
205 182 226 160 184 183 274 185 228 
185 278 228 279 206 229 229 206 209 
206 208 209 214 234 212 231 214 211 
214 231 232 232 233 214 234 214 233 
216 235 218 218 235 217 236 217 235 
194 241 193 193 241 240 161 297 194 
219 161 195 295 258 162 196 295 162 
238 295 196 239 238 196 193 240 197 
222 242 221 223 242 222 262 197 240 
262 156 197 201 243 225 243 201 203 
244 243 203 392 246 204 204 246 226 
270 245 167 227 147 205 275 159 273 
248 279 229 248 229 247 207 149 439 
229 209 247 247 249 248 230 247 209 
210 230 209 250 188 207 250 211 188 
231 211 250 251 230 210 215 252 251 
210 215 251 252 215 284 215 217 284 
234 233 232 234 232 253 236 254 284 
284 217 236 235 237 254 235 254 236 
216 291 255 216 255 235 237 235 255 
256 255 291 237 255 256 257 162 293 
260 194 297 259 238 261 238 239 261 
241 262 240 194 260 241 241 260 262 
239 318 261 239 263 318 239 264 263 
221 264 239 242 264 221 242 223 264 
265 225 243 243 244 265 245 266 244 
245 267 268 266 245 268 269 267 245 
269 245 270 246 271 226 302 270 167 
271 227 226 167 274 302 147 227 272 
355 160 183 327 306 228 186 276 359 
228 278 327 186 359 361 123 186 361 
278 206 279 280 278 279 280 279 281 
281 279 248 361 439 149 248 249 281 
247 230 249 231 250 310 230 251 282 
251 283 282 251 283 252 251 252 284 
232 231 310 310 285 232 234 332 213 
253 332 234 284 254 286 232 285 253 
285 287 253 332 253 287 315 291 216 
289 237 288 286 254 237 289 286 237 
216 213 315 256 288 237 256 290 288 
289 288 290 292 256 291 290 256 292 
293 257 294 293 258 295 295 238 296 
238 259 296 262 260 298 319 225 265 
244 266 338 266 268 299 300 299 267 
300 267 269 300 269 301 301 269 302 
302 269 270 302 274 303 271 272 227 
322 274 306 275 273 305 274 228 306 
160 355 276 358 327 328 328 327 278 
328 278 277 277 278 307 308 278 280 
307 278 308 309 280 281 230 282 249 
207 310 250 284 282 283 251 284 283 
310 311 285 313 284 286 287 285 311 
312 332 287 289 290 313 313 286 289 
287 311 312 314 290 292 316 292 291 
291 315 317 316 291 317 219 257 366 
418 219 366 366 257 293 295 296 334 
259 336 296 259 261 336 297 298 260 
225 319 223 244 338 265 267 299 268 
246 375 271 303 320 302 321 320 303 
274 321 303 343 321 274 322 343 274 
271 323 272 272 324 147 324 436 147 
147 436 273 273 436 304 350 322 306 
350 325 322 273 304 305 305 304 275 
350 306 353 355 183 354 353 306 326 
326 306 327 328 277 329 307 329 277 
307 330 329 330 307 360 280 309 308 
281 249 309 207 439 310 290 314 313 
314 292 316 332 414 213 364 213 414 
213 364 315 312 331 332 295 334 447 
161 219 333 219 418 333 161 333 297 
335 298 297 337 298 335 551 261 318 
263 551 318 337 450 298 551 263 264 
298 450 262 264 223 551 262 450 156 
266 299 338 301 339 300 301 302 339 
320 340 302 302 340 339 320 341 340 
392 375 246 320 321 341 342 341 343 
343 341 321 344 343 345 322 345 343 
344 345 322 346 344 325 325 344 322 
347 346 325 271 375 323 348 347 325 
324 323 378 324 272 323 348 325 349 
324 378 436 351 325 350 352 349 351 
351 349 325 353 351 350 355 465 276 
357 326 327 356 357 327 358 357 327 
358 328 383 328 329 383 383 329 330 
360 307 308 312 311 385 386 314 316 
331 362 332 363 386 317 386 316 317 
414 332 362 415 315 364 315 365 317 
363 317 365 415 365 315 366 293 389 
293 295 389 367 333 420 420 333 418 
297 369 335 335 369 368 337 335 370 
335 368 370 223 319 551 338 837 265 
342 343 371 343 344 372 371 343 372 
344 346 372 373 346 374 346 347 374 
376 323 375 374 347 377 347 348 377 
323 376 378 349 352 379 275 304 437 
352 351 379 183 275 380 183 380 354 
381 351 353 355 380 354 354 380 355 
326 381 353 381 326 357 382 381 357 
357 358 382 384 330 360 309 409 308 
309 249 409 249 282 409 284 313 282 
314 441 313 387 414 362 331 385 387 
362 331 387 363 365 388 416 364 414 
388 365 415 364 416 415 418 366 390 
369 391 368 369 333 367 333 369 297 
337 370 450 555 299 300 339 555 300 
340 555 339 341 428 340 371 428 342 
342 428 341 394 393 396 393 397 396 
398 393 395 398 399 393 399 397 393 
373 372 346 397 402 396 402 401 396 
399 403 397 403 402 397 404 399 400 
403 399 404 406 402 403 406 405 401 
402 406 401 407 406 402 377 349 379 
377 348 349 304 436 437 351 381 379 
355 380 465 276 465 359 330 384 408 
310 385 311 331 312 385 441 314 386 
387 385 411 412 414 387 414 412 413 
415 416 417 389 419 366 419 390 366 
389 295 419 295 421 419 447 421 295 
422 368 391 367 420 369 369 420 391 
422 423 368 368 423 370 261 551 336 
423 450 370 156 507 392 424 425 426 
395 424 426 393 394 424 395 393 424 
340 428 555 424 394 427 394 429 427 
396 429 394 398 400 399 373 431 372 
396 401 429 401 430 429 374 432 431 
374 431 373 401 405 430 403 433 406 
403 404 433 434 432 377 432 374 377 
430 405 435 405 406 435 435 406 407 
406 433 407 377 379 434 500 465 380 
464 381 382 382 358 438 358 383 438 
384 360 408 408 360 308 408 308 409 
440 310 439 440 410 310 410 385 310 
441 282 313 442 441 386 442 386 363 
388 442 363 413 412 387 415 469 388 
414 413 443 416 414 443 418 390 444 
478 444 390 418 444 420 390 419 478 
391 445 422 445 391 446 422 445 448 
423 449 450 451 452 453 426 425 454 
425 451 454 427 452 451 424 427 425 
425 427 451 454 395 426 455 395 454 
455 398 395 427 486 452 429 486 427 
456 486 429 431 457 372 430 456 429 
490 456 430 400 458 404 458 459 404 
460 490 430 433 404 461 375 491 376 
430 435 460 376 491 378 491 462 378 
435 494 460 496 494 435 463 496 435 
407 463 435 378 462 436 436 497 437 
275 437 545 275 545 380 380 545 500 
382 438 464 359 465 361 383 330 466 
330 408 466 466 408 467 408 468 467 
501 408 409 410 440 439 594 441 442 
608 411 385 387 411 608 470 413 387 
415 417 469 471 417 416 443 470 472 
443 413 470 471 416 473 416 443 472 
473 416 472 477 444 478 445 475 474 
420 444 476 445 446 475 420 446 391 
445 479 448 296 551 334 336 551 296 
448 449 422 422 449 423 449 480 450 
480 481 450 480 507 450 265 837 319 
338 299 837 482 483 453 451 453 483 
482 452 485 482 453 452 485 486 487 
485 452 486 392 507 375 456 487 486 
400 455 458 398 455 400 457 488 372 
431 489 457 489 431 432 459 458 533 
513 490 460 404 459 461 434 538 432 
433 463 407 433 461 492 463 433 492 
493 462 491 379 538 434 495 463 492 
462 497 436 462 493 497 498 437 497 
437 498 572 545 437 572 381 464 499 
468 408 501 439 608 410 417 471 469 
470 502 472 472 502 503 473 472 503 
477 506 476 477 476 444 474 479 445 
504 475 446 474 475 504 446 420 523 
504 446 523 523 420 506 476 506 420 
480 449 481 481 507 480 450 507 156 
454 451 484 451 483 484 487 508 485 
454 484 455 507 679 375 509 458 455 
511 458 509 487 456 510 457 489 488 
489 432 488 510 456 490 512 488 432 
375 679 491 533 514 459 432 538 512 
459 514 461 461 514 495 494 513 460 
492 461 495 496 463 515 463 495 515 
493 516 497 515 517 496 495 517 515 
572 498 497 379 381 499 464 592 499 
464 438 592 438 383 518 383 466 518 
466 467 519 518 466 519 467 468 519 
501 409 573 470 520 502 502 520 503 
503 520 521 504 522 474 505 522 504 
505 504 523 524 523 506 477 524 506 
474 525 479 525 474 522 477 478 524 
525 550 448 479 525 448 551 421 447 
334 551 447 448 550 449 481 449 612 
481 612 507 483 482 527 482 526 527 
483 527 484 529 485 508 529 482 485 
526 482 529 455 484 530 484 528 530 
530 509 455 508 487 531 487 510 531 
603 555 428 458 511 532 428 371 603 
532 533 458 510 490 531 531 490 559 
512 534 488 535 534 512 536 559 490 
490 513 536 538 535 512 491 540 493 
513 539 536 494 539 513 537 566 495 
514 537 495 566 537 514 494 496 539 
495 566 541 493 540 516 496 542 539 
496 517 542 542 517 543 543 517 544 
544 517 495 541 544 495 538 379 592 
499 592 379 546 500 545 592 438 518 
518 519 573 573 519 468 468 501 573 
633 573 409 409 282 633 282 634 633 
608 385 410 594 442 388 388 574 594 
469 574 388 387 608 575 471 574 469 
470 387 575 470 575 520 609 471 473 
473 579 609 521 473 503 521 579 473 
547 522 505 523 549 505 505 549 547 
524 549 523 769 449 550 527 528 484 
508 580 553 529 508 553 530 552 554 
509 530 554 508 531 556 508 556 580 
554 511 509 557 511 554 511 557 532 
532 558 533 558 560 533 488 584 372 
488 561 584 534 561 488 534 535 561 
533 560 514 560 562 514 535 538 561 
536 563 559 566 514 562 536 564 563 
539 564 536 565 564 539 540 567 516 
567 568 516 539 542 565 569 544 541 
566 569 541 543 570 542 544 569 543 
569 570 543 497 516 571 572 497 571 
441 635 282 635 441 594 574 471 577 
471 576 577 521 520 578 547 548 522 
522 548 525 419 421 551 449 769 612 
529 553 526 527 526 553 528 527 552 
530 528 552 555 581 299 532 557 558 
556 531 559 372 584 371 585 560 583 
562 560 585 679 567 540 491 679 540 
567 679 683 564 606 563 606 586 563 
564 565 606 568 567 588 589 565 542 
538 592 688 590 542 570 569 591 570 
570 591 590 568 571 516 568 588 571 
696 592 518 465 632 361 573 633 593 
439 361 608 574 577 576 578 575 595 
575 578 520 576 471 609 596 578 595 
521 597 579 548 547 598 549 600 547 
547 600 598 601 548 598 548 601 525 
611 601 598 525 601 611 524 801 549 
478 801 524 419 551 478 527 553 580 
299 602 837 299 581 602 580 556 613 
581 555 602 581 555 603 558 557 582 
556 559 604 582 560 558 583 560 582 
371 617 603 584 617 371 561 605 584 
559 563 604 604 563 586 538 605 561 
538 622 605 585 587 562 562 587 566 
538 688 622 565 625 606 625 565 589 
566 587 591 569 566 591 589 542 590 
588 628 571 628 572 571 607 572 628 
572 607 545 545 630 500 573 593 810 
282 635 674 635 594 675 608 676 575 
636 595 575 595 636 596 579 678 609 
579 597 678 521 578 597 578 596 597 
600 610 598 599 611 598 549 610 600 
525 611 550 580 613 614 527 580 614 
581 837 602 557 554 615 645 582 615 
582 557 615 603 837 581 645 583 582 
616 583 645 603 617 787 584 618 617 
605 619 584 584 619 618 604 586 620 
583 621 585 622 619 605 586 606 623 
585 621 624 587 585 624 652 625 589 
587 624 591 626 589 590 591 627 590 
590 627 626 629 607 628 607 629 545 
465 500 631 465 631 632 361 632 697 
810 518 573 633 634 673 634 282 674 
608 361 676 594 574 675 575 676 729 
637 596 636 596 638 597 637 638 596 
638 678 597 598 610 599 599 639 611 
550 611 640 640 769 550 641 612 769 
612 641 507 642 527 614 552 527 642 
614 613 644 554 552 643 615 554 643 
613 556 644 603 787 771 556 604 620 
646 616 645 618 647 617 619 647 618 
620 586 623 583 616 621 623 606 649 
649 606 650 648 622 688 625 651 606 
606 651 650 625 652 651 591 624 627 
589 626 652 588 653 628 653 654 628 
655 628 654 628 655 629 630 629 656 
630 545 629 630 656 500 631 657 658 
631 500 657 634 659 673 660 674 635 
661 636 575 636 661 637 637 699 638 
599 610 639 639 640 611 639 599 640 
769 663 641 612 641 663 641 663 507 
664 644 642 664 642 614 642 643 552 
664 613 644 664 614 613 615 643 645 
771 682 603 603 682 837 556 620 644 
647 665 617 666 647 619 644 623 649 
620 623 644 616 667 621 646 667 616 
619 622 666 666 622 648 621 667 624 
651 649 650 667 668 624 567 653 588 
668 669 627 668 627 624 592 795 688 
627 669 626 654 670 655 629 671 656 
656 671 630 500 656 672 657 500 672 
633 673 593 659 634 673 659 674 841 
634 674 659 361 726 676 660 635 674 
635 675 660 574 576 609 661 575 677 
637 661 699 610 662 639 662 610 549 
768 662 549 801 768 549 680 644 681 
680 642 644 707 645 643 644 708 681 
645 707 737 646 645 737 708 649 684 
644 649 708 667 646 737 685 667 737 
648 665 647 686 665 648 647 666 648 
687 667 685 686 648 688 649 651 684 
684 651 689 690 667 687 667 690 668 
690 687 669 690 669 668 567 683 653 
652 691 651 651 691 689 626 692 652 
652 692 691 669 692 626 687 692 669 
653 683 654 683 717 654 654 717 670 
655 670 693 629 655 693 693 671 629 
671 693 694 695 656 694 656 671 694 
656 672 695 656 695 721 657 656 721 
657 672 656 631 657 721 632 721 697 
632 631 721 518 810 696 697 746 361 
726 361 725 593 673 810 660 675 698 
729 677 575 699 731 638 731 678 638 
661 677 699 662 700 639 700 701 640 
700 640 639 662 701 700 640 701 769 
478 551 801 837 551 319 679 507 702 
702 703 679 681 704 705 681 705 680 
680 705 642 706 642 705 702 683 679 
643 642 706 643 706 707 708 704 681 
617 709 787 665 710 617 617 710 709 
711 685 737 686 710 665 712 710 686 
684 713 708 711 714 687 711 687 685 
688 712 686 691 692 716 715 691 716 
692 687 716 714 716 687 670 717 718 
670 718 693 718 719 693 592 696 795 
693 719 694 695 694 720 695 720 721 
721 722 697 361 746 723 361 723 724 
361 724 725 841 673 659 727 841 660 
841 674 660 698 727 660 698 728 727 
698 675 728 574 728 675 747 574 609 
747 609 678 729 730 677 731 732 678 
733 677 730 699 733 731 662 734 701 
662 768 734 507 703 702 703 683 702 
706 705 704 707 706 735 704 708 736 
737 707 738 738 707 735 736 708 713 
736 713 739 739 713 740 738 741 737 
741 711 737 713 684 689 740 713 689 
715 740 689 739 740 715 741 739 742 
742 739 715 741 742 716 741 742 711 
716 742 715 711 742 714 714 742 716 
715 689 691 795 789 688 720 694 719 
720 719 743 720 756 721 721 823 722 
725 724 948 725 723 724 775 728 574 
729 676 766 678 732 748 732 748 731 
699 677 733 734 768 749 734 769 701 
769 507 663 704 750 706 704 736 750 
736 739 752 752 739 753 712 754 710 
710 754 709 739 741 753 741 755 753 
688 754 712 717 719 718 720 743 756 
744 721 756 721 744 745 745 744 721 
823 721 745 697 722 746 723 948 724 
948 726 725 727 728 757 733 732 731 
733 779 732 779 748 732 734 749 769 
769 749 780 551 802 801 706 758 735 
682 850 837 706 750 758 735 758 759 
760 750 736 760 736 761 735 759 751 
738 735 751 752 761 736 761 752 753 
738 751 741 751 755 741 754 787 709 
754 688 789 717 762 719 762 763 743 
762 743 719 743 763 764 764 756 743 
744 756 764 823 745 797 745 744 797 
841 810 673 727 757 765 757 728 765 
765 728 775 747 775 574 678 748 747 
729 766 767 729 767 730 733 730 767 
749 768 781 769 793 507 793 770 507 
750 760 758 758 760 761 761 753 772 
772 753 773 754 788 787 755 773 753 
788 754 789 683 807 717 717 807 762 
763 790 764 764 790 774 744 764 774 
746 948 723 842 841 727 727 765 842 
748 844 747 766 776 777 767 766 777 
778 767 777 780 749 781 769 780 782 
783 770 793 770 849 507 761 772 758 
758 772 759 772 784 759 759 784 751 
771 785 682 751 784 755 784 786 755 
755 786 773 797 744 774 866 775 747 
766 676 776 778 779 733 777 779 778 
733 767 778 768 792 781 801 792 768 
780 781 782 793 769 782 770 793 783 
770 783 849 849 783 793 794 850 682 
682 785 794 785 771 794 784 772 786 
786 772 773 771 805 785 788 805 771 
787 788 771 806 788 789 796 774 790 
796 797 774 796 790 797 746 722 948 
776 676 811 811 791 776 779 844 748 
777 776 798 776 791 798 778 777 798 
779 777 798 781 799 782 781 800 799 
781 792 800 801 800 792 551 803 802 
848 836 551 849 703 507 703 804 683 
804 870 683 818 785 805 806 805 788 
683 870 807 808 806 789 808 789 795 
763 820 790 797 790 820 797 820 809 
797 809 823 765 843 842 765 775 843 
811 812 791 813 779 798 800 814 799 
800 815 814 799 835 782 802 803 816 
551 904 803 551 836 904 827 804 703 
817 804 827 817 870 804 819 805 806 
762 807 763 820 821 809 809 821 822 
823 809 822 676 726 856 843 775 873 
812 811 826 812 845 813 813 791 812 
798 791 813 801 815 800 801 802 815 
814 835 799 803 904 816 816 904 802 
849 827 703 817 827 804 817 827 870 
805 819 818 808 819 806 821 829 822 
822 829 823 810 841 840 948 824 726 
726 824 856 856 825 676 866 873 775 
844 866 747 676 830 811 826 845 812 
815 833 814 814 833 832 815 802 834 
833 815 834 814 832 835 833 834 832 
835 860 782 793 782 860 827 849 870 
880 794 785 818 880 785 862 818 819 
807 870 851 807 852 763 763 852 820 
852 838 820 820 838 821 838 828 821 
839 829 821 839 821 828 840 854 696 
840 696 810 823 829 839 722 823 871 
676 825 830 779 875 844 811 830 831 
826 811 831 875 779 813 826 831 845 
834 846 832 834 802 846 847 835 832 
835 847 860 850 794 880 795 696 882 
853 828 838 696 854 882 855 828 853 
839 828 855 839 855 871 823 839 871 
825 856 865 857 830 825 875 866 844 
831 830 857 858 831 857 831 858 845 
847 859 860 551 887 848 818 861 880 
819 808 863 862 819 863 863 808 795 
906 852 807 906 838 852 853 864 855 
824 948 856 884 865 856 874 857 825 
813 845 876 846 868 832 846 802 868 
802 878 868 832 859 847 848 869 836 
836 869 904 869 848 887 861 818 881 
881 818 862 862 863 881 863 795 920 
864 871 855 722 871 872 891 722 872 
841 909 840 891 948 722 856 948 884 
842 843 892 857 874 867 876 875 813 
876 858 867 867 858 857 845 858 876 
886 877 832 886 832 868 868 878 886 
859 877 879 859 832 877 802 977 878 
802 904 977 879 860 859 860 903 793 
793 903 849 551 837 887 920 795 882 
909 854 840 871 864 883 871 872 883 
872 871 891 871 883 891 911 841 842 
873 866 902 825 865 893 875 902 866 
825 893 894 894 885 825 885 874 825 
876 938 875 874 885 867 867 885 876 
879 903 860 880 861 881 888 880 881 
870 905 851 906 908 838 838 908 853 
909 920 854 864 889 883 841 911 909 
892 911 842 865 884 964 886 896 877 
897 896 886 879 877 896 897 898 896 
879 896 903 880 888 899 888 881 899 
881 863 900 899 881 900 863 920 900 
882 854 920 908 889 853 853 889 864 
889 890 883 883 890 910 891 883 910 
929 909 911 843 873 936 964 912 865 
893 865 912 938 902 875 894 895 885 
876 885 895 917 876 895 886 878 897 
898 897 903 898 903 896 887 904 869 
849 960 870 850 880 927 928 899 900 
905 807 851 906 907 908 889 908 890 
908 901 890 901 910 890 891 910 923 
947 892 843 884 925 964 873 902 936 
893 912 913 913 915 893 915 894 893 
915 917 916 916 895 894 917 895 916 
878 919 897 897 919 918 897 918 903 
918 942 903 880 928 927 807 905 921 
807 907 906 907 807 921 907 921 906 
907 921 908 910 901 922 923 910 922 
948 891 931 931 891 924 912 964 914 
913 912 914 913 914 915 926 917 915 
916 894 915 977 919 878 849 903 942 
850 927 837 880 899 928 920 909 929 
969 920 929 843 936 947 948 925 884 
936 902 937 902 938 937 964 932 914 
917 933 876 876 933 938 926 915 914 
919 951 918 919 977 951 904 887 979 
960 1046 870 954 870 1046 928 900 944 
944 900 920 921 963 908 901 935 922 
929 911 955 935 923 922 935 930 923 
891 923 930 891 930 924 911 892 947 
914 932 939 940 914 939 926 958 917 
958 933 917 926 914 940 951 941 918 
942 918 941 849 934 960 927 943 837 
943 927 928 944 943 928 870 954 905 
954 945 905 945 921 905 955 969 929 
901 946 935 935 946 930 924 930 973 
924 973 931 925 948 964 937 938 957 
932 964 949 939 950 958 932 949 950 
939 932 950 940 939 950 926 940 939 
958 926 939 943 967 837 943 953 967 
943 944 953 968 953 944 920 968 944 
921 945 982 969 968 920 908 1011 901 
1011 971 901 971 946 901 930 946 972 
911 947 955 930 972 973 956 948 931 
936 937 974 948 956 964 933 990 938 
933 958 990 958 950 949 904 992 977 
849 959 934 959 952 934 959 960 934 
961 960 959 961 962 960 982 963 921 
908 963 1011 987 956 931 974 937 957 
957 938 990 949 964 965 958 949 965 
951 966 941 977 966 951 849 1021 959 
887 837 1060 960 961 1046 955 970 969 
955 947 984 986 936 974 947 936 986 
964 956 975 964 975 965 976 941 966 
941 976 942 942 978 849 904 1041 992 
1042 1041 904 1021 849 978 904 1039 1042 
904 979 1039 887 980 979 887 981 980 
959 1024 961 953 968 1010 945 983 982 
969 970 968 955 984 970 984 986 1032 
972 985 973 947 986 984 973 985 997 
998 931 973 931 998 987 974 957 1001 
988 956 987 956 988 989 956 989 975 
975 1003 965 965 1020 958 965 1003 1020 
1020 1017 958 976 966 977 977 991 976 
942 976 978 978 976 993 980 981 979 
995 837 967 967 953 995 995 953 1009 
1010 1009 953 1046 945 954 945 996 983 
996 982 983 983 963 982 970 984 1000 
946 1013 972 985 972 1013 997 985 1013 
999 988 987 976 991 993 978 993 1021 
837 994 1006 1024 1046 961 837 995 994 
983 996 963 1000 1010 968 968 970 1000 
971 1013 946 986 974 1001 1036 1001 990 
957 990 1001 998 999 987 989 988 1002 
988 999 1002 990 958 1017 1036 990 1017 
975 989 1002 1019 975 1002 1003 975 1019 
977 1005 991 991 1005 1004 977 992 1005 
991 1004 993 1004 1021 993 981 1039 979 
887 1044 981 959 1021 1024 887 1060 1044 
837 1006 1060 995 1008 994 1008 1007 994 
1008 995 1009 1000 1012 1031 1000 984 1012 
984 1032 1012 1013 1014 997 986 1001 1032 
997 1014 973 1014 1015 973 998 1015 1016 
998 973 1015 999 998 1018 998 1016 1018 
1018 1019 999 1019 1002 999 1021 1004 1022 
1005 1022 1004 1023 1022 1005 1060 1006 1045 
994 1007 1006 1026 1025 1006 1027 1025 1026 
1008 1026 1006 1006 1007 1008 1027 1026 1008 
1009 1010 1028 1010 1029 1028 1097 963 996 
1097 1047 963 963 1047 1011 1031 1030 1000 
1011 1100 971 971 1100 1078 971 1078 1013 
1033 1001 1036 1013 1034 1014 1014 1034 1015 
1034 1035 1015 1016 1015 1037 1020 1053 1017 
1053 1066 1017 1036 1017 1066 1005 992 1023 
1038 1021 1022 1038 1022 1023 981 1044 1039 
1024 1021 1131 1006 1025 1045 1008 1009 1027 
945 1097 996 1028 1010 1030 1010 1000 1030 
1032 1048 1031 1012 1032 1031 1050 1049 1033 
1049 1001 1033 1032 1001 1049 1064 1033 1036 
1037 1015 1035 1037 1054 1018 1019 1018 1054 
1055 1003 1019 1053 1020 1055 1018 1016 1037 
1020 1003 1055 1023 1057 1038 1040 1057 1023 
992 1041 1023 1023 1041 1040 1038 1057 1021 
1042 1039 1043 1043 1039 1042 1025 1027 1045 
1024 1061 1046 1009 1045 1027 1028 1030 1076 
1048 1076 1030 1030 1031 1048 1048 1032 1049 
1078 1063 1013 1064 1087 1033 1050 1033 1087 
1013 1051 1034 1051 1052 1034 1080 1055 1054 
1034 1052 1035 1051 1054 1052 1055 1019 1054 
1054 1035 1052 1037 1035 1054 1056 1040 1041 
1041 1058 1056 1041 1042 1058 1021 1059 1082 
1042 1039 1072 1045 1009 1028 1062 1046 1061 
1046 1061 945 1062 945 1061 945 1062 1097 
1049 1050 1087 1063 1065 1013 1013 1065 1051 
1067 1069 1068 1069 1051 1068 1080 1069 1067 
1069 1054 1051 1080 1054 1069 1057 1040 1056 
1056 1058 1070 1072 1058 1042 1021 1057 1059 
1061 1024 1062 1045 1028 1075 1076 1075 1028 
1047 1097 1098 1098 1086 1047 1048 1085 1076 
1048 1087 1085 1086 1011 1047 1077 1011 1086 
1049 1087 1048 1078 1079 1063 1055 1066 1053 
1036 1066 1064 1065 1068 1051 1080 1068 1065 
1067 1068 1080 1056 1071 1057 1056 1081 1071 
1056 1070 1081 1058 1081 1070 1057 1071 1059 
1071 1091 1059 1111 1039 1044 1131 1021 1083 
1095 1112 1044 1073 1095 1044 1060 1073 1044 
1131 1116 1024 1060 1084 1073 1045 1084 1060 
1084 1045 1074 1075 1084 1074 1045 1075 1074 
1024 1118 1062 1062 1118 1120 1062 1120 1097 
1075 1076 1085 1011 1077 1100 1064 1066 1099 
1063 1079 1065 1080 1065 1079 1055 1080 1066 
1070 1089 1081 1089 1081 1088 1081 1058 1088 
1091 1071 1090 1081 1089 1071 1089 1090 1071 
1088 1058 1072 1105 1088 1072 1072 1108 1105 
1091 1082 1059 1072 1092 1108 1092 1072 1093 
1072 1039 1093 1082 1083 1021 1039 1094 1093 
1094 1039 1111 1111 1044 1112 1096 1095 1084 
1095 1073 1084 1084 1075 1096 1075 1115 1096 
1117 1024 1116 1024 1117 1118 1075 1085 1115 
1087 1099 1085 1086 1143 1077 1077 1143 1100 
1087 1064 1099 1100 1101 1078 1099 1066 1123 
1101 1079 1078 1079 1101 1102 1080 1079 1101 
1066 1080 1167 1089 1088 1103 1104 1090 1089 
1091 1090 1106 1105 1108 1107 1092 1093 1109 
1091 1110 1082 1083 1082 1110 1095 1113 1112 
1095 1096 1113 1114 1113 1096 1114 1096 1115 
1099 1115 1085 1097 1121 1098 1121 1122 1098 
1098 1122 1143 1086 1098 1143 1126 1125 1124 
1125 1066 1167 1126 1066 1125 1124 1066 1126 
1123 1066 1124 1128 1100 1127 1128 1080 1100 
1080 1101 1100 1167 1080 1128 1103 1104 1089 
1103 1088 1105 1090 1104 1106 1106 1110 1091 
1109 1108 1092 1130 1083 1110 1129 1109 1093 
1093 1094 1129 1094 1111 1129 1130 1131 1083 
1129 1111 1132 1112 1133 1111 1113 1133 1112 
1113 1114 1115 1115 1134 1133 1116 1135 1117 
1135 1136 1117 1134 1115 1119 1160 1139 1138 
1137 1160 1138 1119 1123 1137 1115 1099 1119 
1099 1123 1119 1120 1121 1097 1137 1140 1160 
1124 1140 1137 1123 1124 1137 1142 1163 1164 
1141 1163 1142 1124 1125 1140 1143 1127 1100 
1166 1127 1143 1128 1127 1166 1167 1128 1166 
1104 1103 1145 1104 1144 1106 1104 1146 1144 
1145 1147 1104 1147 1146 1104 1103 1147 1145 
1105 1107 1103 1103 1107 1147 1144 1110 1106 
1146 1110 1144 1146 1130 1110 1148 1130 1147 
1130 1146 1147 1107 1148 1147 1108 1149 1107 
1149 1148 1107 1109 1149 1108 1149 1150 1169 
1109 1129 1150 1149 1109 1150 1130 1151 1131 
1169 1150 1152 1129 1132 1150 1132 1152 1150 
1132 1111 1133 1171 1152 1154 1131 1151 1116 
1153 1171 1154 1157 1154 1152 1132 1157 1152 
1133 1113 1115 1154 1157 1153 1134 1157 1132 
1133 1134 1132 1116 1155 1135 1155 1158 1135 
1156 1153 1158 1135 1158 1136 1137 1153 1157 
1119 1137 1157 1119 1157 1134 1117 1136 1118 
1118 1136 1158 1137 1138 1139 1137 1139 1153 
1120 1118 1159 1160 1153 1139 1158 1161 1118 
1161 1159 1118 1153 1161 1158 1160 1161 1153 
1159 1162 1120 1120 1162 1121 1162 1159 1161 
1122 1121 1163 1163 1121 1162 1161 1163 1162 
1160 1164 1161 1164 1163 1161 1140 1164 1160 
1140 1165 1164 1143 1122 1163 1141 1143 1163 
1140 1125 1164 1165 1140 1164 1141 1166 1143 
1125 1167 1142 1164 1125 1142 1168 1148 1169 
1149 1169 1148 1148 1168 1130 1151 1130 1170 
1173 1171 1172 1151 1170 1116 1170 1174 1116 
1171 1153 1172 1155 1116 1174 1172 1156 1174 
1156 1155 1174 1153 1156 1172 1156 1158 1155 
1141 1142 1166 1167 1166 1142 1173 1170 1130 
1152 1171 1168 1169 1152 1168 1174 1173 1172 
1170 1173 1174 1130 1168 1173 1168 1171 1173 

