# vtk DataFile Version 5.1
vtk output
ASCII
DATASET POLYDATA
POINTS 1240 float
23.5314 9.18816 0.973733 23.5505 8.43569 1.29543 33.0205 21.7697 0.514476 
32.9131 24.185 0.413441 33.3908 29.0808 0.582063 33.452 31.4338 0.878023 
25.7265 5.62401 2.06227 23.4921 4.39388 3.14364 25.5134 4.79524 2.35868 
25.0076 5.38955 2.09791 25.7083 7.03499 1.7211 22.2653 9.61323 1.63825 
21.0338 9.4885 2.79655 21.9452 12.0611 1.83415 26.1684 11.997 1.26048 
30.872 12.0916 1.54166 20.8547 11.1913 2.49861 37.7921 12.4164 1.84623 
40.3798 16.9472 1.75084 42.7607 24.1863 1.8187 21.6814 29.1459 1.91217 
21.3961 31.4489 1.88028 23.7224 33.8601 1.5356 42.7119 33.7828 2.05868 
25.8202 36.4125 1.39911 28.4538 38.9217 1.47523 33.2459 41.017 1.86351 
28.4875 2.49518 3.03443 30.9184 2.36852 3.10983 26.4516 2.99127 3.28745 
31.018 4.42625 2.54947 23.0967 6.84858 2.20614 21.8083 7.41496 3.07044 
20.8264 14.8409 2.80919 19.6905 14.338 3.69689 22.0445 14.3496 2.14946 
18.9113 17.1121 3.39101 18.9614 21.5112 3.20403 18.5089 26.5815 2.88123 
17.2628 29.0496 3.32976 18.8327 31.426 2.51769 17.0726 33.8415 3.3339 
17.313 36.2776 3.27556 18.7947 36.2988 2.60066 43.0499 41.6089 3.48089 
17.0755 43.4786 3.28917 40.6133 43.9986 3.45165 18.9053 45.9858 2.60229 
35.8618 46.3635 3.21048 17.3054 48.7033 3.36588 28.0877 1.80061 4.24315 
30.8344 1.61492 4.31204 32.972 2.69241 3.51162 33.3447 1.87062 4.29328 
26.3063 2.29353 4.51277 38.0822 2.44869 4.54004 37.9875 4.92587 3.51448 
38.4547 3.72302 3.89755 23.026 4.15082 4.20073 22.3893 5.4757 3.77392 
20.5237 9.33992 4.17992 19.5997 12.4883 4.50743 50.1289 12.0035 4.29825 
19.1708 13.9316 4.38664 52.5854 19.2985 4.12792 17.5426 24.4396 3.61572 
16.2554 26.5629 4.26019 16.1115 31.4246 4.13089 52.5802 31.4786 4.09904 
15.798 41.0623 4.1046 43.117 43.9968 4.34793 37.5196 46.1503 3.35776 
40.1463 46.1364 4.49663 38.5172 46.9978 4.23417 36.0818 48.6301 4.5127 
37.8647 47.7352 4.56792 33.8945 49.3223 4.01586 28.4484 50.6583 3.69118 
30.6826 50.5065 3.81669 16.5307 50.7069 4.34184 31.4052 51.3432 4.14765 
17.0413 52.6959 4.50682 19.087 53.0679 3.70594 44.9712 2.37313 5.28353 
47.6511 7.21348 4.59367 50.0266 9.6508 4.69328 52.7226 14.3485 4.67626 
17.269 16.7951 4.99751 54.6809 16.9522 5.0412 54.82 24.1757 4.67341 
52.3962 38.8859 4.93397 14.9287 41.1389 4.91425 47.7924 41.632 4.7361 
45.3674 43.2667 4.90887 42.3603 45.1696 5.07385 33.1897 50.8757 4.55007 
34.7836 50.0782 5.03135 33.9537 51.4875 6.09004 17.3316 55.3291 5.19003 
26.4886 55.9815 4.73646 31.66 53.8079 6.0418 18.583 55.739 4.61292 
21.0319 55.8386 4.19486 28.2384 55.5369 5.06262 30.0741 54.6913 5.43576 
19.2668 57.9641 5.04618 23.7315 58.0505 4.81054 29.0533 56.1994 6.18687 
43.7946 1.57012 6.15676 30.9889 1.35186 6.03443 40.4587 1.55945 6.48672 
44.4706 1.62706 5.87755 49.3551 2.13134 6.41242 49.1308 2.32948 6.19161 
23.7645 2.97394 6.4056 50.5409 4.15979 5.78635 21.8728 5.06753 6.44572 
52.4457 4.58046 6.27699 19.1677 12.2587 6.08748 56.8068 19.4213 5.66613 
15.9178 19.0699 6.24317 54.5742 38.5596 5.4842 52.1366 40.3151 5.36042 
51.5341 41.5378 5.8746 55.2416 40.5506 6.47756 49.54 42.1623 5.98244 
47.7339 43.1118 6.39531 42.6858 45.4431 6.15564 16.3317 55.725 6.19707 
28.0002 57.3424 6.22242 26.7579 58.8605 6.21119 19.2298 60.588 6.47027 
21.7744 60.2883 5.38784 25.5342 61.0736 6.51608 20.8664 60.6097 5.69221 
23.6989 61.8628 5.74781 21.7554 62.8636 5.98371 23.4886 64.2611 6.26809 
21.8671 65.1037 6.8168 23.3751 64.799 6.61228 50.3032 1.94489 8.0226 
51.6239 2.3543 7.73275 51.5993 3.20985 6.68567 54.0753 3.52414 7.11005 
54.5121 3.04117 8.00335 55.0101 4.74958 6.9126 16.436 14.6315 8.03993 
59.5542 36.3841 6.7604 52.7099 42.1444 7.57891 54.9419 41.7209 7.83313 
26.3008 60.833 7.78958 23.746 65.7908 7.78436 22.1957 69.6771 7.05384 
21.4585 67.568 7.54648 21.8001 70.4276 7.52769 22.5921 69.2601 7.10572 
22.4861 68.7045 7.19539 23.2464 67.6645 8.06918 22.9952 70.3535 7.46953 
33.2547 1.31026 8.1087 47.8733 1.41233 8.04784 55.3392 3.91613 7.50597 
57.0461 4.4343 8.01663 59.6425 6.70093 8.41019 13.412 26.7041 7.30522 
64.3349 31.9479 7.90633 62.4453 34.3016 7.27991 64.6082 33.8289 8.14702 
62.292 36.5269 7.80458 64.1082 35.7935 8.52821 61.5535 38.2338 8.0822 
59.8916 39.1156 7.72852 57.3069 41.1128 7.85707 59.4717 40.4909 8.30283 
50.1031 42.6638 8.10146 37.9527 48.2294 8.07138 32.8534 52.8039 7.85393 
28.2052 57.9538 7.96117 21.273 66.2425 7.44708 54.8239 2.98192 9.44875 
56.8402 3.61301 9.60613 57.5449 3.92826 9.6478 59.5061 4.83094 9.63206 
21.7918 4.37763 10.43 62.9399 6.73384 9.84298 20.21 9.67673 9.97928 
15.9266 14.1376 10.1942 14.3835 16.8986 9.92008 13.1274 21.4178 9.72314 
67.1001 29.3584 9.47137 11.1886 31.4212 9.28686 67.074 31.5451 9.57479 
66.4749 33.6692 9.68964 64.8868 36.3746 9.54135 63.7197 38.2119 10.0032 
61.0803 40.6919 9.64625 11.3058 46.0215 9.43649 38.0342 48.0872 9.76329 
12.2486 53.0825 10.1755 30.3948 55.2157 9.7566 14.1561 58.0585 9.80437 
16.8968 65.1463 10.1143 19.7507 67.9827 8.60446 18.8899 68.2592 9.50338 
24.1176 67.6222 9.66846 19.5374 69.4587 9.85563 21.0637 70.8812 9.36467 
63.882 7.30348 10.1829 64.4855 9.1858 10.2844 64.1619 12.0976 10.1818 
15.0378 15.3331 10.2619 10.2782 31.5271 10.464 10.1899 38.6974 10.4427 
36.4109 49.3024 9.81148 23.4422 70.4399 9.51556 21.8166 72.0259 10.2932 
23.1776 2.7139 11.8808 61.6987 5.56929 11.2731 63.0783 6.18066 10.8977 
20.7075 7.22671 11.5532 64.5886 7.12062 11.2909 20.2214 9.2678 10.9571 
65.2429 8.96601 10.7388 64.8305 12.0741 10.5357 13.8612 16.6628 11.3388 
69.5858 24.5097 11.0841 69.5774 29.5814 11.2449 9.57924 31.6648 11.4778 
68.9012 31.5722 11.3868 67.4166 33.921 11.0785 66.1118 35.6345 10.6719 
66.2833 35.8939 11.2496 57.3581 42.264 10.7908 59.1275 42.3386 11.04 
59.9772 42.1033 11.0726 9.60129 45.9296 11.6673 29.4376 56.3593 11.4679 
18.106 68.5573 11.0598 18.9436 69.7115 11.7572 23.4042 70.572 11.7812 
21.2299 71.0591 11.1721 21.9814 71.6352 10.8084 22.5037 71.6652 10.3098 
23.2677 2.43062 13.3659 66.7334 9.46184 11.4981 66.4972 8.089 13.0549 
19.117 10.2463 12.4347 67.3203 8.62262 12.7179 68.8938 10.1417 12.3523 
68.9534 9.62017 12.8371 68.683 16.9448 12.3344 57.2595 42.4275 13.2305 
24.2505 68.3797 12.9734 45.304 1.68505 13.2613 55.1523 3.62625 13.3764 
69.3629 10.6094 12.5332 18.21 11.0839 12.6401 14.2862 14.317 13.1493 
69.3935 16.9888 12.7956 71.5779 19.5883 13.538 72.3388 26.6739 12.9371 
69.7549 31.5657 12.653 64.7253 38.9834 13.034 61.7314 41.9403 13.3079 
59.5562 42.4373 13.2319 40.7483 46.5078 13.1364 35.206 50.2801 13.1891 
25.1623 63.0129 13.1511 16.5123 68.0824 13.1707 18.6605 70.0859 13.107 
21.3669 70.9936 12.939 20.9764 2.8016 15.2513 64.3434 7.33888 14.8446 
69.7743 10.2045 14.8421 15.1302 12.8861 13.6744 14.8869 12.3377 15.0026 
73.5865 21.766 13.5942 74.8159 20.9216 14.2361 76.481 21.8909 14.696 
75.2049 22.2305 13.9367 75.7439 23.8063 14.7983 73.9827 26.543 14.6936 
7.07291 33.6376 15.0093 62.2811 41.9542 14.7611 50.0467 42.788 14.8973 
10.8939 58.3585 14.3286 26.557 60.8099 14.8397 40.5032 1.52511 14.93 
20.3561 3.82109 14.8816 71.6336 11.9413 14.7765 15.5462 11.6872 14.8406 
72.2278 14.0857 14.6125 73.374 13.1928 16.4319 73.9323 14.1461 16.3538 
74.569 18.951 15.1907 24.6906 65.023 15.0144 23.277 71.6678 14.7685 
20.8877 2.64154 15.5842 23.2508 1.84868 16.3449 16.8064 9.42779 16.6773 
69.2554 10.1379 15.9139 15.4504 11.0688 16.0174 14.1805 12.4474 16.4461 
72.1254 11.9752 16.5182 75.0548 17.252 16.4314 75.9326 18.6384 16.5068 
76.0169 20.1877 15.292 77.7842 21.4305 16.002 77.6253 21.5778 15.735 
76.4389 24.1907 16.1998 6.10517 31.7234 16.9217 5.91217 33.5922 16.8064 
63.9831 41.3231 16.702 7.4974 53.0759 16.9266 11.6103 62.9618 16.4841 
24.3659 67.8047 16.535 24.194 70.4791 16.4176 21.7678 72.9007 17.0367 
23.6232 72.5548 16.4518 20.918 2.33225 17.2458 18.4307 6.93369 18.1846 
77.6295 19.8864 17.245 64.7101 41.5937 18.9448 16.4959 70.4146 18.2206 
20.0742 3.34541 18.3109 19.5062 4.44912 18.5874 59.1993 5.83729 18.0581 
73.1509 13.011 18.1455 75.8168 16.8537 18.3802 9.71039 19.5113 18.4379 
78.497 19.8112 18.4716 7.68975 24.4336 18.6119 6.02984 29.0507 18.5181 
68.7797 35.9529 18.4641 4.67946 38.6112 18.6363 66.9489 38.6444 18.6531 
4.93923 43.5088 18.4285 62.9133 42.1822 18.3778 14.0914 67.7807 18.2558 
23.739 72.6009 16.5155 21.2806 1.94677 19.1171 23.7469 1.23332 19.8818 
19.3246 4.46885 20.1855 18.312 6.62682 19.9283 61.9005 7.43691 19.913 
16.1794 9.26381 19.9533 76.3825 16.8777 20.2026 9.10312 19.2757 20.1287 
79.5276 21.7769 19.6935 65.8131 40.3043 18.7672 62.2135 42.5248 19.8014 
4.10629 43.5173 20.1484 6.8635 55.6418 19.82 15.1922 69.2519 18.6528 
19.1239 72.6642 19.9701 23.719 72.9978 19.9904 79.8264 19.6155 20.6077 
80.1738 20.998 20.6346 6.39657 26.4585 19.8987 5.03056 31.3282 19.9834 
65.0023 42.0467 20.5885 4.87178 48.3129 20.0273 24.6913 65.5154 19.9699 
21.3684 73.5811 20.1853 21.4679 1.95835 21.7523 25.8352 1.24391 21.9583 
79.6261 19.1449 21.3887 80.4031 20.0542 21.8873 80.6325 21.5228 21.5201 
71.0781 35.8541 21.962 3.6555 41.1063 21.4638 66.6457 42.1133 22.2903 
3.97658 46.0464 21.4747 37.8636 48.9809 21.6932 25.5214 62.853 22.0315 
11.3809 65.5628 21.5673 25.016 64.074 21.6169 21.6511 73.9534 21.1166 
21.5903 74.1612 21.8973 81.5016 21.7176 23.3404 64.6146 42.6432 21.7733 
66.1967 42.5133 22.3707 66.5836 42.7358 23.0128 22.8712 73.8653 21.6678 
20.9537 2.22422 23.6012 25.8944 1.31561 23.5611 12.0426 12.5076 23.5417 
69.1051 12.2039 23.3179 76.4352 16.8405 23.2777 78.0637 17.9337 23.0529 
79.1172 18.7207 23.4058 80.644 20.0363 23.1774 6.06354 24.6575 23.5451 
81.2453 23.8375 23.9053 75.8024 30.9628 23.7994 3.46257 38.5965 23.1636 
3.30811 41.2384 23.1015 3.23614 41.16 23.5589 59.6228 42.3832 23.3362 
64.6568 42.941 23.0892 47.5491 43.9848 23.3719 25.5773 63.0339 23.4237 
24.7951 66.1685 23.1595 24.7307 67.7758 23.2667 14.4789 70.2005 23.4041 
23.1925 74.208 23.7994 16.6762 4.6175 25.266 81.5135 21.4725 24.6233 
82.0582 24.1443 25.1181 69.79 39.1234 24.7937 64.9389 43.1846 24.57 
67.0348 43.6997 25.4801 33.3103 53.2697 25.0536 30.5706 55.9939 25.4644 
25.0281 65.4489 24.9113 19.6494 74.3078 25.1708 21.3854 74.8973 24.8647 
33.3328 1.55816 25.1171 74.4744 16.1269 25.3321 8.2481 18.864 24.9226 
80.4774 20.1384 24.8557 74.3917 33.8255 25.1208 68.5289 41.4868 24.7656 
7.47696 60.2316 25.1805 25.2929 65.4627 25.4239 25.0918 67.583 25.4931 
24.4799 72.833 24.952 18.6863 2.82959 26.6787 16.0187 4.2287 28.121 
52.3028 5.21856 26.6824 11.6803 12.0372 26.7505 7.68198 19.6572 26.852 
81.5458 21.7623 27.0778 82.4187 24.5407 26.3974 74.7765 34.5577 26.8629 
71.2331 38.6595 26.8162 61.9283 42.5237 26.7233 67.5714 44.5607 27.0035 
43.0943 46.4091 26.7113 3.82649 50.9558 26.6143 25.1515 70.1761 26.9374 
23.6194 75.6611 27.0776 21.7495 75.9541 26.8415 74.2779 35.9819 26.9642 
75.7645 36.6202 28.5319 75.044 36.6708 27.8521 68.6488 43.8156 27.1044 
67.7522 44.8622 27.7111 69.1649 44.5381 28.7715 67.8975 44.7939 27.4678 
17.2225 3.2969 28.5982 12.6467 10.2136 28.6079 80.6501 26.7321 28.5592 
76.5356 31.235 28.5617 3.52983 31.2623 28.2007 3.33232 31.6296 28.7395 
75.3076 33.9935 28.5672 2.99817 33.9769 28.638 75.1346 35.0155 27.8164 
74.5371 39.1969 29.1794 71.2393 39.6376 28.2833 70.1158 41.1171 28.5322 
57.2446 42.4376 28.5674 66.6571 44.4786 28.7858 68.2211 44.9021 28.1222 
27.3224 63.3363 28.264 11.4132 67.9882 28.3926 16.2568 72.9678 28.3805 
24.0953 76.0033 29.0033 23.0292 76.6496 28.5691 76.5145 19.0743 30.2328 
81.9114 23.9703 30.1413 80.6331 26.2176 30.0222 75.3965 38.2128 29.1018 
70.9745 40.2114 29.8862 74.772 39.3314 29.683 54.5488 42.8931 30.5609 
66.3211 44.2399 30.5467 4.67068 55.6027 30.1697 13.4351 70.814 30.0422 
23.5716 77.1245 29.9566 17.3979 2.98128 30.3184 14.9317 5.20023 30.3365 
13.0337 9.10019 29.9556 69.0485 14.6916 30.0712 6.25452 21.453 29.9933 
80.9771 22.2625 30.5002 76.0389 30.9463 29.9505 73.745 31.189 31.3874 
74.7825 33.9645 30.2728 75.6455 36.6646 29.4507 75.3324 38.119 29.6582 
71.6853 39.5806 30.4862 69.9041 41.4396 30.1708 69.332 43.9828 29.8486 
59.5148 42.6567 30.0828 46.9629 44.941 30.2851 26.9433 65.4849 30.158 
25.3423 70.0866 30.3788 24.5752 75.0994 30.1051 21.9444 77.0419 30.2332 
15.6286 4.07243 31.7265 16.9544 3.08542 31.9057 14.7186 5.07628 31.9705 
13.6915 7.01515 31.7697 78.7083 21.416 32.1308 80.4605 22.5518 31.6753 
78.4111 27.2974 31.7674 74.0589 29.6844 32.1777 73.5146 36.2387 31.2683 
63.3779 44.0491 32.8499 25.2786 70.338 31.6971 21.6259 77.1997 31.8982 
24.6711 75.6114 31.5698 80.6123 23.863 32.0975 71.5397 38.4746 31.3894 
69.2962 40.2256 31.6874 66.4587 43.3268 31.8908 68.4774 43.2049 30.9355 
2.96254 50.63 31.939 15.7952 3.81274 33.5334 42.5264 3.65688 33.4058 
52.5969 6.7714 33.6527 63.9079 12.2452 33.3098 69.5175 16.3522 33.7261 
75.7236 20.1739 33.7612 77.2126 20.6143 32.6276 76.4428 21.6034 33.967 
79.03 22.5052 32.7799 78.1437 25.6927 32.839 76.7734 27.3989 32.6037 
76.2617 26.6929 33.2091 2.98851 28.5755 33.4741 75.7958 28.0068 32.6266 
71.1837 33.7532 33.0665 71.0515 35.9289 32.4866 69.0678 36.1923 33.3084 
66.6144 41.5196 32.6198 64.1222 43.5664 33.0167 61.4735 43.9349 34.0988 
50.2411 44.4385 33.3867 38.241 51.0546 33.4856 35.5436 53.0782 33.5873 
30.1798 58.215 33.3564 9.11855 65.4646 33.5409 24.8292 75.6589 33.5744 
24.2664 77.6963 33.2698 14.357 5.09523 35.257 74.0036 19.7338 35.7319 
71.6312 30.979 33.5095 37.1361 51.9568 33.8785 25.3837 72.8668 35.402 
17.1268 3.06589 35.2594 37.9918 2.87325 35.2066 10.0954 12.4692 35.3182 
74.5833 21.6588 35.3879 1.6243 43.5811 35.1869 57.3209 44.0956 35.4642 
60.268 43.9448 35.0929 44.0811 47.0037 34.7327 24.9571 74.3577 35.2919 
21.8973 77.896 35.2096 15.6663 3.89264 36.8934 14.4653 4.83986 36.9959 
50.2405 6.64581 37.0763 11.5347 9.54692 36.9342 6.25363 18.9718 36.8845 
57.8662 43.8765 36.7726 59.1847 43.5835 36.3118 28.1481 62.67 37.2979 
25.7958 72.9174 36.5187 24.4144 75.2456 36.6047 16.2795 74.4409 37.2146 
23.3949 78.176 36.9506 69.0331 26.4814 36.697 1.60748 33.7942 36.8921 
64.2988 33.802 36.7971 63.9102 35.9501 36.1606 62.1077 36.3551 37.1113 
21.1413 2.43162 38.7243 16.9607 3.32617 38.6202 14.1487 5.04176 38.641 
13.0491 6.55835 38.6034 57.011 10.0502 38.513 69.0118 17.4708 38.6878 
71.2377 19.2028 38.0007 69.5014 21.4712 38.878 2.96677 26.7024 38.6988 
56.3371 43.0605 38.4754 52.9967 44.9699 38.8378 54.9874 44.349 38.6759 
35.0315 54.9298 38.8741 4.74173 57.9454 38.6575 5.78135 59.7761 38.7314 
6.40303 60.8073 38.6196 27.8557 63.2624 39.3531 27.3399 65.1405 38.9122 
27.2965 67.9344 38.0146 26.8314 72.4627 38.4449 24.4632 75.6841 38.8557 
21.6852 78.4241 38.3649 23.8279 78.0461 38.6197 22.9878 78.8264 38.3078 
0.979413 36.7058 40.3563 27.4162 70.0223 38.9663 23.1904 78.975 39.488 
15.7397 3.88045 40.3346 67.0959 16.907 40.6468 68.6927 19.1403 40.2509 
57.4491 36.4276 40.6286 54.3399 43.8986 39.7726 1.61535 46.036 40.3624 
50.2772 45.588 40.5193 52.7071 44.2504 40.8258 27.3521 65.4341 39.9063 
13.9983 72.6387 40.3506 27.6931 72.5085 40.8266 26.2915 74.9881 40.4115 
24.399 78.0086 39.5884 22.1661 78.9685 40.4891 14.1487 4.99589 42.0382 
42.7451 5.13031 41.9731 66.223 17.1799 42.1074 67.7242 19.0136 41.2043 
51.6656 43.7983 42.1704 48.6293 46.4875 41.6341 2.14353 48.3892 42.0425 
2.93008 53.3723 41.9973 28.5216 62.8711 42.0396 27.9787 72.3076 41.6815 
27.1074 75.21 41.8738 25.4398 77.628 40.619 26.7326 77.7222 41.8426 
23.7027 2.55915 42.018 30.8455 2.78103 41.9856 66.9434 18.7609 41.9302 
5.69443 19.8174 41.9802 64.6667 21.956 42.3689 64.042 23.9128 41.6308 
62.4857 24.5235 42.5911 1.19479 41.2125 42.0551 49.8138 45.6114 41.9913 
47.0707 47.5212 42.1977 19.0945 77.2006 42.0637 21.9421 79.0452 42.0934 
23.4095 79.1924 40.9139 25.5628 78.9538 42.5216 14.4165 4.85837 43.367 
52.4594 9.57621 43.7635 64.6499 17.073 43.6886 64.5927 19.1666 43.7714 
1.86043 31.5389 43.8354 52.0379 40.9325 43.3845 49.492 45.4853 43.2022 
2.46458 48.9233 43.9267 4.74737 57.9598 43.713 30.8308 60.8002 43.7531 
9.10309 65.4725 43.7527 28.827 63.1947 43.5991 27.5175 74.8839 43.5091 
27.041 77.8556 43.5998 23.4444 79.7392 43.6978 2.22587 46.7407 45.8573 
48.3471 46.7736 43.8857 16.3854 3.96176 45.9189 9.16951 14.41 45.4466 
61.62 15.3076 45.2054 62.9189 16.7296 45.3861 63.1939 18.689 45.2739 
62.5442 19.0097 45.8103 59.6164 24.1833 45.4494 54.9905 31.5383 45.6026 
1.50182 36.2744 45.5607 47.3445 47.7165 45.0576 3.02706 53.3163 45.4781 
7.62492 62.5544 45.3503 14.0911 72.6247 45.4399 27.1443 77.9137 45.1668 
26.4162 80.0256 46.148 23.8758 79.9804 45.4582 35.7469 4.40575 47.2175 
59.8682 15.0907 47.4095 61.2388 16.8582 47.6215 6.65184 19.1888 47.1857 
2.47908 46.7955 46.6127 2.95165 51.5673 47.4877 37.9332 55.2759 47.2665 
30.709 62.8217 47.2125 28.83 65.0542 46.6624 27.0674 75.5526 47.1651 
19.049 77.2609 47.1263 18.4202 3.76704 47.1135 14.6004 5.52841 46.9902 
45.2302 7.25541 47.1292 61.1639 15.689 46.5967 52.1993 33.8089 47.3421 
46.102 48.4741 46.984 28.2171 67.7801 47.1184 27.4809 79.2599 47.1994 
24.0998 80.4947 47.2329 26.3487 80.6489 47.2919 16.1125 4.96485 48.7744 
13.8183 6.95085 48.9102 57.3294 14.2692 48.9163 9.33872 14.4936 48.8342 
60.5273 16.0148 47.8664 60.3802 16.9293 48.7476 60.8452 17.4977 48.1574 
53.0685 29.371 49.3256 2.97567 45.9558 48.7178 44.515 50.2572 48.7862 
42.4904 52.3889 48.8393 30.9843 63.4697 48.6837 11.246 68.0596 48.9178 
24.2087 80.8094 49.8409 26.6148 80.836 49.1222 59.3238 15.3849 48.665 
27.3635 79.3237 48.9472 55.159 13.8377 50.7747 55.3804 13.3899 49.2317 
57.3481 14.9337 50.674 4.0141 27.0051 50.4803 52.4127 29.0126 50.5255 
47.7673 38.7551 50.6136 47.1643 40.9763 50.2665 3.25826 45.8604 50.338 
45.0304 48.3991 50.3683 43.4557 51.5001 50.3791 30.7726 65.2578 50.5943 
16.7243 74.8158 50.4895 27.8173 75.3235 50.4144 24.0073 80.6644 50.3671 
26.575 80.9265 50.6947 16.2879 5.69313 52.061 58.5447 16.3744 50.9133 
24.2349 80.6987 52.0797 25.5661 81.1191 50.6469 14.3532 7.03632 52.2164 
11.2152 11.7686 52.3286 57.9369 16.6893 51.7572 3.76513 29.0182 52.3558 
50.1066 31.4735 52.2734 47.4947 36.5383 52.647 5.0949 55.5349 52.0135 
40.5954 55.658 52.3037 28.0497 77.9914 52.3383 27.5555 79.509 52.1627 
26.8671 81.0042 52.7699 25.7382 81.1348 52.3224 15.6677 6.07473 52.4092 
33.1727 5.4628 53.764 54.8191 15.0178 53.9927 4.07785 28.7965 54.0159 
50.1874 29.084 54.0104 49.494 31.212 53.6634 43.3474 48.5224 54.1167 
42.4522 52.6201 53.2956 41.2327 55.6435 53.9902 35.0296 62.3036 54.2919 
13.8747 70.3524 53.9929 30.491 70.0778 54.1737 24.1609 80.4199 53.8447 
26.3244 81.3421 53.5078 41.4871 55.0433 53.9206 27.9602 80.1865 53.7562 
26.4649 81.2237 54.0517 16.3958 6.16113 55.2739 18.8721 5.66749 55.3335 
26.0857 5.38978 55.4781 14.8429 7.33009 56.0538 44.8367 40.7189 55.355 
3.86877 43.6389 55.7602 41.2407 55.873 55.6691 40.3865 57.7328 55.8076 
38.7205 60.122 56.2415 30.4776 74.7704 55.7175 28.6893 80.6099 54.796 
27.556 81.2874 54.756 26.8371 81.5407 55.6429 6.47255 24.0469 57.6643 
31.5688 72.7195 56.8434 30.1771 79.9078 56.0825 28.9734 82.4632 56.3468 
16.0443 7.27752 58.4735 38.3104 7.72197 57.4233 13.9714 9.21289 57.559 
42.8931 9.54921 57.3657 53.2462 16.86 57.2022 7.26475 21.861 57.3507 
5.68988 26.1412 57.6138 5.3447 26.9275 57.2536 4.81391 28.9869 57.5098 
3.87734 38.7164 57.5723 42.0829 50.6659 57.2017 40.966 56.5069 57.1268 
40.4551 57.9734 57.4003 34.1033 65.7324 57.2302 16.5601 72.5613 57.3113 
32.3902 72.456 57.9647 21.3139 77.4295 57.3223 29.8708 81.6936 56.6029 
29.8816 82.6489 57.1676 26.7152 81.5901 56.965 28.6331 82.5224 56.6036 
11.6008 14.4197 59.0747 50.3038 14.2088 59.1712 50.0028 24.1634 59.0131 
46.8977 31.2329 58.7802 44.4869 38.4431 58.7936 43.8425 40.7299 58.6388 
43.1113 43.604 59.0911 9.12531 60.3871 58.9618 38.314 62.8353 59.1496 
12.9731 66.9722 58.6588 33.1304 72.4912 58.9883 31.7273 80.5452 58.8005 
52.1479 19.1738 58.9001 9.07047 19.2058 59.1297 4.42515 41.0541 58.8708 
6.00372 51.0967 59.3139 30.5197 82.3962 58.7583 16.6246 7.9206 60.2289 
35.4427 7.99126 60.4112 14.9282 9.74705 60.6372 50.3333 14.8783 60.767 
50.327 21.8552 60.877 49.2713 24.2732 60.8367 6.76481 26.5118 60.5584 
46.9119 29.0049 60.7232 46.4546 31.1565 60.4137 5.17038 33.9215 60.3999 
5.10007 38.712 60.5178 6.00567 48.354 60.6209 39.6256 60.7635 60.2828 
39.0111 62.5269 60.2421 38.2791 65.1357 61.0552 35.0836 70.2742 61.0839 
28.6465 82.1925 60.6582 28.4919 7.0957 60.772 49.5175 14.9089 62.1597 
50.987 16.2481 61.203 5.85908 43.6384 61.2239 41.8802 45.6923 62.1104 
39.8535 55.3523 62.2495 35.1367 72.9066 61.529 35.122 74.5946 61.4459 
35.1271 75.0693 61.7816 32.0479 81.6882 60.4416 31.2849 82.5392 61.0635 
20.6594 7.77635 62.59 16.6582 9.23515 62.7343 50.3801 16.9723 63.5275 
45.9314 31.6574 62.5717 8.98254 57.9634 62.265 39.407 62.3871 62.8206 
38.0009 67.1601 62.4409 18.6953 72.7927 62.5123 34.4843 83.2582 63.5164 
31.1055 82.7489 62.0299 50.3319 19.1368 64.2228 38.1548 69.7793 64.4693 
34.6369 79.9539 62.5661 34.9116 81.8624 63.2657 35.6815 80.2883 63.864 
35.2437 83.2063 64.0931 17.1267 9.59437 63.8023 14.9811 12.3843 63.8071 
47.8132 14.8977 64.0179 48.9167 15.4341 63.8109 49.872 16.5674 64.2031 
11.0255 21.4776 64.5711 46.9302 26.4171 64.0383 7.25359 43.5387 63.9468 
8.24573 54.1036 63.4337 38.7764 67.3494 64.0276 36.253 75.3097 64.3084 
23.6634 77.3944 64.1394 35.9515 77.544 64.1636 33.1519 83.3918 64.0413 
18.907 9.77823 65.766 33.4066 9.7926 65.7505 10.3391 24.508 65.1434 
41.9784 40.9242 65.7011 7.96224 43.5202 65.2354 8.56797 43.5696 66.2635 
40.8277 50.4572 65.8982 11.7171 60.5753 65.7653 14.1979 65.2863 65.7873 
39.0683 68.072 65.6793 38.8098 70.1911 65.7449 36.7183 80.3323 64.9899 
37.4015 80.3431 65.6105 34.8043 83.0479 64.3026 37.0054 82.3416 65.74 
31.02 81.9938 65.7136 33.7588 83.257 65.4889 23.6984 9.10461 66.069 
20.9981 10.0168 67.4416 49.4144 17.6913 67.1995 49.5307 18.9368 67.588 
47.2447 24.4196 67.6681 9.55973 33.8971 67.3595 16.6194 67.676 67.4623 
18.8326 70.2465 67.5558 39.0634 72.187 67.0883 33.2656 82.3004 67.5215 
38.1038 82.7826 67.2268 40.7576 77.4375 69.0506 40.0066 79.9781 67.9528 
39.7405 82.131 68.3021 37.9119 83.4002 68.8702 19.5239 12.0539 69.0564 
47.978 17.4719 69.1997 14.624 19.5587 68.9019 48.9585 19.5882 69.499 
48.5192 21.2724 69.3777 11.8704 55.6138 69.1313 39.1104 56.2125 69.2967 
14.3493 62.8402 69.0769 23.808 74.921 69.1529 40.2147 75.3679 69.0937 
26.1278 77.268 69.1498 41.4151 80.3718 69.6682 40.5476 82.5924 69.2346 
43.0305 16.2098 71.1647 45.2299 16.9428 70.8987 16.7997 17.2759 70.6902 
47.3353 17.7418 70.584 48.6433 19.2616 70.1216 48.3348 19.2364 70.6791 
16.142 19.1659 71.132 15.2902 19.8424 70.1952 41.9971 38.7878 70.9268 
41.0868 43.6666 70.935 40.6708 45.9995 70.923 40.3288 48.3695 70.8649 
11.8056 50.7946 70.8683 39.1954 70.4588 70.9834 42.1216 79.9564 70.9645 
30.9385 79.8101 70.8704 40.4996 83.0646 69.9745 15.4756 21.3273 71.538 
41.9547 81.4533 71.1357 21.3676 13.5405 72.9469 38.0646 14.4647 72.621 
42.7623 16.7343 72.6009 45.8103 17.8504 72.6218 16.7816 19.4487 72.4523 
47.1357 19.5497 73.5531 11.9486 43.5445 72.4873 12.0136 45.9453 72.4528 
40.3184 48.3324 72.4531 39.95 50.741 73.0538 15.9402 60.714 72.9793 
19.3513 67.4223 72.3028 23.7352 72.5665 72.5861 42.1995 78.0605 72.6805 
38.5955 82.2504 72.2684 42.1199 81.3674 73.1585 41.035 82.2549 73.0783 
42.0878 81.5171 74.3193 21.5095 14.2055 74.289 33.2069 13.8871 74.5828 
18.2924 19.0577 74.6927 45.7818 18.7961 74.6525 46.8471 19.8891 74.4308 
46.9978 21.6467 74.9201 16.3348 24.1249 74.4263 46.5702 26.1738 74.2495 
42.0191 38.4679 73.9617 12.7256 41.196 73.6788 13.5822 48.4722 74.6358 
19.1189 65.2001 74.1481 38.9991 67.7241 74.1228 28.1486 75.4427 74.6225 
30.9322 77.637 74.3812 42.4704 80.2227 74.8547 37.7624 80.6066 74.7397 
45.3807 19.2751 75.9282 46.7431 21.3617 76.0723 46.915 24.1542 75.4252 
43.1914 33.6681 75.6394 39.1368 56.2832 75.7786 40.1342 70.2757 76.1013 
41.8801 75.779 76.2184 41.0273 80.8613 75.9655 23.4007 14.3716 76.2554 
46.5112 20.2899 75.6511 46.1366 27.0837 76.2145 39.802 53.1067 76.0476 
20.9926 65.5455 76.2517 19.7699 64.7788 75.3305 42.254 77.7477 76.3573 
42.2721 80.1903 75.7808 23.629 15.0684 77.466 21.5527 16.9558 77.5482 
46.2375 21.0716 77.7065 46.7418 21.8487 77.6673 47.1184 24.0079 77.4333 
44.384 29.3058 77.4787 43.779 31.0902 77.5755 17.0752 55.484 77.3103 
39.602 66.9253 77.3604 26.0072 70.6129 77.9682 41.9532 74.8699 77.6685 
33.5259 76.9827 77.354 42.041 77.6872 77.7859 40.9416 79.6485 77.4133 
41.8329 78.9672 77.1171 40.5442 19.1205 79.5106 45.4573 21.3701 79.4791 
46.7114 22.3962 79.0735 19.4024 24.3326 79.0412 46.7454 26.4896 79.7332 
43.0905 36.6555 79.4273 16.4339 43.5421 79.4588 41.387 45.9435 79.1355 
21.5868 62.7489 79.1743 39.5139 62.7774 79.2477 23.5674 65.4257 79.5119 
42.0823 72.7907 79.6667 42.5374 75.3345 79.6464 42.0414 77.7985 79.2939 
41.0053 78.4486 79.2794 25.8588 16.0364 79.9866 28.3739 16.5486 81.3385 
40.2799 19.7159 80.9022 21.1532 24.1221 81.2226 20.3646 23.8676 80.1211 
47.1643 24.3148 80.8548 42.6397 75.5213 80.4182 40.8591 76.7999 81.7517 
23.5416 19.0844 81.3176 38.2224 18.9584 81.2838 45.3395 22.3038 81.2715 
47.0934 26.1427 80.9714 44.1894 33.4407 81.331 43.7018 34.692 80.9596 
18.3765 48.485 81.5133 22.273 62.3598 80.3074 22.7845 61.0133 81.8563 
24.2194 64.9683 80.646 25.5617 65.7108 81.5657 42.3552 76.6575 81.4921 
26.3584 17.5425 82.2932 25.9044 18.7284 83.2634 46.1589 23.2508 81.6993 
47.0799 24.7295 82.6868 47.3072 26.7571 82.9266 46.9645 28.077 82.8653 
44.2426 34.1159 82.8902 21.232 55.6756 82.856 28.5594 67.9543 83.0442 
43.4711 72.8697 82.987 42.9387 76.4679 82.0968 40.8167 75.8227 83.07 
42.7304 76.3849 82.2937 45.8767 23.6661 83.0423 43.887 38.825 84.2002 
25.4873 63.3103 83.3571 43.2661 67.6836 84.2222 28.4877 18.8195 84.7922 
45.6003 24.2178 84.5562 46.6648 24.8287 83.7665 47.2602 26.4949 84.4253 
23.3955 26.487 84.7803 21.5165 31.4861 84.3262 45.9532 31.4225 84.7614 
43.8709 72.9426 84.2998 42.807 75.1407 83.9847 40.9478 74.803 84.3584 
45.0228 24.6477 85.9616 46.1308 31.5209 85.7608 44.2123 70.2844 85.1303 
44.7965 70.2979 86.5051 44.0942 71.5373 85.133 38.24 72.2559 85.8524 
30.9246 19.3253 86.1648 46.459 27.0506 86.5654 46.6898 28.7774 86.263 
46.4405 30.6033 86.1796 21.5947 38.7356 85.956 21.7053 43.8268 86.3131 
23.0001 48.5254 86.8972 43.3403 48.4367 85.9751 23.596 53.2838 86.4039 
42.3931 55.2936 86.0753 26.2962 60.3783 85.9782 28.3678 63.0006 86.3321 
44.8215 67.9319 86.6331 43.5107 72.9287 86.3721 44.2537 71.6182 86.6315 
31.0732 20.0588 87.1807 28.858 21.7244 87.475 30.4886 21.2257 88.0623 
35.584 21.313 88.472 46.6457 31.3735 88.0467 44.497 43.3426 87.99 
43.9772 48.4782 87.3923 43.2837 55.5686 87.5316 30.3977 63.1796 87.7788 
45.2887 68.2559 87.9018 35.3168 68.1703 87.7947 44.9129 70.4989 88.0447 
33.3497 20.9352 88.4606 46.6381 28.7121 87.6146 23.4275 41.1118 88.1543 
44.8224 41.062 88.056 44.3915 48.3268 88.2791 44.1743 55.6774 88.7179 
44.3217 58.1591 88.6527 33.0375 65.562 88.0836 43.201 71.4301 88.1015 
43.039 72.148 87.365 33.5074 22.0337 89.8296 35.2342 21.9489 89.7148 
40.5331 24.0057 89.6557 28.5817 26.6447 89.4609 45.4227 26.9165 89.8334 
46.8671 29.2576 89.4578 47.0229 31.2356 89.7828 26.0927 33.861 89.5893 
44.9927 55.661 89.7813 45.5236 60.5842 89.6638 45.6818 62.9973 89.6042 
45.5971 65.2103 89.582 45.1787 68.0038 89.5951 40.65 69.7612 89.0061 
44.7502 69.4837 89.2489 43.0809 70.2303 89.1542 43.4231 25.5799 89.9715 
30.5069 58.2198 90.1864 46.2359 61.2955 90.9807 46.1942 62.9096 91.9174 
45.1581 65.5153 90.9783 43.2163 68.1346 90.3712 35.6744 23.406 91.6048 
37.9063 23.5508 91.3561 46.0742 27.7448 89.9141 46.9027 29.0356 90.6281 
45.827 46.0087 90.9851 28.3322 45.9978 91.525 28.714 50.7355 90.9331 
46.2294 58.1848 91.3782 40.3738 65.3551 91.3084 44.2406 67.3224 90.5646 
47.4003 53.2555 93.1669 32.8262 55.8693 92.1566 46.9377 56.0489 92.9863 
46.4929 56.0543 92.0341 46.4609 60.37 92.2209 46.0653 62.0451 92.9418 
35.6192 24.5318 92.6755 46.7235 29.2458 92.9756 47.2982 31.1526 93.302 
46.7866 48.0659 93.0613 46.6411 57.8096 93.2993 46.092 61.571 93.2683 
38.0765 26.2651 94.9208 36.1231 26.5683 94.3231 40.0052 25.9877 94.6446 
42.9035 27.0516 95.1641 46.0474 28.9351 95.316 46.6092 29.5441 94.992 
47.2951 30.7253 94.1714 33.2743 33.8611 94.6832 48.1079 33.3802 94.5694 
31.3645 38.7209 93.9298 48.0196 38.8956 94.7005 48.6173 50.4781 95.2287 
48.4883 52.7825 95.2525 46.9034 56.3999 94.6914 38.2065 55.7543 94.6668 
35.5362 29.1374 94.9366 48.2693 31.3314 96.6589 35.364 48.5084 95.2317 
48.4378 52.6431 96.7378 45.7052 58.2243 94.9565 42.777 58.2237 95.0291 
40.3378 27.2073 96.0996 38.4658 28.566 96.2684 43.0457 28.2692 96.9318 
45.5595 29.1847 96.7784 46.7698 29.8776 96.1759 49.0567 33.5885 96.4104 
35.6749 38.5759 96.5745 49.2839 38.73 96.7626 48.676 38.6974 95.7364 
49.5361 45.9188 96.5266 49.4629 48.6027 96.5398 48.993 51.1205 96.273 
46.8829 55.3921 95.9432 45.1822 56.1749 96.1428 40.5998 28.4322 96.9626 
45.5307 29.7911 97.8158 48.1203 31.5642 98.4759 48.916 32.3737 97.7753 
49.294 33.8818 98.1077 49.8116 36.312 98.393 49.9116 38.3264 98.1622 
50.2061 40.9889 98.4459 50.3551 44.0716 98.2397 49.777 48.5325 98.2063 
40.2231 50.9708 96.9608 49.159 50.3371 97.4937 42.8572 53.5186 97.0105 
40.8781 29.5999 97.5092 42.5336 29.1672 97.6556 40.7515 31.1387 97.8568 
42.9495 30.6779 98.5282 45.9354 30.4747 98.4452 40.4219 33.8499 98.1604 
38.2776 41.0014 97.8827 40.408 45.9875 98.1968 42.5254 48.3884 98.4491 
47.9747 50.9047 98.0534 45.1443 52.9965 97.5456 46.845 52.7521 97.4597 
42.508 33.7418 98.9856 43.409 33.9083 99.3213 49.1724 34.6115 99.474 
49.9191 35.4761 99.9546 49.6534 41.1869 99.989 50.2632 45.2054 99.9122 
42.9454 43.5126 99.4661 50.1589 45.1815 99.7468 45.4946 48.7336 99.1512 
47.6483 48.9083 99.1515 48.6033 49.3172 98.6865 45.0883 31.5839 99.2416 
47.2948 31.9537 99.1464 45.959 33.6151 99.9986 47.9197 33.6798 99.8711 
45.4625 36.2393 100.102 47.5951 35.8124 100.342 45.7637 41.2762 100.443 
47.728 44.094 100.445 48.0006 46.3203 99.8467 49.0878 47.7498 99.059 
47.7778 41.1295 100.642 
POLYGONS 2505 7512
OFFSETS vtktypeint64
0 3 6 9 12 15 18 21 24 
27 30 33 36 39 42 45 48 51 
54 57 60 63 66 69 72 75 78 
81 84 87 90 93 96 99 102 105 
108 111 114 117 120 123 126 129 132 
135 138 141 144 147 150 153 156 159 
162 165 168 171 174 177 180 183 186 
189 192 195 198 201 204 207 210 213 
216 219 222 225 228 231 234 237 240 
243 246 249 252 255 258 261 264 267 
270 273 276 279 282 285 288 291 294 
297 300 303 306 309 312 315 318 321 
324 327 330 333 336 339 342 345 348 
351 354 357 360 363 366 369 372 375 
378 381 384 387 390 393 396 399 402 
405 408 411 414 417 420 423 426 429 
432 435 438 441 444 447 450 453 456 
459 462 465 468 471 474 477 480 483 
486 489 492 495 498 501 504 507 510 
513 516 519 522 525 528 531 534 537 
540 543 546 549 552 555 558 561 564 
567 570 573 576 579 582 585 588 591 
594 597 600 603 606 609 612 615 618 
621 624 627 630 633 636 639 642 645 
648 651 654 657 660 663 666 669 672 
675 678 681 684 687 690 693 696 699 
702 705 708 711 714 717 720 723 726 
729 732 735 738 741 744 747 750 753 
756 759 762 765 768 771 774 777 780 
783 786 789 792 795 798 801 804 807 
810 813 816 819 822 825 828 831 834 
837 840 843 846 849 852 855 858 861 
864 867 870 873 876 879 882 885 888 
891 894 897 900 903 906 909 912 915 
918 921 924 927 930 933 936 939 942 
945 948 951 954 957 960 963 966 969 
972 975 978 981 984 987 990 993 996 
999 1002 1005 1008 1011 1014 1017 1020 1023 
1026 1029 1032 1035 1038 1041 1044 1047 1050 
1053 1056 1059 1062 1065 1068 1071 1074 1077 
1080 1083 1086 1089 1092 1095 1098 1101 1104 
1107 1110 1113 1116 1119 1122 1125 1128 1131 
1134 1137 1140 1143 1146 1149 1152 1155 1158 
1161 1164 1167 1170 1173 1176 1179 1182 1185 
1188 1191 1194 1197 1200 1203 1206 1209 1212 
1215 1218 1221 1224 1227 1230 1233 1236 1239 
1242 1245 1248 1251 1254 1257 1260 1263 1266 
1269 1272 1275 1278 1281 1284 1287 1290 1293 
1296 1299 1302 1305 1308 1311 1314 1317 1320 
1323 1326 1329 1332 1335 1338 1341 1344 1347 
1350 1353 1356 1359 1362 1365 1368 1371 1374 
1377 1380 1383 1386 1389 1392 1395 1398 1401 
1404 1407 1410 1413 1416 1419 1422 1425 1428 
1431 1434 1437 1440 1443 1446 1449 1452 1455 
1458 1461 1464 1467 1470 1473 1476 1479 1482 
1485 1488 1491 1494 1497 1500 1503 1506 1509 
1512 1515 1518 1521 1524 1527 1530 1533 1536 
1539 1542 1545 1548 1551 1554 1557 1560 1563 
1566 1569 1572 1575 1578 1581 1584 1587 1590 
1593 1596 1599 1602 1605 1608 1611 1614 1617 
1620 1623 1626 1629 1632 1635 1638 1641 1644 
1647 1650 1653 1656 1659 1662 1665 1668 1671 
1674 1677 1680 1683 1686 1689 1692 1695 1698 
1701 1704 1707 1710 1713 1716 1719 1722 1725 
1728 1731 1734 1737 1740 1743 1746 1749 1752 
1755 1758 1761 1764 1767 1770 1773 1776 1779 
1782 1785 1788 1791 1794 1797 1800 1803 1806 
1809 1812 1815 1818 1821 1824 1827 1830 1833 
1836 1839 1842 1845 1848 1851 1854 1857 1860 
1863 1866 1869 1872 1875 1878 1881 1884 1887 
1890 1893 1896 1899 1902 1905 1908 1911 1914 
1917 1920 1923 1926 1929 1932 1935 1938 1941 
1944 1947 1950 1953 1956 1959 1962 1965 1968 
1971 1974 1977 1980 1983 1986 1989 1992 1995 
1998 2001 2004 2007 2010 2013 2016 2019 2022 
2025 2028 2031 2034 2037 2040 2043 2046 2049 
2052 2055 2058 2061 2064 2067 2070 2073 2076 
2079 2082 2085 2088 2091 2094 2097 2100 2103 
2106 2109 2112 2115 2118 2121 2124 2127 2130 
2133 2136 2139 2142 2145 2148 2151 2154 2157 
2160 2163 2166 2169 2172 2175 2178 2181 2184 
2187 2190 2193 2196 2199 2202 2205 2208 2211 
2214 2217 2220 2223 2226 2229 2232 2235 2238 
2241 2244 2247 2250 2253 2256 2259 2262 2265 
2268 2271 2274 2277 2280 2283 2286 2289 2292 
2295 2298 2301 2304 2307 2310 2313 2316 2319 
2322 2325 2328 2331 2334 2337 2340 2343 2346 
2349 2352 2355 2358 2361 2364 2367 2370 2373 
2376 2379 2382 2385 2388 2391 2394 2397 2400 
2403 2406 2409 2412 2415 2418 2421 2424 2427 
2430 2433 2436 2439 2442 2445 2448 2451 2454 
2457 2460 2463 2466 2469 2472 2475 2478 2481 
2484 2487 2490 2493 2496 2499 2502 2505 2508 
2511 2514 2517 2520 2523 2526 2529 2532 2535 
2538 2541 2544 2547 2550 2553 2556 2559 2562 
2565 2568 2571 2574 2577 2580 2583 2586 2589 
2592 2595 2598 2601 2604 2607 2610 2613 2616 
2619 2622 2625 2628 2631 2634 2637 2640 2643 
2646 2649 2652 2655 2658 2661 2664 2667 2670 
2673 2676 2679 2682 2685 2688 2691 2694 2697 
2700 2703 2706 2709 2712 2715 2718 2721 2724 
2727 2730 2733 2736 2739 2742 2745 2748 2751 
2754 2757 2760 2763 2766 2769 2772 2775 2778 
2781 2784 2787 2790 2793 2796 2799 2802 2805 
2808 2811 2814 2817 2820 2823 2826 2829 2832 
2835 2838 2841 2844 2847 2850 2853 2856 2859 
2862 2865 2868 2871 2874 2877 2880 2883 2886 
2889 2892 2895 2898 2901 2904 2907 2910 2913 
2916 2919 2922 2925 2928 2931 2934 2937 2940 
2943 2946 2949 2952 2955 2958 2961 2964 2967 
2970 2973 2976 2979 2982 2985 2988 2991 2994 
2997 3000 3003 3006 3009 3012 3015 3018 3021 
3024 3027 3030 3033 3036 3039 3042 3045 3048 
3051 3054 3057 3060 3063 3066 3069 3072 3075 
3078 3081 3084 3087 3090 3093 3096 3099 3102 
3105 3108 3111 3114 3117 3120 3123 3126 3129 
3132 3135 3138 3141 3144 3147 3150 3153 3156 
3159 3162 3165 3168 3171 3174 3177 3180 3183 
3186 3189 3192 3195 3198 3201 3204 3207 3210 
3213 3216 3219 3222 3225 3228 3231 3234 3237 
3240 3243 3246 3249 3252 3255 3258 3261 3264 
3267 3270 3273 3276 3279 3282 3285 3288 3291 
3294 3297 3300 3303 3306 3309 3312 3315 3318 
3321 3324 3327 3330 3333 3336 3339 3342 3345 
3348 3351 3354 3357 3360 3363 3366 3369 3372 
3375 3378 3381 3384 3387 3390 3393 3396 3399 
3402 3405 3408 3411 3414 3417 3420 3423 3426 
3429 3432 3435 3438 3441 3444 3447 3450 3453 
3456 3459 3462 3465 3468 3471 3474 3477 3480 
3483 3486 3489 3492 3495 3498 3501 3504 3507 
3510 3513 3516 3519 3522 3525 3528 3531 3534 
3537 3540 3543 3546 3549 3552 3555 3558 3561 
3564 3567 3570 3573 3576 3579 3582 3585 3588 
3591 3594 3597 3600 3603 3606 3609 3612 3615 
3618 3621 3624 3627 3630 3633 3636 3639 3642 
3645 3648 3651 3654 3657 3660 3663 3666 3669 
3672 3675 3678 3681 3684 3687 3690 3693 3696 
3699 3702 3705 3708 3711 3714 3717 3720 3723 
3726 3729 3732 3735 3738 3741 3744 3747 3750 
3753 3756 3759 3762 3765 3768 3771 3774 3777 
3780 3783 3786 3789 3792 3795 3798 3801 3804 
3807 3810 3813 3816 3819 3822 3825 3828 3831 
3834 3837 3840 3843 3846 3849 3852 3855 3858 
3861 3864 3867 3870 3873 3876 3879 3882 3885 
3888 3891 3894 3897 3900 3903 3906 3909 3912 
3915 3918 3921 3924 3927 3930 3933 3936 3939 
3942 3945 3948 3951 3954 3957 3960 3963 3966 
3969 3972 3975 3978 3981 3984 3987 3990 3993 
3996 3999 4002 4005 4008 4011 4014 4017 4020 
4023 4026 4029 4032 4035 4038 4041 4044 4047 
4050 4053 4056 4059 4062 4065 4068 4071 4074 
4077 4080 4083 4086 4089 4092 4095 4098 4101 
4104 4107 4110 4113 4116 4119 4122 4125 4128 
4131 4134 4137 4140 4143 4146 4149 4152 4155 
4158 4161 4164 4167 4170 4173 4176 4179 4182 
4185 4188 4191 4194 4197 4200 4203 4206 4209 
4212 4215 4218 4221 4224 4227 4230 4233 4236 
4239 4242 4245 4248 4251 4254 4257 4260 4263 
4266 4269 4272 4275 4278 4281 4284 4287 4290 
4293 4296 4299 4302 4305 4308 4311 4314 4317 
4320 4323 4326 4329 4332 4335 4338 4341 4344 
4347 4350 4353 4356 4359 4362 4365 4368 4371 
4374 4377 4380 4383 4386 4389 4392 4395 4398 
4401 4404 4407 4410 4413 4416 4419 4422 4425 
4428 4431 4434 4437 4440 4443 4446 4449 4452 
4455 4458 4461 4464 4467 4470 4473 4476 4479 
4482 4485 4488 4491 4494 4497 4500 4503 4506 
4509 4512 4515 4518 4521 4524 4527 4530 4533 
4536 4539 4542 4545 4548 4551 4554 4557 4560 
4563 4566 4569 4572 4575 4578 4581 4584 4587 
4590 4593 4596 4599 4602 4605 4608 4611 4614 
4617 4620 4623 4626 4629 4632 4635 4638 4641 
4644 4647 4650 4653 4656 4659 4662 4665 4668 
4671 4674 4677 4680 4683 4686 4689 4692 4695 
4698 4701 4704 4707 4710 4713 4716 4719 4722 
4725 4728 4731 4734 4737 4740 4743 4746 4749 
4752 4755 4758 4761 4764 4767 4770 4773 4776 
4779 4782 4785 4788 4791 4794 4797 4800 4803 
4806 4809 4812 4815 4818 4821 4824 4827 4830 
4833 4836 4839 4842 4845 4848 4851 4854 4857 
4860 4863 4866 4869 4872 4875 4878 4881 4884 
4887 4890 4893 4896 4899 4902 4905 4908 4911 
4914 4917 4920 4923 4926 4929 4932 4935 4938 
4941 4944 4947 4950 4953 4956 4959 4962 4965 
4968 4971 4974 4977 4980 4983 4986 4989 4992 
4995 4998 5001 5004 5007 5010 5013 5016 5019 
5022 5025 5028 5031 5034 5037 5040 5043 5046 
5049 5052 5055 5058 5061 5064 5067 5070 5073 
5076 5079 5082 5085 5088 5091 5094 5097 5100 
5103 5106 5109 5112 5115 5118 5121 5124 5127 
5130 5133 5136 5139 5142 5145 5148 5151 5154 
5157 5160 5163 5166 5169 5172 5175 5178 5181 
5184 5187 5190 5193 5196 5199 5202 5205 5208 
5211 5214 5217 5220 5223 5226 5229 5232 5235 
5238 5241 5244 5247 5250 5253 5256 5259 5262 
5265 5268 5271 5274 5277 5280 5283 5286 5289 
5292 5295 5298 5301 5304 5307 5310 5313 5316 
5319 5322 5325 5328 5331 5334 5337 5340 5343 
5346 5349 5352 5355 5358 5361 5364 5367 5370 
5373 5376 5379 5382 5385 5388 5391 5394 5397 
5400 5403 5406 5409 5412 5415 5418 5421 5424 
5427 5430 5433 5436 5439 5442 5445 5448 5451 
5454 5457 5460 5463 5466 5469 5472 5475 5478 
5481 5484 5487 5490 5493 5496 5499 5502 5505 
5508 5511 5514 5517 5520 5523 5526 5529 5532 
5535 5538 5541 5544 5547 5550 5553 5556 5559 
5562 5565 5568 5571 5574 5577 5580 5583 5586 
5589 5592 5595 5598 5601 5604 5607 5610 5613 
5616 5619 5622 5625 5628 5631 5634 5637 5640 
5643 5646 5649 5652 5655 5658 5661 5664 5667 
5670 5673 5676 5679 5682 5685 5688 5691 5694 
5697 5700 5703 5706 5709 5712 5715 5718 5721 
5724 5727 5730 5733 5736 5739 5742 5745 5748 
5751 5754 5757 5760 5763 5766 5769 5772 5775 
5778 5781 5784 5787 5790 5793 5796 5799 5802 
5805 5808 5811 5814 5817 5820 5823 5826 5829 
5832 5835 5838 5841 5844 5847 5850 5853 5856 
5859 5862 5865 5868 5871 5874 5877 5880 5883 
5886 5889 5892 5895 5898 5901 5904 5907 5910 
5913 5916 5919 5922 5925 5928 5931 5934 5937 
5940 5943 5946 5949 5952 5955 5958 5961 5964 
5967 5970 5973 5976 5979 5982 5985 5988 5991 
5994 5997 6000 6003 6006 6009 6012 6015 6018 
6021 6024 6027 6030 6033 6036 6039 6042 6045 
6048 6051 6054 6057 6060 6063 6066 6069 6072 
6075 6078 6081 6084 6087 6090 6093 6096 6099 
6102 6105 6108 6111 6114 6117 6120 6123 6126 
6129 6132 6135 6138 6141 6144 6147 6150 6153 
6156 6159 6162 6165 6168 6171 6174 6177 6180 
6183 6186 6189 6192 6195 6198 6201 6204 6207 
6210 6213 6216 6219 6222 6225 6228 6231 6234 
6237 6240 6243 6246 6249 6252 6255 6258 6261 
6264 6267 6270 6273 6276 6279 6282 6285 6288 
6291 6294 6297 6300 6303 6306 6309 6312 6315 
6318 6321 6324 6327 6330 6333 6336 6339 6342 
6345 6348 6351 6354 6357 6360 6363 6366 6369 
6372 6375 6378 6381 6384 6387 6390 6393 6396 
6399 6402 6405 6408 6411 6414 6417 6420 6423 
6426 6429 6432 6435 6438 6441 6444 6447 6450 
6453 6456 6459 6462 6465 6468 6471 6474 6477 
6480 6483 6486 6489 6492 6495 6498 6501 6504 
6507 6510 6513 6516 6519 6522 6525 6528 6531 
6534 6537 6540 6543 6546 6549 6552 6555 6558 
6561 6564 6567 6570 6573 6576 6579 6582 6585 
6588 6591 6594 6597 6600 6603 6606 6609 6612 
6615 6618 6621 6624 6627 6630 6633 6636 6639 
6642 6645 6648 6651 6654 6657 6660 6663 6666 
6669 6672 6675 6678 6681 6684 6687 6690 6693 
6696 6699 6702 6705 6708 6711 6714 6717 6720 
6723 6726 6729 6732 6735 6738 6741 6744 6747 
6750 6753 6756 6759 6762 6765 6768 6771 6774 
6777 6780 6783 6786 6789 6792 6795 6798 6801 
6804 6807 6810 6813 6816 6819 6822 6825 6828 
6831 6834 6837 6840 6843 6846 6849 6852 6855 
6858 6861 6864 6867 6870 6873 6876 6879 6882 
6885 6888 6891 6894 6897 6900 6903 6906 6909 
6912 6915 6918 6921 6924 6927 6930 6933 6936 
6939 6942 6945 6948 6951 6954 6957 6960 6963 
6966 6969 6972 6975 6978 6981 6984 6987 6990 
6993 6996 6999 7002 7005 7008 7011 7014 7017 
7020 7023 7026 7029 7032 7035 7038 7041 7044 
7047 7050 7053 7056 7059 7062 7065 7068 7071 
7074 7077 7080 7083 7086 7089 7092 7095 7098 
7101 7104 7107 7110 7113 7116 7119 7122 7125 
7128 7131 7134 7137 7140 7143 7146 7149 7152 
7155 7158 7161 7164 7167 7170 7173 7176 7179 
7182 7185 7188 7191 7194 7197 7200 7203 7206 
7209 7212 7215 7218 7221 7224 7227 7230 7233 
7236 7239 7242 7245 7248 7251 7254 7257 7260 
7263 7266 7269 7272 7275 7278 7281 7284 7287 
7290 7293 7296 7299 7302 7305 7308 7311 7314 
7317 7320 7323 7326 7329 7332 7335 7338 7341 
7344 7347 7350 7353 7356 7359 7362 7365 7368 
7371 7374 7377 7380 7383 7386 7389 7392 7395 
7398 7401 7404 7407 7410 7413 7416 7419 7422 
7425 7428 7431 7434 7437 7440 7443 7446 7449 
7452 7455 7458 7461 7464 7467 7470 7473 7476 
7479 7482 7485 7488 7491 7494 7497 7500 7503 
7506 7509 7512 
CONNECTIVITY vtktypeint64
1 0 14 20 3 2 4 3 20 
7 6 8 9 6 7 1 9 7 
10 6 9 1 10 9 1 14 10 
0 11 13 13 14 0 16 11 12 
13 11 16 15 13 35 14 13 15 
17 15 2 15 35 33 18 17 2 
2 15 33 18 2 3 19 18 3 
19 3 23 3 4 23 20 21 4 
4 21 5 5 21 22 4 5 23 
24 22 43 23 5 26 25 22 24 
5 22 25 26 5 25 29 7 8 
27 29 8 28 27 30 8 6 10 
27 8 6 17 56 15 32 31 7 
7 31 1 27 6 15 15 6 10 
30 27 15 52 30 15 31 32 1 
0 12 11 0 1 12 1 32 12 
15 10 14 34 33 16 13 16 35 
35 16 33 62 17 18 33 36 2 
2 36 37 64 18 19 62 18 64 
20 37 65 2 37 20 64 19 68 
38 20 65 68 19 23 20 38 39 
40 39 67 20 39 21 21 39 40 
67 41 40 21 40 41 21 41 22 
41 42 43 22 41 43 44 23 26 
24 43 47 47 43 69 24 47 25 
78 26 25 49 47 45 82 47 49 
25 47 82 77 25 82 78 25 77 
28 51 27 27 51 50 28 52 51 
51 52 53 29 54 58 27 50 29 
50 54 29 58 7 29 53 52 56 
55 53 56 56 57 55 28 30 52 
56 84 57 59 116 32 59 7 116 
56 52 15 59 32 7 12 32 60 
17 84 56 16 60 61 16 12 60 
85 17 62 16 61 34 61 63 34 
36 33 34 64 88 62 37 36 120 
89 64 68 66 38 65 39 38 66 
147 68 23 44 90 23 42 69 43 
44 26 46 91 45 69 69 45 47 
44 46 70 93 44 70 26 48 71 
46 26 71 46 71 72 73 72 71 
48 26 74 71 48 74 75 71 74 
75 73 71 74 26 76 79 82 49 
26 78 95 76 26 95 78 80 77 
79 81 82 106 99 82 77 82 99 
57 84 55 83 55 84 7 58 116 
85 84 17 62 163 85 86 163 62 
87 36 63 34 63 36 86 62 88 
87 120 36 119 88 64 119 64 89 
23 90 147 90 44 123 42 67 91 
123 44 92 69 42 91 93 92 44 
46 72 70 72 94 70 75 72 73 
74 76 96 96 76 95 80 95 78 
99 103 77 77 80 78 77 103 80 
103 95 80 82 81 98 101 82 98 
101 102 82 82 102 106 104 95 103 
104 103 100 102 101 105 105 106 102 
51 109 50 53 159 51 51 159 109 
53 110 159 55 110 53 55 83 108 
110 55 108 108 83 111 58 54 114 
112 111 83 113 112 115 115 112 83 
83 84 115 163 117 115 163 115 84 
32 116 60 84 85 163 61 60 118 
63 118 146 63 61 118 63 146 87 
119 86 88 120 87 146 65 164 66 
66 164 39 39 190 67 147 89 68 
41 67 42 147 90 121 173 147 121 
123 90 122 121 90 124 124 90 123 
123 122 90 123 92 125 125 92 126 
92 93 126 93 127 126 70 127 93 
94 72 127 127 70 94 45 91 49 
175 72 75 74 175 75 91 198 49 
198 79 49 74 96 175 95 97 96 
81 79 198 97 95 100 98 81 128 
95 104 100 103 107 100 101 128 105 
101 98 128 106 130 99 99 129 103 
130 129 99 129 107 103 106 105 135 
130 106 135 131 132 105 105 132 135 
133 130 135 132 131 134 132 134 135 
134 136 135 135 136 137 137 133 135 
137 136 139 139 136 138 141 140 113 
141 113 142 142 143 144 141 142 144 
58 114 116 142 113 115 117 142 115 
143 142 145 145 142 117 145 144 143 
145 117 163 119 163 86 37 164 65 
147 165 89 165 147 166 173 121 124 
172 173 124 124 123 149 123 148 149 
172 124 149 174 125 126 130 133 150 
134 131 136 151 137 139 152 153 154 
152 155 156 153 152 156 156 155 157 
158 157 155 155 152 158 158 152 154 
112 160 111 113 140 112 112 140 160 
54 341 114 114 341 216 50 341 54 
114 216 116 144 145 161 144 161 162 
162 161 145 163 162 145 116 219 60 
219 185 60 60 185 118 120 188 37 
164 37 188 119 89 225 39 164 190 
167 165 166 212 67 190 166 147 168 
169 167 168 168 167 166 147 170 168 
173 171 147 171 170 147 67 212 91 
212 196 91 123 125 148 125 174 148 
72 175 127 196 198 91 176 175 96 
176 96 97 176 97 100 81 200 128 
107 176 100 107 177 176 129 177 107 
129 130 177 177 130 150 133 151 150 
133 137 151 178 138 136 178 136 131 
138 151 139 178 151 138 151 178 153 
157 151 153 153 156 157 144 179 141 
144 162 180 182 181 162 182 162 163 
116 183 219 184 182 163 146 118 256 
120 146 187 119 225 163 165 191 189 
167 192 165 192 191 165 169 193 167 
169 168 193 194 193 168 170 194 168 
170 171 173 195 194 170 195 170 173 
233 195 173 173 172 233 127 175 126 
175 176 197 128 200 105 176 177 199 
203 202 131 178 131 153 153 131 202 
204 151 157 205 202 203 157 158 204 
154 202 205 206 154 205 153 202 154 
140 141 179 216 183 116 180 179 144 
162 181 180 180 181 179 217 182 184 
208 207 163 163 207 184 118 185 256 
209 208 163 225 209 163 187 186 210 
187 146 186 225 89 189 165 189 89 
228 226 189 191 228 189 212 190 227 
167 193 192 149 232 172 232 233 172 
174 126 284 148 174 284 148 284 149 
175 265 126 265 175 197 176 213 197 
213 176 266 198 200 81 177 286 199 
105 200 131 286 177 150 151 267 150 
203 131 201 204 158 214 206 215 154 
154 215 158 158 215 214 110 287 159 
108 287 110 111 253 108 111 160 253 
140 253 160 181 217 180 181 182 217 
184 220 218 207 220 184 221 185 219 
222 220 207 208 222 207 185 221 256 
208 209 222 222 209 223 186 146 256 
209 225 223 250 223 225 210 186 257 
210 257 187 187 257 224 187 224 120 
224 188 120 225 189 260 226 260 189 
227 211 164 211 190 164 211 227 190 
190 211 227 228 191 229 191 192 229 
192 230 231 192 231 229 192 193 231 
194 195 263 212 235 196 195 234 263 
233 234 195 265 284 126 198 196 235 
236 266 176 236 176 199 199 286 236 
314 201 200 200 201 131 150 267 286 
268 203 201 151 204 267 267 204 252 
237 203 268 203 237 238 205 203 238 
214 239 252 204 214 252 205 238 240 
206 205 240 215 206 240 240 241 215 
242 214 215 184 218 217 218 220 217 
220 244 245 246 221 219 220 222 244 
247 245 244 244 248 247 247 248 249 
222 208 244 222 255 244 255 248 244 
223 255 222 255 223 250 258 250 225 
260 276 225 194 263 262 240 239 241 
239 242 241 242 215 241 239 214 242 
109 159 50 108 253 287 341 243 216 
243 183 216 179 254 140 254 179 180 
180 217 254 221 246 256 248 255 249 
257 186 256 188 224 329 259 258 276 
276 258 225 260 226 261 226 228 261 
229 333 228 333 261 228 212 227 282 
333 229 231 231 193 262 262 193 194 
212 334 235 232 149 251 233 232 264 
232 251 264 234 233 264 263 234 264 
213 266 197 200 198 235 268 201 314 
237 268 269 238 237 269 238 269 270 
238 270 240 240 270 239 140 254 253 
272 217 220 245 272 220 320 246 219 
273 249 255 246 299 256 274 275 257 
274 256 275 256 274 257 250 291 255 
258 291 250 277 276 278 279 278 276 
276 260 279 280 278 279 164 188 331 
279 260 281 281 280 279 260 261 281 
311 212 282 334 212 311 235 334 336 
264 251 283 285 200 235 314 200 285 
267 252 315 269 268 323 159 417 50 
159 287 417 243 288 183 243 271 288 
183 288 219 288 320 219 247 272 245 
247 249 272 249 273 272 320 299 246 
255 289 273 290 256 299 290 275 256 
289 255 291 293 292 289 291 293 289 
294 258 259 276 277 294 277 278 294 
259 276 294 164 282 227 332 282 164 
333 231 262 283 262 263 263 264 283 
267 295 286 267 315 295 270 296 239 
252 239 296 50 417 385 243 298 271 
271 298 297 271 297 288 254 217 326 
300 273 289 301 302 290 299 301 290 
289 303 300 275 290 302 303 289 292 
302 257 275 257 302 224 258 294 291 
294 293 291 304 293 294 224 302 329 
294 305 304 305 294 306 278 306 294 
278 307 305 278 305 306 307 278 308 
331 188 329 278 280 307 280 278 309 
307 280 309 309 280 281 261 309 281 
282 332 310 311 282 310 262 283 312 
373 265 197 197 266 373 285 235 313 
252 316 315 318 296 317 296 270 317 
319 297 298 298 243 341 300 272 273 
301 299 302 305 308 321 307 308 305 
308 307 309 262 312 322 316 252 318 
317 270 354 270 269 354 252 296 318 
298 341 319 297 319 288 319 324 325 
319 325 288 288 325 320 217 387 326 
272 387 217 300 327 272 303 327 300 
327 303 292 293 327 292 293 328 327 
328 293 304 328 305 321 304 305 328 
308 330 321 348 330 308 308 309 348 
358 164 331 332 164 358 359 310 332 
310 359 311 262 335 333 335 262 322 
283 251 398 337 283 398 337 312 283 
400 284 265 336 361 235 235 361 313 
285 313 352 374 286 295 314 375 338 
314 338 268 295 315 362 338 323 268 
362 315 316 269 323 354 316 318 339 
317 339 318 319 341 340 254 429 253 
324 342 325 254 326 429 343 320 325 
344 326 387 345 299 320 299 345 302 
346 328 321 329 347 331 322 349 335 
336 334 370 322 312 337 372 336 351 
266 236 412 236 286 413 285 352 314 
374 295 362 338 353 323 355 316 339 
319 340 324 340 342 324 342 343 325 
320 343 386 386 345 320 272 327 387 
327 346 418 346 327 328 329 386 347 
302 386 329 346 321 330 356 346 330 
330 348 356 348 357 356 331 347 392 
392 358 331 322 360 349 351 336 370 
149 284 398 251 149 398 337 398 350 
322 337 360 337 350 360 336 372 361 
265 373 400 236 413 412 317 354 363 
339 317 355 317 363 355 341 385 340 
340 385 364 341 50 365 429 287 253 
386 302 345 346 356 389 356 357 367 
367 357 368 348 357 368 309 261 408 
332 358 359 359 395 311 334 311 395 
370 334 395 335 349 371 349 360 371 
412 373 266 352 423 314 314 423 375 
362 376 374 362 316 403 363 354 377 
363 377 378 377 355 363 341 365 385 
364 342 340 326 523 429 386 342 406 
343 342 386 389 356 366 366 356 367 
348 309 368 394 408 261 261 333 369 
333 335 371 360 350 380 360 380 371 
380 381 371 381 380 382 313 361 352 
413 286 374 323 338 404 377 354 378 
355 377 383 383 377 378 364 385 384 
50 385 365 342 364 384 388 418 346 
346 389 388 419 347 386 366 390 389 
391 366 367 347 419 392 367 368 391 
391 368 379 368 393 379 368 309 393 
358 392 359 395 396 370 333 371 422 
333 422 369 396 397 370 370 396 351 
350 398 436 380 350 399 350 436 399 
382 371 381 380 399 382 400 373 438 
374 376 401 376 402 401 376 362 402 
404 338 375 362 403 402 467 323 404 
316 355 426 323 467 354 378 354 415 
378 415 416 383 378 405 378 416 405 
355 383 405 426 355 405 342 384 427 
344 523 326 344 387 523 389 432 388 
389 390 432 366 391 390 379 393 408 
309 408 393 395 397 396 397 351 396 
399 410 411 382 399 411 400 438 496 
361 372 439 402 403 414 342 427 406 
387 418 523 387 327 418 391 420 390 
390 420 432 391 379 420 420 379 407 
407 379 408 453 408 394 369 421 261 
421 394 261 421 369 435 443 421 435 
435 369 409 369 422 409 399 436 410 
411 371 382 361 439 352 401 465 374 
401 402 424 465 401 424 402 414 424 
466 404 375 424 414 425 425 414 403 
425 403 316 354 467 415 470 418 388 
386 431 419 388 432 470 419 485 392 
407 432 420 433 407 408 392 532 359 
394 421 434 394 434 453 421 443 434 
398 476 462 398 462 436 437 411 410 
371 411 422 284 400 476 544 375 423 
316 440 425 425 440 498 441 426 405 
442 405 416 406 427 428 386 406 428 
523 418 484 419 431 485 407 433 432 
409 422 446 422 411 446 398 284 476 
411 437 446 437 447 449 446 437 449 
439 478 352 352 478 423 375 544 466 
424 425 498 316 426 440 426 441 440 
416 415 467 467 442 416 405 442 441 
385 417 634 384 385 427 428 427 450 
430 386 451 430 566 386 433 452 471 
433 408 452 453 452 408 454 359 532 
454 455 457 359 454 395 434 456 453 
454 457 395 458 434 443 458 456 434 
443 444 458 444 443 445 443 435 459 
445 443 459 435 409 460 461 460 409 
409 446 461 461 446 448 463 437 410 
447 437 463 463 464 447 447 464 449 
449 464 446 446 464 448 412 413 542 
543 413 374 465 543 374 497 465 424 
497 424 498 404 466 467 440 441 468 
441 442 469 442 500 469 441 469 468 
451 483 430 566 431 386 433 471 432 
472 471 452 455 454 457 458 444 456 
459 435 460 445 459 444 459 473 444 
460 475 459 400 496 476 410 477 463 
464 463 448 372 519 439 438 373 412 
466 479 467 469 500 480 468 469 480 
427 481 450 427 385 481 482 428 450 
481 482 450 287 521 417 287 429 521 
482 504 428 428 504 386 386 504 451 
504 483 451 484 524 523 418 524 484 
418 470 524 431 566 485 485 532 392 
486 432 471 452 507 472 453 507 452 
507 453 487 532 455 454 487 453 456 
489 487 456 457 640 395 456 490 489 
444 490 456 491 490 473 473 490 444 
491 459 475 491 473 459 640 397 395 
460 474 492 492 475 460 474 460 461 
493 474 461 461 448 493 493 448 494 
397 556 351 436 462 495 462 476 495 
410 436 477 351 556 372 448 463 477 
448 477 494 372 556 519 519 478 439 
544 423 478 465 569 543 465 497 569 
440 511 498 511 440 499 440 468 499 
500 442 467 499 468 480 481 385 502 
501 482 502 502 482 481 501 503 482 
482 503 504 429 523 522 483 554 430 
430 554 566 524 470 525 471 514 506 
486 471 506 514 471 472 487 488 508 
532 457 455 487 489 488 490 509 489 
509 490 475 491 475 490 477 436 510 
476 496 540 542 413 543 466 544 479 
512 500 467 499 480 513 525 470 432 
506 505 486 486 505 432 587 532 485 
472 507 514 509 475 515 475 492 515 
492 474 516 492 516 515 474 493 516 
556 397 640 493 494 516 436 495 510 
516 518 537 518 517 537 516 494 518 
517 477 510 518 477 517 494 477 518 
412 541 438 412 542 541 497 498 511 
572 467 479 499 513 511 512 480 500 
385 634 502 417 553 634 502 520 501 
520 503 501 503 520 504 429 522 521 
526 525 432 527 525 526 432 505 526 
505 528 527 505 527 526 514 507 529 
530 531 507 531 529 507 487 531 530 
530 507 487 508 533 487 532 575 457 
534 549 489 489 549 488 575 640 457 
489 509 534 535 534 536 534 509 536 
509 516 536 509 515 516 537 538 558 
510 538 537 517 510 537 476 540 557 
558 495 476 558 539 495 539 510 495 
559 540 496 510 539 538 438 559 496 
519 627 478 569 497 511 511 513 545 
546 545 480 545 513 480 512 467 561 
480 561 546 480 512 561 553 417 521 
504 520 547 485 566 587 505 506 514 
528 505 514 514 529 528 528 529 527 
533 508 531 487 533 531 488 549 508 
549 534 574 534 535 574 574 536 537 
535 536 574 536 516 537 559 438 541 
550 541 542 511 545 551 573 546 561 
634 633 502 502 633 579 502 552 520 
520 552 547 522 564 521 525 548 524 
548 525 555 555 525 527 527 529 555 
574 555 531 529 531 555 531 508 574 
508 549 574 537 558 578 558 538 539 
557 558 476 556 611 519 627 519 611 
542 591 541 627 592 478 478 592 594 
544 478 594 511 551 604 545 560 551 
467 572 561 546 573 545 573 560 545 
547 552 563 583 522 523 483 565 554 
586 555 574 574 537 638 557 540 590 
590 540 589 558 557 568 557 567 568 
615 479 544 511 604 597 551 560 570 
560 571 570 560 573 571 561 600 573 
502 579 552 621 553 521 562 563 552 
547 563 582 521 564 621 547 582 504 
583 564 522 565 483 504 524 649 523 
586 585 548 548 555 586 638 537 576 
575 603 640 577 576 578 576 537 577 
537 578 577 609 578 568 578 558 568 
557 590 567 642 559 541 615 572 479 
604 551 570 572 600 561 552 580 562 
563 581 582 582 565 504 565 665 554 
524 607 649 584 607 524 524 585 584 
548 585 524 566 636 587 532 651 575 
576 577 578 609 568 588 588 568 567 
540 559 612 589 540 612 591 542 543 
594 592 593 543 569 591 595 569 596 
569 597 596 597 569 511 604 570 598 
599 617 571 570 571 617 617 598 570 
571 573 599 602 573 600 602 601 573 
579 580 552 563 580 581 562 580 563 
665 566 554 532 587 651 588 567 590 
592 594 593 597 614 596 601 599 573 
605 602 600 580 620 581 606 620 580 
580 579 606 621 634 553 620 582 581 
648 621 564 738 565 582 583 648 564 
585 608 584 608 585 586 586 574 623 
640 611 556 588 590 610 589 610 590 
613 589 612 589 613 610 612 559 642 
541 591 686 655 592 627 594 592 655 
675 544 594 595 596 614 614 597 604 
604 598 616 598 617 616 600 572 619 
619 605 600 601 602 618 618 602 605 
606 579 664 607 584 608 623 607 608 
608 586 623 574 638 623 575 651 603 
603 651 672 578 609 671 613 588 610 
611 626 627 591 569 656 628 595 614 
604 616 629 676 572 615 630 616 617 
599 618 617 618 631 617 599 601 618 
601 631 618 644 619 572 631 605 632 
631 618 605 664 620 606 647 582 620 
647 738 582 607 622 649 635 622 607 
607 623 635 623 608 635 623 638 637 
576 639 638 576 578 671 603 672 640 
609 588 652 588 613 624 652 588 624 
613 641 624 641 613 612 641 612 625 
625 612 642 656 569 628 628 569 595 
697 614 604 629 616 630 617 632 630 
572 676 643 617 631 632 643 644 572 
605 645 632 646 632 645 619 644 645 
619 645 605 633 664 579 647 620 664 
583 523 666 649 666 523 636 566 665 
635 637 650 635 623 637 638 639 670 
637 639 638 576 670 639 640 662 611 
641 653 624 653 641 625 654 626 662 
662 626 611 625 642 663 626 685 627 
674 627 685 657 544 675 658 628 614 
544 657 615 697 604 629 630 660 659 
632 660 630 679 644 643 632 646 660 
646 678 660 645 644 661 678 646 645 
648 693 621 666 648 583 622 635 649 
635 650 649 636 683 587 637 638 670 
587 721 651 671 609 695 609 652 695 
652 624 653 625 663 653 626 654 685 
627 674 655 686 591 656 628 658 656 
615 657 713 629 630 659 644 679 661 
678 645 661 664 633 691 692 647 664 
634 621 680 693 680 621 647 692 738 
649 667 666 668 667 649 650 668 649 
670 669 668 637 670 650 650 670 668 
683 721 587 673 653 663 663 642 673 
673 642 696 642 541 710 642 710 696 
655 675 594 712 686 656 688 658 614 
688 614 697 676 615 713 629 689 697 
676 729 690 643 676 690 659 660 689 
660 677 689 660 678 677 661 679 678 
680 750 634 666 681 648 667 682 666 
669 667 668 670 576 671 662 640 684 
656 658 687 629 659 689 690 679 643 
634 768 633 634 750 768 738 704 565 
703 648 681 565 704 665 666 694 681 
694 666 682 667 669 682 665 683 636 
670 706 669 721 672 651 695 652 723 
652 653 724 673 724 653 662 684 654 
654 684 709 654 709 685 541 711 710 
686 711 541 688 687 658 678 698 677 
677 698 689 679 699 678 700 678 699 
678 700 698 633 767 691 701 692 664 
691 701 664 693 786 680 648 703 693 
682 705 681 682 681 694 682 706 707 
669 706 682 806 671 708 652 724 723 
640 709 684 685 743 674 743 655 674 
655 743 675 656 687 712 687 688 712 
675 811 657 688 697 712 731 679 690 
689 698 717 699 714 715 700 699 715 
692 701 702 692 702 738 716 703 681 
665 704 817 681 706 716 681 705 706 
682 706 705 665 817 683 670 671 806 
686 712 758 699 679 714 679 731 714 
698 700 715 698 715 717 767 701 691 
633 768 767 701 737 702 702 737 738 
703 718 693 719 718 703 719 720 718 
703 720 719 703 716 720 716 734 720 
734 716 706 706 670 739 683 788 721 
708 722 806 721 740 672 671 722 708 
695 741 722 695 722 671 672 792 640 
723 742 695 640 792 818 818 725 640 
709 640 725 724 673 755 696 726 673 
725 685 709 727 726 710 726 696 710 
727 710 711 744 711 686 657 759 713 
712 697 728 689 730 697 697 730 760 
689 717 730 730 717 745 729 731 690 
714 731 732 715 714 732 704 738 817 
806 739 670 717 715 732 731 735 736 
732 731 736 701 767 733 784 750 680 
733 737 701 680 786 784 718 751 693 
720 751 718 734 739 720 734 706 739 
817 788 683 740 721 788 741 753 722 
830 792 672 712 728 758 728 697 760 
676 713 759 730 745 775 799 731 729 
717 746 745 731 799 735 717 732 746 
732 747 746 736 735 748 747 732 748 
748 732 736 733 767 749 749 737 733 
752 740 788 741 754 753 672 791 830 
807 695 742 724 770 723 818 771 725 
726 755 673 727 793 726 685 819 743 
727 711 756 711 744 763 744 686 773 
728 760 796 797 729 676 799 761 735 
735 762 747 735 747 748 747 762 748 
750 838 768 749 767 766 766 737 749 
737 785 738 751 720 739 753 806 722 
740 752 672 752 791 672 754 741 753 
807 754 695 695 754 741 770 724 755 
725 819 685 726 793 755 756 793 727 
763 744 757 711 763 756 744 773 757 
758 728 796 676 759 797 760 730 775 
745 746 764 761 762 735 762 764 747 
747 764 746 748 762 765 765 762 747 
765 747 748 769 737 766 750 784 838 
785 737 769 788 790 752 754 807 753 
742 808 807 830 831 792 742 723 808 
725 771 819 772 756 757 756 763 757 
757 773 772 774 773 686 686 758 774 
813 759 657 778 762 761 762 765 777 
764 762 777 764 777 776 765 762 778 
787 805 751 787 751 739 743 811 675 
811 813 657 780 760 775 799 729 797 
775 745 781 745 764 776 745 776 781 
776 777 782 776 782 781 777 765 778 
777 778 782 766 767 783 766 783 769 
751 805 693 817 738 804 739 816 787 
806 816 739 788 779 789 788 789 790 
790 791 752 770 809 723 809 770 755 
756 772 793 793 772 794 819 853 743 
794 773 795 773 794 772 743 853 811 
795 773 774 774 758 812 796 760 798 
760 780 798 778 761 802 781 782 800 
781 800 801 802 782 778 803 782 802 
800 782 803 803 801 800 838 849 768 
785 823 738 805 786 693 779 789 790 
723 809 808 793 885 755 812 833 774 
759 856 797 798 780 814 780 775 798 
781 801 815 768 849 767 838 784 822 
783 823 769 769 823 785 822 784 786 
823 804 738 789 827 790 789 779 827 
790 827 791 807 828 753 792 831 818 
809 810 808 809 755 810 793 794 843 
794 795 843 774 833 795 796 812 758 
856 759 813 798 775 845 798 845 814 
845 775 846 775 781 846 846 781 815 
761 799 837 761 837 802 803 802 837 
815 801 820 801 803 820 803 837 820 
783 849 821 767 849 783 823 783 821 
824 805 787 816 840 787 817 870 788 
826 816 806 753 871 806 791 827 830 
807 829 828 829 807 852 807 808 852 
810 882 808 771 818 841 841 884 771 
884 832 771 842 755 885 832 819 771 
819 873 853 833 812 834 886 813 811 
812 796 835 835 834 812 813 887 856 
796 798 836 814 836 798 797 876 799 
876 837 799 824 839 805 805 839 786 
840 824 787 788 870 779 826 806 825 
816 826 825 826 806 871 871 753 828 
828 829 852 810 755 842 833 843 795 
796 836 835 844 836 814 844 814 845 
815 820 847 847 820 848 820 837 848 
849 850 821 821 850 823 804 823 866 
824 851 839 851 824 840 804 870 817 
851 840 816 859 851 816 825 859 816 
870 827 779 831 901 818 901 841 818 
882 810 842 952 885 793 952 793 843 
833 917 843 917 833 854 833 834 854 
834 835 854 855 854 835 835 836 855 
845 846 844 846 815 861 847 857 815 
815 857 861 837 858 848 848 858 847 
857 847 858 822 880 838 850 866 823 
832 916 819 856 876 797 846 861 877 
861 857 862 861 862 863 864 863 862 
857 864 862 849 838 896 865 850 879 
879 850 849 850 865 866 786 867 822 
786 839 867 839 868 867 869 868 851 
851 868 839 804 866 870 869 851 859 
870 881 827 852 871 828 830 901 831 
901 872 841 872 884 841 916 873 819 
853 886 811 813 886 887 854 855 874 
902 856 887 836 874 855 860 874 836 
836 844 860 844 846 875 846 877 875 
877 861 863 837 894 858 858 894 878 
858 878 857 864 857 878 849 897 879 
880 896 838 869 898 867 868 869 867 
825 900 899 826 900 825 900 826 871 
827 881 901 808 882 852 883 884 872 
872 883 884 832 936 916 916 853 873 
916 886 853 860 888 874 889 888 860 
904 860 844 889 860 904 844 875 920 
863 890 877 891 890 863 876 894 837 
892 893 890 892 890 864 864 890 863 
891 890 893 897 849 896 865 879 866 
869 859 898 825 899 859 870 901 881 
827 901 830 884 883 901 901 883 872 
884 936 832 918 887 886 844 920 904 
875 877 920 877 890 891 878 894 895 
895 892 878 878 892 864 879 911 866 
822 944 880 866 913 870 898 859 899 
885 934 842 874 888 1018 874 1018 854 
937 888 889 889 904 937 907 920 877 
876 921 894 894 939 895 939 905 895 
893 906 891 908 891 906 895 905 894 
892 895 910 895 905 910 893 892 906 
906 892 910 926 866 963 911 963 866 
918 886 953 856 902 903 919 876 856 
907 877 908 877 891 908 909 908 906 
909 906 910 879 897 911 896 880 962 
880 944 962 867 944 822 867 924 944 
867 898 924 925 924 898 912 925 898 
866 926 913 912 898 899 914 912 899 
899 915 914 899 900 915 932 871 852 
852 882 932 901 970 884 970 949 884 
882 842 933 949 936 884 842 934 933 
952 843 917 953 886 916 918 902 887 
954 903 902 903 954 856 876 919 921 
908 922 907 923 922 908 908 909 923 
905 957 910 923 909 910 912 927 925 
928 929 912 912 914 928 926 930 913 
914 929 928 914 915 928 901 870 967 
934 885 935 919 856 955 920 937 904 
919 974 921 907 922 938 940 922 923 
912 929 927 931 941 913 931 913 941 
913 930 941 928 915 929 929 915 966 
941 870 913 915 900 966 949 950 936 
1018 917 854 937 973 888 856 954 955 
921 939 894 939 957 905 942 938 940 
938 922 940 910 957 940 923 910 940 
896 943 897 962 986 896 911 943 963 
911 897 943 924 945 944 924 945 925 
926 963 930 924 946 945 925 946 924 
927 946 925 930 947 926 963 947 930 
927 948 946 927 929 948 930 947 941 
870 941 967 900 871 968 932 882 969 
969 882 933 933 934 1016 934 935 951 
951 935 885 952 951 885 918 972 902 
972 954 902 937 920 984 956 920 907 
921 975 939 938 956 907 958 956 938 
942 958 938 958 942 940 959 958 940 
947 967 941 948 929 966 871 932 969 
1016 934 951 917 1018 982 984 920 956 
958 959 960 957 959 940 896 986 943 
943 986 961 961 963 943 961 995 963 
945 1009 944 964 945 946 965 964 948 
948 964 946 967 947 963 966 965 948 
966 900 968 871 981 1000 871 969 981 
970 971 949 949 971 950 950 971 936 
952 1016 951 936 1001 916 952 917 989 
1001 953 916 953 972 918 1018 888 973 
919 1003 974 919 955 1003 956 958 976 
939 977 957 957 977 959 958 960 976 
963 1027 967 980 966 968 999 968 871 
969 933 1016 989 917 982 954 972 990 
937 983 973 937 984 983 921 974 975 
975 1005 939 977 985 959 961 986 995 
944 1009 962 945 964 1009 964 978 1009 
987 978 965 965 978 964 965 966 979 
987 965 979 966 980 979 980 968 988 
968 999 988 901 967 1012 871 1000 999 
970 1015 971 952 989 1016 953 1001 972 
990 991 972 1018 973 1002 954 1052 955 
1002 973 983 974 1052 975 956 992 984 
992 956 993 977 939 1005 956 976 993 
959 985 960 993 976 960 985 993 960 
994 995 986 978 987 979 978 979 996 
997 996 979 997 979 998 1012 967 1027 
979 980 998 988 998 980 1000 981 1014 
901 1012 970 969 1014 981 1015 970 1012 
990 972 1017 990 1052 954 983 984 1004 
975 1052 1005 992 1006 984 1006 1004 984 
977 1007 985 995 1027 963 988 1013 998 
988 999 1013 1016 1014 969 1038 1001 971 
989 1086 1016 971 1001 936 1001 1017 972 
990 1019 1052 1007 1006 1008 992 993 1008 
1006 992 1008 1008 993 1007 993 985 1007 
1024 994 986 978 1010 1009 996 1010 978 
996 997 1010 997 1011 1010 997 998 1011 
1011 998 1029 1086 989 982 1018 1086 982 
1001 1040 1017 1060 1018 1002 1060 1002 983 
955 1052 1003 1003 1052 974 1020 983 1021 
983 1004 1021 1021 1006 1022 1004 1006 1021 
1007 977 1023 1007 1023 1006 1006 1023 1022 
962 1025 986 995 1032 1027 995 994 1032 
1009 1026 962 1027 1028 1012 1029 998 1013 
1000 1014 1036 990 1041 1019 1017 1041 990 
1021 1030 1020 977 1031 1023 1024 986 1025 
994 1024 1032 1044 1032 1024 1025 1044 1024 
962 1026 1033 1026 1009 1033 1026 1009 1010 
1010 1011 1034 1034 1011 1029 1012 1028 1027 
1013 1035 1029 999 1049 1013 1013 1049 1035 
999 1000 1049 1014 1037 1036 1012 1081 1015 
1015 1038 971 1016 1086 1084 1051 1040 1001 
1040 1039 1017 1017 1040 1041 1017 1039 1040 
1019 1042 1041 1019 1041 1052 1052 1041 1042 
1060 983 1020 1052 1102 1005 1030 1021 1043 
1021 1022 1043 1023 1031 1043 1022 1023 1043 
1032 1044 1045 1034 1026 1010 1046 1034 1029 
1029 1035 1047 1049 1048 1035 1066 1012 1027 
1067 1049 1000 1036 1050 1000 1000 1050 1067 
1037 1050 1036 1037 1014 1050 1050 1014 1058 
1015 1081 1082 1038 1015 1082 1001 1038 1051 
1018 1110 1086 1041 1059 1042 1042 1059 1052 
1005 1076 977 1102 1076 1005 1020 1030 1053 
1053 1030 1054 977 1055 1031 1030 1043 1056 
1056 1054 1030 1033 1104 962 1026 1034 1057 
1034 1046 1057 1032 1065 1027 1046 1029 1057 
1029 1047 1057 1047 1035 1048 1040 1051 1085 
1052 1059 1100 1055 1054 1056 1055 1056 1031 
1031 1056 1043 1056 1043 1054 1044 1025 1061 
1045 1044 1061 1061 1025 962 1026 1104 1033 
1026 1057 1062 1047 1063 1057 1063 1047 1064 
1047 1048 1064 1064 1048 1049 1049 1067 1079 
1066 1081 1012 1016 1097 1014 1097 1016 1084 
1083 1038 1082 1051 1038 1083 1041 1087 1059 
1040 1087 1041 1075 1060 1020 1053 1075 1020 
1068 1053 1069 1053 1054 1069 1055 977 1070 
1055 1069 1054 1055 1070 1069 1093 1045 1061 
1026 1062 1071 1057 1063 1062 1063 1064 1062 
1027 1065 1066 1064 1049 1079 1079 1067 1072 
1050 1072 1067 1040 1085 1087 1060 1073 1074 
1073 1060 1075 1068 1075 1053 1073 1075 1074 
977 1076 1070 1061 962 1077 1077 962 1104 
1077 1093 1061 1045 1093 1032 1062 1078 1071 
1064 1078 1062 1079 1078 1064 1079 1072 1080 
1072 1067 1080 1058 1107 1050 1014 1107 1058 
1107 1014 1097 1051 1083 1085 1059 1087 1088 
1125 1110 1018 1059 1088 1100 1125 1018 1060 
1089 1060 1074 1075 1068 1090 1075 1090 1091 
1075 1091 1074 1070 1090 1069 1076 1090 1070 
1090 1068 1069 1092 1093 1077 1092 1094 1093 
1104 1026 1095 1032 1093 1065 1065 1117 1066 
1079 1080 1096 1080 1072 1096 1072 1050 1096 
1096 1050 1120 1098 1108 1084 1123 1110 1124 
1125 1124 1110 1125 1060 1089 1089 1074 1103 
1103 1101 1089 1102 1127 1076 1092 1077 1104 
1104 1094 1092 1071 1116 1026 1117 1065 1093 
1078 1118 1071 1118 1078 1105 1105 1078 1079 
1117 1121 1066 1079 1096 1105 1106 1083 1082 
1081 1106 1082 1108 1097 1084 1098 1084 1108 
1108 1084 1146 1083 1142 1085 1084 1086 1146 
1146 1086 1099 1086 1110 1099 1100 1111 1052 
1102 1052 1111 1125 1089 1101 1127 1112 1076 
1113 1076 1112 1103 1091 1112 1103 1074 1091 
1091 1113 1112 1113 1090 1076 1091 1090 1113 
1104 1114 1094 1095 1114 1104 1115 1114 1095 
1026 1115 1095 1026 1137 1115 1026 1116 1137 
1071 1118 1116 1105 1096 1119 1119 1096 1120 
1081 1066 1121 1097 1108 1140 1087 1085 1147 
1122 1146 1099 1099 1109 1122 1147 1131 1087 
1099 1110 1122 1131 1100 1088 1087 1131 1088 
1111 1100 1147 1125 1101 1126 1126 1101 1128 
1101 1103 1128 1112 1127 1129 1112 1129 1103 
1129 1128 1103 1117 1093 1094 1118 1130 1116 
1119 1118 1105 1120 1050 1107 1081 1121 1106 
1100 1131 1147 1124 1132 1123 1132 1124 1133 
1124 1125 1134 1102 1111 1127 1127 1111 1144 
1127 1135 1129 1129 1135 1128 1135 1126 1128 
1115 1136 1114 1137 1136 1115 1136 1094 1114 
1137 1116 1160 1116 1130 1160 1118 1119 1138 
1138 1139 1118 1119 1139 1138 1119 1120 1139 
1139 1120 1154 1120 1168 1154 1107 1168 1120 
1106 1121 1167 1083 1106 1141 1142 1083 1141 
1108 1146 1140 1142 1147 1085 1122 1110 1143 
1123 1132 1110 1132 1143 1110 1133 1124 1134 
1111 1147 1144 1127 1134 1135 1144 1134 1127 
1145 1134 1126 1135 1134 1145 1126 1134 1125 
1126 1135 1145 1159 1117 1094 1118 1153 1130 
1121 1117 1165 1097 1140 1107 1107 1140 1168 
1155 1140 1146 1146 1122 1148 1122 1149 1148 
1143 1149 1122 1143 1132 1150 1147 1172 1144 
1150 1132 1151 1151 1132 1133 1136 1152 1094 
1136 1137 1152 1159 1094 1152 1159 1165 1117 
1139 1153 1118 1139 1154 1153 1165 1167 1121 
1167 1141 1106 1148 1149 1156 1149 1143 1156 
1143 1150 1156 1156 1150 1157 1157 1150 1151 
1133 1134 1151 1159 1152 1158 1137 1158 1152 
1137 1160 1158 1130 1161 1160 1130 1153 1161 
1153 1162 1161 1153 1163 1162 1163 1153 1164 
1164 1153 1154 1175 1141 1167 1142 1141 1175 
1147 1142 1175 1170 1169 1146 1146 1148 1170 
1170 1148 1171 1148 1156 1171 1172 1178 1144 
1178 1177 1157 1178 1134 1144 1157 1151 1178 
1151 1134 1178 1159 1173 1165 1164 1154 1166 
1166 1174 1164 1154 1168 1166 1165 1185 1167 
1155 1146 1169 1169 1170 1176 1147 1175 1172 
1192 1178 1172 1156 1177 1171 1157 1177 1156 
1160 1179 1158 1179 1180 1158 1160 1161 1179 
1158 1180 1159 1159 1180 1173 1161 1182 1181 
1161 1162 1182 1163 1183 1182 1163 1182 1162 
1163 1164 1183 1164 1174 1183 1174 1166 1184 
1198 1184 1168 1184 1166 1168 1198 1168 1186 
1186 1168 1187 1187 1168 1186 1185 1175 1167 
1186 1168 1201 1168 1140 1201 1201 1140 1188 
1188 1140 1189 1140 1155 1189 1190 1189 1169 
1189 1155 1169 1203 1172 1175 1190 1169 1176 
1203 1192 1172 1170 1171 1176 1176 1171 1191 
1177 1192 1171 1192 1191 1171 1177 1178 1192 
1180 1179 1193 1193 1179 1181 1161 1181 1179 
1194 1182 1183 1208 1180 1193 1183 1174 1194 
1196 1195 1174 1180 1165 1173 1211 1165 1180 
1174 1184 1196 1196 1184 1197 1185 1165 1211 
1184 1198 1197 1186 1199 1198 1200 1186 1201 
1203 1175 1214 1202 1189 1190 1192 1203 1205 
1216 1192 1205 1192 1176 1191 1216 1176 1192 
1193 1181 1206 1206 1181 1207 1181 1182 1207 
1182 1194 1207 1193 1206 1208 1209 1208 1207 
1208 1206 1207 1194 1174 1210 1174 1195 1210 
1208 1211 1180 1211 1212 1185 1186 1200 1199 
1185 1212 1175 1224 1175 1212 1213 1175 1224 
1213 1214 1175 1189 1202 1188 1190 1204 1202 
1190 1215 1204 1205 1203 1214 1226 1216 1214 
1216 1205 1214 1216 1226 1217 1226 1215 1217 
1190 1176 1215 1215 1176 1217 1217 1176 1216 
1207 1194 1209 1194 1210 1209 1208 1209 1211 
1211 1209 1218 1195 1196 1197 1219 1211 1218 
1219 1218 1209 1211 1218 1219 1221 1220 1198 
1220 1197 1198 1212 1211 1219 1221 1198 1199 
1222 1199 1200 1223 1201 1225 1201 1188 1225 
1224 1214 1213 1188 1202 1225 1227 1215 1226 
1227 1228 1215 1215 1202 1204 1215 1228 1202 
1210 1229 1209 1210 1195 1229 1195 1230 1229 
1229 1231 1209 1230 1232 1229 1232 1231 1229 
1195 1232 1230 1195 1220 1232 1220 1195 1197 
1209 1231 1219 1220 1197 1232 1231 1233 1219 
1234 1233 1232 1233 1231 1232 1220 1234 1232 
1221 1234 1220 1233 1212 1219 1221 1199 1222 
1235 1212 1233 1224 1212 1235 1200 1201 1222 
1222 1201 1223 1235 1237 1224 1235 1236 1237 
1224 1237 1214 1226 1214 1237 1227 1226 1237 
1225 1238 1237 1238 1227 1237 1225 1202 1238 
1238 1202 1227 1202 1228 1227 1239 1233 1234 
1221 1239 1234 1239 1235 1233 1221 1222 1239 
1239 1236 1235 1222 1223 1239 1223 1236 1239 
1223 1237 1236 1225 1237 1223 
