# vtk DataFile Version 5.1
vtk output
ASCII
DATASET POLYDATA
POINTS 1220 float
55.8358 64.4478 0.824226 47.6835 66.9173 0.839873 50.7744 69.2228 1.18637 
71.426 53.7323 2.11732 69.2572 53.6049 1.84229 60.9437 55.7672 1.39013 
66.3299 55.9904 1.59649 71.5409 54.8169 2.373 63.7926 58.8123 1.52858 
63.8537 61.7025 2.23392 65.8502 60.8434 2.59195 35.161 64.2437 2.6252 
37.2743 64.0622 1.75472 39.4527 69.7553 1.5698 53.0523 69.7843 1.90743 
55.1873 69.0813 2.55713 49.9387 71.9646 2.34503 41.9532 73.5018 2.0296 
71.8856 50.3854 2.99478 73.7282 50.1964 3.54967 74.1696 50.058 3.64774 
31.1222 50.9881 3.52063 74.3878 52.7706 3.74596 33.9738 58.693 2.37317 
36.2452 64.4208 2.09212 34.8751 66.8782 3.78661 36.9418 69.8014 2.41665 
37.3255 73.1535 2.83273 36.3982 72.9019 3.82216 39.4057 75.1451 2.95948 
37.4571 74.8673 3.53948 37.9584 74.7769 3.16315 71.8836 46.9243 3.80936 
73.9954 47.6537 4.05403 72.0157 56.106 3.48768 28.7608 37.1608 4.94941 
28.1188 37.175 5.14186 29.3829 38.9107 4.66917 63.9748 38.4502 5.19204 
28.6583 41.9249 5.11297 76.0239 47.5471 5.22664 75.0335 53.4166 4.60767 
69.0739 61.5427 5.23361 35.7439 72.1276 5.08871 37.0831 75.7038 5.15556 
38.0324 77.3186 6.05374 27.4629 36.3703 5.72302 26.6791 33.9953 6.74 
31.7814 36.1146 5.36503 27.4837 38.7538 5.88533 27.0679 38.7262 6.61675 
27.8736 41.4411 6.07879 27.5583 41.4752 6.82031 71.1977 42.6956 6.56776 
76.8842 47.4348 6.8949 77.0446 50.5213 5.665 77.9711 49.6513 6.98324 
76.4993 52.5613 5.73622 28.4367 33.2224 6.27248 26.6635 31.1742 7.22016 
56.1028 32.5982 6.51191 61.3381 34.7551 6.67816 74.1436 44.7287 7.06182 
71.4598 61.2635 6.98018 39.4073 78.4658 6.66451 48.6068 27.0529 8.50735 
50.446 27.6355 8.38481 25.4973 33.1816 8.08505 26.0376 36.2271 8.12167 
71.1652 42.1932 8.20455 75.6025 45.8767 8.38728 77.5875 47.8976 8.59896 
78.1941 49.1683 8.16063 78.5907 50.0849 8.65288 61.4115 70.4497 7.55226 
60.6839 72.1956 8.69859 39.1551 79.3799 7.94513 42.3854 24.8672 9.57895 
52.6656 27.5312 9.48497 77.5511 47.8016 9.35122 78.8576 52.8062 10.0068 
74.5992 61.3456 9.57698 61.0845 72.7721 9.50729 21.537 24.201 11.0132 
47.4287 24.5132 9.86231 45.5993 24.0948 9.9489 47.8991 24.0847 10.8562 
49.9806 25.39 11.0162 28.5001 50.2901 10.9399 21.3879 22.0661 11.1237 
79.434 50.1443 11.3549 31.5429 61.4281 11.0604 36.2949 79.2843 11.7235 
40.3653 19.6203 12.5069 20.3319 21.704 12.19 21.071 24.8752 12.2905 
80.4256 52.7315 12.7301 36.9709 81.6779 12.4239 20.4881 17.1994 13.1577 
80.5561 50.3296 14.2022 38.1874 82.6757 13.064 39.7229 82.5958 12.4993 
18.6003 16.5471 14.0337 38.9555 18.0263 14.1176 81.0836 51.3951 14.131 
81.5223 52.6792 14.3904 35.7176 80.5287 14.4035 36.63 81.5356 13.0033 
26.5716 13.3117 15.4119 17.4794 12.9947 15.7967 17.6807 16.6839 14.9168 
20.2888 14.6215 14.5046 32.0092 14.7904 14.6118 34.6763 15.5545 15.1623 
36.8921 16.7625 15.2602 18.2501 19.3658 15.1397 81.2798 50.9239 15.3005 
82.0185 52.3518 15.0756 37.5186 83.3866 15.5779 16.283 13.2366 16.4259 
17.1825 15.9027 15.5849 16.6633 11.8333 16.8891 17.9673 11.8156 16.5558 
28.4288 11.9465 17.09 15.3861 10.9364 18.1474 24.5534 10.5577 17.9946 
25.7771 10.437 18.7138 29.9196 12.3482 18.3291 21.4921 33.2394 18.3575 
75.1953 67.9032 17.5541 63.3308 78.6704 17.9524 24.1414 9.11275 19.6726 
14.2388 11.0048 19.2459 14.8017 10.8501 18.3662 26.5301 10.4761 19.6214 
31.6185 13.4362 19.1617 53.1956 27.4622 19.6621 71.7224 41.5304 19.67 
83.6674 52.9551 20.1527 20.8096 7.35788 21.2496 14.1679 9.16134 19.9737 
15.4589 8.72875 19.9099 47.1278 38.1074 21.074 83.9657 53.3484 20.6889 
83.9621 53.2373 20.631 36.607 84.6046 19.6035 37.1596 86.3975 22.0406 
19.0544 7.45317 20.95 47.6833 36.9809 21.4221 49.1391 37.2934 21.7132 
22.1978 38.2078 21.2087 22.6211 39.298 21.1759 22.7669 41.2757 20.8007 
83.8661 55.1969 21.3731 12.2896 8.18331 21.8993 11.5194 8.0077 22.6486 
13.1488 6.10512 22.5649 15.839 5.68169 22.7417 18.1868 5.81818 22.7383 
21.1359 7.27237 22.6836 50.3242 25.5688 22.8776 53.1345 27.8107 22.6278 
55.0125 29.2341 22.6648 20.472 36.0133 23.0073 44.7041 36.5451 22.1986 
48.9363 35.6508 22.4255 50.4365 35.3719 22.7535 22.1924 39.0208 22.9677 
49.2486 38.6767 22.6836 22.738 39.1766 22.1978 48.6412 39.1789 22.6236 
22.198 41.5814 22.7262 84.1339 55.4838 22.6955 36.9353 86.4707 22.5488 
39.4531 86.9337 22.3317 9.75383 4.69528 24.3677 18.5288 5.65278 23.6154 
21.4375 7.43104 23.5155 31.3788 14.3038 23.8295 48.0488 24.4106 24.1686 
50.3452 25.9011 24.0083 52.5147 33.5213 23.4212 50.7665 33.956 23.3814 
51.1593 34.2317 23.0565 50.9054 36.3022 23.5932 45.2752 36.7405 21.9845 
23.2002 38.9624 23.2762 50.8682 26.7275 24.4748 53.2957 29.9898 23.7273 
55.3913 29.8083 23.7346 49.7977 39.0543 24.0644 22.3095 38.9082 23.1907 
44.5423 37.8387 24.0806 48.5063 39.5596 24.2858 21.5267 41.5358 24.7824 
9.22271 4.83355 24.6612 8.90112 5.0984 25.1783 14.8786 3.7777 25.7996 
41.6641 20.5023 25.2316 44.4958 22.6518 25.6949 54.2244 31.79 25.2876 
19.5116 35.6718 25.3471 42.4116 36.4759 24.5035 44.815 33.32 25.3048 
21.0346 37.0611 24.9918 23.5759 37.1755 25.2753 24.1006 39.0779 23.821 
25.8208 38.7445 25.0564 48.2225 39.6719 25.1951 50.0934 40.3571 25.8963 
28.8746 38.6896 25.8457 29.3564 39.208 25.622 21.3993 41.3737 25.5275 
24.3082 52.7999 25.4935 84.493 53.8125 25.6164 39.6535 87.8386 24.9179 
10.4282 3.14428 25.989 13.4398 3.6994 25.3829 8.42088 5.4415 26.0399 
43.1483 21.7792 26.3973 44.4304 30.6898 26.3255 17.8322 33.5003 26.7276 
49.9791 32.2536 24.839 27.1041 36.6512 26.8228 25.5944 37.0021 25.7735 
33.6478 38.6848 26.2556 36.2329 38.7965 26.4657 35.932 38.703 26.4969 
41.789 37.9263 26.996 24.426 40.1978 26.6026 25.8846 39.9445 26.4198 
85.4782 55.7442 27.676 36.3242 87.9948 27.0401 10.0031 1.79834 27.9696 
8.90025 3.25159 26.7967 15.3337 3.74604 26.7919 10.4901 10.9532 26.7485 
45.0043 24.6597 26.847 43.9339 24.5128 28.1425 44.4142 27.5123 26.9991 
20.996 36.6575 26.4215 28.6729 37.0471 26.7773 34.6849 37.3908 27.2069 
48.2919 41.4493 28.3793 48.6294 40.614 27.0493 35.2898 86.6224 26.9088 
13.1178 2.50174 28.2931 10.4044 1.73743 28.139 8.50887 2.62752 27.859 
8.00054 4.92329 27.0645 16.2977 4.42769 28.0739 8.37084 8.02613 28.3434 
43.8724 29.6323 28.1642 42.8714 33.1527 28.2183 17.8348 33.772 28.2668 
19.4134 35.7878 28.4132 28.9223 36.2617 27.9049 40.0256 36.7741 28.4796 
36.795 38.7079 27.4822 20.5822 41.927 28.7913 23.2766 40.8156 28.5349 
50.6351 42.3548 28.1834 84.4803 53.6512 28.0823 85.9873 55.8366 29.5537 
28.2607 67.2187 27.9779 36.6989 88.5122 27.5579 8.49001 1.70802 29.1903 
10.1075 1.10595 30.0866 43.077 22.0803 29.6657 45.5755 24.2526 29.5704 
45.5451 27.8367 29.8241 55.5971 30.8868 29.9298 57.5486 31.183 29.7579 
16.7261 32.3198 29.7637 54.622 32.4322 29.8552 18.3774 33.6878 29.3534 
20.8747 36.0411 29.3012 53.2741 35.8718 29.5805 63.782 35.973 29.8102 
39.5181 35.82 29.3541 37.7826 37.1359 28.6029 39.7139 38.0579 28.6033 
24.1845 41.5927 29.7357 71.321 41.9792 29.6911 20.5632 42.2325 29.53 
52.0798 42.46 29.1585 48.4123 44.6138 29.2037 50.1369 44.7684 28.7734 
21.0985 44.1363 29.8305 21.6102 46.9472 29.9843 50.2255 47.495 28.8708 
50.4754 50.5939 28.7227 52.2465 52.3772 28.7931 53.2772 53.2831 29.1839 
84.5028 53.6778 29.4625 50.8223 54.1134 29.0403 45.6565 55.0637 28.8289 
49.7885 55.2973 29.4114 86.061 55.6905 29.5637 45.3665 56.2579 28.9838 
85.2616 57.8036 29.1637 34.8506 87.3499 29.475 36.771 89.1075 29.6119 
10.3472 1.09553 31.6581 17.6998 6.37734 30.7304 12.8004 22.3659 31.0297 
44.2537 23.3051 29.8293 44.0454 30.0913 29.7917 45.8124 27.8693 30.9412 
22.675 35.7893 29.6644 63.8042 36.2292 31.1097 39.6582 39.0783 29.0767 
34.4818 40.1361 29.0694 46.0473 40.9879 29.8579 26.5152 41.7458 29.9008 
42.4271 53.0951 29.9967 42.6772 55.9161 29.903 52.3958 54.8549 29.8819 
85.8428 55.3792 29.308 45.2009 58.0565 31.0027 31.9555 80.9051 31.0873 
35.3203 88.1683 30.0619 8.35024 1.78345 30.7936 6.56973 5.28778 31.2796 
44.4771 23.3847 31.0894 45.816 24.5037 30.6117 15.1154 30.5878 31.5101 
43.397 30.6282 31.2592 56.0063 31.3341 30.7395 57.21 31.3612 30.7128 
16.3328 32.4826 31.6079 55.6272 31.5623 30.7649 37.0667 41.8127 30.8706 
23.9077 43.4991 30.4979 23.934 42.9536 30.335 23.3157 45.2479 30.7297 
44.8933 44.5081 30.6487 45.3793 44.6436 30.5124 21.7486 47.4397 31.0632 
23.43 46.5084 31.2176 26.7718 46.4786 32.2022 27.6075 45.937 31.7919 
21.6849 49.5974 31.0857 55.5361 50.1022 31.0573 55.0485 53.2314 30.8492 
41.672 56.233 30.7915 53.3083 55.3999 30.9725 42.6636 57.2358 31.1096 
46.824 58.0047 31.2571 63.4421 83.7933 31.06 9.93839 1.26814 33.9842 
7.71123 2.4246 32.5639 6.13442 5.35076 32.1604 13.6434 24.6122 32.3655 
45.0633 27.3238 32.1466 14.6498 27.7508 32.6072 14.7511 30.2884 33.7617 
16.5003 32.5839 32.1043 28.5856 31.6374 32.3423 39.3735 33.3648 32.3513 
57.6315 32.4038 31.7639 17.735 32.6724 32.4153 57.9297 35.5083 33.4819 
63.577 36.4817 32.2771 64.2712 39.0505 32.2861 62.9265 42.2612 31.8358 
65.0555 39.8583 31.8924 56.2511 41.1876 33.0102 66.3633 42.0441 32.2734 
61.0135 42.364 32.192 71.1896 42.4492 32.5482 29.4563 45.04 32.2465 
31.9225 44.3105 32.3863 34.3651 44.1746 32.3111 56.261 44.5601 32.0214 
60.1819 44.4647 32.6971 63.7559 43.3969 32.3233 36.5002 44.7962 32.2675 
38.7683 49.3951 32.5212 79.9333 49.7052 32.5227 55.5641 53.2898 32.0934 
53.3109 55.867 32.12 43.1751 58.0272 32.5137 47.5409 58.2189 32.1572 
9.78834 1.21322 35.0633 10.5576 19.8778 34.2514 37.1551 19.2153 33.9952 
39.18 20.4357 34.1894 40.304 21.1648 34.2878 22.6732 25.3873 33.1652 
16.2141 25.1118 33.3972 19.4068 25.3131 33.4808 15.6109 27.7009 33.5887 
17.7826 26.9305 34.0638 14.7928 29.9271 34.877 58.5953 33.8565 32.9994 
61.2747 35.5234 34.1694 58.4459 36.1123 33.9678 62.6058 38.4018 34.0254 
68.7857 41.7631 32.3437 58.2428 42.9098 32.9275 58.0971 44.607 32.6561 
66.8724 42.9434 33.4776 68.905 41.9928 33.8169 65.5081 43.9642 33.9212 
34.7731 45.346 33.6239 37.9041 46.5149 32.6644 37.2327 47.2101 33.758 
57.7292 46.8271 32.6685 28.5634 46.0357 32.9347 57.7267 50.4037 33.7503 
42.5321 57.9528 33.9465 7.87357 1.86803 33.8118 11.0591 21.7526 35.3938 
12.6789 23.2305 33.5022 12.3729 23.2954 35.5944 13.9006 23.9746 33.8185 
44.1161 25.3282 33.1651 42.3886 27.927 33.9984 29.3743 29.5429 35.2193 
20.8622 30.3632 35.4843 24.0191 32.0252 34.1211 34.1438 31.1071 34.4373 
37.0677 32.4959 33.6745 60.2208 34.4748 33.6508 62.5297 36.2274 33.5906 
57.8556 39.3477 34.1538 61.7414 38.32 34.8235 59.0547 47.3709 33.6148 
60.3221 46.5488 33.9938 49.9891 57.7784 34.0914 7.83209 1.43116 35.7214 
10.4519 1.26836 33.9423 6.28078 2.7192 35.4505 5.00061 5.19883 34.8243 
12.3679 3.40317 34.9631 33.843 17.6316 35.3344 35.1352 18.7348 35.6281 
36.5291 19.5824 35.4097 41.2834 22.8417 34.8126 22.1424 25.093 33.508 
14.8365 23.6036 35.0261 23.3822 25.3519 34.9061 34.7906 25.0533 35.6519 
20.1682 27.6878 35.613 39.7794 24.7506 35.6978 18.7096 27.8043 35.0684 
31.3411 28.2508 35.2777 15.0678 30.0864 34.8821 36.4546 29.8964 35.0533 
23.8734 31.4877 35.7315 60.5011 36.8992 34.7601 61.4486 38.0363 35.1167 
68.9796 41.8324 34.8116 67.309 42.9947 34.7834 71.5764 42.8005 35.4884 
61.3205 47.2057 35.4262 20.3599 47.8996 35.4777 37.4639 53.7187 35.6791 
82.4578 52.6242 35.3589 34.7661 89.443 35.5156 7.18354 1.18775 36.7416 
10.2675 2.02695 36.2463 4.94354 5.37813 36.7775 4.9057 7.20357 36.2734 
7.33237 13.961 36.7835 34.7356 19.4231 36.5449 34.7893 22.2193 36.5361 
10.9077 21.7954 36.8047 33.6544 24.4753 36.3042 24.5563 25.198 36.1745 
26.3822 25.2078 36.6329 32.8338 25.9635 35.8919 30.9394 26.6516 36.5409 
28.8543 27.4098 36.9296 21.3554 28.5255 36.1328 28.2732 29.3916 36.4305 
26.6824 29.6913 37.627 69.5874 42.8353 37.01 29.6528 46.9306 36.7412 
31.7628 46.9656 37.0889 35.0459 47.0406 36.7365 23.3354 47.8988 36.9731 
35.8196 47.7468 36.5318 20.0988 49.5285 37.1235 21.4103 53.2263 36.9019 
23.4136 56.4374 37.1419 37.286 55.408 37.0935 47.758 59.1774 36.9192 
81.8355 66.7687 36.7455 71.9271 78.5686 36.694 31.7123 16.9468 38.2308 
12.6575 22.6781 37.0085 21.4077 22.9918 36.8339 31.4708 25.9847 36.9799 
28.7892 25.7982 37.0667 29.6571 25.6328 38.0559 31.4895 24.8767 38.4468 
23.0602 26.8975 35.9555 23.6022 28.2737 36.7235 26.0082 28.4329 37.5255 
26.9013 29.2248 38.1451 21.3102 48.1878 36.6515 36.2938 50.146 36.7965 
22.3932 54.7146 37.1561 23.4566 58.2343 38.5373 7.67196 1.75305 37.7141 
5.26642 5.3614 38.1072 4.80623 7.39926 37.3949 16.2042 7.6325 38.308 
9.60454 20.384 37.7339 10.9187 22.5663 38.0762 12.8127 22.6338 37.9252 
18.3186 22.0668 38.1223 26.6247 24.141 37.6639 26.7808 29.3722 38.24 
66.4549 45.2176 38.2999 68.5252 43.6734 38.376 73.6951 44.2671 38.4829 
32.3317 47.864 37.9727 34.2833 48.5002 37.9214 20.3239 49.6417 37.9954 
34.6476 49.2542 38.1189 35.5473 49.4205 37.3884 21.5063 53.5882 39.0054 
34.7412 53.3637 38.4451 58.2828 52.6736 38.0911 24.1434 56.2712 37.8221 
36.4794 55.863 38.1764 86.0598 58.2758 38.1761 76.0317 74.5686 38.1739 
36.7943 90.5577 38.1137 39.8852 90.607 38.0086 5.64979 5.90932 39.7272 
10.7061 4.36735 40.1449 4.96958 10.8168 39.6545 5.69692 13.2268 39.9863 
10.9046 23.3735 38.4756 16.7395 21.9805 39.398 26.2156 21.8245 39.9162 
13.1348 22.983 39.8046 30.1421 25.0366 40.0063 71.4339 43.3847 39.6357 
69.1993 43.6894 39.9501 64.204 48.1229 39.6727 21.8172 53.6361 39.233 
22.3484 51.5092 39.1569 34.3214 55.9169 39.4439 85.8055 56.0481 39.5828 
49.9174 58.48 39.7205 23.541 58.5691 39.3088 45.2276 59.3868 39.64 
23.6047 61.3085 39.5804 7.76069 3.78918 39.7525 9.56565 3.56737 39.4492 
8.08705 4.37869 40.9609 24.1986 13.4562 41.4061 26.4513 14.6838 40.7597 
30.5757 17.3298 40.797 32.5204 19.0412 39.4533 31.1435 19.3372 41.017 
7.9899 19.3574 41.179 30.6677 22.7805 41.5654 30.6029 24.156 40.7638 
69.5029 44.2066 40.5805 65.7911 46.8113 39.7759 76.6206 47.2703 41.1978 
26.8835 52.3315 39.5083 22.4142 53.3685 39.3024 31.9628 55.8779 39.841 
55.2695 55.2282 41.0258 26.0047 57.5187 39.3488 29.1371 57.9165 40.7721 
23.0607 61.1513 41.5203 34.0133 89.8145 40.913 4.93166 7.95738 40.9576 
27.1591 15.7398 41.4855 28.8864 16.5765 41.2076 26.7957 19.9124 41.4637 
26.2562 21.1659 40.5895 10.5223 23.1813 40.4043 24.2141 21.8954 40.5846 
29.9175 23.1425 41.5994 71.3533 44.2763 40.9613 66.9006 47.5707 41.1473 
63.9373 50.1825 41.1255 60.6527 52.3154 41.2029 34.6092 57.666 40.9492 
52.1558 57.1729 41.0169 23.795 59.2559 40.9891 4.88985 7.73196 42.5275 
18.8269 10.4311 42.5506 4.75474 11.0928 42.4001 24.476 14.0703 42.4347 
25.3909 14.7723 42.025 26.1253 16.4055 42.2726 26.1096 19.3711 41.9678 
29.0884 19.0083 41.8935 28.8189 19.2301 41.8144 8.71786 21.2216 43.0104 
24.3407 21.8729 42.4479 29.8069 21.4774 41.7988 71.419 47.0978 42.5167 
74.2772 46.4152 42.5041 69.3256 51.2948 42.1715 68.2161 51.7189 42.6115 
85.4065 55.9035 42.4127 55.5375 55.4776 42.2758 42.7095 59.6538 42.3035 
22.7918 60.889 42.6328 44.8121 59.6424 42.416 32.7343 88.6173 42.6554 
9.85897 5.35865 44.1459 21.96 12.4308 42.7652 24.7835 16.0775 43.6781 
6.93484 16.9093 43.8264 24.2939 19.6734 44.2305 8.86296 21.4013 44.1277 
71.2981 47.5308 43.6797 73.9836 46.3954 43.9748 69.2101 51.0237 43.486 
63.7824 54.0293 43.8341 24.044 59.3924 43.7355 23.5821 64.2214 44.0357 
24.4708 66.752 43.8767 73.2934 77.312 43.7993 28.1073 78.5057 44.0613 
31.5268 86.7079 43.7958 7.52016 4.88282 44.0666 5.53322 5.57235 43.9954 
4.27034 7.90705 43.8757 23.8149 21.3199 43.3617 18.6187 22.017 43.8657 
16.1762 22.7644 44.5297 57.8902 55.1684 43.7265 45.3667 59.6001 43.9036 
42.9679 61.9312 45.4029 1.96272 2.05833 45.4486 4.4488 2.841 45.5429 
5.59126 4.33607 45.0176 7.59038 4.7304 45.2054 2.23097 4.68627 45.2789 
3.44153 7.76548 45.0657 3.82371 6.65455 44.5247 21.6671 13.05 45.536 
8.15246 18.8695 45.4126 23.5374 19.3393 45.6584 9.18371 21.4656 44.8982 
22.0165 20.558 45.4919 18.6422 21.8127 44.8403 9.69755 21.8576 45.0795 
72.8963 45.3097 45.515 71.3356 46.1032 45.1588 76.5194 47.743 45.2306 
86.0131 58.1379 46.1981 32.0094 58.9652 45.0881 23.0421 60.6508 45.1474 
33.864 59.622 45.0055 44.3614 60.5676 45.0113 25.3894 69.3691 45.5181 
79.4014 69.7841 45.2717 26.0788 72.212 45.2948 26.9501 75.219 45.4348 
1.20855 1.0591 46.2809 5.42438 2.70557 46.8443 7.16944 4.42648 46.8221 
1.73379 5.35792 46.6975 3.14494 7.82489 46.8134 5.00855 11.3243 46.7387 
21.7204 13.6823 47.0008 5.9623 13.3473 46.5171 20.4941 20.5748 46.3046 
18.3755 21.9015 45.4163 22.0683 19.9216 46.7587 16.703 22.1629 47.9242 
71.4584 44.8234 45.9159 73.5376 45.5366 46.753 74.9499 46.5623 46.9467 
66.9468 53.9025 46.7298 45.8908 59.1101 47.0459 24.8983 59.7376 46.8228 
26.656 59.2829 46.8626 43.2239 62.946 46.8444 44.1569 61.4926 46.1858 
26.4632 72.6814 46.5811 71.8116 78.4562 46.741 69.0911 80.7496 46.7035 
29.8903 83.7669 46.8319 5.2843 3.33455 48.0005 8.19344 16.9752 46.4552 
23.4727 16.1489 46.6022 18.5345 20.2842 48.8283 69.9695 47.4488 46.9277 
24.1225 60.9015 46.7076 34.5816 61.4463 48.5159 43.0697 63.2616 47.496 
25.6055 68.0112 46.8032 70.4751 79.698 46.4336 2.40907 2.99914 47.7883 
2.99336 5.02665 48.2998 3.09977 7.04935 47.9356 22.6509 18.576 48.4449 
17.415 21.6855 48.089 16.2605 21.7414 48.5564 71.8083 45.3464 47.9032 
73.5924 45.8217 48.1362 70.7636 46.2993 48.2428 47.557 58.0749 48.6655 
29.5105 59.0029 49.1618 45.6736 59.5567 48.0485 25.8074 60.7283 47.8947 
33.2056 59.8642 48.5302 36.7105 62.2105 48.0625 26.161 64.3844 48.0978 
26.9962 69.6709 47.9622 29.5443 81.5179 48.2351 30.021 83.1117 48.1462 
32.5516 89.1735 48.2827 4.98208 3.91281 48.4899 5.28914 5.72348 49.8582 
3.78362 6.0268 48.869 9.38765 8.38221 50.6861 5.2792 7.61401 49.8016 
10.3886 7.91706 49.619 6.40115 10.176 49.0844 12.3481 9.23403 49.7529 
8.12583 10.6983 49.7474 20.5825 14.2694 49.5016 21.8626 16.2245 49.9384 
22.3046 18.9676 50.1756 71.6595 45.3553 49.7614 73.9405 46.5555 49.6163 
71.734 45.3032 49.6365 69.379 50.3131 49.4105 76.7898 49.3651 49.9317 
78.7358 50.8046 49.5131 68.3622 53.6396 49.969 55.7216 56.1395 49.5714 
47.3902 58.3914 49.5689 50.0153 57.4926 49.7915 29.724 59.1352 50.0818 
32.4858 59.1024 50.3221 33.626 61.5206 50.1107 37.4068 62.6582 48.9738 
44.2922 63.5847 48.8316 28.4084 69.8426 49.0444 29.1224 69.7693 49.538 
29.1302 75.4479 49.2497 29.9584 80.7007 49.1374 32.9429 89.0895 49.2982 
34.1131 90.0357 49.978 10.2369 8.85933 50.7782 10.8591 10.2646 50.789 
49.9491 57.7308 51.0961 32.2991 59.3851 51.6861 28.56 60.9437 49.8113 
32.0146 61.3596 51.364 33.0906 60.8817 50.1866 33.8659 61.8209 50.9706 
38.1573 62.7996 49.7359 42.8829 64.3714 50.75 45.7687 64.9187 51.9182 
30.9931 81.3441 49.904 32.1297 86.3043 49.5056 58.1109 86.1688 50.9005 
32.656 86.3745 50.0743 9.10517 8.259 50.582 8.74449 9.62569 50.367 
11.8849 10.4675 51.0306 15.9884 13.5358 51.3333 19.1171 16.6683 51.482 
21.1384 17.191 51.1901 16.1633 18.6802 50.0693 22.2544 18.6811 50.5753 
18.6027 18.6524 50.9594 71.3748 50.7312 50.958 69.3488 53.4201 51.0584 
71.1482 51.661 51.2261 71.4444 52.6806 52.2933 67.5979 54.9344 51.6046 
68.2341 54.5893 51.2483 47.143 58.9349 50.3341 45.4466 65.1523 52.4221 
33.6301 87.0298 50.8475 74.1531 51.6176 52.2571 75.6891 51.1742 52.1255 
77.3958 50.9039 52.1178 61.662 54.7812 52.9316 63.4261 54.643 52.275 
68.5716 54.6359 52.3214 58.5779 55.7237 52.3414 49.9383 58.1733 52.4687 
34.4691 62.416 52.6554 32.1121 63.3362 52.4223 76.2137 49.3003 53.6722 
78.648 51.4143 52.7143 69.3143 54.0855 53.6751 55.6473 57.8686 53.6007 
48.0991 61.6148 53.9034 33.3981 63.3443 53.2738 35.1398 80.8775 52.9682 
36.5085 89.8177 53.0854 36.9791 62.8897 54.3057 40.378 63.2406 54.6167 
45.3801 64.7895 53.2359 74.3362 49.207 55.5212 64.0391 53.8967 55.2963 
82.9802 55.5304 55.3631 61.3247 56.1339 54.8035 50.3343 60.5586 55.2429 
47.7654 62.2715 55.1787 35.9405 63.1853 54.6612 42.3173 63.4565 55.3756 
44.9348 63.7427 55.0698 46.5602 63.3978 54.7873 35.0874 69.7016 54.3599 
36.7698 69.8007 55.6278 39.3797 89.2915 55.5705 76.1415 49.2522 57.0744 
71.9402 50.5813 56.6278 64.2073 53.668 56.6088 62.5284 55.3009 55.1208 
50.8464 60.8529 56.6997 52.939 60.48 56.802 47.8611 61.7139 56.6518 
42.0338 63.0806 56.655 38.1024 64.1661 56.5562 39.7702 63.5083 57.0286 
37.4855 66.117 56.4117 37.8294 75.3036 55.8894 71.04 45.5123 58.5436 
74.2881 48.5544 56.6038 73.3609 49.0106 56.3898 69.3212 52.334 57.94 
82.8126 55.9901 58.2813 64.4771 54.8933 58.2485 83.5755 57.6257 57.5485 
39.8652 88.6057 56.473 42.1154 89.0519 56.7917 71.1975 45.3411 58.5937 
70.67 50.4811 58.0307 65.343 53.5781 57.8771 64.1048 54.1328 57.5068 
63.6484 58.774 57.6905 83.5472 58.858 57.4227 45.0101 61.6413 58.2632 
41.6171 62.9719 58.2794 39.9199 78.1711 57.8925 40.2736 86.9935 57.7564 
42.1862 88.4595 57.9754 71.2068 45.1838 59.0456 71.1104 45.4708 58.7771 
73.6444 47.0856 59.5711 70.2416 47.2347 59.5327 69.9628 50.7634 59.1047 
68.925 52.2282 59.2258 65.2319 55.2578 59.7165 65.1725 58.274 59.568 
55.655 60.5979 59.1851 61.993 60.5836 59.3483 63.0335 60.703 59.1507 
42.2388 61.9328 59.6283 40.9827 64.2333 59.1985 40.5756 75.3307 58.6698 
41.8377 75.3931 59.9909 41.8148 80.9972 59.9709 42.6519 87.0555 60.2228 
47.9138 87.6718 59.7999 66.4008 53.362 60.2596 42.1622 62.0081 59.8396 
41.9316 63.3784 59.9802 44.7582 88.2591 59.2438 71.3295 46.0774 60.0449 
70.0996 48.1308 60.9627 65.5922 55.2732 60.8691 65.453 57.8539 60.9774 
63.7911 60.0064 60.0637 63.1799 60.3434 59.9864 61.867 60.3478 60.664 
44.56 87.5244 60.9869 71.1133 47.3788 61.7246 69.8822 51.1359 62.5779 
74.7308 49.1455 62.274 47.0304 60.9674 62.4447 43.5281 62.4477 61.6494 
45.0035 61.7084 62.4256 43.0159 63.7106 61.5562 44.9416 86.4561 62.8143 
47.4 86.8531 62.5005 71.0395 48.2231 61.836 71.3549 50.3026 63.7863 
69.5824 51.8078 63.5361 66.4273 52.9463 63.0542 79.5725 53.1149 63.9616 
81.655 55.6754 64.0732 65.0759 57.4325 63.683 82.1926 58.0829 63.5865 
47.3603 61.0281 64.0236 44.4526 63.526 62.8595 45.1476 72.5797 63.6286 
44.9861 75.3974 63.6926 45.8517 85.7357 64.2412 47.1304 86.0748 64.0286 
65.5148 56.4316 65.3924 45.438 62.0657 63.2388 68.2249 52.2127 65.0772 
71.2542 52.1673 65.1442 77.0726 52.6754 65.0153 66.513 53.5406 66.1531 
79.3886 53.456 64.9986 80.623 54.9009 65.6012 64.1407 57.9576 65.4902 
65.0119 57.2417 65.7446 81.2375 58.4051 66.3835 58.3378 58.7735 65.0389 
49.9757 60.1599 65.355 53.1516 59.3516 65.3739 81.1693 60.4873 64.8901 
47.2602 61.5981 64.8009 47.4372 63.2183 65.2885 75.8475 69.096 64.9672 
45.8169 72.6425 64.2137 47.4372 72.5453 65.4958 47.3133 75.3352 65.6452 
45.6581 80.9977 64.5402 46.174 83.5543 64.9623 46.9098 84.5952 65.1809 
50.1485 84.7068 65.3693 66.1677 55.8804 67.141 81.1418 58.1235 66.6212 
64.0164 57.8715 66.4041 50.4656 60.9098 67.252 80.0862 61.5149 66.7505 
76.8611 66.9685 66.598 47.9288 81.4937 66.5836 60.6727 80.4325 66.3545 
48.4266 83.0653 66.5377 49.5737 83.9481 66.4379 66.8502 53.5998 66.5356 
68.2569 53.6489 67.0835 80.142 55.7409 67.0737 81.0191 56.4535 66.4223 
66.3762 56.4051 67.9816 60.8263 58.0728 68.3207 80.8672 58.1557 66.9459 
52.3575 59.0934 67.8583 52.5197 82.8085 67.9297 68.5104 55.0328 67.973 
77.3551 56.4986 68.0701 79.4379 56.6087 67.8331 64.1843 57.8119 68.1719 
79.7081 58.6049 68.1403 51.1236 60.9771 68.1321 66.5006 57.2742 69.2258 
68.7906 56.2227 68.7354 52.697 59.0239 70.054 58.2769 58.391 69.376 
63.9268 58.2588 69.6111 77.1716 64.3846 69.6248 76.3437 65.8417 69.4307 
51.3417 80.4209 69.5372 68.156 57.6342 69.7421 52.7997 59.3174 70.5576 
52.6584 60.1449 70.6945 53.1052 66.7275 70.7801 74.1703 66.6983 71.0258 
53.0238 80.1853 71.5686 55.7769 80.2081 71.2533 76.3461 61.2687 70.8732 
75.5591 64.164 71.4153 75.2831 65.1352 71.1607 58.1059 78.6415 72.472 
55.1437 59.8462 71.9972 54.8606 60.1167 72.0828 58.2484 59.7229 71.8047 
53.7643 60.6853 71.6366 60.9485 60.7045 72.3276 71.8407 62.0368 72.2968 
74.5651 61.9363 71.7529 74.1425 63.8483 72.3464 70.9925 67.6299 73.2762 
53.373 78.9179 72.3444 53.0297 80.1811 71.8157 55.456 79.6683 72.0413 
69.2099 64.3851 73.8378 56.2681 64.4043 73.901 70.8378 64.6921 73.5891 
71.4287 66.3314 73.4782 57.8589 77.7515 73.7733 55.2866 78.1705 73.5549 
69.6558 67.2777 74.3939 54.9926 75.7334 74.5213 66.7989 66.8251 75.5386 
68.7166 67.1257 74.9838 67.3627 69.8982 75.1441 65.8377 71.8184 74.9092 
56.086 76.0521 75.3949 60.5284 75.4375 75.218 61.0541 67.0521 76.5049 
66.5122 69.2318 75.9696 56.257 72.2557 75.9218 63.3295 71.9868 76.5553 
58.2132 74.5186 77.1213 58.8947 70.9311 78.459 60.63 70.4515 78.5047 
64.7367 69.1645 76.7145 57.4294 72.5112 77.2785 60.511 72.4219 78.2347 
58.6916 72.4864 78.5435 58.6196 73.9018 77.7256 63.8537 61.7025 2.23392 
71.8856 50.3854 2.99478 74.3878 52.7706 3.74596 74.3878 52.7706 3.74596 
28.7608 37.1608 4.94941 28.1188 37.175 5.14186 29.3829 38.9107 4.66917 
63.9748 38.4502 5.19204 75.0335 53.4166 4.60767 75.0335 53.4166 4.60767 
69.0739 61.5427 5.23361 31.7814 36.1146 5.36503 27.4837 38.7538 5.88533 
27.0679 38.7262 6.61675 76.4993 52.5613 5.73622 76.4993 52.5613 5.73622 
61.3381 34.7551 6.67816 71.4598 61.2635 6.98018 61.4115 70.4497 7.55226 
61.4115 70.4497 7.55226 60.6839 72.1956 8.69859 60.6839 72.1956 8.69859 
61.0845 72.7721 9.50729 61.0845 72.7721 9.50729 15.3861 10.9364 18.1474 
15.3861 10.9364 18.1474 14.2388 11.0048 19.2459 14.2388 11.0048 19.2459 
14.8017 10.8501 18.3662 14.8017 10.8501 18.3662 83.9621 53.2373 20.631 
83.8661 55.1969 21.3731 44.7041 36.5451 22.1986 44.7041 36.5451 22.1986 
48.9363 35.6508 22.4255 9.75383 4.69528 24.3677 45.2752 36.7405 21.9845 
23.2002 38.9624 23.2762 23.2002 38.9624 23.2762 23.2002 38.9624 23.2762 
22.3095 38.9082 23.1907 22.3095 38.9082 23.1907 44.5423 37.8387 24.0806 
21.5267 41.5358 24.7824 9.22271 4.83355 24.6612 8.90112 5.0984 25.1783 
24.1006 39.0779 23.821 24.1006 39.0779 23.821 25.8208 38.7445 25.0564 
28.8746 38.6896 25.8457 29.3564 39.208 25.622 21.3993 41.3737 25.5275 
33.6478 38.6848 26.2556 36.2329 38.7965 26.4657 36.2329 38.7965 26.4657 
36.2329 38.7965 26.4657 35.932 38.703 26.4969 10.0031 1.79834 27.9696 
8.90025 3.25159 26.7967 34.6849 37.3908 27.2069 10.4044 1.73743 28.139 
16.2977 4.42769 28.0739 20.5822 41.927 28.7913 85.9873 55.8366 29.5537 
24.1845 41.5927 29.7357 48.4123 44.6138 29.2037 48.4123 44.6138 29.2037 
48.4123 44.6138 29.2037 50.1369 44.7684 28.7734 50.1369 44.7684 28.7734 
50.5124 44.2686 28.6211 52.2465 52.3772 28.7931 52.2465 52.3772 28.7931 
52.2465 52.3772 28.7931 84.5028 53.6778 29.4625 50.8223 54.1134 29.0403 
49.7885 55.2973 29.4114 86.061 55.6905 29.5637 85.2616 57.8036 29.1637 
85.2616 57.8036 29.1637 85.8428 55.3792 29.308 23.9077 43.4991 30.4979 
23.934 42.9536 30.335 23.3157 45.2479 30.7297 44.8933 44.5081 30.6487 
45.3793 44.6436 30.5124 38.7683 49.3951 32.5212 9.78834 1.21322 35.0633 
37.1551 19.2153 33.9952 39.18 20.4357 34.1894 40.304 21.1648 34.2878 
22.6732 25.3873 33.1652 14.7928 29.9271 34.877 66.8724 42.9434 33.4776 
66.8724 42.9434 33.4776 68.905 41.9928 33.8169 65.5081 43.9642 33.9212 
7.87357 1.86803 33.8118 10.4519 1.26836 33.9423 12.3679 3.40317 34.9631 
22.1424 25.093 33.508 23.3822 25.3519 34.9061 20.1682 27.6878 35.613 
30.9394 26.6516 36.5409 66.3196 44.6421 36.6928 31.4708 25.9847 36.9799 
31.4895 24.8767 38.4468 26.9013 29.2248 38.1451 26.7808 29.3722 38.24 
66.4549 45.2176 38.2999 68.5252 43.6734 38.376 21.5063 53.5882 39.0054 
21.8172 53.6361 39.233 22.4142 53.3685 39.3024 26.7957 19.9124 41.4637 
29.9175 23.1425 41.5994 29.0884 19.0083 41.8935 29.0884 19.0083 41.8935 
29.0884 19.0083 41.8935 28.8189 19.2301 41.8144 28.8189 19.2301 41.8144 
85.4065 55.9035 42.4127 20.4941 20.5748 46.3046 18.3755 21.9015 45.4163 
18.3755 21.9015 45.4163 18.3755 21.9015 45.4163 22.0683 19.9216 46.7587 
16.703 22.1629 47.9242 69.0911 80.7496 46.7035 5.2843 3.33455 48.0005 
16.2605 21.7414 48.5564 71.8083 45.3464 47.9032 26.9962 69.6709 47.9622 
26.9962 69.6709 47.9622 4.98208 3.91281 48.4899 5.28914 5.72348 49.8582 
9.38765 8.38221 50.6861 10.3886 7.91706 49.619 8.12583 10.6983 49.7474 
71.6595 45.3553 49.7614 73.9405 46.5555 49.6163 71.734 45.3032 49.6365 
33.626 61.5206 50.1107 28.4084 69.8426 49.0444 28.4084 69.8426 49.0444 
29.1224 69.7693 49.538 29.1224 69.7693 49.538 32.2991 59.3851 51.6861 
32.0146 61.3596 51.364 33.0906 60.8817 50.1866 32.1297 86.3043 49.5056 
9.10517 8.259 50.582 33.6301 87.0298 50.8475 34.4166 69.7702 53.8153 
35.0874 69.7016 54.3599 36.7698 69.8007 55.6278 71.9402 50.5813 56.6278 
64.2073 53.668 56.6088 71.04 45.5123 58.5436 74.2881 48.5544 56.6038 
73.3609 49.0106 56.3898 64.4771 54.8933 58.2485 39.9809 80.9684 57.8466 
71.1975 45.3411 58.5937 64.1048 54.1328 57.5068 39.8572 75.3656 57.9438 
39.9199 78.1711 57.8925 71.2068 45.1838 59.0456 71.2068 45.1838 59.0456 
71.1104 45.4708 58.7771 71.1104 45.4708 58.7771 40.5756 75.3307 58.6698 
40.6328 78.1757 58.6762 41.7955 78.1725 59.9971 40.6877 80.9434 58.6602 
41.8148 80.9972 59.9709 71.3295 46.0774 60.0449 71.1133 47.3788 61.7246 
71.0395 48.2231 61.836 71.3549 50.3026 63.7863 45.1476 72.5797 63.6286 
44.9861 75.3974 63.6926 45.8169 72.6425 64.2137 47.4372 72.5453 65.4958 
45.721 75.4271 64.3669 47.3133 75.3352 65.6452 74.1703 66.6983 71.0258 
75.5591 64.164 71.4153 75.2831 65.1352 71.1607 70.9925 67.6299 73.2762 
53.0297 80.1811 71.8157 70.8378 64.6921 73.5891 71.4287 66.3314 73.4782 
28.7608 37.1608 4.94941 28.1188 37.175 5.14186 28.1188 37.175 5.14186 
28.1188 37.175 5.14186 45.2752 36.7405 21.9845 22.3095 38.9082 23.1907 
25.8208 38.7445 25.0564 33.6478 38.6848 26.2556 86.061 55.6905 29.5637 
22.1424 25.093 33.508 71.734 45.3032 49.6365 71.04 45.5123 58.5436 
22.6732 25.3873 33.1652 32.0146 61.3596 51.364 71.1104 45.4708 58.7771 
45.2752 36.7405 21.9845 34.6849 37.3908 27.2069 
POLYGONS 2040 6117
OFFSETS vtktypeint64
0 3 6 9 12 15 18 21 24 
27 30 33 36 39 42 45 48 51 
54 57 60 63 66 69 72 75 78 
81 84 87 90 93 96 99 102 105 
108 111 114 117 120 123 126 129 132 
135 138 141 144 147 150 153 156 159 
162 165 168 171 174 177 180 183 186 
189 192 195 198 201 204 207 210 213 
216 219 222 225 228 231 234 237 240 
243 246 249 252 255 258 261 264 267 
270 273 276 279 282 285 288 291 294 
297 300 303 306 309 312 315 318 321 
324 327 330 333 336 339 342 345 348 
351 354 357 360 363 366 369 372 375 
378 381 384 387 390 393 396 399 402 
405 408 411 414 417 420 423 426 429 
432 435 438 441 444 447 450 453 456 
459 462 465 468 471 474 477 480 483 
486 489 492 495 498 501 504 507 510 
513 516 519 522 525 528 531 534 537 
540 543 546 549 552 555 558 561 564 
567 570 573 576 579 582 585 588 591 
594 597 600 603 606 609 612 615 618 
621 624 627 630 633 636 639 642 645 
648 651 654 657 660 663 666 669 672 
675 678 681 684 687 690 693 696 699 
702 705 708 711 714 717 720 723 726 
729 732 735 738 741 744 747 750 753 
756 759 762 765 768 771 774 777 780 
783 786 789 792 795 798 801 804 807 
810 813 816 819 822 825 828 831 834 
837 840 843 846 849 852 855 858 861 
864 867 870 873 876 879 882 885 888 
891 894 897 900 903 906 909 912 915 
918 921 924 927 930 933 936 939 942 
945 948 951 954 957 960 963 966 969 
972 975 978 981 984 987 990 993 996 
999 1002 1005 1008 1011 1014 1017 1020 1023 
1026 1029 1032 1035 1038 1041 1044 1047 1050 
1053 1056 1059 1062 1065 1068 1071 1074 1077 
1080 1083 1086 1089 1092 1095 1098 1101 1104 
1107 1110 1113 1116 1119 1122 1125 1128 1131 
1134 1137 1140 1143 1146 1149 1152 1155 1158 
1161 1164 1167 1170 1173 1176 1179 1182 1185 
1188 1191 1194 1197 1200 1203 1206 1209 1212 
1215 1218 1221 1224 1227 1230 1233 1236 1239 
1242 1245 1248 1251 1254 1257 1260 1263 1266 
1269 1272 1275 1278 1281 1284 1287 1290 1293 
1296 1299 1302 1305 1308 1311 1314 1317 1320 
1323 1326 1329 1332 1335 1338 1341 1344 1347 
1350 1353 1356 1359 1362 1365 1368 1371 1374 
1377 1380 1383 1386 1389 1392 1395 1398 1401 
1404 1407 1410 1413 1416 1419 1422 1425 1428 
1431 1434 1437 1440 1443 1446 1449 1452 1455 
1458 1461 1464 1467 1470 1473 1476 1479 1482 
1485 1488 1491 1494 1497 1500 1503 1506 1509 
1512 1515 1518 1521 1524 1527 1530 1533 1536 
1539 1542 1545 1548 1551 1554 1557 1560 1563 
1566 1569 1572 1575 1578 1581 1584 1587 1590 
1593 1596 1599 1602 1605 1608 1611 1614 1617 
1620 1623 1626 1629 1632 1635 1638 1641 1644 
1647 1650 1653 1656 1659 1662 1665 1668 1671 
1674 1677 1680 1683 1686 1689 1692 1695 1698 
1701 1704 1707 1710 1713 1716 1719 1722 1725 
1728 1731 1734 1737 1740 1743 1746 1749 1752 
1755 1758 1761 1764 1767 1770 1773 1776 1779 
1782 1785 1788 1791 1794 1797 1800 1803 1806 
1809 1812 1815 1818 1821 1824 1827 1830 1833 
1836 1839 1842 1845 1848 1851 1854 1857 1860 
1863 1866 1869 1872 1875 1878 1881 1884 1887 
1890 1893 1896 1899 1902 1905 1908 1911 1914 
1917 1920 1923 1926 1929 1932 1935 1938 1941 
1944 1947 1950 1953 1956 1959 1962 1965 1968 
1971 1974 1977 1980 1983 1986 1989 1992 1995 
1998 2001 2004 2007 2010 2013 2016 2019 2022 
2025 2028 2031 2034 2037 2040 2043 2046 2049 
2052 2055 2058 2061 2064 2067 2070 2073 2076 
2079 2082 2085 2088 2091 2094 2097 2100 2103 
2106 2109 2112 2115 2118 2121 2124 2127 2130 
2133 2136 2139 2142 2145 2148 2151 2154 2157 
2160 2163 2166 2169 2172 2175 2178 2181 2184 
2187 2190 2193 2196 2199 2202 2205 2208 2211 
2214 2217 2220 2223 2226 2229 2232 2235 2238 
2241 2244 2247 2250 2253 2256 2259 2262 2265 
2268 2271 2274 2277 2280 2283 2286 2289 2292 
2295 2298 2301 2304 2307 2310 2313 2316 2319 
2322 2325 2328 2331 2334 2337 2340 2343 2346 
2349 2352 2355 2358 2361 2364 2367 2370 2373 
2376 2379 2382 2385 2388 2391 2394 2397 2400 
2403 2406 2409 2412 2415 2418 2421 2424 2427 
2430 2433 2436 2439 2442 2445 2448 2451 2454 
2457 2460 2463 2466 2469 2472 2475 2478 2481 
2484 2487 2490 2493 2496 2499 2502 2505 2508 
2511 2514 2517 2520 2523 2526 2529 2532 2535 
2538 2541 2544 2547 2550 2553 2556 2559 2562 
2565 2568 2571 2574 2577 2580 2583 2586 2589 
2592 2595 2598 2601 2604 2607 2610 2613 2616 
2619 2622 2625 2628 2631 2634 2637 2640 2643 
2646 2649 2652 2655 2658 2661 2664 2667 2670 
2673 2676 2679 2682 2685 2688 2691 2694 2697 
2700 2703 2706 2709 2712 2715 2718 2721 2724 
2727 2730 2733 2736 2739 2742 2745 2748 2751 
2754 2757 2760 2763 2766 2769 2772 2775 2778 
2781 2784 2787 2790 2793 2796 2799 2802 2805 
2808 2811 2814 2817 2820 2823 2826 2829 2832 
2835 2838 2841 2844 2847 2850 2853 2856 2859 
2862 2865 2868 2871 2874 2877 2880 2883 2886 
2889 2892 2895 2898 2901 2904 2907 2910 2913 
2916 2919 2922 2925 2928 2931 2934 2937 2940 
2943 2946 2949 2952 2955 2958 2961 2964 2967 
2970 2973 2976 2979 2982 2985 2988 2991 2994 
2997 3000 3003 3006 3009 3012 3015 3018 3021 
3024 3027 3030 3033 3036 3039 3042 3045 3048 
3051 3054 3057 3060 3063 3066 3069 3072 3075 
3078 3081 3084 3087 3090 3093 3096 3099 3102 
3105 3108 3111 3114 3117 3120 3123 3126 3129 
3132 3135 3138 3141 3144 3147 3150 3153 3156 
3159 3162 3165 3168 3171 3174 3177 3180 3183 
3186 3189 3192 3195 3198 3201 3204 3207 3210 
3213 3216 3219 3222 3225 3228 3231 3234 3237 
3240 3243 3246 3249 3252 3255 3258 3261 3264 
3267 3270 3273 3276 3279 3282 3285 3288 3291 
3294 3297 3300 3303 3306 3309 3312 3315 3318 
3321 3324 3327 3330 3333 3336 3339 3342 3345 
3348 3351 3354 3357 3360 3363 3366 3369 3372 
3375 3378 3381 3384 3387 3390 3393 3396 3399 
3402 3405 3408 3411 3414 3417 3420 3423 3426 
3429 3432 3435 3438 3441 3444 3447 3450 3453 
3456 3459 3462 3465 3468 3471 3474 3477 3480 
3483 3486 3489 3492 3495 3498 3501 3504 3507 
3510 3513 3516 3519 3522 3525 3528 3531 3534 
3537 3540 3543 3546 3549 3552 3555 3558 3561 
3564 3567 3570 3573 3576 3579 3582 3585 3588 
3591 3594 3597 3600 3603 3606 3609 3612 3615 
3618 3621 3624 3627 3630 3633 3636 3639 3642 
3645 3648 3651 3654 3657 3660 3663 3666 3669 
3672 3675 3678 3681 3684 3687 3690 3693 3696 
3699 3702 3705 3708 3711 3714 3717 3720 3723 
3726 3729 3732 3735 3738 3741 3744 3747 3750 
3753 3756 3759 3762 3765 3768 3771 3774 3777 
3780 3783 3786 3789 3792 3795 3798 3801 3804 
3807 3810 3813 3816 3819 3822 3825 3828 3831 
3834 3837 3840 3843 3846 3849 3852 3855 3858 
3861 3864 3867 3870 3873 3876 3879 3882 3885 
3888 3891 3894 3897 3900 3903 3906 3909 3912 
3915 3918 3921 3924 3927 3930 3933 3936 3939 
3942 3945 3948 3951 3954 3957 3960 3963 3966 
3969 3972 3975 3978 3981 3984 3987 3990 3993 
3996 3999 4002 4005 4008 4011 4014 4017 4020 
4023 4026 4029 4032 4035 4038 4041 4044 4047 
4050 4053 4056 4059 4062 4065 4068 4071 4074 
4077 4080 4083 4086 4089 4092 4095 4098 4101 
4104 4107 4110 4113 4116 4119 4122 4125 4128 
4131 4134 4137 4140 4143 4146 4149 4152 4155 
4158 4161 4164 4167 4170 4173 4176 4179 4182 
4185 4188 4191 4194 4197 4200 4203 4206 4209 
4212 4215 4218 4221 4224 4227 4230 4233 4236 
4239 4242 4245 4248 4251 4254 4257 4260 4263 
4266 4269 4272 4275 4278 4281 4284 4287 4290 
4293 4296 4299 4302 4305 4308 4311 4314 4317 
4320 4323 4326 4329 4332 4335 4338 4341 4344 
4347 4350 4353 4356 4359 4362 4365 4368 4371 
4374 4377 4380 4383 4386 4389 4392 4395 4398 
4401 4404 4407 4410 4413 4416 4419 4422 4425 
4428 4431 4434 4437 4440 4443 4446 4449 4452 
4455 4458 4461 4464 4467 4470 4473 4476 4479 
4482 4485 4488 4491 4494 4497 4500 4503 4506 
4509 4512 4515 4518 4521 4524 4527 4530 4533 
4536 4539 4542 4545 4548 4551 4554 4557 4560 
4563 4566 4569 4572 4575 4578 4581 4584 4587 
4590 4593 4596 4599 4602 4605 4608 4611 4614 
4617 4620 4623 4626 4629 4632 4635 4638 4641 
4644 4647 4650 4653 4656 4659 4662 4665 4668 
4671 4674 4677 4680 4683 4686 4689 4692 4695 
4698 4701 4704 4707 4710 4713 4716 4719 4722 
4725 4728 4731 4734 4737 4740 4743 4746 4749 
4752 4755 4758 4761 4764 4767 4770 4773 4776 
4779 4782 4785 4788 4791 4794 4797 4800 4803 
4806 4809 4812 4815 4818 4821 4824 4827 4830 
4833 4836 4839 4842 4845 4848 4851 4854 4857 
4860 4863 4866 4869 4872 4875 4878 4881 4884 
4887 4890 4893 4896 4899 4902 4905 4908 4911 
4914 4917 4920 4923 4926 4929 4932 4935 4938 
4941 4944 4947 4950 4953 4956 4959 4962 4965 
4968 4971 4974 4977 4980 4983 4986 4989 4992 
4995 4998 5001 5004 5007 5010 5013 5016 5019 
5022 5025 5028 5031 5034 5037 5040 5043 5046 
5049 5052 5055 5058 5061 5064 5067 5070 5073 
5076 5079 5082 5085 5088 5091 5094 5097 5100 
5103 5106 5109 5112 5115 5118 5121 5124 5127 
5130 5133 5136 5139 5142 5145 5148 5151 5154 
5157 5160 5163 5166 5169 5172 5175 5178 5181 
5184 5187 5190 5193 5196 5199 5202 5205 5208 
5211 5214 5217 5220 5223 5226 5229 5232 5235 
5238 5241 5244 5247 5250 5253 5256 5259 5262 
5265 5268 5271 5274 5277 5280 5283 5286 5289 
5292 5295 5298 5301 5304 5307 5310 5313 5316 
5319 5322 5325 5328 5331 5334 5337 5340 5343 
5346 5349 5352 5355 5358 5361 5364 5367 5370 
5373 5376 5379 5382 5385 5388 5391 5394 5397 
5400 5403 5406 5409 5412 5415 5418 5421 5424 
5427 5430 5433 5436 5439 5442 5445 5448 5451 
5454 5457 5460 5463 5466 5469 5472 5475 5478 
5481 5484 5487 5490 5493 5496 5499 5502 5505 
5508 5511 5514 5517 5520 5523 5526 5529 5532 
5535 5538 5541 5544 5547 5550 5553 5556 5559 
5562 5565 5568 5571 5574 5577 5580 5583 5586 
5589 5592 5595 5598 5601 5604 5607 5610 5613 
5616 5619 5622 5625 5628 5631 5634 5637 5640 
5643 5646 5649 5652 5655 5658 5661 5664 5667 
5670 5673 5676 5679 5682 5685 5688 5691 5694 
5697 5700 5703 5706 5709 5712 5715 5718 5721 
5724 5727 5730 5733 5736 5739 5742 5745 5748 
5751 5754 5757 5760 5763 5766 5769 5772 5775 
5778 5781 5784 5787 5790 5793 5796 5799 5802 
5805 5808 5811 5814 5817 5820 5823 5826 5829 
5832 5835 5838 5841 5844 5847 5850 5853 5856 
5859 5862 5865 5868 5871 5874 5877 5880 5883 
5886 5889 5892 5895 5898 5901 5904 5907 5910 
5913 5916 5919 5922 5925 5928 5931 5934 5937 
5940 5943 5946 5949 5952 5955 5958 5961 5964 
5967 5970 5973 5976 5979 5982 5985 5988 5991 
5994 5997 6000 6003 6006 6009 6012 6015 6018 
6021 6024 6027 6030 6033 6036 6039 6042 6045 
6048 6051 6054 6057 6060 6063 6066 6069 6072 
6075 6078 6081 6084 6087 6090 6093 6096 6099 
6102 6105 6108 6111 6114 6117 
CONNECTIVITY vtktypeint64
1 0 12 0 1 2 7 4 6 
3 4 7 0 5 23 9 5 0 
6 5 8 8 5 9 10 6 8 
7 6 10 0 23 12 9 10 8 
12 23 11 25 13 12 1 12 13 
15 9 2 2 9 0 16 1 13 
1 16 2 15 2 14 14 2 16 
16 13 17 18 19 20 5 18 23 
6 18 5 4 18 6 3 18 4 
19 18 3 22 20 19 3 22 19 
11 24 12 24 11 25 12 24 25 
25 26 13 26 25 27 26 27 13 
13 29 17 17 64 16 27 28 30 
30 31 27 13 27 29 29 27 31 
18 32 38 23 1016 21 18 1016 23 
33 32 20 20 32 18 3 7 34 
3 34 22 7 10 63 7 63 34 
23 21 11 11 21 25 27 25 28 
14 16 15 29 64 17 31 30 29 
36 37 35 77 18 60 1015 39 1016 
1016 39 21 38 32 40 33 40 32 
55 40 33 20 55 33 20 22 55 
55 22 1024 1025 1013 41 34 1018 22 
10 1020 63 1027 42 1010 9 1020 10 
75 9 15 25 43 28 28 43 30 
43 44 30 29 30 44 44 45 64 
29 44 64 46 1014 58 47 46 58 
1014 48 58 77 58 48 61 38 53 
1014 46 1204 46 1022 1204 1021 1203 1206 
1016 48 1015 77 48 18 1017 1026 1011 
48 1016 18 49 1023 1205 39 1015 51 
51 1015 50 52 39 51 53 38 40 
56 54 40 55 56 40 1012 57 1019 
1018 80 1024 34 80 1018 15 16 75 
76 45 44 58 59 47 61 60 18 
50 1022 46 50 52 51 39 52 21 
62 53 40 55 1024 56 25 21 91 
43 25 91 76 64 45 77 60 65 
65 60 66 78 60 61 47 59 67 
50 46 68 52 88 21 70 53 62 
70 62 40 40 54 70 56 71 54 
72 71 56 72 56 73 1024 73 56 
34 63 80 9 74 63 74 9 75 
1032 75 16 16 64 101 78 65 66 
78 66 60 68 47 67 47 68 46 
88 52 50 54 71 70 73 71 72 
73 1024 80 74 129 63 1029 1031 82 
44 43 91 101 64 76 59 58 89 
87 84 78 65 85 77 84 85 65 
78 84 65 68 88 50 67 88 68 
69 278 53 53 70 69 71 79 70 
79 71 73 81 80 63 63 129 81 
1028 1030 1033 44 92 76 97 76 92 
59 89 83 77 93 58 85 93 77 
85 84 86 86 84 87 59 83 67 
67 128 88 70 90 69 79 90 70 
90 79 73 73 80 90 1032 16 101 
89 98 94 58 108 89 85 86 93 
128 67 83 278 61 53 137 278 69 
69 90 137 99 80 96 99 90 80 
21 213 91 129 74 1032 101 76 97 
108 58 112 95 89 94 89 95 83 
83 95 128 44 264 92 92 264 97 
101 97 100 98 102 94 93 112 58 
93 103 112 102 115 94 104 96 105 
99 96 104 96 80 129 80 81 129 
264 106 107 97 264 107 97 107 100 
102 109 110 102 111 109 112 113 108 
98 111 102 89 111 98 108 111 89 
112 114 113 103 114 112 102 110 115 
86 87 93 116 99 104 117 116 105 
116 104 105 105 96 129 105 129 117 
101 130 1032 106 118 107 100 107 118 
100 118 101 120 109 119 109 120 110 
136 93 87 78 136 87 116 117 138 
44 91 213 101 118 174 122 121 119 
109 122 119 125 122 109 111 125 109 
111 108 125 125 108 123 113 123 108 
120 115 110 128 95 273 116 138 99 
124 121 122 125 123 126 121 124 119 
126 123 127 135 127 123 123 113 135 
124 120 119 103 198 114 115 120 124 
103 93 198 273 94 115 95 94 273 
162 136 78 61 278 78 151 88 128 
137 90 99 138 137 99 21 88 213 
117 129 1040 118 145 174 101 174 349 
122 125 139 139 125 131 131 125 134 
1034 133 132 125 126 134 126 127 134 
115 124 273 138 117 1040 106 145 118 
130 101 349 131 134 139 140 156 1036 
140 1036 141 1036 1039 141 139 147 122 
141 1039 124 122 141 124 147 141 122 
1035 1038 1037 114 178 113 150 151 128 
88 171 213 129 1032 130 173 145 106 
174 145 146 140 141 156 305 124 1036 
135 178 127 178 135 113 178 114 198 
219 198 93 179 93 136 160 179 136 
142 148 149 88 151 152 152 171 88 
144 143 153 1040 129 1041 264 44 213 
141 147 157 157 147 158 159 147 139 
139 134 159 1036 156 154 134 127 178 
1036 236 305 136 161 160 163 150 128 
1042 1044 148 148 142 1042 149 148 166 
148 1044 166 167 150 163 1042 142 192 
166 168 149 149 168 142 150 169 151 
150 167 169 170 142 168 151 169 152 
169 171 152 1040 1041 172 172 214 1040 
1041 129 172 300 129 530 130 349 129 
173 146 145 146 173 174 155 156 175 
1054 155 175 154 156 155 158 147 159 
177 158 159 141 157 156 155 236 154 
236 1036 154 161 136 162 128 273 221 
181 183 182 184 183 181 184 166 183 
142 170 192 169 167 171 171 284 213 
1040 214 138 215 174 173 156 217 175 
217 156 157 158 176 157 176 158 177 
159 134 177 236 155 1054 160 180 179 
160 187 180 188 187 161 161 187 160 
162 188 161 162 189 188 78 189 162 
189 78 272 188 182 222 188 181 182 
78 278 272 201 128 221 128 201 163 
183 166 182 165 164 185 222 1044 1218 
182 166 1044 222 182 1044 191 163 201 
163 191 167 1043 1052 1207 166 184 190 
166 190 168 192 170 193 170 168 193 
168 190 193 167 191 171 191 194 171 
278 137 283 194 284 171 138 214 459 
172 231 214 231 172 300 172 129 300 
349 530 129 215 349 174 1045 195 196 
197 217 157 197 157 176 250 197 176 
176 177 250 177 134 304 93 199 219 
93 179 199 180 187 179 187 188 222 
189 200 188 188 200 181 1218 202 203 
203 222 1218 181 200 184 204 191 201 
191 205 186 204 205 191 205 206 186 
1057 207 1048 1046 228 202 1046 192 228 
1049 1051 1053 1047 1056 1050 190 209 193 
284 194 212 137 455 283 173 106 320 
320 245 173 173 232 215 1054 1068 1055 
1054 216 1068 175 216 1054 217 216 175 
304 250 177 1055 218 251 251 1054 1055 
134 178 304 179 187 199 199 187 237 
220 222 203 221 255 201 203 202 253 
200 274 184 205 240 224 223 224 240 
206 205 1058 184 209 190 210 225 211 
193 208 192 1208 212 194 1050 1056 1061 
208 193 209 1056 229 1061 230 229 1056 
1209 230 1056 379 137 138 232 173 245 
215 232 265 302 215 265 1055 1068 218 
216 1067 1068 246 1067 216 217 246 216 
246 217 235 217 197 235 197 250 235 
1054 251 236 238 219 237 199 237 219 
239 238 237 222 239 237 187 222 237 
222 220 239 203 253 220 189 274 200 
277 184 274 201 255 240 201 240 204 
205 204 240 1058 205 224 223 1058 224 
1058 223 1059 1059 223 241 1060 1059 241 
1210 1060 241 1210 241 1063 241 242 1063 
184 277 209 313 281 228 228 192 313 
313 192 208 1209 1059 230 1059 1060 230 
208 244 243 261 244 208 209 261 208 
289 213 284 215 302 349 233 247 234 
1068 1070 248 1070 1067 246 1068 248 218 
249 218 248 249 251 218 124 305 273 
198 268 386 268 198 219 219 238 268 
238 239 252 220 252 239 271 189 272 
252 220 253 189 271 274 273 254 221 
254 255 221 253 202 257 240 256 223 
309 256 240 240 255 276 309 240 276 
256 241 223 227 1064 1069 1066 1219 258 
202 228 257 1062 314 1060 226 314 1062 
226 312 314 1066 258 1065 226 258 312 
313 208 243 1061 229 259 259 229 260 
230 314 229 229 314 260 1060 314 230 
243 244 261 399 278 283 212 1072 284 
289 342 213 262 459 214 214 231 262 
262 231 263 231 300 263 232 245 265 
248 1070 266 266 1070 267 267 1070 246 
248 266 249 266 323 249 323 251 249 
251 323 236 270 269 252 305 326 273 
252 253 307 255 275 276 254 275 255 
256 242 241 280 279 257 258 1219 280 
257 281 280 281 258 280 257 228 281 
260 314 282 209 285 261 284 259 260 
286 313 243 261 287 243 287 286 243 
285 287 261 1079 1080 1076 290 1075 1078 
285 290 287 293 1081 291 291 292 315 
292 296 315 294 459 262 293 295 1082 
299 296 297 292 297 296 1085 1086 1083 
262 298 294 298 262 263 1073 1089 1211 
320 301 245 301 265 245 302 265 301 
235 1071 304 305 236 323 178 198 304 
306 238 269 268 238 306 269 238 252 
305 353 326 270 252 307 273 275 254 
309 276 275 253 257 279 310 272 278 
256 309 242 258 281 311 258 332 312 
311 332 258 336 332 311 281 336 311 
313 336 281 282 284 260 289 284 288 
285 293 290 293 291 290 290 291 315 
344 293 343 299 316 315 296 299 315 
293 317 295 295 317 297 552 264 213 
301 321 302 322 266 303 303 266 267 
303 267 246 1109 303 246 266 322 323 
1109 246 235 235 304 1109 306 324 268 
306 325 324 269 325 306 269 270 325 
325 270 308 270 307 308 307 327 308 
329 271 272 326 330 273 253 279 327 
253 327 307 271 331 274 330 275 273 
309 275 358 1219 309 358 422 279 1219 
1219 279 280 277 274 367 274 331 367 
209 277 367 278 366 310 314 312 332 
282 1091 284 1091 288 284 1092 333 1074 
282 314 334 1091 335 288 1092 1093 333 
341 335 314 335 334 314 337 336 313 
286 337 313 1077 1094 1095 335 289 288 
335 338 289 339 338 335 339 341 340 
339 335 341 337 315 336 1075 290 337 
290 315 337 408 285 374 342 289 338 
293 285 408 293 408 343 336 315 378 
138 459 379 345 378 315 316 345 315 
317 293 346 344 346 293 1087 318 1084 
346 299 297 317 346 297 316 347 345 
316 299 347 299 319 347 348 319 299 
1087 1088 318 106 264 320 321 301 320 
303 350 322 1109 350 303 352 323 322 
352 464 323 305 323 464 305 464 465 
414 305 385 386 324 388 268 324 386 
354 325 308 356 326 355 271 329 328 
356 357 326 327 279 418 271 328 331 
328 329 331 330 326 357 418 279 359 
329 360 331 275 330 361 330 357 361 
275 421 358 329 272 360 422 423 279 
359 279 423 360 367 331 362 367 360 
310 363 272 364 363 310 310 366 364 
209 367 285 366 365 364 368 365 366 
283 370 399 341 314 371 371 314 372 
374 285 367 332 373 314 373 372 314 
377 373 332 332 336 377 376 375 369 
365 376 369 283 455 370 340 341 371 
406 336 378 343 408 380 485 213 342 
343 380 344 346 344 380 345 487 378 
381 346 380 319 382 347 346 348 299 
346 430 348 430 383 348 348 383 319 
530 489 300 321 320 460 302 321 531 
322 350 351 350 1109 384 351 352 322 
304 591 509 387 1098 1100 414 353 305 
326 353 355 355 353 390 392 355 390 
393 392 391 392 390 391 354 327 418 
308 327 354 358 447 1219 1219 447 422 
421 275 361 362 360 397 360 395 397 
272 363 396 362 397 367 363 364 398 
278 399 366 364 365 369 368 366 399 
374 367 401 367 400 401 369 375 400 
400 375 401 404 368 402 404 376 368 
376 365 368 403 368 399 404 429 376 
373 405 372 377 405 373 405 406 407 
405 377 406 377 336 406 401 408 374 
371 409 340 339 482 338 378 407 406 
408 410 380 338 457 342 342 484 485 
345 347 487 382 319 411 350 384 1107 
351 350 1107 352 433 434 1107 433 352 
351 1107 352 464 352 434 465 385 305 
414 385 413 324 439 388 415 414 413 
414 416 353 324 325 439 390 353 416 
325 417 439 325 354 417 391 389 393 
417 354 439 354 418 439 355 392 356 
392 394 356 448 420 421 357 356 394 
357 394 448 419 447 358 359 423 418 
361 357 448 421 361 448 360 424 395 
360 272 424 396 395 424 397 395 396 
272 396 424 363 425 396 425 363 398 
397 426 367 398 364 427 426 400 367 
369 400 427 427 364 369 403 399 370 
403 370 455 1105 1104 1106 403 402 368 
375 376 429 429 428 375 428 401 375 
340 482 339 479 409 371 479 340 409 
401 428 408 338 482 457 408 428 410 
342 457 484 411 487 347 346 381 430 
382 411 347 383 488 319 430 488 383 
321 460 531 302 531 532 302 532 349 
1107 431 433 1097 435 432 198 436 556 
198 437 436 198 386 437 386 438 437 
438 386 1099 439 438 1099 388 439 1099 
416 414 415 390 416 441 416 415 441 
391 390 441 440 442 1101 1212 389 391 
389 444 393 393 444 446 1112 1215 1110 
439 418 445 448 1102 392 445 418 449 
419 358 477 418 423 449 450 421 420 
423 422 449 396 451 397 425 398 396 
451 426 397 452 426 451 396 452 451 
452 396 427 396 398 427 452 427 426 
427 400 426 454 1103 403 453 403 455 
372 479 371 405 407 481 518 455 137 
481 407 483 429 456 428 483 407 503 
503 407 378 456 410 428 379 548 566 
137 379 566 458 503 378 459 548 379 
1096 487 458 300 529 1090 319 488 608 
300 489 529 432 412 1097 1108 431 1107 
1108 462 431 431 461 433 434 433 461 
509 1108 1109 463 434 461 510 385 465 
466 437 438 467 466 438 438 439 467 
391 441 513 1212 391 513 469 467 443 
439 445 467 445 443 467 443 445 449 
1212 1111 444 472 443 447 447 474 473 
392 393 446 392 446 448 448 446 420 
444 420 446 444 475 420 447 476 474 
447 443 422 476 419 477 476 447 419 
422 443 449 477 358 450 358 421 450 
454 403 453 1103 454 404 516 404 454 
478 454 453 455 518 453 372 405 481 
544 456 429 372 480 479 481 480 372 
137 566 518 340 479 482 485 486 213 
458 487 525 430 381 488 319 608 411 
490 530 349 461 431 462 462 1108 509 
304 509 1109 464 434 463 464 535 465 
615 510 465 436 437 466 468 413 385 
415 413 492 413 468 492 441 415 492 
513 493 1212 470 1212 493 1111 1212 470 
443 472 494 443 494 469 444 1111 498 
1111 470 498 498 470 499 471 499 470 
471 500 499 447 473 494 472 447 494 
498 499 444 499 475 444 420 475 499 
477 450 420 404 544 429 404 516 544 
502 457 482 502 484 457 503 458 525 
410 526 380 548 459 294 504 486 485 
411 608 487 506 461 462 554 506 462 
506 553 461 509 554 462 463 461 507 
461 553 507 507 508 463 463 508 464 
464 508 535 535 536 465 304 198 556 
436 491 556 491 436 466 510 468 385 
511 468 510 468 512 492 511 512 468 
441 492 512 514 470 493 469 494 497 
497 467 469 471 470 514 471 514 496 
495 471 496 495 474 471 500 471 474 
496 494 474 474 495 496 494 496 497 
1115 1116 1113 501 500 474 473 474 494 
1117 474 476 499 500 420 500 477 420 
500 501 477 501 1118 477 477 515 476 
476 515 1117 542 478 453 516 454 517 
478 517 454 518 542 453 1114 1120 1119 
480 521 479 519 521 480 481 520 480 
520 519 480 502 521 484 521 502 482 
479 521 482 483 503 481 522 520 523 
520 481 523 481 503 523 503 522 523 
410 456 586 521 524 484 525 522 503 
410 586 526 485 484 524 380 526 570 
524 504 485 527 504 524 525 487 528 
1090 548 294 527 486 504 570 381 380 
570 588 381 588 488 381 505 486 527 
505 213 486 1090 529 548 213 505 552 
530 490 660 687 320 264 490 349 625 
460 320 687 532 764 349 460 574 531 
507 553 533 509 534 554 507 533 508 
511 510 537 512 538 441 538 513 441 
538 512 540 513 539 493 493 539 514 
514 539 541 514 541 496 496 541 497 
517 478 543 516 517 543 516 565 544 
519 567 521 519 520 522 456 544 586 
546 521 567 521 545 524 546 545 521 
522 525 519 525 567 519 526 586 570 
547 525 528 488 588 549 608 488 551 
552 505 550 552 623 264 687 264 626 
627 574 460 531 574 532 506 554 553 
555 533 553 304 556 591 465 536 615 
556 491 557 491 466 559 510 561 599 
599 537 510 562 560 559 466 467 559 
467 562 559 512 511 540 582 541 539 
540 511 537 497 541 563 542 543 478 
545 546 568 568 546 567 1122 1123 1121 
527 524 568 567 527 568 569 527 567 
525 547 567 567 547 569 527 550 505 
550 527 571 528 587 547 527 572 571 
488 549 551 551 610 608 550 573 552 
460 687 627 553 554 534 534 555 553 
533 575 508 508 575 535 557 577 576 
491 577 557 577 491 558 558 491 559 
560 558 559 561 510 615 599 580 537 
632 513 538 539 513 581 513 632 581 
579 539 581 580 540 537 539 579 582 
467 497 562 562 497 563 543 542 564 
564 542 583 542 603 583 518 603 542 
516 543 584 565 516 584 543 564 584 
603 518 566 544 565 584 586 544 585 
584 585 544 527 569 572 569 547 587 
572 569 587 529 1131 548 589 550 571 
589 573 550 552 573 623 624 264 623 
264 624 659 489 530 660 264 659 626 
661 626 659 533 629 590 575 533 590 
575 590 535 592 536 535 556 593 591 
556 594 593 557 594 556 576 595 557 
598 577 597 577 558 597 558 560 597 
1124 1130 1127 578 596 598 578 579 596 
579 600 596 1126 582 578 1129 1125 1128 
597 601 598 560 562 597 562 601 597 
600 581 632 581 600 579 578 582 579 
582 598 601 538 540 633 538 633 632 
541 582 563 563 582 562 583 602 564 
602 584 564 621 586 585 586 634 570 
607 588 570 607 739 588 587 608 572 
528 608 587 487 608 528 549 588 551 
573 589 609 623 573 609 662 626 661 
490 625 660 611 574 627 611 750 574 
532 838 764 612 555 534 629 533 555 
535 590 592 592 667 536 593 613 591 
557 595 594 595 593 594 614 593 595 
577 595 576 616 614 595 577 598 595 
596 616 595 595 598 596 561 617 599 
596 600 616 601 562 582 599 617 650 
580 599 650 603 602 583 653 603 566 
603 618 602 619 618 603 602 604 584 
584 604 585 605 621 585 604 605 585 
620 605 604 634 607 570 621 634 586 
551 588 635 589 622 609 571 622 589 
658 608 610 764 625 349 628 555 612 
555 628 629 630 590 629 534 509 612 
665 509 591 590 630 592 592 630 667 
591 613 727 600 649 631 632 649 600 
600 631 616 540 580 633 619 603 653 
602 618 620 604 602 620 548 653 566 
571 572 681 741 681 572 608 655 572 
572 655 741 609 622 656 681 622 571 
610 635 658 551 635 610 489 654 529 
658 636 608 609 656 623 489 660 920 
1138 625 764 628 640 629 629 640 639 
628 612 640 641 629 639 612 665 640 
643 641 642 630 629 643 629 641 643 
509 665 612 643 642 630 642 667 630 
667 670 536 613 644 727 613 593 644 
670 615 536 690 593 614 614 616 690 
690 616 646 615 645 561 561 645 617 
645 647 617 646 631 648 616 631 646 
631 649 648 617 647 650 580 650 633 
632 633 649 651 675 652 651 652 619 
619 652 618 620 618 692 620 678 605 
605 678 621 634 621 779 548 807 653 
606 807 548 654 1131 529 679 635 588 
622 680 656 622 681 680 608 657 655 
489 920 654 656 624 623 656 659 624 
684 626 662 626 684 687 625 1138 685 
627 687 717 717 611 627 574 750 532 
638 664 637 637 664 663 664 638 639 
637 663 641 637 641 638 641 639 638 
666 667 641 641 667 642 727 725 591 
668 670 667 644 669 727 593 669 644 
593 690 669 1132 1135 673 650 647 645 
672 671 649 671 648 649 648 671 1136 
701 646 648 1136 701 648 672 649 674 
649 633 674 651 676 675 676 651 619 
652 675 692 619 653 677 618 652 692 
607 634 737 608 712 657 635 679 658 
695 712 608 636 683 682 636 658 683 
659 696 661 661 684 662 641 663 666 
639 665 664 640 665 639 668 667 700 
591 725 665 615 670 689 615 689 645 
701 773 690 690 646 701 691 1136 1134 
633 650 674 619 677 676 677 653 731 
620 692 678 678 779 621 654 807 1131 
779 790 634 607 737 739 707 679 739 
588 739 679 680 693 656 655 711 741 
657 711 655 658 679 683 636 695 608 
695 636 682 695 682 683 696 659 656 
696 684 661 686 697 685 688 698 663 
664 688 663 698 666 663 699 666 698 
665 688 664 723 688 665 666 699 667 
699 700 667 665 725 723 728 669 690 
752 689 670 690 773 728 689 752 645 
1134 702 691 650 703 674 1133 1137 1140 
703 702 1134 675 676 704 705 704 676 
706 675 704 676 731 705 676 677 731 
675 706 692 634 790 737 679 707 709 
681 710 680 680 710 693 708 681 741 
679 709 683 657 694 711 694 657 712 
693 713 656 693 710 713 695 683 744 
696 656 713 684 696 714 684 715 687 
697 686 685 715 716 687 687 716 1160 
717 687 1160 611 717 750 532 750 838 
718 698 688 719 699 718 699 698 718 
1139 1145 1144 688 1146 718 720 699 719 
720 700 699 700 720 719 688 723 1146 
722 700 719 722 668 700 722 724 668 
1148 724 722 1148 668 724 668 1148 670 
669 728 727 752 772 645 773 701 729 
1136 691 729 1136 729 701 650 645 703 
703 645 772 730 704 705 731 730 705 
732 1141 1149 706 704 1213 1151 692 706 
653 734 731 735 734 653 692 736 678 
738 707 739 707 738 709 710 681 708 
711 742 741 694 742 711 712 743 694 
694 743 742 743 712 759 759 712 695 
695 760 759 695 744 760 1156 745 1143 
696 1155 714 746 1142 1154 714 1153 684 
684 1153 1155 715 684 747 748 715 747 
717 749 750 719 718 1146 722 1146 1148 
723 725 751 670 1148 752 691 703 772 
691 702 703 692 1151 733 692 733 736 
736 779 678 739 753 738 740 708 741 
709 738 781 708 755 710 708 740 755 
741 754 740 683 709 781 1152 1159 756 
742 1158 741 742 758 757 757 758 1216 
755 713 710 683 781 744 713 1155 696 
748 747 762 715 748 762 715 762 716 
1162 763 765 749 1160 783 1160 749 717 
750 749 783 719 1146 722 751 766 723 
1147 1161 721 726 721 1161 1148 766 767 
751 752 766 752 767 766 768 752 725 
725 752 751 752 1148 767 768 725 727 
727 769 768 770 769 771 769 727 771 
728 771 727 771 728 773 774 752 770 
772 752 774 772 774 691 729 691 774 
729 774 773 1149 1150 732 733 1151 775 
785 775 1151 731 785 1151 731 734 785 
786 785 734 734 735 786 775 776 733 
776 736 733 777 776 775 777 778 776 
775 778 777 736 780 779 736 776 780 
653 807 735 738 753 781 737 797 739 
739 797 753 754 755 740 741 1158 1157 
1216 755 754 713 755 1216 743 759 742 
742 759 758 781 761 744 744 761 760 
1155 713 828 747 1155 828 747 684 1155 
783 716 800 1162 765 763 716 783 1160 
1138 764 920 768 769 752 769 770 752 
771 774 770 773 774 771 785 784 775 
778 789 776 784 778 775 790 788 787 
790 779 788 776 789 780 780 789 779 
836 807 654 790 797 737 844 836 654 
753 791 781 753 797 791 792 1216 758 
759 802 758 758 802 792 798 761 781 
1216 793 713 761 782 760 713 793 828 
625 920 660 762 747 800 716 762 800 
783 801 750 750 801 838 785 786 794 
786 795 794 786 735 795 759 760 802 
828 793 799 794 796 784 796 778 784 
785 794 784 778 796 789 788 806 787 
779 841 788 788 841 806 789 796 779 
779 796 841 791 797 809 791 809 798 
791 798 781 1216 792 793 792 799 793 
760 803 802 761 798 810 760 812 803 
782 804 760 760 804 812 810 804 782 
810 782 761 654 920 933 829 1185 800 
920 685 1138 800 848 783 783 848 801 
787 806 808 787 808 790 809 797 859 
790 859 797 810 798 809 844 654 933 
802 799 792 802 803 811 812 804 813 
814 813 804 814 804 810 811 828 799 
747 828 815 816 1163 1164 747 815 829 
1165 829 815 747 829 800 838 801 817 
801 848 817 818 805 794 833 796 819 
805 819 794 794 819 796 806 820 821 
808 806 821 841 820 806 833 841 796 
859 790 808 843 859 808 821 843 808 
809 823 822 859 823 809 810 809 824 
824 809 822 802 811 799 814 810 813 
803 827 811 811 827 826 812 827 803 
812 825 827 825 812 813 828 1165 815 
625 685 920 1185 829 847 848 800 1185 
838 871 764 1169 818 830 831 1166 832 
805 1169 1170 1169 805 818 1170 819 805 
794 795 818 735 834 795 807 834 735 
836 834 807 843 821 1171 813 845 825 
824 845 813 824 813 810 828 811 826 
828 826 827 1165 828 829 863 847 829 
848 837 817 838 817 837 840 819 830 
1169 830 819 819 840 833 841 842 820 
820 1171 821 1174 835 1167 844 834 836 
860 859 843 825 845 846 825 846 827 
827 846 862 862 1190 828 827 862 828 
828 1190 829 838 837 849 838 849 871 
850 1173 1214 839 851 1168 1214 1217 850 
1179 830 818 852 1179 818 854 1179 853 
830 1179 840 840 1179 854 840 854 833 
818 795 893 833 855 841 842 841 1171 
841 856 1171 856 857 1171 1171 857 843 
834 844 896 844 933 896 824 822 845 
822 823 914 859 858 823 860 843 857 
861 845 822 845 861 846 864 1181 1175 
1176 1183 1182 863 1185 847 1172 865 1184 
849 848 866 764 867 888 848 849 837 
867 764 871 839 1178 851 818 893 852 
854 855 833 822 885 861 861 885 869 
883 885 822 914 883 822 870 862 846 
870 846 861 1190 862 870 1190 863 829 
866 879 871 871 879 867 879 888 867 
871 849 866 1179 872 873 853 1179 873 
1177 1186 1180 872 1179 852 853 873 854 
893 882 852 841 855 868 868 874 841 
841 874 856 857 874 875 856 874 857 
875 876 857 857 876 877 860 857 877 
858 914 823 859 914 858 859 878 914 
860 877 859 859 877 878 861 869 870 
869 886 870 870 886 1190 872 880 873 
872 852 880 873 881 854 852 882 880 
891 892 868 891 868 855 881 855 854 
891 855 881 868 892 874 874 892 895 
875 874 895 914 915 883 876 878 877 
884 869 885 886 869 884 863 900 1185 
848 1185 924 866 848 901 888 935 764 
866 887 879 880 889 881 873 880 881 
880 882 889 1187 890 1188 882 1189 889 
892 903 895 795 834 893 875 911 876 
911 875 895 916 914 955 915 897 883 
885 898 886 884 885 886 898 1190 886 
1190 900 863 900 924 1185 924 901 848 
901 887 866 887 902 888 888 879 887 
889 1189 881 834 894 893 894 834 896 
876 911 878 933 917 896 916 915 914 
897 904 883 904 885 883 885 904 898 
964 1190 898 887 901 902 892 891 905 
906 891 1189 881 1189 891 882 906 1189 
882 907 906 882 893 907 908 892 905 
905 891 906 893 909 907 908 903 892 
893 910 909 894 910 893 941 910 894 
911 903 912 911 895 903 896 941 894 
896 913 941 878 911 943 943 914 878 
896 917 913 915 918 897 933 932 917 
898 904 897 898 897 919 919 897 918 
919 964 898 921 1190 964 922 921 964 
1193 899 1192 921 900 1190 900 921 922 
923 900 922 1191 1194 1195 935 920 764 
925 901 924 901 925 926 888 927 935 
926 902 901 927 888 902 910 907 909 
903 928 912 911 930 943 945 915 916 
917 929 913 915 931 918 923 960 900 
900 960 924 924 960 934 924 926 925 
936 924 934 926 924 936 926 937 927 
937 935 927 927 902 926 908 905 939 
938 908 939 905 906 939 908 938 928 
903 908 928 907 910 940 910 941 940 
928 942 930 912 928 930 941 913 929 
912 930 911 955 945 916 929 917 944 
944 917 932 931 919 918 937 934 960 
937 936 934 937 926 936 938 939 947 
947 928 938 947 939 906 947 942 928 
906 907 948 907 940 948 948 940 949 
930 942 950 949 940 951 941 929 940 
944 951 940 929 944 940 930 950 943 
944 932 951 945 952 931 945 931 915 
952 964 931 931 964 919 922 964 923 
923 964 960 960 946 937 937 946 935 
942 953 950 947 953 942 954 953 947 
954 947 906 906 948 968 951 948 949 
914 956 955 914 943 956 950 957 943 
943 957 956 968 948 951 945 955 952 
933 959 958 933 958 932 933 965 959 
933 920 965 953 954 961 954 906 961 
953 957 950 906 968 961 955 962 952 
963 952 962 952 963 964 932 958 951 
966 946 960 946 967 935 966 967 946 
967 971 935 976 956 957 953 976 957 
968 977 961 978 977 968 951 958 1197 
968 951 1197 969 1196 970 1197 959 965 
1197 958 959 965 920 980 991 960 964 
963 962 972 955 972 962 956 974 955 
974 972 955 976 974 956 992 976 953 
953 961 977 974 973 972 964 975 985 
963 975 964 978 1197 979 978 968 1197 
1197 1198 979 1198 965 980 920 994 980 
1000 991 964 935 994 920 981 960 991 
960 981 966 981 1200 966 983 971 967 
966 982 967 972 975 963 975 972 973 
976 973 974 973 985 975 984 953 977 
977 978 979 977 979 1201 1201 984 977 
979 1198 980 964 985 1000 971 988 935 
988 997 935 981 989 983 983 982 981 
983 967 982 973 976 998 976 992 998 
992 953 984 998 985 973 1199 987 986 
979 980 1201 994 990 1202 1202 980 994 
991 989 981 988 971 989 989 971 983 
984 993 992 984 1201 990 984 990 993 
990 1201 1202 993 990 994 994 935 995 
1000 996 991 935 1001 995 935 997 1001 
996 997 988 991 996 989 988 989 996 
1003 1000 985 992 994 999 993 994 992 
999 995 1001 994 995 999 996 1002 997 
998 1003 985 1004 1003 998 1005 1004 998 
998 992 1005 999 1005 992 1006 1000 1003 
999 1001 1005 1006 1002 996 1000 1006 996 
1002 1006 1008 997 1009 1007 1009 1002 1008 
997 1002 1009 1005 1001 1004 1003 1008 1006 
1004 1001 1007 1001 997 1007 1007 1009 1008 
1008 1003 1007 1003 1004 1007 
