# vtk DataFile Version 5.1
vtk output
ASCII
DATASET POLYDATA
POINTS 1432 float
15.2633 38.4887 2.00835 14.0587 39.1662 2.48133 13.4838 41.3661 2.48934 
15.2298 42.4948 2.07646 12.933 46.0042 1.55988 13.4956 43.0394 2.07997 
10.6073 46.3772 1.89896 23.6928 43.9148 2.23829 25.141 43.662 2.24486 
27.4759 43.9917 2.09416 23.0505 45.4536 2.37627 27.8489 45.3631 2.31774 
10.8773 48.5095 1.97204 11.9752 48.5041 2.15911 18.1451 47.6379 2.98926 
16.2295 47.5913 2.51433 15.2987 37.4261 2.47951 17.801 41.7594 2.5134 
20.328 41.1466 2.97682 10.9607 43.5703 2.6739 29.265 43.6781 2.62644 
9.02855 46.2449 3.21393 20.2271 45.9878 2.57537 25.1031 45.862 2.47491 
29.4634 45.698 2.79661 8.97131 48.3899 3.43391 8.15 48.4942 4.71023 
11.1526 49.1655 3.15827 15.2902 36.3693 3.41625 15.9332 35.1739 4.46161 
18.1874 36.0568 4.21019 14.1977 36.6162 4.3914 17.0936 37.3568 3.26661 
12.3884 40.8324 3.70263 32.3132 41.3646 4.04805 10.4888 42.5832 4.11916 
11.9605 42.007 3.20206 8.69374 45.5737 4.09503 32.2509 46.064 3.54471 
29.8474 47.5311 4.07678 30.2448 46.7671 3.49177 20.4028 48.2001 4.1891 
13.5603 48.9405 4.31134 18.0341 48.3765 4.37116 10.8662 49.3473 3.9183 
15.4769 34.2374 5.98973 36.2133 45.6794 4.31275 7.86922 46.207 5.87537 
7.52276 48.1945 6.02293 34.5972 47.7268 4.60593 38.6093 47.7666 4.92906 
29.8172 48.3355 5.75613 34.3464 48.6981 5.87716 17.9232 33.6817 6.03702 
13.8938 35.7014 5.8372 14.4035 34.7569 6.4034 17.6803 34.613 5.19714 
29.7729 34.1554 6.10599 34.4748 36.44 6.05351 39.3175 43.2524 5.66193 
39.5698 45.9449 5.13824 39.3091 48.1391 5.22745 41.5636 48.2639 6.07158 
20.373 48.6141 6.22778 22.7069 48.5866 6.35025 8.1317 49.4374 6.71903 
10.7481 49.3711 5.89947 36.9682 49.3627 6.41551 39.2654 49.5674 6.4108 
15.0618 33.4839 7.4694 13.8833 34.3878 7.98994 11.3591 38.937 7.97233 
7.74891 46.0571 7.86046 7.49545 47.5742 6.16787 7.23915 48.5159 7.98705 
13.4508 48.7787 7.91764 29.976 48.5963 7.47116 41.1603 49.4708 6.47687 
8.08817 49.5269 6.97221 43.7553 50.5636 7.56608 41.8656 50.7716 7.93223 
34.3974 29.7344 8.41635 16.0613 32.3917 8.21146 41.4699 36.472 7.96704 
44.1677 48.0095 7.16089 10.8411 49.2052 7.74027 11.1902 49.1188 7.95574 
45.9531 50.6313 8.14849 44.3431 51.5026 8.30491 44.2076 52.1418 9.34775 
45.6753 51.8163 8.65351 25.0197 27.063 9.38777 22.9271 27.4013 9.66235 
36.9273 29.2952 8.92384 13.568 33.9739 9.51205 8.92907 43.4315 9.81182 
7.64036 48.9711 8.70437 8.78543 49.2578 9.49774 48.3547 50.6917 9.60315 
41.2636 51.1078 9.30071 46.6793 52.4152 9.38208 7.72505 48.7982 10.1481 
48.4683 52.4177 10.0796 34.4715 22.6151 11.3833 39.2289 24.736 10.9378 
23.0495 25.2568 11.5055 20.3554 27.1909 11.367 43.9636 27.0889 10.9346 
50.9274 36.4398 11.3136 8.52294 43.4659 11.507 7.3359 47.5915 11.4925 
25.0743 48.5064 11.3812 29.5454 48.6825 11.1828 50.9526 52.892 11.2692 
46.6424 53.3819 11.3164 48.9224 54.1279 11.6911 50.8583 34.1529 11.4974 
52.9003 38.7616 12.1129 7.9801 49.0402 13.4342 32.2969 49.2673 13.285 
52.6044 52.885 12.1342 48.6946 54.6386 13.1436 50.938 54.4398 11.8193 
51.4244 55.7083 13.0332 52.8766 54.8602 12.4116 25.1953 22.6395 12.8992 
46.2088 22.6096 13.1417 48.4433 22.7885 13.6132 48.6201 24.8375 12.907 
15.7237 29.7771 13.3669 53.4327 31.8164 12.7414 8.68821 41.1574 13.1527 
55.4327 41.0406 13.4601 7.12657 47.9723 13.117 11.1394 48.8818 13.1616 
9.14892 49.125 13.196 45.8443 53.4164 13.0263 54.9592 55.0303 13.3484 
53.5034 56.8124 13.5854 32.3369 18.4295 13.6216 51.0302 22.4152 14.3548 
22.7434 22.6231 14.9292 6.72832 45.9619 15.1031 6.91774 48.1671 14.5962 
8.05457 49.1173 14.8708 54.8345 56.3622 13.5966 55.6982 57.6917 14.8489 
34.5874 15.8733 14.9912 38.8942 15.508 15.1902 32.4451 16.2454 15.3437 
36.285 17.085 14.1816 27.9268 18.7447 15.5266 50.8728 20.359 15.0553 
57.9882 27.2651 15.0147 60.2448 34.1394 15.4243 57.6159 47.9087 15.4344 
27.3395 48.8414 14.8065 56.0582 55.2327 14.3016 50.355 55.8567 14.733 
36.8117 13.3817 16.6893 30.2611 16.4771 16.4745 53.127 20.5135 15.4822 
58.2426 22.4288 16.0097 58.3098 25.2506 15.4245 60.9442 24.4818 16.7411 
59.8821 27.3077 15.6958 60.9201 27.818 16.3801 59.7578 29.5522 15.4419 
61.1027 34.5427 16.4867 61.0618 36.2088 15.9755 60.3046 38.7471 15.4915 
61.4519 38.6877 16.1095 61.8453 38.4716 16.5193 59.7009 40.7947 15.4889 
61.0706 41.1963 16.3193 6.2522 45.788 16.807 6.67203 47.9106 16.5296 
8.43743 48.842 16.546 18.0347 48.4391 16.6885 43.6967 52.965 16.6202 
48.3922 55.1885 16.6334 57.1387 57.2369 15.4866 53.5113 57.9769 16.0277 
55.6205 58.7587 16.0875 58.0803 59.6104 16.9375 43.4085 13.0884 16.8341 
46.1352 13.5693 17.0843 60.1367 20.8672 17.0119 60.8663 22.0817 17.0663 
18.3761 25.1515 16.7879 61.5047 23.9337 17.3403 61.6173 36.6515 16.905 
61.7746 42.805 17.3948 62.433 43.2532 18.4317 39.1702 11.0793 18.4344 
46.0436 10.778 18.3813 46.3808 12.9131 17.4212 32.6507 14.4164 17.4002 
34.2444 13.0148 18.3084 27.9423 16.4527 18.9194 60.4012 17.6116 18.2817 
25.3451 18.38 18.7004 61.4018 20.2211 17.7941 61.7118 20.1218 18.3333 
22.7459 20.3211 18.4723 61.7356 23.0222 18.1751 61.5272 23.5971 17.3856 
61.6706 24.8437 18.4857 62.2336 41.5392 18.4379 61.8674 45.5637 17.7093 
5.91808 46.0958 17.6574 63.0734 45.9088 18.681 6.45723 47.8459 18.349 
60.9164 48.1223 17.4252 62.7031 47.9455 18.626 59.5789 59.858 18.354 
57.8327 60.2614 18.174 42.0554 9.70168 19.2505 48.5327 11.1425 18.5851 
61.6181 18.3094 18.9289 62.3265 17.9693 20.0604 24.4835 19.4514 17.944 
62.6807 42.9511 19.8571 63.4763 45.8026 19.6648 6.07773 47.9408 19.8777 
63.7431 47.8921 20.0504 62.2228 52.4612 19.0284 63.1695 54.6619 20.4126 
58.6159 60.9158 19.1032 46.0202 8.29821 20.0316 50.6277 8.44059 20.2439 
39.3742 9.53988 20.8252 34.7035 11.5933 20.4522 62.9028 13.5923 20.575 
62.0978 20.0554 20.1615 19.6045 21.9666 20.1307 61.8867 22.5011 20.089 
60.7737 32.1948 20.4321 61.9897 39.1397 19.7265 5.74915 43.6731 20.0903 
5.28749 45.8032 19.912 8.17249 48.4842 20.4797 63.4608 50.3256 19.8298 
41.4138 52.8453 20.1778 60.8845 60.4188 19.4302 58.1072 61.6467 20.1868 
59.903 62.03 19.8487 62.8794 62.723 20.7126 61.0554 63.5257 20.9087 
48.526 6.25489 21.7193 61.93 12.0542 20.8063 63.687 13.3987 21.284 
63.3033 15.8612 21.7772 15.9951 25.1624 22.1048 61.4715 39.0119 21.715 
62.6145 43.3789 21.5354 5.16314 46.3964 20.4154 5.91465 48.3999 21.7892 
63.9616 50.1924 20.8305 64.2155 50.3171 21.9848 64.2771 52.3443 21.7158 
62.6818 63.6678 20.8507 62.7516 64.3796 21.0698 53.0338 5.90636 22.1034 
44.1294 7.15018 22.1302 39.2531 8.99787 22.0989 37.2075 9.73377 22.385 
62.7908 9.23797 22.5521 34.4602 11.0639 21.9981 63.2513 11.0956 21.7242 
64.3128 11.339 22.4124 32.5675 11.9206 22.3037 24.5911 17.293 21.7015 
14.0259 27.6969 22.2047 61.2393 38.5504 22.2311 4.58401 46.1492 22.0541 
4.71957 47.4125 22.0343 11.0183 48.4735 21.9993 64.8304 54.8019 22.272 
69.7257 63.9798 21.8994 70.6594 62.7631 22.4999 72.1632 63.722 21.9149 
73.7214 64.408 22.6069 69.6034 66.3449 21.5913 62.7738 65.2718 22.38 
71.9585 66.4735 21.4638 73.4968 66.132 22.2546 69.6068 69.1659 21.7415 
72.16 68.9509 21.6823 70.4745 70.5828 21.9223 71.986 70.7952 22.2512 
50.7504 4.64989 23.5135 53.3213 4.16788 23.9088 55.4727 4.36908 23.7403 
46.0025 5.87091 23.5507 62.9799 8.42883 23.0419 65.0077 11.2828 23.3893 
64.4644 13.0166 23.5603 27.9534 14.1847 24.0318 22.6633 17.9076 23.7475 
20.1406 20.0368 23.6929 60.6454 27.1696 23.6583 11.9706 30.1165 24.0366 
62.0696 43.5201 23.6272 4.18648 48.476 23.6778 64.3617 50.6404 23.3835 
64.9878 52.6092 23.7231 51.3215 58.7555 24.0069 66.7733 63.3613 23.8335 
69.0375 61.1877 24.4193 71.8961 62.9159 22.452 72.5361 62.2689 23.2982 
68.0844 64.4084 22.5217 74.0254 63.9224 23.2992 61.6653 65.2844 23.2824 
65.5605 64.8107 23.6496 66.3627 66.3856 23.7461 63.3215 66.3564 23.8649 
64.9368 66.8538 24.2421 74.328 66.161 23.6568 67.5432 69.3382 22.8387 
66.5641 68.9018 23.8613 73.6907 68.5454 22.9375 74.0307 68.5706 23.4856 
67.744 70.5494 23.2773 71.951 72.2876 23.3955 73.4726 70.6064 23.7303 
69.6363 72.1306 23.5836 71.5248 72.5299 23.7394 62.6002 6.5507 23.9195 
21.2062 18.9839 24.0823 3.98333 48.5609 24.7941 5.89729 49.1897 23.7824 
66.7178 57.61 24.4841 67.1759 62.0802 24.1247 73.5528 62.7582 24.1129 
69.9393 72.4132 23.857 50.8785 3.94304 25.3286 55.5604 3.37181 25.2039 
57.9092 3.32528 25.3374 60.0991 4.43886 24.5715 60.3253 3.61348 25.2575 
62.4049 4.7615 24.841 62.4725 3.71846 25.6571 62.9894 5.34703 24.6352 
65.942 6.06301 25.2939 60.9285 22.6162 25.5606 3.80563 46.0857 25.671 
15.6691 48.5902 25.493 5.83837 49.4524 25.6268 66.483 55.4497 25.4406 
67.5052 57.471 25.6962 68.2403 59.1821 25.3826 72.3158 61.1296 25.5294 
70.2418 60.785 24.9872 73.5403 62.4039 25.2014 74.4453 64.1988 25.3535 
62.9545 66.6992 25.2807 64.4252 67.5593 25.2467 65.3636 68.6841 25.4107 
65.8476 68.0194 24.3915 74.3139 69.3998 25.5089 67.6261 71.5878 25.2513 
73.8379 70.6277 25.3664 69.806 72.7303 25.2706 71.7248 73.2278 25.6251 
58.878 2.47709 27.337 60.156 2.88435 26.3337 62.8227 3.10808 26.6051 
65.9206 4.46457 26.0369 66.9061 6.71138 25.9205 66.7435 4.89319 26.0978 
68.1423 6.10965 27.3122 66.5218 7.99671 25.7631 5.10585 49.3077 25.6182 
67.6907 57.1264 27.0548 69.5069 59.8012 25.7479 69.7364 59.2258 27.2708 
72.9585 72.0019 25.6608 68.4642 72.2399 25.9479 62.4511 2.81039 27.2241 
53.1297 3.19304 26.9465 64.6116 3.29913 27.4423 68.8966 3.96161 27.901 
41.5107 6.47304 27.3193 66.7823 8.62494 27.0461 34.784 9.41417 27.444 
65.5718 10.8367 26.5662 60.8305 22.2643 27.246 4.91301 49.2385 27.8792 
34.6129 52.0738 27.4098 43.5833 55.4393 27.1802 68.5031 58.0609 27.3508 
71.2484 60.3234 27.0873 73.4441 62.497 27.159 74.2611 63.9434 27.1222 
74.4927 66.5204 27.3227 62.3346 66.8443 27.1888 64.5734 68.8643 27.7875 
74.0871 69.4871 26.7923 73.3964 70.858 26.5381 67.7932 71.817 26.7402 
72.1802 71.8805 26.8609 70.4569 72.6411 26.4006 71.5036 72.8126 26.3491 
57.8949 2.36915 29.0118 68.8097 4.0785 27.8783 69.6638 3.89792 28.6433 
68.7008 5.34777 27.9948 61.9759 17.7756 29.0555 61.0018 20.9177 29.2035 
59.9179 36.4824 29.0512 72.178 61.6844 29.1464 63.4822 67.8622 27.7139 
66.1349 70.3455 28.089 69.8481 71.9083 27.4685 60.2544 2.38972 29.0975 
60.9602 43.2132 29.1858 3.91158 48.4039 29.119 5.87019 49.5586 29.1368 
73.7133 68.3733 28.7312 72.7461 69.4126 29.1633 65.5638 70.0602 29.4272 
71.7303 70.0623 29.121 69.4697 70.7235 29.2155 67.2203 70.7017 29.3075 
29.9212 11.3385 30.9139 22.9172 15.9442 30.9167 6.55875 36.5705 30.9331 
4.15337 41.3818 31.026 3.51952 48.436 30.9172 5.68425 49.575 30.8213 
73.4966 67.8727 30.739 73.6894 66.4845 31.0994 72.6306 69.1618 30.656 
69.5772 70.1299 30.9239 5.0714 39.2769 31.1635 5.11542 49.3887 31.0525 
8.61051 49.5933 30.8893 67.1275 70.3513 30.7876 67.3858 3.33535 32.6558 
70.7322 3.94468 34.1578 44.011 4.64427 32.7005 41.202 5.67442 32.5088 
41.9367 5.34806 32.8126 28.1866 12.3281 31.1262 64.114 12.8983 32.6164 
17.7112 19.9843 32.5421 59.7264 27.1494 32.5834 3.07973 48.5829 32.7177 
6.20069 49.6385 32.6107 25.0673 50.3474 32.626 72.6955 63.8173 32.4735 
73.2636 64.9963 32.1986 73.7244 66.566 32.563 60.4974 67.8546 32.9272 
73.6416 68.2685 32.1186 62.3818 68.9056 32.5711 65.2871 69.9875 32.6497 
71.0838 3.81018 34.1218 2.60878 46.2294 32.8025 2.55606 47.5135 33.0528 
2.86243 48.6472 33.591 57.9302 2.36731 34.4398 65.0895 3.24802 34.3694 
69.3888 6.20513 34.4497 65.1626 11.1701 34.4122 1.88056 48.7244 35.1604 
3.51165 49.4684 34.8828 8.6347 49.6039 34.3906 56.0185 65.6837 34.6395 
57.8371 66.5759 34.3398 62.6987 68.8471 34.223 64.4383 69.3186 34.614 
69.551 69.8076 34.6745 70.821 4.06471 34.6951 71.4764 4.15416 36.8094 
67.1811 8.70558 36.1644 12.8754 24.5454 36.0606 60.6926 45.5317 36.221 
2.23769 49.153 35.0502 2.08454 49.45 35.4226 63.4641 52.13 36.2641 
74.0005 68.6651 37.1784 71.4313 3.80155 35.7728 27.7149 11.5557 36.2663 
8.06754 31.4913 36.0506 4.04441 38.82 36.2098 1.90372 45.9038 35.6158 
3.17729 49.6711 36.7248 34.095 53.6004 35.9396 44.4054 58.5566 36.5137 
53.335 64.6151 36.3892 65.1866 69.0889 35.7697 72.3373 69.3718 36.7429 
71.7679 4.18529 37.3161 67.2546 8.93756 37.954 65.2928 11.3257 37.889 
17.0984 19.3711 37.7604 1.86378 48.6893 37.4465 20.4235 50.0815 37.9746 
62.4452 50.361 37.9297 63.3626 52.2559 38.0101 74.1855 66.9736 37.5809 
74.1075 68.4463 38.1463 67.5242 68.9006 37.4066 70.2953 3.57952 38.1339 
66.2373 10.1748 38.1502 2.22551 49.656 38.8865 3.12216 49.7677 38.4217 
70.0771 69.1292 38.059 48.7105 2.56269 39.7781 45.9661 3.22456 39.637 
39.5519 5.20213 39.8425 61.2848 18.3746 39.7421 58.4883 34.1271 39.7681 
58.5727 36.4106 39.7829 4.49598 36.7608 39.8052 1.31376 48.1825 39.625 
3.2531 49.9737 39.2456 8.62021 49.5229 39.7464 13.3781 49.5737 39.771 
27.5574 52.1772 39.7992 31.7501 53.57 39.4751 64.935 54.9195 39.7142 
41.1665 57.852 39.477 72.5688 64.1205 39.8532 73.6475 66.4362 39.2918 
69.9498 68.2239 39.5763 72.3944 68.6359 39.1161 46.5004 3.07752 39.8038 
58.0235 66.0737 39.7357 73.034 66.2587 40.965 73.3017 67.7264 39.421 
55.5607 1.43196 41.4583 57.9821 1.30208 41.3563 43.729 3.69458 41.4657 
71.5421 4.30221 40.9042 71.3002 5.5724 41.6881 30.0899 9.34437 41.5454 
27.3553 10.9642 41.4755 23.0003 13.7551 41.5272 62.5774 15.866 41.355 
59.6941 24.7669 41.4854 11.3419 25.1892 41.5251 59.0954 26.8797 41.4397 
6.81467 32.1117 41.5427 58.3986 31.8484 41.5048 58.873 40.7369 41.5996 
1.15493 46.0511 41.4776 1.6202 49.7393 41.1345 6.26012 49.9205 41.5383 
8.61949 49.672 41.5602 62.2234 50.4639 41.466 39.0353 57.4398 41.3988 
72.2857 64.0695 42.1039 52.5355 64.8142 41.8445 72.3756 65.9632 42.2839 
72.7764 4.12979 43.9736 36.6448 6.0554 43.2342 71.5687 5.81032 43.3638 
29.0915 9.929 41.3772 67.0954 10.6371 43.3102 58.7752 27.8579 43.2152 
59.3513 43.331 43.1562 72.3525 64.3958 43.2036 67.2005 2.01326 43.3291 
70.0877 3.14787 43.1133 65.4411 12.9495 42.9204 20.3376 15.6311 43.2558 
14.3891 21.2199 43.3706 60.3301 22.6238 43.256 60.1806 45.7055 43.2573 
0.768901 48.2105 43.2734 1.53485 49.8419 43.0461 3.63886 50.4853 43.2461 
36.9086 57.0142 43.3197 48.5389 64.0019 43.2351 53.1295 64.5819 43.2544 
71.7674 65.6926 43.1436 60.3183 0.781555 44.895 50.9048 1.88828 45.0315 
72.5967 4.18987 44.1427 68.2447 9.59515 44.8418 61.1177 20.4243 44.9598 
8.22543 29.2641 45.0212 0.761852 48.0192 44.8404 46.6935 63.5025 45.2483 
72.1856 64.7524 45.3924 48.1702 64.0264 45.2458 69.8351 65.534 44.6634 
71.5692 65.2296 44.9165 62.0991 17.8993 45.1382 58.7474 28.0906 44.8869 
1.57905 50.374 45.208 62.6084 0.740369 46.8183 72.5762 4.33572 45.6513 
18.82 16.6699 46.8078 59.3373 27.159 46.9692 59.0767 27.862 46.6275 
1.32752 50.8381 46.5291 17.8978 51.1958 46.6227 69.3165 61.7376 47.1005 
70.2998 63.9192 47.0796 48.46 63.7804 46.7737 55.5985 63.7283 46.7014 
58.8454 29.1662 46.8136 0.636859 50.6615 48.6959 70.964 64.1532 46.176 
67.7164 1.73743 48.5591 72.9992 4.42255 48.225 72.7305 6.07504 48.2585 
27.1991 10.696 48.5802 63.2779 17.8225 48.6396 14.3617 21.1983 48.4883 
59.615 27.1282 48.6921 6.68024 32.0328 48.556 58.3358 36.2624 48.835 
58.6654 40.8345 48.5733 1.00449 45.524 48.5742 0.507888 48.4962 48.2535 
13.3058 51.0481 48.4041 1.89402 51.6326 48.578 29.671 55.1205 48.5054 
41.6406 62.1764 48.7451 68.9999 62.5167 48.3126 68.7344 63.2848 48.7943 
65.007 63.9855 48.5437 73.4468 5.01528 48.8294 73.4148 5.45246 48.9989 
2.63719 40.4712 50.2952 0.478483 50.5545 49.9542 1.509 51.8697 49.1798 
74.1259 4.84395 51.1302 22.9238 13.6463 50.3332 10.219 26.6339 50.4212 
3.53872 38.5479 50.3774 59.4489 43.6242 50.3869 61.8927 50.5898 50.3057 
25.4039 53.9857 50.5943 67.835 62.2821 50.4942 65.2381 63.3396 50.3206 
67.5235 63.2529 49.8102 43.7567 3.75019 52.1455 39.4432 5.00238 52.0654 
74.3044 5.75796 52.066 30.0309 9.24231 52.0821 69.0928 10.5395 52.2647 
20.1699 15.8744 52.2146 17.9423 17.9015 52.132 61.8203 50.6115 52.091 
1.62387 52.0184 52.587 66.795 59.7974 51.4125 39.7466 62.1961 51.8737 
53.2385 1.81472 52.121 75.1493 5.02007 53.4142 1.84518 43.4254 52.078 
59.5492 43.5592 52.1801 0.823868 47.9071 52.2461 3.40476 52.4877 52.5622 
66.7883 61.7486 51.8731 69.2861 2.39776 53.9085 36.692 6.15629 53.9212 
74.4497 5.90439 53.5365 69.3548 10.7735 53.9904 25.6973 12.0488 53.7626 
67.4426 13.0599 54.0595 19.0493 16.8074 51.9346 13.711 22.9164 53.8149 
60.8324 25.0941 53.831 8.71413 29.5666 53.8751 4.80208 36.8746 53.731 
1.71348 51.9482 53.6417 20.2214 53.3182 53.6889 29.8461 57.0588 53.9384 
66.4231 60.9928 53.3339 65.4276 62.0455 53.818 39.5552 62.4994 53.2818 
74.591 4.89807 54.0147 58.8886 34.1767 53.6941 3.42554 52.8203 54.109 
38.7066 62.9042 55.4679 41.3185 62.8196 54.0947 50.9253 62.1039 53.9549 
57.9298 1.66361 55.6849 67.3808 1.9959 55.6321 72.7128 4.04217 55.6954 
73.8641 4.65151 55.353 74.7547 5.99855 55.2654 69.6456 11.0583 55.669 
65.7099 16.1723 55.5224 63.0167 20.5087 55.5874 63.957 18.7682 55.3672 
59.8797 29.4351 55.7286 59.3058 34.0735 55.8393 61.47 49.8716 55.6787 
3.67208 53.2321 55.5532 10.9986 52.7204 55.6205 24.8754 55.3836 55.463 
65.6139 61.8062 54.3238 36.848 62.2272 55.6703 41.863 62.8148 55.1143 
39.4568 63.0265 55.8697 75.6206 6.17113 58.0775 1.98121 52.8265 58.1604 
66.1552 59.7497 56.1431 40.9794 62.8933 55.2938 64.9569 1.94801 57.4075 
50.6635 3.00796 57.658 41.7444 4.9849 57.255 74.05 4.92832 57.3009 
36.8879 6.65025 57.3917 32.173 8.8732 57.4096 27.6555 11.4532 57.3479 
20.8379 16.2361 57.2852 11.164 27.3435 57.3839 4.70727 38.6963 57.2303 
59.0216 38.9618 57.4884 1.53734 50.2877 57.4369 3.39185 53.6882 57.5754 
15.5905 53.4688 57.1438 65.8108 59.8992 57.2455 57.9658 61.2523 57.3115 
64.5046 61.1447 57.0802 41.6723 62.7566 57.5033 43.951 62.3431 57.4926 
39.0894 63.1182 57.2448 75.4565 6.23329 58.882 59.0334 38.4328 58.9962 
3.02016 45.3556 59.477 60.8849 48.2017 59.1612 35.0621 62.0759 58.9044 
37.7904 62.9802 57.684 69.3272 3.09313 58.9336 74.482 8.05268 59.443 
18.7134 18.6723 58.9881 59.4141 36.2419 59.494 59.1261 37.4411 59.4677 
59.1235 38.715 59.6365 2.12174 48.1494 59.0626 2.15612 52.7259 59.0213 
2.53318 53.9231 59.3639 3.33657 54.2411 59.3582 27.1414 57.771 58.9307 
65.4029 59.5565 59.6052 62.8451 61.0421 59.0732 64.2363 60.7467 58.9261 
36.7984 62.7194 59.1755 37.882 62.9538 58.9175 38.7479 63.0065 59.0433 
72.4634 4.90825 61.207 63.0572 22.6196 60.9301 2.52799 53.1601 60.6672 
6.30047 54.7929 61.0058 15.697 54.8764 60.9756 26.8702 58.3462 60.4167 
65.0618 59.8843 61.0397 36.8808 62.8952 60.9955 39.2753 62.811 60.9579 
55.6992 2.87366 60.7227 3.00685 54.1804 59.6902 24.9041 57.5967 60.784 
50.8945 4.14061 62.7521 75.4183 7.35887 62.8298 75.0041 8.6138 61.9917 
67.2159 15.6824 62.3028 64.7059 20.168 62.8271 3.92367 45.6544 62.7541 
60.7038 45.6183 62.6978 62.8765 52.4586 62.7203 20.504 56.8382 62.8979 
65.1502 57.202 62.7786 50.9777 60.5597 62.8332 63.0511 60.2748 62.9815 
65.0312 59.5398 62.2755 34.5 63.1869 62.9871 37.4905 62.9503 61.5043 
38.3927 63.0338 62.8856 62.6036 2.98668 62.4404 72.4729 5.61249 63.0859 
76.0781 7.99802 63.3928 2.92545 53.0122 63.1684 8.67129 55.2113 62.6031 
55.5813 4.04716 64.5592 69.654 4.81774 64.3067 41.6094 6.82563 64.4124 
75.7768 8.34162 64.1184 31.938 10.7581 64.6074 74.6345 10.3927 64.8332 
24.91 15.4696 64.6039 69.2128 14.9842 64.75 66.8991 17.6509 64.7806 
62.947 25.0601 64.4155 13.2964 27.1836 64.5295 61.7331 29.3092 64.6988 
8.84155 34.2321 64.4609 60.7001 34.3065 64.4776 60.7385 43.334 64.4547 
3.84348 55.3472 64.5017 64.2296 55.02 64.4274 5.97706 55.7861 63.607 
64.8994 57.3729 64.4862 64.3288 59.0928 64.6655 62.663 59.9895 64.6027 
65.0812 4.46931 66.1317 3.87302 55.6088 66.9039 4.54143 56.0622 65.2806 
60.7132 59.8543 66.1398 60.2939 4.32694 66.2185 53.3315 4.84182 66.0223 
75.2194 9.16561 66.2627 36.868 8.91 66.2465 74.9799 10.8688 66.2796 
20.2132 20.121 66.3784 3.89995 50.3944 66.071 3.64663 52.8291 66.1047 
64.6528 57.4369 66.6315 4.53908 56.6884 66.6588 5.79414 57.128 66.5217 
64.2125 58.6878 66.4544 55.6172 59.8522 66.3358 63.1858 59.4975 66.724 
32.3824 64.1096 66.3784 36.444 64.0634 66.1902 74.5596 9.57038 68.2249 
75.7469 10.8682 68.1784 74.3233 12.8094 68.3956 63.1319 27.4058 67.8753 
6.89143 41.2557 67.8423 4.936 48.1719 67.6444 62.0178 47.7762 68.084 
55.5254 59.6099 68.1225 25.2691 61.4292 68.2314 34.3164 64.7765 67.368 
50.8416 6.09807 68.217 69.645 6.5866 68.0028 75.7396 10.8912 68.5548 
13.0019 29.2945 68.196 62.0583 31.719 68.2299 61.2525 38.7642 67.8275 
4.07443 55.0303 67.9524 4.68274 57.0321 68.2931 64.8574 57.2613 68.1864 
6.1262 57.8055 67.9485 15.5978 57.872 67.7393 64.3044 58.6309 68.2068 
63.1943 59.4097 67.9811 32.3727 64.7542 68.0333 72.3262 8.89264 69.7833 
43.7559 8.36639 70.0196 75.7991 10.8398 68.7947 34.5255 11.1974 69.7791 
31.7916 12.8858 70.0617 24.9275 17.8166 69.9247 67.6437 20.5234 69.6572 
17.7945 24.6956 69.9712 65.0692 24.9636 69.784 15.5974 27.138 69.8841 
64.0604 27.2382 69.9664 10.8956 34.0829 69.8773 9.37909 36.7791 69.506 
61.3818 38.7066 68.3845 4.8979 52.7352 69.4012 4.48719 55.3712 69.3055 
65.204 57.4616 69.7775 5.56009 58.0894 69.1605 15.8406 58.3192 68.6108 
15.6456 58.9756 70.086 64.1884 58.9535 69.3757 23.0056 61.2004 70.1096 
23.2947 60.6344 68.5974 46.5844 60.9791 69.7143 31.9976 65.1241 69.5423 
61.8297 38.7043 70.0519 62.1367 41.0339 71.7365 62.079 43.7127 71.6035 
48.4362 8.17859 71.9008 67.207 7.41 71.085 75.4012 13.3263 71.6741 
74.4314 14.8641 72.0304 64.9141 27.1922 71.6331 13.1592 31.7306 71.6988 
4.96277 57.4494 71.3407 65.6347 57.1624 71.4318 6.06749 59.5503 71.8443 
64.7005 59.078 71.4899 8.10064 60.0255 72.0025 53.3066 59.8887 71.5681 
57.9796 59.4602 71.5686 60.284 59.5762 71.5944 34.4688 65.6376 71.1056 
4.98057 57.3575 71.4885 6.22102 59.9223 73.8381 34.2173 66.364 73.3526 
55.551 8.2351 73.6737 57.906 8.10857 73.7439 72.0501 10.9198 73.4537 
37.0459 11.6916 73.0531 73.7614 11.8107 72.9392 75.3173 13.1814 72.5005 
75.1223 15.2015 73.6483 71.843 17.9328 73.4363 24.8907 20.0955 73.5234 
9.35656 41.2943 72.9463 7.95003 47.8111 73.723 63.2724 47.7968 73.1828 
65.862 55.3771 73.1549 5.72339 57.6221 73.3552 66.0569 57.3985 73.0763 
65.1889 59.4619 73.5987 8.26972 60.5194 73.3483 57.9541 59.6688 73.3409 
48.2363 60.8326 73.4875 43.9674 62.0817 73.3335 75.3884 15.1817 74.7433 
13.6926 34.3378 74.8972 63.3219 45.6233 74.8919 66.1567 57.2655 73.6134 
6.50343 57.6798 74.9062 65.7729 59.8173 74.9927 15.8573 60.817 73.8522 
62.6298 8.87093 75.0882 74.3452 13.547 75.0318 34.3087 14.0021 74.9259 
74.4691 17.1894 75.7232 29.5588 17.7078 75.3665 23.0224 22.9066 74.9162 
64.3757 34.0099 75.399 66.5889 57.3553 75.2927 6.83078 59.5787 75.2049 
66.3174 59.1638 75.4636 7.66279 60.5264 75.1718 20.1728 62.3963 74.8349 
26.9165 65.277 74.5783 50.8563 10.7957 77.1 39.152 13.3476 76.9425 
72.2339 13.0724 77.1028 73.9206 14.2804 76.834 75.1395 15.8365 76.9999 
71.9712 20.3209 76.9117 23.5502 23.4391 76.2626 22.6804 24.8621 76.9591 
20.5289 27.0033 76.859 67.4584 27.2854 76.85 64.3726 36.5893 76.7072 
13.7128 36.6329 76.6474 63.8509 45.4609 76.5033 64.1807 45.8562 77.2203 
65.3383 60.3355 76.7001 44.152 62.5892 76.7434 29.1387 67.2046 76.3938 
32.127 67.7299 76.3419 74.8609 17.6739 77.0845 27.5518 20.4617 76.7817 
64.0135 40.8104 77.3599 10.1554 47.6988 77.4703 65.9658 53.0208 77.3808 
8.02935 57.4941 77.3461 7.92732 59.9126 77.1111 20.5436 63.7011 77.1167 
30.0076 68.0064 77.2984 64.9636 11.261 78.5711 69.6818 12.8083 78.9943 
74.6738 16.0405 78.4778 34.7413 16.1946 78.2979 75.3817 17.9038 78.6463 
27.2822 22.4092 78.8581 28.0414 21.1248 77.9928 18.1689 31.9284 78.5736 
65.1326 47.9389 78.6254 9.24478 61.6077 78.7775 53.1767 61.0854 78.867 
55.5558 60.927 78.9474 65.3368 60.9946 78.9769 48.543 61.7495 78.6953 
10.0805 62.5639 78.5786 33.3971 68.0509 77.7046 34.3913 68.1627 78.901 
10.138 52.4081 79.2862 68.3965 57.4917 80.1908 67.1943 59.5832 78.3062 
65.3766 12.7818 80.8328 64.8724 12.0577 79.8078 36.7307 16.4225 79.9652 
75.5508 17.9347 80.0588 32.1655 19.8126 80.4688 75.5927 18.6863 80.3984 
75.1019 19.9544 80.1456 72.2743 22.7674 80.3127 17.4757 36.1029 80.9565 
67.0738 52.6569 80.5598 68.0386 59.8151 79.9532 67.1713 61.0106 80.1593 
10.2132 62.4019 80.5185 62.659 61.47 80.5631 11.4868 63.6052 81.152 
41.7474 64.5876 80.3069 37.2318 67.093 80.1986 34.2631 68.8493 80.3954 
75.9016 18.9917 81.8495 76.2962 19.7661 82.0163 68.9974 57.512 81.6486 
68.806 58.152 80.7188 68.6607 59.1865 80.7822 13.0088 64.6943 82.6522 
55.6086 13.594 82.089 64.9624 13.5973 82.0858 46.124 15.3687 82.4649 
74.5477 17.8632 82.3613 75.2942 21.0255 81.4978 75.0782 22.0707 82.3879 
72.3056 24.6107 82.387 25.1861 27.3269 82.1093 70.1214 27.4788 81.924 
22.9657 29.7091 81.9947 67.9528 32.2564 81.8176 66.6061 43.3182 82.6332 
13.8466 45.8266 81.8428 11.0704 59.7544 82.1079 11.2738 62.3678 82.2278 
68.7334 61.2264 82.2304 67.6133 62.1778 82.1035 12.037 64.1104 82.7407 
20.3879 66.2331 82.3088 39.2622 66.5693 82.1613 37.5173 67.5239 81.7962 
29.9424 70.59 82.3203 60.2863 14.3095 83.3647 64.8661 14.4168 83.2806 
69.5047 15.9335 83.8744 74.3998 18.5575 84.1163 36.3657 19.8926 84.4059 
76.5436 20.2799 83.55 67.7738 38.815 83.7219 69.5253 62.2493 84.2822 
12.5086 64.2355 83.4392 14.115 65.4483 84.02 22.9189 68.3401 84.2015 
24.8655 69.1365 83.7771 62.6544 15.1199 84.4312 65.1151 15.1885 84.3374 
76.7286 22.5891 84.5394 69.8879 59.6651 83.8362 46.3929 63.968 83.9788 
71.7697 18.1914 85.8095 76.428 21.0062 85.8302 77.087 22.5483 85.2578 
76.5784 24.441 86.2276 70.3537 31.934 85.2861 68.2069 47.8534 85.278 
70.5332 59.5532 85.2886 70.6312 62.1835 85.769 13.8399 64.3373 85.4567 
67.3072 63.0926 84.3518 53.2116 63.5547 85.9921 69.568 63.2639 85.9179 
14.1336 65.3873 84.9666 43.6278 65.8922 86.0211 15.9266 66.3594 86.1237 
22.6082 68.9862 85.6215 28.885 71.9922 85.2291 41.3028 19.5291 86.3654 
15.0477 54.7695 86.3139 50.9308 18.1912 87.3719 38.758 20.9 87.1493 
36.861 22.5959 87.9594 76.7098 22.7011 87.4589 34.3565 24.8074 87.6412 
77.1242 24.9106 87.5292 74.0434 29.2836 87.9415 71.4834 34.1556 87.7765 
25.1828 34.2192 87.4253 20.5346 41.131 87.4016 18.4104 45.7947 87.1982 
70.1222 52.495 87.309 72.0782 62.3513 87.8596 14.8383 64.7866 86.4787 
70.1009 63.9099 87.2943 46.0127 65.8923 87.8276 19.8932 68.7822 87.6429 
41.183 68.2197 87.8604 27.7993 72.7143 87.8379 30.1788 73.9374 87.4738 
34.1638 72.797 87.8734 48.5689 20.3822 89.2407 72.1051 20.6747 89.0328 
71.6093 63.699 88.0303 38.9678 22.7922 89.3169 74.5406 22.396 89.5112 
76.2291 23.178 88.69 76.9915 25.3086 89.6248 77.1833 26.9652 89.2748 
32.104 29.509 89.3385 72.2098 36.2481 89.4552 70.3567 45.6854 88.8462 
72.9068 62.2147 88.995 17.4475 64.2708 89.7618 72.8381 64.5514 89.576 
18.468 68.1081 89.2284 20.0012 69.3108 89.2113 21.2278 70.1199 89.6869 
32.5135 74.2497 88.7679 32.0134 74.8993 89.655 67.3389 20.6814 90.7668 
46.037 21.7717 90.1371 48.7354 21.2294 90.147 43.911 22.8618 90.7973 
39.0671 24.6589 91.0039 76.1481 24.7772 90.5171 77.8442 27.0026 90.7962 
77.7254 29.1655 91.0835 77.095 31.5768 91.6885 71.9578 47.9692 91.1318 
17.4222 59.4449 89.8442 73.966 62.0657 90.5755 73.5663 63.8328 89.713 
74.664 64.6651 90.5286 20.121 69.1841 91.1594 22.4036 71.122 91.1743 
60.3268 20.5479 90.8385 48.5217 22.4558 91.2598 74.871 24.4877 91.4644 
37.1507 26.9272 91.3936 24.8303 41.0144 91.357 19.4992 67.0288 91.5357 
67.3578 65.4874 91.4793 73.8452 65.3881 91.4874 19.1278 68.1841 90.5319 
21.3144 70.2635 91.3448 57.8425 21.9503 91.786 62.8328 22.1261 92.6218 
43.7038 24.2357 91.9135 46.389 23.4908 91.7475 43.9009 25.1043 92.597 
46.2112 24.9405 92.8216 74.3907 25.1797 92.5863 77.7913 28.8828 92.6315 
78.1674 29.4218 92.2236 77.6415 32.0082 92.4388 77.1961 34.053 93.0834 
29.5594 38.5433 93.217 72.9084 43.4553 92.0966 23.3404 45.9028 92.1548 
22.652 50.2468 92.951 20.2267 61.9139 92.8241 75.188 64.4936 92.2985 
51.0691 67.0864 92.4018 46.3138 68.9488 92.6681 43.6761 70.6976 93.1297 
22.7655 71.4568 93.2314 29.8534 75.6674 92.8027 34.0486 75.7528 92.2027 
41.1028 26.981 93.3246 34.6489 31.9791 92.5838 78.1715 31.5791 93.1979 
62.6302 66.2135 92.961 21.2876 69.939 92.2309 21.7167 69.5038 93.314 
31.8522 76.2046 92.6691 62.6314 24.884 94.6708 62.7243 23.3885 93.5798 
69.5802 24.9447 94.6545 39.4653 29.6067 94.2995 77.1838 29.7287 94.3958 
78.4309 32.1254 94.2901 36.7216 34.0597 94.8028 78.7085 34.5481 95.2537 
22.9923 54.9385 94.305 75.1618 59.1479 94.4461 22.6438 61.7978 94.746 
75.931 61.9247 94.9586 76.0076 64.1882 94.435 75.4721 65.2234 93.7922 
22.2588 66.7759 94.296 74.6536 66.6069 94.4316 76.1553 65.9471 95.207 
22.5864 69.0228 94.4438 53.2192 68.2186 94.7199 23.079 70.9784 94.2818 
25.094 72.9677 94.7314 30.0525 76.397 94.5458 32.4184 77.6009 95.0566 
34.7164 77.5377 94.7671 53.1592 26.8 95.2427 29.417 43.1185 95.2703 
30.7968 76.9391 94.9604 30.3819 77.2975 96.8064 71.9836 27.6199 96.3205 
41.7913 31.7981 96.234 76.8981 31.9161 96.5387 39.2476 34.2113 96.2372 
78.1768 32.8254 95.5912 78.4579 34.0878 96.2098 79.5512 35.8205 96.3651 
36.9838 36.5936 96.092 38.8476 36.1637 96.9558 34.6374 38.9169 96.061 
79.154 38.5342 96.9248 77.2068 41.0454 96.0749 31.9664 43.2458 96.693 
27.1845 52.4956 96.7861 76.0407 55.0865 96.4121 76.6163 66.5723 95.8954 
64.9782 68.4904 96.5494 69.6562 68.3592 96.6193 74.6619 67.3732 95.6541 
24.6442 71.1127 95.9751 50.8517 70.4523 96.4913 46.0403 73.0193 96.7495 
26.6489 73.6452 96.5259 28.2841 75.286 96.6624 32.01 78.2599 96.5485 
36.5718 38.5125 96.8543 34.2489 40.8422 96.8315 78.2778 40.7558 97.0047 
33.8762 42.8736 97.5504 78.4011 66.4658 98.1062 74.5581 68.0654 96.6397 
76.1473 68.0546 97.0833 53.3096 71.223 97.9394 31.6925 78.2876 98.3086 
34.6618 80.0448 98.7948 67.6538 29.6209 98.4374 71.8703 29.7394 97.9182 
74.2975 31.5389 98.0363 46.1499 33.9779 98.4699 76.6445 34.1984 98.055 
79.4293 38.9501 98.1667 79.2383 39.8446 98.0393 34.8621 41.3945 97.4126 
78.5251 43.5299 98.4676 34.2135 45.4964 98.6772 27.4412 64.1066 98.1489 
78.3052 68.3938 98.6438 69.708 69.1607 97.866 72.0411 69.0376 97.9417 
27.3604 71.2072 97.8618 58.0099 70.4816 98.2698 60.2093 70.496 98.666 
27.8979 73.3607 97.8481 28.4458 74.6592 97.6506 29.8896 75.9269 98.3384 
31.0432 77.6062 98.3347 36.8374 79.8273 98.1684 33.2429 79.2007 98.1101 
69.5569 31.9502 99.6487 62.6748 32.0641 99.5492 53.2719 34.2254 99.7736 
46.2379 36.5258 99.7609 46.4003 34.6659 98.8789 78.4479 39.6451 99.4075 
78.8505 41.6207 100.049 79.2049 43.0743 99.8887 79.2675 45.7926 100.053 
79.1355 54.8847 99.8716 79.2174 61.6355 99.9176 79.0215 68.6833 99.2351 
69.5893 69.9192 98.9488 69.6612 70.8067 100.111 52.9963 72.6121 99.0249 
53.2917 73.4481 99.7784 41.0232 79.599 100.083 35.5348 80.402 100.081 
39.4414 80.0433 100.029 36.8895 81.1488 100.597 69.9346 33.9693 100.496 
71.9889 34.0933 100.112 43.6451 38.6403 100.154 41.1639 40.8351 100.239 
32.0836 54.8731 100.017 80.6927 68.7379 100.678 79.1832 70.2704 100.434 
31.7815 75.9563 99.7472 33.1703 78.2041 99.8621 33.9489 78.6464 100.104 
67.2855 34.4616 100.986 79.382 43.9226 101.832 79.8352 45.1021 101.56 
80.0068 54.8543 100.815 81.3488 54.5432 102.208 80.9351 62.1514 101.91 
31.7142 66.4099 100.706 81.9205 69.1324 101.808 81.615 71.1154 102.149 
34.6822 75.5471 101.24 53.3136 75.797 101.475 55.554 75.5148 101.866 
37.1247 78.0364 101.637 48.5923 78.5063 101.959 37.2998 79.7963 101.076 
39.548 79.553 101.27 41.7395 80.3323 101.555 43.8157 80.587 101.92 
74.5278 40.8907 102.186 80.5508 46.2667 102.297 80.7809 47.7154 102.189 
80.8529 50.7942 102.147 67.261 72.9356 102.119 39.4776 77.909 102.505 
46.0772 79.4398 102.123 74.1124 41.5285 102.793 77.5827 44.3181 103.563 
43.9777 45.941 102.804 78.0786 44.1679 103.131 79.6401 45.7935 103.634 
80.4606 46.169 102.984 80.9921 50.7102 103.693 81.8048 52.5257 103.589 
39.2563 54.931 103.237 82.4241 54.1664 103.552 82.8257 55.2341 104.007 
83.3405 56.853 104.247 36.9738 61.8263 103.135 83.3324 66.512 103.885 
83.4107 69.1783 103.526 84.0872 71.545 104.11 79.3218 73.3394 103.769 
81.7077 72.9301 103.845 52.8886 78.5011 103.639 55.9835 77.4873 103.89 
41.5277 78.2199 103.158 51.0646 78.6085 103.475 44.0896 79.6096 102.877 
47.7617 79.2095 102.467 47.512 79.4392 103.095 46.2594 79.4477 102.865 
47.5688 79.5514 103.028 77.1805 44.7887 104.034 46.1081 47.8714 103.89 
79.8915 47.264 103.93 84.1281 57.3786 105.729 83.0035 59.4557 104.838 
82.5815 62.053 103.944 38.9027 66.4059 104.133 84.4154 71.1956 104.675 
83.2675 72.291 104.002 81.6502 73.4121 105.13 41.2707 75.802 104.057 
57.6599 77.3336 104.111 45.3866 78.7537 103.723 62.6972 41.4535 104.336 
57.9829 43.5167 104.809 67.4329 43.2245 105.217 71.6489 43.9657 105.035 
55.6001 45.6761 105.211 76.5401 45.7426 104.696 76.7217 47.8962 105.399 
79.4323 50.3007 105.016 82.3355 55.2089 105.601 83.0888 55.5369 105.079 
82.8073 61.3774 104.835 83.1698 63.8387 104.971 83.5677 65.5511 105.08 
83.4811 68.837 105.254 41.5847 71.0068 105.069 82.7853 72.5417 104.545 
43.998 75.6159 105.025 67.6168 76.4051 105.5 69.5951 76.0936 105.367 
46.2734 77.5518 104.645 48.4442 77.7243 104.813 59.9889 77.3673 105.371 
63.2768 77.1506 105.463 64.0925 77.2883 105.679 50.9343 77.809 104.863 
54.0011 77.424 105.241 55.4327 77.4831 104.994 58.1485 77.7172 105.313 
79.4411 52.2997 105.695 78.9927 54.8884 106.721 82.1777 59.1219 105.895 
43.7216 61.7626 105.686 82.2243 61.2026 105.668 81.2875 64.0974 106.375 
82.043 71.7909 106.118 79.3686 75.6778 107.241 50.9254 75.2069 106.426 
53.2641 76.4978 105.935 53.295 75.4323 106.56 72.0121 76.6075 107.058 
78.1386 76.1105 107.013 69.4726 77.1274 106.98 67.3401 48.0451 106.667 
69.6704 48.0453 106.701 57.9823 50.3612 106.631 79.1187 57.3161 107.062 
80.9764 55.8954 106.343 82.1548 56.0543 106.054 48.56 61.804 106.992 
46.2901 66.4182 106.743 81.5953 68.9849 106.586 81.1602 71.3387 106.834 
48.3922 71.4898 107.145 46.293 73.074 106.354 80.6733 73.4708 106.871 
57.945 75.6279 106.976 60.3109 75.9064 106.961 65.0765 76.1199 107.002 
67.4999 76.234 107.047 74.0266 76.446 107.108 60.3019 76.8788 106.118 
63.0299 76.8453 106.279 64.8052 76.825 106.326 69.4215 77.1573 106.904 
72.1726 52.4734 107.519 55.5072 57.0944 107.603 62.6663 55.0449 107.918 
74.5852 56.721 108.159 76.0628 59.5013 108.137 53.3434 68.6857 108.207 
55.9322 72.4417 108.044 78.8899 73.3588 108.444 60.2351 73.7555 108.003 
62.6541 73.1456 108.346 67.3938 73.0944 108.595 78.888 75.1558 108.404 
69.8066 75.4284 107.94 72.5546 75.6111 108.132 74.864 76.0479 108.384 
76.9532 75.9446 108.828 74.1871 61.8456 108.558 71.7488 64.0677 109.262 
55.6246 66.415 108.601 60.1948 66.6532 109.344 74.7251 68.5113 109.238 
57.9477 70.9238 108.612 60.2594 68.9387 109.306 62.6096 70.931 109.166 
76.9271 73.2413 109.139 62.558 66.2704 109.566 64.9704 68.9221 109.577 
72.1571 70.9092 109.51 
POLYGONS 2863 8586
OFFSETS vtktypeint64
0 3 6 9 12 15 18 21 24 
27 30 33 36 39 42 45 48 51 
54 57 60 63 66 69 72 75 78 
81 84 87 90 93 96 99 102 105 
108 111 114 117 120 123 126 129 132 
135 138 141 144 147 150 153 156 159 
162 165 168 171 174 177 180 183 186 
189 192 195 198 201 204 207 210 213 
216 219 222 225 228 231 234 237 240 
243 246 249 252 255 258 261 264 267 
270 273 276 279 282 285 288 291 294 
297 300 303 306 309 312 315 318 321 
324 327 330 333 336 339 342 345 348 
351 354 357 360 363 366 369 372 375 
378 381 384 387 390 393 396 399 402 
405 408 411 414 417 420 423 426 429 
432 435 438 441 444 447 450 453 456 
459 462 465 468 471 474 477 480 483 
486 489 492 495 498 501 504 507 510 
513 516 519 522 525 528 531 534 537 
540 543 546 549 552 555 558 561 564 
567 570 573 576 579 582 585 588 591 
594 597 600 603 606 609 612 615 618 
621 624 627 630 633 636 639 642 645 
648 651 654 657 660 663 666 669 672 
675 678 681 684 687 690 693 696 699 
702 705 708 711 714 717 720 723 726 
729 732 735 738 741 744 747 750 753 
756 759 762 765 768 771 774 777 780 
783 786 789 792 795 798 801 804 807 
810 813 816 819 822 825 828 831 834 
837 840 843 846 849 852 855 858 861 
864 867 870 873 876 879 882 885 888 
891 894 897 900 903 906 909 912 915 
918 921 924 927 930 933 936 939 942 
945 948 951 954 957 960 963 966 969 
972 975 978 981 984 987 990 993 996 
999 1002 1005 1008 1011 1014 1017 1020 1023 
1026 1029 1032 1035 1038 1041 1044 1047 1050 
1053 1056 1059 1062 1065 1068 1071 1074 1077 
1080 1083 1086 1089 1092 1095 1098 1101 1104 
1107 1110 1113 1116 1119 1122 1125 1128 1131 
1134 1137 1140 1143 1146 1149 1152 1155 1158 
1161 1164 1167 1170 1173 1176 1179 1182 1185 
1188 1191 1194 1197 1200 1203 1206 1209 1212 
1215 1218 1221 1224 1227 1230 1233 1236 1239 
1242 1245 1248 1251 1254 1257 1260 1263 1266 
1269 1272 1275 1278 1281 1284 1287 1290 1293 
1296 1299 1302 1305 1308 1311 1314 1317 1320 
1323 1326 1329 1332 1335 1338 1341 1344 1347 
1350 1353 1356 1359 1362 1365 1368 1371 1374 
1377 1380 1383 1386 1389 1392 1395 1398 1401 
1404 1407 1410 1413 1416 1419 1422 1425 1428 
1431 1434 1437 1440 1443 1446 1449 1452 1455 
1458 1461 1464 1467 1470 1473 1476 1479 1482 
1485 1488 1491 1494 1497 1500 1503 1506 1509 
1512 1515 1518 1521 1524 1527 1530 1533 1536 
1539 1542 1545 1548 1551 1554 1557 1560 1563 
1566 1569 1572 1575 1578 1581 1584 1587 1590 
1593 1596 1599 1602 1605 1608 1611 1614 1617 
1620 1623 1626 1629 1632 1635 1638 1641 1644 
1647 1650 1653 1656 1659 1662 1665 1668 1671 
1674 1677 1680 1683 1686 1689 1692 1695 1698 
1701 1704 1707 1710 1713 1716 1719 1722 1725 
1728 1731 1734 1737 1740 1743 1746 1749 1752 
1755 1758 1761 1764 1767 1770 1773 1776 1779 
1782 1785 1788 1791 1794 1797 1800 1803 1806 
1809 1812 1815 1818 1821 1824 1827 1830 1833 
1836 1839 1842 1845 1848 1851 1854 1857 1860 
1863 1866 1869 1872 1875 1878 1881 1884 1887 
1890 1893 1896 1899 1902 1905 1908 1911 1914 
1917 1920 1923 1926 1929 1932 1935 1938 1941 
1944 1947 1950 1953 1956 1959 1962 1965 1968 
1971 1974 1977 1980 1983 1986 1989 1992 1995 
1998 2001 2004 2007 2010 2013 2016 2019 2022 
2025 2028 2031 2034 2037 2040 2043 2046 2049 
2052 2055 2058 2061 2064 2067 2070 2073 2076 
2079 2082 2085 2088 2091 2094 2097 2100 2103 
2106 2109 2112 2115 2118 2121 2124 2127 2130 
2133 2136 2139 2142 2145 2148 2151 2154 2157 
2160 2163 2166 2169 2172 2175 2178 2181 2184 
2187 2190 2193 2196 2199 2202 2205 2208 2211 
2214 2217 2220 2223 2226 2229 2232 2235 2238 
2241 2244 2247 2250 2253 2256 2259 2262 2265 
2268 2271 2274 2277 2280 2283 2286 2289 2292 
2295 2298 2301 2304 2307 2310 2313 2316 2319 
2322 2325 2328 2331 2334 2337 2340 2343 2346 
2349 2352 2355 2358 2361 2364 2367 2370 2373 
2376 2379 2382 2385 2388 2391 2394 2397 2400 
2403 2406 2409 2412 2415 2418 2421 2424 2427 
2430 2433 2436 2439 2442 2445 2448 2451 2454 
2457 2460 2463 2466 2469 2472 2475 2478 2481 
2484 2487 2490 2493 2496 2499 2502 2505 2508 
2511 2514 2517 2520 2523 2526 2529 2532 2535 
2538 2541 2544 2547 2550 2553 2556 2559 2562 
2565 2568 2571 2574 2577 2580 2583 2586 2589 
2592 2595 2598 2601 2604 2607 2610 2613 2616 
2619 2622 2625 2628 2631 2634 2637 2640 2643 
2646 2649 2652 2655 2658 2661 2664 2667 2670 
2673 2676 2679 2682 2685 2688 2691 2694 2697 
2700 2703 2706 2709 2712 2715 2718 2721 2724 
2727 2730 2733 2736 2739 2742 2745 2748 2751 
2754 2757 2760 2763 2766 2769 2772 2775 2778 
2781 2784 2787 2790 2793 2796 2799 2802 2805 
2808 2811 2814 2817 2820 2823 2826 2829 2832 
2835 2838 2841 2844 2847 2850 2853 2856 2859 
2862 2865 2868 2871 2874 2877 2880 2883 2886 
2889 2892 2895 2898 2901 2904 2907 2910 2913 
2916 2919 2922 2925 2928 2931 2934 2937 2940 
2943 2946 2949 2952 2955 2958 2961 2964 2967 
2970 2973 2976 2979 2982 2985 2988 2991 2994 
2997 3000 3003 3006 3009 3012 3015 3018 3021 
3024 3027 3030 3033 3036 3039 3042 3045 3048 
3051 3054 3057 3060 3063 3066 3069 3072 3075 
3078 3081 3084 3087 3090 3093 3096 3099 3102 
3105 3108 3111 3114 3117 3120 3123 3126 3129 
3132 3135 3138 3141 3144 3147 3150 3153 3156 
3159 3162 3165 3168 3171 3174 3177 3180 3183 
3186 3189 3192 3195 3198 3201 3204 3207 3210 
3213 3216 3219 3222 3225 3228 3231 3234 3237 
3240 3243 3246 3249 3252 3255 3258 3261 3264 
3267 3270 3273 3276 3279 3282 3285 3288 3291 
3294 3297 3300 3303 3306 3309 3312 3315 3318 
3321 3324 3327 3330 3333 3336 3339 3342 3345 
3348 3351 3354 3357 3360 3363 3366 3369 3372 
3375 3378 3381 3384 3387 3390 3393 3396 3399 
3402 3405 3408 3411 3414 3417 3420 3423 3426 
3429 3432 3435 3438 3441 3444 3447 3450 3453 
3456 3459 3462 3465 3468 3471 3474 3477 3480 
3483 3486 3489 3492 3495 3498 3501 3504 3507 
3510 3513 3516 3519 3522 3525 3528 3531 3534 
3537 3540 3543 3546 3549 3552 3555 3558 3561 
3564 3567 3570 3573 3576 3579 3582 3585 3588 
3591 3594 3597 3600 3603 3606 3609 3612 3615 
3618 3621 3624 3627 3630 3633 3636 3639 3642 
3645 3648 3651 3654 3657 3660 3663 3666 3669 
3672 3675 3678 3681 3684 3687 3690 3693 3696 
3699 3702 3705 3708 3711 3714 3717 3720 3723 
3726 3729 3732 3735 3738 3741 3744 3747 3750 
3753 3756 3759 3762 3765 3768 3771 3774 3777 
3780 3783 3786 3789 3792 3795 3798 3801 3804 
3807 3810 3813 3816 3819 3822 3825 3828 3831 
3834 3837 3840 3843 3846 3849 3852 3855 3858 
3861 3864 3867 3870 3873 3876 3879 3882 3885 
3888 3891 3894 3897 3900 3903 3906 3909 3912 
3915 3918 3921 3924 3927 3930 3933 3936 3939 
3942 3945 3948 3951 3954 3957 3960 3963 3966 
3969 3972 3975 3978 3981 3984 3987 3990 3993 
3996 3999 4002 4005 4008 4011 4014 4017 4020 
4023 4026 4029 4032 4035 4038 4041 4044 4047 
4050 4053 4056 4059 4062 4065 4068 4071 4074 
4077 4080 4083 4086 4089 4092 4095 4098 4101 
4104 4107 4110 4113 4116 4119 4122 4125 4128 
4131 4134 4137 4140 4143 4146 4149 4152 4155 
4158 4161 4164 4167 4170 4173 4176 4179 4182 
4185 4188 4191 4194 4197 4200 4203 4206 4209 
4212 4215 4218 4221 4224 4227 4230 4233 4236 
4239 4242 4245 4248 4251 4254 4257 4260 4263 
4266 4269 4272 4275 4278 4281 4284 4287 4290 
4293 4296 4299 4302 4305 4308 4311 4314 4317 
4320 4323 4326 4329 4332 4335 4338 4341 4344 
4347 4350 4353 4356 4359 4362 4365 4368 4371 
4374 4377 4380 4383 4386 4389 4392 4395 4398 
4401 4404 4407 4410 4413 4416 4419 4422 4425 
4428 4431 4434 4437 4440 4443 4446 4449 4452 
4455 4458 4461 4464 4467 4470 4473 4476 4479 
4482 4485 4488 4491 4494 4497 4500 4503 4506 
4509 4512 4515 4518 4521 4524 4527 4530 4533 
4536 4539 4542 4545 4548 4551 4554 4557 4560 
4563 4566 4569 4572 4575 4578 4581 4584 4587 
4590 4593 4596 4599 4602 4605 4608 4611 4614 
4617 4620 4623 4626 4629 4632 4635 4638 4641 
4644 4647 4650 4653 4656 4659 4662 4665 4668 
4671 4674 4677 4680 4683 4686 4689 4692 4695 
4698 4701 4704 4707 4710 4713 4716 4719 4722 
4725 4728 4731 4734 4737 4740 4743 4746 4749 
4752 4755 4758 4761 4764 4767 4770 4773 4776 
4779 4782 4785 4788 4791 4794 4797 4800 4803 
4806 4809 4812 4815 4818 4821 4824 4827 4830 
4833 4836 4839 4842 4845 4848 4851 4854 4857 
4860 4863 4866 4869 4872 4875 4878 4881 4884 
4887 4890 4893 4896 4899 4902 4905 4908 4911 
4914 4917 4920 4923 4926 4929 4932 4935 4938 
4941 4944 4947 4950 4953 4956 4959 4962 4965 
4968 4971 4974 4977 4980 4983 4986 4989 4992 
4995 4998 5001 5004 5007 5010 5013 5016 5019 
5022 5025 5028 5031 5034 5037 5040 5043 5046 
5049 5052 5055 5058 5061 5064 5067 5070 5073 
5076 5079 5082 5085 5088 5091 5094 5097 5100 
5103 5106 5109 5112 5115 5118 5121 5124 5127 
5130 5133 5136 5139 5142 5145 5148 5151 5154 
5157 5160 5163 5166 5169 5172 5175 5178 5181 
5184 5187 5190 5193 5196 5199 5202 5205 5208 
5211 5214 5217 5220 5223 5226 5229 5232 5235 
5238 5241 5244 5247 5250 5253 5256 5259 5262 
5265 5268 5271 5274 5277 5280 5283 5286 5289 
5292 5295 5298 5301 5304 5307 5310 5313 5316 
5319 5322 5325 5328 5331 5334 5337 5340 5343 
5346 5349 5352 5355 5358 5361 5364 5367 5370 
5373 5376 5379 5382 5385 5388 5391 5394 5397 
5400 5403 5406 5409 5412 5415 5418 5421 5424 
5427 5430 5433 5436 5439 5442 5445 5448 5451 
5454 5457 5460 5463 5466 5469 5472 5475 5478 
5481 5484 5487 5490 5493 5496 5499 5502 5505 
5508 5511 5514 5517 5520 5523 5526 5529 5532 
5535 5538 5541 5544 5547 5550 5553 5556 5559 
5562 5565 5568 5571 5574 5577 5580 5583 5586 
5589 5592 5595 5598 5601 5604 5607 5610 5613 
5616 5619 5622 5625 5628 5631 5634 5637 5640 
5643 5646 5649 5652 5655 5658 5661 5664 5667 
5670 5673 5676 5679 5682 5685 5688 5691 5694 
5697 5700 5703 5706 5709 5712 5715 5718 5721 
5724 5727 5730 5733 5736 5739 5742 5745 5748 
5751 5754 5757 5760 5763 5766 5769 5772 5775 
5778 5781 5784 5787 5790 5793 5796 5799 5802 
5805 5808 5811 5814 5817 5820 5823 5826 5829 
5832 5835 5838 5841 5844 5847 5850 5853 5856 
5859 5862 5865 5868 5871 5874 5877 5880 5883 
5886 5889 5892 5895 5898 5901 5904 5907 5910 
5913 5916 5919 5922 5925 5928 5931 5934 5937 
5940 5943 5946 5949 5952 5955 5958 5961 5964 
5967 5970 5973 5976 5979 5982 5985 5988 5991 
5994 5997 6000 6003 6006 6009 6012 6015 6018 
6021 6024 6027 6030 6033 6036 6039 6042 6045 
6048 6051 6054 6057 6060 6063 6066 6069 6072 
6075 6078 6081 6084 6087 6090 6093 6096 6099 
6102 6105 6108 6111 6114 6117 6120 6123 6126 
6129 6132 6135 6138 6141 6144 6147 6150 6153 
6156 6159 6162 6165 6168 6171 6174 6177 6180 
6183 6186 6189 6192 6195 6198 6201 6204 6207 
6210 6213 6216 6219 6222 6225 6228 6231 6234 
6237 6240 6243 6246 6249 6252 6255 6258 6261 
6264 6267 6270 6273 6276 6279 6282 6285 6288 
6291 6294 6297 6300 6303 6306 6309 6312 6315 
6318 6321 6324 6327 6330 6333 6336 6339 6342 
6345 6348 6351 6354 6357 6360 6363 6366 6369 
6372 6375 6378 6381 6384 6387 6390 6393 6396 
6399 6402 6405 6408 6411 6414 6417 6420 6423 
6426 6429 6432 6435 6438 6441 6444 6447 6450 
6453 6456 6459 6462 6465 6468 6471 6474 6477 
6480 6483 6486 6489 6492 6495 6498 6501 6504 
6507 6510 6513 6516 6519 6522 6525 6528 6531 
6534 6537 6540 6543 6546 6549 6552 6555 6558 
6561 6564 6567 6570 6573 6576 6579 6582 6585 
6588 6591 6594 6597 6600 6603 6606 6609 6612 
6615 6618 6621 6624 6627 6630 6633 6636 6639 
6642 6645 6648 6651 6654 6657 6660 6663 6666 
6669 6672 6675 6678 6681 6684 6687 6690 6693 
6696 6699 6702 6705 6708 6711 6714 6717 6720 
6723 6726 6729 6732 6735 6738 6741 6744 6747 
6750 6753 6756 6759 6762 6765 6768 6771 6774 
6777 6780 6783 6786 6789 6792 6795 6798 6801 
6804 6807 6810 6813 6816 6819 6822 6825 6828 
6831 6834 6837 6840 6843 6846 6849 6852 6855 
6858 6861 6864 6867 6870 6873 6876 6879 6882 
6885 6888 6891 6894 6897 6900 6903 6906 6909 
6912 6915 6918 6921 6924 6927 6930 6933 6936 
6939 6942 6945 6948 6951 6954 6957 6960 6963 
6966 6969 6972 6975 6978 6981 6984 6987 6990 
6993 6996 6999 7002 7005 7008 7011 7014 7017 
7020 7023 7026 7029 7032 7035 7038 7041 7044 
7047 7050 7053 7056 7059 7062 7065 7068 7071 
7074 7077 7080 7083 7086 7089 7092 7095 7098 
7101 7104 7107 7110 7113 7116 7119 7122 7125 
7128 7131 7134 7137 7140 7143 7146 7149 7152 
7155 7158 7161 7164 7167 7170 7173 7176 7179 
7182 7185 7188 7191 7194 7197 7200 7203 7206 
7209 7212 7215 7218 7221 7224 7227 7230 7233 
7236 7239 7242 7245 7248 7251 7254 7257 7260 
7263 7266 7269 7272 7275 7278 7281 7284 7287 
7290 7293 7296 7299 7302 7305 7308 7311 7314 
7317 7320 7323 7326 7329 7332 7335 7338 7341 
7344 7347 7350 7353 7356 7359 7362 7365 7368 
7371 7374 7377 7380 7383 7386 7389 7392 7395 
7398 7401 7404 7407 7410 7413 7416 7419 7422 
7425 7428 7431 7434 7437 7440 7443 7446 7449 
7452 7455 7458 7461 7464 7467 7470 7473 7476 
7479 7482 7485 7488 7491 7494 7497 7500 7503 
7506 7509 7512 7515 7518 7521 7524 7527 7530 
7533 7536 7539 7542 7545 7548 7551 7554 7557 
7560 7563 7566 7569 7572 7575 7578 7581 7584 
7587 7590 7593 7596 7599 7602 7605 7608 7611 
7614 7617 7620 7623 7626 7629 7632 7635 7638 
7641 7644 7647 7650 7653 7656 7659 7662 7665 
7668 7671 7674 7677 7680 7683 7686 7689 7692 
7695 7698 7701 7704 7707 7710 7713 7716 7719 
7722 7725 7728 7731 7734 7737 7740 7743 7746 
7749 7752 7755 7758 7761 7764 7767 7770 7773 
7776 7779 7782 7785 7788 7791 7794 7797 7800 
7803 7806 7809 7812 7815 7818 7821 7824 7827 
7830 7833 7836 7839 7842 7845 7848 7851 7854 
7857 7860 7863 7866 7869 7872 7875 7878 7881 
7884 7887 7890 7893 7896 7899 7902 7905 7908 
7911 7914 7917 7920 7923 7926 7929 7932 7935 
7938 7941 7944 7947 7950 7953 7956 7959 7962 
7965 7968 7971 7974 7977 7980 7983 7986 7989 
7992 7995 7998 8001 8004 8007 8010 8013 8016 
8019 8022 8025 8028 8031 8034 8037 8040 8043 
8046 8049 8052 8055 8058 8061 8064 8067 8070 
8073 8076 8079 8082 8085 8088 8091 8094 8097 
8100 8103 8106 8109 8112 8115 8118 8121 8124 
8127 8130 8133 8136 8139 8142 8145 8148 8151 
8154 8157 8160 8163 8166 8169 8172 8175 8178 
8181 8184 8187 8190 8193 8196 8199 8202 8205 
8208 8211 8214 8217 8220 8223 8226 8229 8232 
8235 8238 8241 8244 8247 8250 8253 8256 8259 
8262 8265 8268 8271 8274 8277 8280 8283 8286 
8289 8292 8295 8298 8301 8304 8307 8310 8313 
8316 8319 8322 8325 8328 8331 8334 8337 8340 
8343 8346 8349 8352 8355 8358 8361 8364 8367 
8370 8373 8376 8379 8382 8385 8388 8391 8394 
8397 8400 8403 8406 8409 8412 8415 8418 8421 
8424 8427 8430 8433 8436 8439 8442 8445 8448 
8451 8454 8457 8460 8463 8466 8469 8472 8475 
8478 8481 8484 8487 8490 8493 8496 8499 8502 
8505 8508 8511 8514 8517 8520 8523 8526 8529 
8532 8535 8538 8541 8544 8547 8550 8553 8556 
8559 8562 8565 8568 8571 8574 8577 8580 8583 
8586 
CONNECTIVITY vtktypeint64
0 1 3 1 2 3 4 5 6 
4 6 13 13 6 12 0 16 1 
7 8 18 3 2 5 17 3 18 
20 8 9 19 6 5 21 6 19 
3 4 22 5 4 3 18 3 22 
7 18 10 10 18 22 7 10 8 
10 23 8 9 8 11 8 23 11 
20 11 24 9 11 20 22 4 15 
14 22 15 6 21 12 12 21 25 
4 13 15 41 22 14 16 28 31 
16 32 28 32 30 28 16 31 1 
16 0 32 32 18 30 32 0 17 
8 20 57 2 1 33 0 3 17 
18 32 17 8 30 18 35 36 33 
2 33 36 36 35 19 5 36 19 
2 36 5 19 35 21 35 37 21 
34 24 38 20 24 34 46 34 38 
21 37 25 25 37 26 22 41 10 
10 41 23 23 39 11 41 39 23 
11 39 24 24 39 40 24 40 38 
39 41 64 15 13 42 14 15 43 
15 42 43 41 14 43 25 26 12 
12 26 44 27 12 44 42 13 12 
44 42 12 28 29 45 28 30 29 
34 57 20 33 71 35 26 47 48 
26 37 47 38 40 39 38 39 49 
38 49 46 49 50 46 60 46 50 
39 64 51 49 39 51 52 49 51 
54 28 45 54 45 55 29 56 45 
53 45 56 28 54 31 30 56 29 
53 56 30 8 57 30 54 1 31 
34 58 57 33 1 71 37 35 71 
34 46 58 59 58 46 60 59 46 
62 60 61 60 50 61 42 75 43 
41 43 63 41 63 64 50 49 68 
49 52 68 68 61 50 26 48 65 
44 26 65 44 65 66 66 42 44 
67 68 52 62 61 68 91 92 53 
57 58 81 82 53 92 91 53 30 
57 91 30 55 70 54 69 70 45 
70 55 45 59 83 58 95 37 71 
47 73 48 84 60 62 73 74 48 
42 66 75 48 73 78 65 48 78 
68 77 62 79 84 62 77 79 62 
77 68 80 79 77 80 81 91 57 
83 81 58 45 82 69 53 82 45 
71 1 70 1 54 70 117 83 59 
84 117 59 37 95 47 95 72 47 
59 60 84 47 72 73 72 74 73 
85 75 86 86 75 66 52 51 76 
52 76 119 73 74 78 85 66 78 
78 66 65 86 66 85 87 155 84 
79 87 84 88 87 79 88 89 90 
87 88 90 103 91 81 92 129 82 
93 81 83 104 93 83 70 94 71 
85 78 97 85 97 86 75 86 97 
75 97 134 63 43 111 43 75 111 
64 63 111 51 64 156 64 111 156 
76 51 112 51 156 112 74 96 78 
78 96 97 67 52 179 52 119 179 
98 155 87 67 179 68 80 99 79 
79 99 89 88 79 89 100 87 90 
100 98 87 90 89 100 93 103 81 
107 104 83 82 94 69 70 69 94 
117 108 83 76 112 119 74 101 96 
96 101 97 99 80 68 98 100 102 
91 105 92 106 129 92 94 82 129 
130 107 116 83 108 107 108 116 107 
95 131 109 95 109 72 72 110 74 
74 110 101 155 98 113 113 98 102 
100 89 114 100 114 102 91 103 139 
105 91 125 104 103 93 105 189 106 
105 106 92 130 128 107 95 71 131 
110 118 101 179 99 68 115 114 121 
115 102 114 113 102 122 122 120 113 
122 102 115 124 120 122 124 122 123 
139 151 91 150 139 103 103 104 150 
107 150 104 126 107 128 126 128 127 
141 105 125 71 94 129 117 132 108 
155 132 117 72 109 133 117 84 155 
72 133 110 110 133 118 97 101 135 
101 118 135 135 134 97 99 179 89 
120 155 113 179 114 89 136 114 179 
136 121 114 120 124 137 123 122 121 
122 115 121 138 124 123 150 107 148 
91 151 125 127 128 126 140 127 130 
130 127 128 133 142 143 134 118 277 
111 75 178 133 143 144 133 144 118 
118 134 135 112 156 119 137 124 145 
124 138 145 145 138 146 149 139 147 
150 147 139 218 126 127 152 218 140 
140 218 127 161 152 140 189 105 141 
130 161 140 130 162 161 153 162 130 
154 153 130 130 116 154 116 108 154 
71 129 131 108 132 154 154 132 173 
132 155 173 142 133 109 118 144 277 
75 134 178 137 157 120 136 179 180 
136 180 121 121 180 123 123 180 158 
138 123 158 157 137 146 137 145 146 
197 147 198 147 150 159 198 147 159 
150 148 159 159 148 217 197 149 147 
160 151 149 139 149 151 148 107 185 
126 185 107 161 218 152 204 141 125 
235 189 141 162 163 164 163 162 153 
163 153 165 165 164 163 106 189 129 
167 165 153 166 165 168 168 165 167 
153 154 167 168 167 154 169 168 154 
169 154 170 171 169 170 170 154 173 
171 170 174 174 170 173 239 109 131 
192 173 155 174 173 192 109 239 142 
209 192 155 142 176 143 176 144 143 
176 177 144 134 277 178 120 157 155 
157 146 181 146 138 182 146 182 183 
146 183 181 183 184 181 185 217 148 
186 185 126 186 126 218 201 125 151 
187 162 188 164 188 162 164 165 166 
189 273 129 168 169 191 131 129 239 
191 169 171 191 171 172 174 172 171 
174 192 172 239 175 142 142 175 176 
177 277 144 111 178 156 155 157 215 
180 138 158 194 159 217 195 217 185 
196 195 186 186 195 185 195 186 218 
271 197 198 161 230 218 197 199 149 
199 160 149 151 160 199 200 202 203 
204 125 201 151 199 201 162 187 161 
200 161 187 202 200 187 235 141 204 
203 202 187 203 187 188 203 188 205 
206 205 188 188 164 206 190 205 206 
190 164 205 164 207 205 164 190 206 
164 166 207 166 168 207 207 168 237 
302 129 273 129 302 239 238 191 172 
192 208 172 172 208 238 208 192 193 
193 192 209 175 239 210 211 193 209 
155 211 209 212 175 210 175 212 176 
214 211 155 213 214 155 176 212 177 
213 155 242 242 214 213 180 179 307 
157 181 215 138 180 307 182 138 307 
182 307 216 183 182 216 184 215 181 
184 183 216 218 230 195 194 232 198 
194 198 159 197 271 199 203 219 200 
221 204 201 219 203 220 193 211 222 
223 211 214 210 224 212 225 223 214 
242 155 226 227 226 155 215 227 155 
215 184 216 215 216 228 231 194 217 
195 229 217 230 229 195 271 198 232 
233 200 219 272 201 199 204 221 272 
201 272 221 234 220 203 203 205 234 
234 205 236 205 207 236 237 168 191 
191 238 237 222 238 208 208 193 222 
239 240 210 222 211 223 240 224 210 
177 212 241 241 212 224 177 241 277 
214 242 225 119 390 243 179 119 243 
227 242 226 244 227 215 216 245 228 
228 246 215 215 246 244 247 244 246 
246 228 245 249 229 230 200 250 161 
250 200 233 272 199 298 219 220 252 
299 204 272 204 299 235 273 189 253 
222 223 255 240 256 224 258 259 225 
225 242 258 242 259 258 260 259 242 
227 260 242 307 245 216 247 246 261 
246 248 261 262 261 248 217 264 265 
264 217 229 230 263 249 293 263 161 
161 263 230 265 194 231 265 231 266 
217 265 231 340 250 267 268 194 266 
266 194 265 250 340 161 269 267 250 
268 232 271 194 268 232 232 268 271 
269 250 233 251 269 233 269 251 270 
233 219 251 251 219 252 271 298 199 
300 235 299 234 388 220 234 236 388 
189 235 253 236 207 301 207 237 301 
237 238 274 238 254 274 274 238 222 
239 275 240 225 255 223 240 275 256 
256 275 224 224 276 257 275 276 224 
224 257 241 179 243 307 260 227 278 
333 278 227 333 227 244 333 244 334 
334 244 247 246 245 307 307 248 246 
261 262 247 262 334 247 280 279 281 
315 334 262 281 279 285 285 279 283 
286 282 281 285 286 281 285 283 288 
288 283 287 288 286 285 288 287 289 
289 290 288 291 263 292 292 263 293 
229 249 291 294 229 291 263 291 249 
264 229 294 161 340 293 267 295 340 
270 295 267 270 267 269 270 251 297 
388 252 220 253 235 300 303 274 222 
222 255 303 255 225 303 303 225 417 
275 304 276 276 304 257 257 332 241 
277 348 178 257 304 332 259 260 305 
305 260 306 260 278 306 308 279 309 
279 280 309 281 310 280 280 310 311 
310 281 311 279 308 312 281 282 313 
281 313 311 262 248 314 316 312 308 
262 314 317 284 262 317 262 317 318 
262 318 315 283 312 316 279 312 283 
282 286 319 313 282 319 320 283 316 
321 320 316 287 283 320 286 288 322 
322 288 323 288 290 323 320 321 324 
324 289 320 320 289 287 326 323 290 
325 326 290 289 324 327 325 289 327 
290 289 325 384 265 264 295 329 340 
295 270 329 270 297 296 251 252 297 
297 252 409 330 300 299 388 236 346 
301 346 236 259 305 225 334 352 333 
309 334 308 311 309 280 248 307 314 
311 313 335 286 322 319 319 322 323 
327 336 325 325 336 328 292 381 337 
293 338 292 292 338 381 293 340 338 
338 340 339 339 340 341 337 291 292 
340 342 343 341 340 343 342 340 329 
343 342 329 329 345 344 343 329 344 
384 264 294 270 345 329 270 373 345 
266 265 386 268 266 386 270 296 373 
271 268 298 301 237 411 428 239 302 
239 429 275 429 347 275 275 347 331 
304 275 331 225 305 417 332 304 349 
304 331 349 119 156 390 306 278 350 
243 391 307 350 278 333 350 333 351 
307 391 491 352 351 333 353 354 311 
354 309 311 355 353 311 355 335 313 
355 311 335 355 313 356 334 315 308 
317 314 357 308 315 316 316 315 318 
313 319 356 318 317 357 318 357 358 
318 358 359 359 360 318 321 318 360 
318 321 316 323 361 319 321 360 359 
359 362 321 323 326 363 363 361 323 
324 321 362 362 327 324 325 363 326 
327 362 364 336 327 364 365 328 364 
328 336 364 325 328 365 363 325 365 
339 341 367 366 339 367 341 343 367 
369 343 344 345 369 344 345 370 371 
369 345 371 370 345 373 296 387 373 
296 297 387 241 332 438 241 438 277 
349 331 374 438 332 349 451 156 178 
243 390 391 351 352 375 376 375 352 
309 352 334 376 352 309 376 309 354 
353 376 354 358 357 359 364 362 379 
378 363 365 338 339 366 343 380 367 
368 380 343 368 382 380 368 343 382 
343 369 382 382 369 383 291 337 294 
371 383 369 337 384 294 383 371 370 
383 370 372 386 265 384 373 385 370 
385 372 370 373 387 385 386 298 268 
272 298 427 427 298 426 297 409 387 
427 299 272 427 300 299 346 301 388 
448 301 411 237 274 411 417 274 303 
374 331 389 349 374 389 349 389 438 
156 451 390 351 375 350 375 377 392 
376 377 375 393 377 376 376 353 393 
355 395 394 355 394 353 355 356 395 
395 356 396 356 319 396 314 307 397 
357 314 397 359 357 398 357 397 398 
319 361 396 396 361 399 361 400 399 
363 400 361 359 398 401 362 359 401 
363 402 400 378 402 363 365 402 378 
379 362 401 364 379 403 379 401 403 
365 364 403 403 404 365 366 405 338 
407 406 383 407 383 408 383 372 408 
253 478 273 390 490 391 350 375 482 
377 393 412 412 393 353 353 394 412 
398 397 413 399 400 402 398 422 414 
401 398 414 415 403 401 402 403 415 
404 403 402 402 365 404 381 338 405 
367 416 366 366 416 405 367 380 416 
386 384 443 408 372 385 387 446 385 
426 298 386 252 388 409 409 388 410 
447 253 300 388 301 410 301 448 410 
347 429 331 429 418 331 479 417 305 
331 418 389 389 418 419 389 419 438 
305 306 479 479 306 482 306 350 482 
375 392 482 377 412 392 412 394 395 
455 307 491 395 396 433 397 307 455 
413 397 455 420 433 399 399 433 396 
398 413 455 398 455 422 420 399 421 
421 402 423 399 402 421 414 425 401 
414 422 425 425 424 415 425 415 401 
423 415 424 402 415 423 382 464 380 
382 383 464 337 442 384 426 386 443 
239 428 429 429 430 418 419 418 431 
418 430 431 277 521 348 395 453 412 
420 432 433 432 420 421 434 432 421 
424 435 423 435 434 423 421 423 434 
380 464 416 385 477 408 477 385 446 
387 409 446 427 447 300 429 428 436 
411 274 417 431 430 437 419 431 438 
395 433 453 422 455 457 425 422 439 
439 435 425 424 425 435 405 416 463 
383 440 464 383 407 440 442 444 384 
384 444 443 441 407 408 443 485 426 
445 427 426 409 410 514 410 448 514 
253 447 478 302 273 478 428 302 486 
487 428 486 430 449 437 431 437 450 
438 431 469 431 450 469 438 469 277 
178 348 500 178 500 451 392 412 524 
452 524 412 412 453 452 455 491 471 
453 433 454 456 454 432 454 433 432 
432 434 456 422 457 458 435 439 458 
434 435 456 439 422 458 407 441 440 
442 443 444 443 513 485 548 411 417 
488 460 429 429 460 430 449 460 461 
460 449 430 462 449 461 392 524 482 
454 452 453 381 534 337 405 534 381 
405 463 534 441 459 440 459 441 465 
441 408 465 408 477 465 446 466 477 
445 426 485 409 466 446 485 427 445 
427 485 498 498 447 427 302 478 486 
515 411 516 428 487 436 516 411 548 
487 429 436 429 487 488 460 488 461 
488 467 461 461 467 462 462 467 468 
449 462 468 437 449 468 437 468 450 
348 521 500 390 451 490 491 391 490 
471 491 470 457 455 472 458 457 473 
457 472 473 473 474 458 435 458 474 
435 474 456 337 511 442 476 475 459 
481 480 467 467 480 468 468 480 481 
470 556 471 337 534 511 463 535 534 
416 535 463 464 535 416 440 506 464 
459 484 440 440 484 506 484 459 475 
476 484 475 513 443 442 459 484 476 
484 459 465 466 497 477 409 497 466 
448 411 547 547 411 515 417 479 548 
488 499 467 467 499 481 468 481 489 
468 489 450 277 469 521 490 451 523 
556 470 492 470 491 492 503 452 454 
455 471 531 455 531 472 503 454 456 
483 503 456 473 472 493 474 473 505 
473 493 505 474 505 510 456 474 494 
474 510 494 494 483 456 484 495 476 
495 484 465 542 497 409 485 541 498 
409 514 542 547 563 448 546 487 486 
499 489 481 523 451 522 503 483 504 
484 495 506 465 477 495 477 496 495 
507 497 496 477 507 496 477 497 507 
569 498 541 498 478 447 514 448 543 
487 546 517 549 488 487 499 508 509 
499 509 489 489 509 450 469 450 520 
469 520 521 522 451 500 479 502 501 
502 479 482 491 490 525 524 452 602 
471 556 531 493 472 528 493 528 505 
494 510 529 504 483 529 529 483 494 
566 464 506 442 512 536 512 442 511 
442 536 513 539 485 513 570 498 569 
478 546 486 563 545 448 487 517 549 
488 518 499 499 518 508 509 508 519 
509 519 450 500 639 522 524 502 482 
525 490 554 491 525 624 492 491 577 
527 452 503 528 472 531 503 504 527 
505 528 510 528 529 510 530 511 512 
511 530 512 495 537 506 559 539 513 
502 524 501 602 452 526 452 527 526 
532 526 527 533 527 504 533 532 527 
533 504 529 464 580 535 464 566 580 
511 581 530 512 581 536 581 512 530 
566 506 537 495 538 537 496 538 495 
496 497 538 539 540 485 541 485 540 
478 498 570 514 543 571 478 570 544 
543 448 545 544 546 478 488 549 518 
549 573 518 479 572 548 573 550 518 
518 550 508 450 519 551 519 575 551 
520 450 552 450 551 552 521 520 552 
479 553 572 501 553 479 519 508 575 
508 550 575 501 524 553 490 523 576 
554 490 576 525 554 624 555 602 526 
556 492 577 526 557 555 532 557 526 
557 532 527 557 529 590 529 528 590 
532 529 557 533 529 532 567 566 537 
537 538 558 558 538 560 561 540 539 
497 542 562 511 534 581 537 558 567 
513 536 559 538 562 560 561 539 559 
559 540 561 562 538 497 541 540 612 
542 568 562 542 514 592 571 543 613 
543 545 613 613 545 563 585 546 544 
517 630 549 564 548 572 573 574 550 
697 552 551 550 574 575 697 551 575 
500 521 601 500 601 639 523 522 623 
553 524 602 491 624 577 602 555 565 
556 577 589 556 589 578 556 578 605 
531 556 605 557 565 555 579 565 557 
531 642 528 642 590 528 579 557 590 
558 560 582 562 568 583 569 597 570 
584 592 514 593 613 563 573 549 586 
572 553 638 552 621 521 601 521 621 
624 554 576 588 602 565 579 590 591 
591 565 579 535 580 534 566 567 609 
558 582 567 567 582 609 562 583 560 
540 559 612 514 571 584 614 544 570 
563 547 593 593 547 617 617 547 515 
515 516 617 516 548 617 618 548 564 
564 572 618 549 619 586 586 594 573 
573 594 574 575 574 594 576 523 623 
587 589 577 627 531 605 531 627 642 
588 565 591 534 654 581 534 580 654 
580 566 595 596 582 560 596 560 611 
568 690 583 690 568 542 592 690 542 
571 613 584 635 544 614 593 598 613 
593 599 598 585 616 546 636 517 546 
617 548 618 586 619 620 594 586 620 
600 594 620 552 697 621 522 639 623 
624 587 577 602 588 603 589 605 578 
642 603 590 591 590 588 609 582 596 
611 560 583 635 585 544 599 606 598 
593 606 599 593 617 606 549 630 619 
575 594 600 553 602 638 625 638 602 
589 587 604 608 603 588 603 588 590 
580 595 654 566 609 595 581 643 536 
596 610 609 536 644 559 610 596 611 
559 646 612 541 612 634 541 634 569 
648 597 569 690 592 613 614 570 597 
613 592 584 613 598 615 598 599 615 
599 606 615 606 617 615 615 617 693 
616 636 546 620 607 600 600 607 622 
575 600 622 622 697 575 576 623 624 
602 603 625 626 625 603 626 603 642 
628 610 611 628 611 629 611 583 629 
569 634 648 607 631 632 622 607 632 
536 643 644 609 633 661 610 633 609 
628 633 610 633 628 629 559 662 646 
583 690 647 612 665 634 649 597 648 
649 614 597 613 615 669 635 616 585 
670 616 635 671 636 616 636 630 517 
630 656 619 572 637 618 620 631 607 
601 621 673 653 624 623 638 625 652 
640 652 625 587 624 653 626 640 625 
587 682 604 683 589 604 605 589 683 
627 605 641 642 627 641 642 640 626 
559 644 662 645 633 629 614 668 635 
636 716 630 637 572 657 572 638 657 
631 651 632 621 720 673 601 673 698 
725 683 604 676 641 605 595 684 654 
595 609 707 581 708 643 643 708 709 
708 581 654 644 643 709 633 686 661 
686 633 655 655 633 645 629 583 645 
665 714 634 634 714 648 613 692 690 
692 613 669 669 615 693 617 679 693 
671 716 636 618 637 717 717 637 657 
619 658 620 620 658 631 658 718 631 
650 657 638 631 718 651 622 659 697 
632 651 659 659 622 632 639 601 698 
623 639 674 640 660 652 587 653 682 
682 725 604 605 683 722 642 641 660 
640 642 660 595 707 684 663 655 645 
645 583 663 647 664 583 713 612 646 
667 649 648 667 735 649 649 735 614 
614 735 668 651 718 672 650 638 705 
621 697 720 638 652 705 652 660 675 
675 660 676 653 677 682 676 660 641 
609 661 707 655 678 686 678 655 663 
583 689 663 583 664 689 612 713 665 
664 647 666 666 647 690 648 735 667 
691 692 669 616 670 671 617 618 717 
630 716 656 659 651 680 651 672 680 
697 659 680 674 731 623 677 653 623 
684 708 654 678 687 686 663 688 678 
712 646 662 663 689 688 666 689 664 
715 635 668 635 715 670 694 693 679 
679 617 694 656 739 619 768 657 695 
695 657 650 695 650 705 696 680 672 
680 696 697 639 698 674 652 675 705 
705 675 699 623 731 700 605 745 676 
745 699 676 676 699 675 677 623 700 
677 701 682 725 682 701 677 681 702 
702 701 677 661 685 707 688 687 678 
662 644 711 714 735 648 690 692 691 
617 717 694 739 658 619 681 677 700 
706 701 702 684 759 708 661 733 685 
708 762 709 661 686 733 686 710 733 
687 710 686 687 688 710 709 711 644 
688 703 710 691 751 690 751 691 669 
694 717 736 717 657 738 768 695 730 
658 739 718 730 695 705 718 704 672 
696 672 719 672 704 719 697 696 719 
799 730 705 698 673 761 698 761 674 
674 761 743 705 771 799 721 771 705 
699 745 723 721 705 699 721 699 723 
701 702 724 706 702 701 701 724 725 
681 700 726 681 726 702 707 778 684 
685 733 707 765 689 666 717 728 736 
656 729 739 726 724 702 700 732 726 
684 778 759 707 733 778 703 727 710 
662 711 712 703 688 734 703 734 727 
646 712 713 713 789 665 789 714 665 
690 765 666 765 690 766 766 690 751 
813 668 735 668 813 715 715 795 670 
737 736 728 728 717 738 716 767 656 
767 729 656 718 740 704 704 740 719 
719 740 742 742 740 741 753 719 742 
753 697 719 720 697 754 697 782 754 
769 730 799 770 673 720 771 721 744 
674 775 731 722 683 772 723 745 746 
744 723 746 721 723 744 700 731 747 
724 749 758 726 749 724 725 724 772 
700 747 732 747 748 749 747 749 732 
732 749 726 750 733 710 811 712 711 
713 787 789 669 693 794 737 738 736 
737 728 738 729 767 739 740 752 741 
741 752 742 782 697 753 673 770 761 
743 761 755 605 722 807 745 605 807 
746 745 756 744 746 756 747 731 757 
748 758 749 748 747 758 762 708 759 
784 778 733 733 750 784 762 785 709 
710 727 750 785 711 709 787 713 712 
689 765 688 813 793 715 715 793 795 
794 693 694 670 795 671 718 752 740 
742 752 760 742 760 753 755 761 743 
771 744 756 683 725 772 731 775 757 
758 747 757 759 783 762 778 783 759 
784 804 778 750 779 784 734 763 727 
763 734 764 712 811 787 734 688 790 
765 790 688 827 792 669 669 794 827 
838 694 796 694 736 796 716 828 767 
738 657 797 657 768 797 814 718 739 
752 781 760 781 798 760 720 754 770 
745 807 773 756 745 773 756 773 774 
777 757 776 777 758 757 758 777 724 
777 757 775 776 757 777 727 779 750 
727 763 779 780 763 764 734 788 764 
788 734 790 714 789 735 751 669 792 
794 694 838 718 814 781 718 781 752 
753 760 800 753 800 782 800 760 798 
771 756 774 809 762 783 778 808 783 
849 785 762 785 811 711 763 780 786 
780 764 786 786 764 788 765 791 790 
796 736 861 671 828 716 671 795 828 
736 738 861 738 797 874 828 829 767 
767 829 739 730 830 768 739 829 814 
769 830 730 782 844 754 799 771 801 
770 754 844 774 801 771 802 801 774 
722 772 820 722 888 807 773 807 803 
802 774 773 775 674 743 775 743 822 
791 765 766 751 792 766 769 799 816 
798 805 806 800 798 806 820 888 722 
802 773 803 809 834 762 804 808 778 
834 849 762 835 804 784 763 835 779 
779 835 784 811 785 851 786 810 763 
811 851 787 810 786 788 812 810 788 
788 790 812 790 826 812 735 789 853 
735 853 813 792 856 766 793 837 795 
795 837 859 827 794 838 839 861 738 
738 874 839 815 781 814 781 815 798 
815 805 798 769 816 830 799 801 816 
806 805 817 800 806 817 800 817 818 
782 800 920 800 818 920 801 802 816 
816 802 819 761 770 832 803 807 821 
802 803 821 821 819 802 743 761 832 
820 772 887 772 871 887 724 777 772 
777 775 823 775 822 833 823 775 833 
783 834 809 763 810 848 852 789 787 
791 766 854 813 855 793 796 861 838 
795 860 828 814 862 815 862 805 815 
770 844 869 887 831 820 820 831 888 
743 847 822 894 783 808 849 834 876 
877 804 835 848 835 763 785 849 851 
824 848 810 825 824 810 812 836 825 
810 812 825 825 812 826 790 879 826 
853 789 852 879 790 854 790 791 854 
854 766 856 856 792 827 795 859 860 
797 768 830 805 862 840 840 841 805 
805 841 817 817 841 818 818 841 843 
818 843 920 816 819 842 842 819 845 
821 807 846 845 819 821 846 845 821 
847 743 832 847 833 822 825 850 824 
825 836 850 851 852 787 825 826 850 
813 853 902 856 827 858 859 837 881 
839 874 861 906 842 864 906 816 842 
840 863 841 863 882 841 841 882 865 
843 841 865 886 843 865 920 843 886 
782 920 867 844 782 867 866 844 867 
844 866 867 868 845 846 870 832 869 
832 770 869 870 869 832 832 933 847 
823 833 913 833 890 913 847 872 890 
847 890 833 783 894 834 894 808 895 
808 804 877 894 876 834 877 835 848 
850 848 824 793 855 857 793 857 837 
858 827 838 838 861 873 861 839 873 
873 861 874 874 797 875 797 830 905 
862 863 840 830 816 906 867 869 844 
864 845 868 842 845 864 772 777 871 
872 847 933 913 777 823 808 921 895 
808 877 921 851 849 897 850 898 848 
850 878 898 850 826 878 826 879 878 
854 901 879 813 902 855 856 858 854 
858 856 880 854 858 880 837 857 881 
858 838 927 838 873 927 860 903 828 
797 916 875 797 905 916 814 904 862 
863 862 904 830 906 969 906 864 883 
865 882 884 883 864 885 886 865 884 
807 888 889 846 807 889 868 846 885 
846 889 885 885 864 868 777 913 871 
890 872 893 855 902 926 944 873 874 
904 891 863 891 882 863 882 891 884 
849 876 935 849 935 897 848 896 962 
898 896 848 897 923 851 878 899 898 
851 923 852 900 899 879 899 878 879 
925 853 852 857 915 881 881 915 859 
915 860 859 874 875 916 828 903 904 
828 904 829 829 904 814 969 905 830 
906 883 908 904 907 891 891 907 884 
907 892 884 883 885 908 908 885 909 
886 910 920 910 975 920 831 887 911 
888 831 911 889 888 911 885 889 909 
886 884 892 886 892 910 867 920 869 
871 912 887 932 869 920 949 871 913 
949 912 871 832 869 933 872 933 950 
893 872 950 893 913 890 898 899 896 
879 901 900 853 925 902 944 874 954 
909 917 908 918 892 907 919 917 909 
962 877 848 935 923 897 899 922 896 
922 899 900 922 900 914 900 924 914 
924 900 901 925 953 902 901 854 939 
854 943 939 855 941 942 855 926 941 
854 880 943 943 880 927 880 858 927 
915 945 860 927 873 944 874 916 954 
916 905 969 907 904 918 928 906 908 
908 917 928 892 918 929 917 919 928 
928 919 930 909 889 919 910 892 931 
892 929 931 887 912 974 995 932 920 
933 869 932 913 893 951 877 962 921 
922 936 896 852 923 925 926 940 941 
855 968 915 855 915 857 916 969 947 
957 918 904 887 971 911 919 889 948 
948 930 919 912 949 974 893 950 951 
894 934 876 934 894 1005 894 895 1005 
1005 895 921 921 962 961 935 876 934 
896 936 962 936 922 937 938 937 914 
914 937 922 914 924 938 924 952 938 
924 901 952 952 901 939 966 926 902 
953 966 902 926 941 940 945 903 860 
954 916 947 947 916 946 946 916 947 
978 957 904 969 906 956 928 979 906 
979 928 980 918 957 929 957 958 929 
928 930 980 929 958 931 887 974 971 
980 930 948 931 958 975 910 931 975 
995 959 932 933 932 959 951 950 960 
934 1007 935 935 983 923 938 963 936 
937 938 936 923 983 964 952 963 938 
963 952 965 964 925 923 952 939 987 
967 966 953 926 1012 941 939 943 988 
942 941 1014 927 1015 943 927 944 1015 
903 945 1017 903 1017 904 947 1016 954 
947 969 1016 955 978 904 1017 978 955 
969 956 990 956 906 990 975 958 970 
911 971 972 911 972 994 889 911 994 
948 889 973 889 994 973 920 975 995 
995 1023 959 913 996 949 933 959 1023 
950 933 960 976 977 951 997 951 977 
913 951 997 964 983 925 965 952 987 
953 925 966 942 968 855 904 1017 955 
980 948 973 996 913 997 933 1026 960 
977 976 951 921 961 1039 1027 921 1039 
961 981 1039 982 981 961 962 981 961 
1006 981 962 1005 1007 934 963 962 936 
1007 983 935 963 965 984 983 985 925 
965 984 986 965 987 984 986 984 987 
925 985 966 987 939 988 966 1012 926 
941 1012 1014 943 1015 1013 915 989 945 
915 968 989 944 1033 1015 1033 944 954 
945 989 1017 906 979 990 957 1018 958 
991 979 980 958 1018 970 1018 993 970 
973 992 980 980 992 991 1043 971 974 
971 1054 972 970 993 975 995 975 993 
974 949 996 1024 996 997 998 997 977 
998 977 951 951 960 1026 998 951 1026 
1007 1061 983 999 984 986 986 987 1000 
999 986 1000 990 979 1001 1002 1001 979 
1002 979 1003 979 991 1003 1005 921 1027 
981 1006 1039 962 1029 1006 963 1029 962 
1008 1044 963 963 984 1008 984 999 1008 
987 1009 1000 987 988 1010 987 1010 1009 
1000 1009 1010 1012 966 985 988 943 1011 
1011 943 1013 942 1014 968 954 1016 1033 
1016 969 1049 969 990 1049 1062 978 1017 
978 1018 957 1020 1001 1003 1002 1003 1001 
1018 1019 993 1003 991 1020 972 1054 994 
973 1021 992 1020 991 992 1020 992 1021 
1019 995 993 1022 995 1019 1022 1004 995 
1043 974 996 1023 995 1004 1057 996 1024 
1024 997 1025 933 1023 1038 1025 997 1024 
1024 997 998 1026 933 1038 1027 1063 1005 
1029 1040 1006 1000 1030 1008 1000 1008 999 
1031 985 983 1000 1032 1030 1010 988 1011 
985 1067 1012 1015 1048 1013 968 1014 989 
1048 1015 1033 1018 978 1062 990 1001 1042 
1020 1021 1034 1004 1035 1036 1023 1037 1038 
1007 1005 1063 1006 1040 1039 1028 1040 1006 
1028 1006 1040 963 1044 1029 1008 1030 1044 
1000 1010 1041 1032 1000 1041 1011 1013 1048 
1012 1071 1014 1014 1071 989 1016 1094 1033 
1001 1020 1042 1019 1018 1035 1020 1034 1042 
1019 1035 1022 1054 971 1043 1021 973 1053 
1021 1053 1034 1035 1004 1022 1023 1004 1079 
1004 1036 1079 998 1026 1082 1063 1061 1007 
983 1064 1031 983 1061 1064 1032 1045 1030 
1031 1064 985 1046 1045 1032 1041 1046 1032 
1065 1067 985 1010 1011 1047 1041 1010 1047 
1041 1047 1046 989 1071 1072 1072 1073 989 
989 1073 1017 1049 1094 1016 1049 990 1074 
990 1042 1074 1050 1074 1042 1051 1050 1042 
1034 1051 1042 1054 1043 1078 994 1054 1155 
973 994 1155 1125 973 1155 1053 973 1125 
1034 1053 1125 1055 1034 1125 1035 1056 1036 
1035 1052 1056 1036 1056 1058 1079 1036 1058 
1037 1023 1059 1057 1024 1083 1037 1038 1059 
1024 998 1083 1037 1059 1038 1083 998 1082 
1026 1081 1060 1026 1060 1082 1040 1029 1044 
985 1064 1065 1012 1067 1071 1051 1034 1055 
1052 1058 1056 1043 996 1057 1023 1079 1059 
1081 1026 1038 1060 1081 1082 1119 1027 1039 
1030 1045 1044 1045 1085 1044 1045 1046 1066 
1046 1047 1066 1066 1047 1068 1047 1011 1068 
1068 1011 1069 1048 1069 1011 1048 1033 1070 
1093 1070 1033 1094 1141 1033 1094 1049 1074 
1017 1073 1062 1062 1113 1018 1018 1113 1035 
1051 1075 1050 1113 1096 1035 1096 1076 1052 
1035 1096 1052 1155 1054 1146 1055 1125 1077 
1051 1055 1077 1075 1051 1077 1052 1076 1058 
1043 1057 1078 1058 1076 1098 1079 1058 1098 
1080 1057 1083 1038 1059 1081 1063 1104 1061 
1084 1104 1063 1045 1066 1088 1068 1069 1091 
1070 1069 1048 1075 1077 1086 1130 1119 1039 
1039 1040 1130 1130 1040 1103 1103 1040 1044 
1129 1063 1027 1119 1129 1027 1085 1103 1044 
1061 1087 1064 1104 1087 1061 1106 1087 1104 
1065 1064 1087 1066 1089 1088 1066 1068 1089 
1067 1065 1122 1090 1089 1068 1090 1068 1091 
1071 1067 1092 1110 1091 1069 1093 1033 1141 
1143 1062 1073 1167 1113 1062 1074 1050 1112 
1050 1075 1095 1086 1097 1075 1075 1097 1095 
1078 1146 1054 1086 1077 1097 1096 1098 1076 
1057 1148 1078 1148 1057 1080 1079 1098 1099 
1100 1059 1099 1059 1079 1099 1081 1059 1100 
1083 1082 1101 1082 1102 1101 1045 1088 1085 
1107 1122 1087 1122 1065 1087 1089 1090 1088 
1090 1091 1109 1067 1153 1092 1109 1091 1110 
1111 1110 1069 1069 1070 1093 1074 1112 1094 
1167 1062 1143 1115 1114 1095 1095 1097 1115 
1116 1114 1115 1116 1115 1097 1124 1098 1096 
1155 1146 1177 1100 1099 1117 1148 1080 1083 
1150 1082 1081 1083 1101 1102 1104 1084 1120 
1084 1105 1120 1084 1063 1120 1088 1090 1121 
1108 1121 1090 1109 1108 1090 1140 1071 1092 
1111 1069 1093 1071 1123 1072 1072 1123 1142 
1072 1142 1073 1141 1094 1112 1073 1142 1143 
1112 1050 1168 1050 1095 1168 1168 1095 1114 
1097 1077 1126 1116 1097 1126 1147 1146 1078 
1124 1127 1098 1127 1124 1117 1147 1078 1148 
1127 1117 1098 1098 1117 1099 1100 1117 1128 
1100 1128 1118 1081 1100 1118 1081 1118 1150 
1151 1102 1158 1151 1083 1102 1102 1082 1158 
1082 1150 1158 1120 1063 1129 1103 1085 1161 
1087 1106 1131 1134 1131 1104 1131 1106 1104 
1120 1132 1104 1107 1087 1131 1106 1133 1131 
1134 1133 1131 1108 1135 1121 1152 1122 1107 
1108 1136 1135 1109 1136 1108 1067 1122 1153 
1136 1109 1110 1110 1137 1136 1162 1153 1122 
1138 1137 1110 1138 1110 1111 1111 1093 1139 
1138 1111 1139 1071 1140 1123 1113 1167 1144 
1168 1201 1112 1114 1170 1168 1096 1113 1144 
1114 1116 1170 1116 1126 1145 1117 1124 1156 
1118 1128 1149 1118 1209 1150 1151 1148 1083 
1104 1132 1134 1132 1120 1134 1085 1088 1135 
1088 1121 1135 1107 1131 1152 1133 1152 1131 
1122 1152 1162 1153 1162 1165 1137 1138 1154 
1111 1154 1138 1092 1165 1140 1165 1092 1153 
1116 1145 1170 1155 1203 1125 1125 1204 1077 
1077 1204 1126 1145 1126 1172 1117 1156 1128 
1156 1149 1128 1156 1157 1149 1118 1149 1179 
1118 1179 1209 1183 1120 1129 1129 1119 1183 
1183 1119 1159 1119 1130 1159 1160 1159 1130 
1161 1085 1135 1136 1137 1163 1163 1137 1164 
1164 1137 1154 1154 1138 1139 1154 1139 1164 
1166 1164 1139 1139 1093 1197 1123 1140 1184 
1142 1123 1184 1184 1143 1142 1167 1169 1144 
1096 1144 1169 1170 1145 1171 1171 1145 1172 
1096 1173 1124 1175 1171 1172 1174 1175 1172 
1172 1126 1174 1173 1157 1156 1124 1173 1156 
1157 1173 1176 1147 1177 1146 1149 1157 1176 
1178 1149 1176 1150 1209 1180 1158 1150 1180 
1158 1182 1151 1181 1182 1158 1148 1151 1182 
1130 1103 1161 1120 1183 1134 1162 1152 1133 
1134 1225 1133 1135 1163 1224 1135 1136 1163 
1162 1190 1165 1140 1165 1194 1197 1166 1139 
1197 1093 1198 1140 1213 1184 1184 1200 1167 
1143 1184 1167 1169 1173 1096 1179 1149 1178 
1209 1179 1178 1185 1180 1186 1180 1181 1158 
1185 1181 1180 1148 1182 1243 1185 1186 1181 
1161 1135 1187 1130 1222 1159 1161 1222 1130 
1187 1222 1161 1225 1134 1183 1224 1187 1135 
1188 1162 1133 1163 1164 1189 1191 1189 1164 
1191 1192 1189 1192 1191 1166 1191 1164 1166 
1192 1166 1193 1194 1165 1195 1190 1195 1165 
1196 1140 1194 1166 1197 1193 1213 1140 1196 
1198 1093 1230 1184 1213 1199 1093 1141 1230 
1141 1112 1230 1112 1201 1230 1201 1168 1170 
1167 1200 1169 1232 1169 1200 1171 1175 1170 
1173 1169 1232 1174 1202 1175 1206 1173 1232 
1176 1173 1206 1238 1203 1155 1203 1204 1125 
1126 1204 1235 1174 1126 1235 1205 1174 1235 
1202 1174 1205 1177 1147 1207 1206 1209 1178 
1176 1206 1178 1148 1208 1147 1186 1180 1210 
1180 1209 1210 1148 1243 1263 1181 1186 1211 
1211 1182 1181 1159 1246 1183 1222 1246 1159 
1223 1187 1224 1133 1225 1188 1163 1189 1224 
1162 1188 1190 1190 1188 1195 1192 1226 1189 
1195 1190 1194 1194 1212 1196 1212 1194 1195 
1196 1213 1212 1197 1198 1214 1199 1213 1215 
1231 1200 1199 1200 1184 1199 1235 1217 1205 
1218 1205 1217 1218 1202 1205 1207 1219 1177 
1209 1206 1236 1207 1147 1208 1211 1220 1221 
1182 1211 1221 1187 1223 1222 1225 1183 1247 
1195 1188 1225 1192 1193 1226 1193 1197 1227 
1193 1227 1226 1212 1229 1196 1213 1196 1229 
1197 1214 1228 1197 1228 1227 1228 1198 1230 
1214 1198 1228 1215 1213 1229 1215 1229 1199 
1231 1199 1229 1170 1175 1255 1175 1216 1255 
1202 1216 1175 1236 1206 1232 1218 1233 1202 
1202 1233 1216 1203 1297 1204 1297 1234 1204 
1204 1234 1235 1218 1217 1233 1177 1237 1155 
1219 1237 1177 1155 1237 1238 1236 1239 1209 
1210 1209 1239 1210 1239 1240 1210 1241 1186 
1210 1240 1241 1186 1241 1242 1242 1211 1186 
1242 1220 1211 1221 1220 1244 1243 1182 1221 
1183 1246 1247 1266 1245 1223 1223 1224 1266 
1225 1247 1248 1189 1226 1224 1224 1226 1266 
1195 1225 1267 1248 1267 1225 1249 1248 1225 
1250 1226 1227 1212 1195 1229 1229 1195 1268 
1227 1228 1250 1228 1230 1252 1251 1228 1252 
1253 1230 1296 1231 1269 1200 1296 1201 1254 
1230 1201 1296 1201 1170 1254 1254 1170 1255 
1236 1232 1281 1233 1256 1216 1256 1233 1271 
1297 1203 1238 1258 1234 1297 1257 1234 1258 
1207 1259 1219 1236 1240 1239 1260 1259 1207 
1219 1259 1260 1148 1263 1208 1261 1208 1263 
1264 1221 1262 1243 1221 1264 1263 1243 1264 
1246 1222 1245 1222 1223 1245 1245 1266 1265 
1340 1247 1246 1267 1268 1195 1251 1250 1228 
1231 1229 1268 1230 1253 1252 1232 1200 1269 
1312 1232 1269 1216 1256 1270 1234 1258 1235 
1258 1399 1235 1235 1399 1217 1217 1271 1233 
1399 1271 1217 1240 1236 1281 1259 1260 1219 
1286 1219 1260 1237 1219 1286 1240 1272 1241 
1208 1285 1207 1260 1207 1285 1241 1272 1242 
1220 1242 1272 1220 1272 1273 1299 1285 1208 
1220 1273 1221 1221 1274 1262 1221 1273 1274 
1246 1245 1275 1275 1245 1265 1247 1341 1248 
1340 1341 1247 1226 1250 1266 1266 1250 1293 
1341 1267 1248 1293 1250 1251 1276 1251 1252 
1252 1253 1276 1276 1253 1277 1253 1296 1277 
1231 1308 1269 1278 1254 1279 1255 1311 1254 
1280 1311 1255 1216 1280 1255 1270 1280 1216 
1256 1271 1270 1271 1283 1270 1283 1282 1270 
1240 1281 1284 1237 1286 1238 1297 1238 1286 
1284 1272 1240 1285 1286 1260 1284 1274 1272 
1274 1273 1272 1299 1288 1285 1284 1264 1274 
1264 1262 1274 1264 1284 1287 1289 1264 1287 
1263 1264 1289 1289 1290 1263 1263 1290 1261 
1291 1261 1290 1292 1208 1261 1292 1261 1291 
1275 1340 1246 1265 1266 1275 1275 1266 1340 
1344 1267 1341 1268 1302 1231 1294 1277 1295 
1277 1296 1295 1302 1308 1231 1296 1254 1307 
1307 1254 1279 1279 1254 1311 1269 1308 1312 
1312 1281 1232 1281 1354 1284 1399 1258 1358 
1361 1286 1338 1288 1321 1285 1321 1318 1285 
1298 1290 1287 1290 1289 1287 1299 1208 1292 
1266 1293 1343 1293 1300 1343 1300 1293 1251 
1300 1251 1301 1301 1251 1276 1267 1302 1268 
1302 1267 1344 1276 1303 1301 1304 1303 1276 
1276 1277 1304 1294 1304 1277 1305 1304 1294 
1294 1295 1305 1296 1305 1295 1302 1328 1308 
1306 1305 1296 1307 1306 1296 1307 1279 1309 
1309 1279 1311 1311 1310 1309 1280 1332 1311 
1312 1333 1281 1313 1280 1270 1314 1313 1270 
1282 1314 1270 1333 1354 1281 1283 1315 1314 
1282 1283 1314 1354 1337 1284 1316 1271 1399 
1317 1271 1316 1283 1271 1317 1315 1283 1317 
1361 1362 1286 1297 1286 1362 1363 1297 1362 
1287 1284 1298 1298 1284 1337 1286 1285 1318 
1286 1318 1319 1338 1286 1319 1290 1298 1291 
1291 1298 1320 1291 1320 1322 1323 1324 1288 
1324 1321 1288 1292 1291 1322 1292 1322 1299 
1322 1325 1299 1299 1323 1288 1299 1325 1323 
1325 1326 1323 1326 1324 1323 1303 1304 1327 
1303 1327 1301 1302 1344 1328 1305 1329 1304 
1305 1306 1329 1310 1311 1330 1315 1317 1335 
1317 1316 1336 1358 1258 1297 1320 1298 1337 
1325 1322 1339 1325 1339 1326 1326 1339 1324 
1340 1266 1343 1343 1342 1340 1343 1300 1345 
1301 1327 1345 1301 1345 1300 1327 1304 1345 
1304 1346 1345 1346 1304 1329 1329 1306 1347 
1306 1307 1348 1307 1309 1348 1348 1309 1310 
1348 1310 1349 1328 1371 1308 1310 1330 1349 
1312 1308 1371 1311 1331 1330 1331 1332 1350 
1311 1332 1331 1371 1333 1312 1350 1332 1351 
1332 1280 1351 1351 1280 1313 1352 1351 1313 
1371 1354 1333 1352 1313 1353 1313 1314 1353 
1334 1353 1315 1353 1314 1315 1336 1355 1317 
1355 1335 1317 1335 1334 1315 1335 1355 1334 
1380 1316 1399 1356 1337 1354 1357 1358 1297 
1363 1357 1297 1320 1337 1322 1322 1337 1356 
1359 1322 1356 1339 1322 1359 1365 1366 1319 
1367 1338 1366 1338 1319 1366 1367 1361 1338 
1324 1339 1359 1360 1324 1359 1321 1324 1360 
1364 1321 1360 1321 1364 1318 1318 1364 1365 
1319 1318 1365 1343 1383 1342 1343 1345 1346 
1329 1347 1346 1384 1328 1344 1347 1368 1346 
1347 1306 1368 1306 1348 1368 1328 1405 1371 
1368 1348 1369 1348 1349 1330 1330 1331 1370 
1331 1372 1370 1331 1350 1372 1350 1373 1372 
1350 1351 1373 1351 1352 1373 1355 1336 1334 
1334 1336 1374 1393 1356 1354 1359 1356 1393 
1375 1336 1316 1376 1378 1377 1379 1399 1358 
1316 1380 1375 1376 1364 1360 1377 1365 1376 
1365 1364 1376 1377 1366 1365 1381 1358 1357 
1379 1358 1381 1341 1340 1384 1340 1342 1382 
1384 1340 1382 1383 1382 1342 1343 1404 1383 
1343 1346 1404 1344 1341 1384 1404 1346 1369 
1346 1368 1369 1328 1384 1405 1371 1405 1388 
1348 1386 1369 1348 1387 1386 1348 1330 1387 
1386 1370 1369 1370 1385 1369 1387 1370 1386 
1387 1330 1370 1372 1385 1370 1373 1385 1372 
1388 1389 1371 1352 1420 1373 1354 1371 1392 
1392 1371 1389 1390 1352 1353 1353 1334 1390 
1374 1391 1390 1334 1374 1390 1392 1393 1354 
1374 1336 1391 1391 1336 1394 1359 1393 1360 
1360 1393 1392 1376 1360 1392 1394 1336 1375 
1366 1377 1378 1395 1366 1378 1367 1366 1395 
1396 1367 1395 1361 1367 1396 1401 1400 1396 
1400 1361 1396 1403 1381 1398 1381 1357 1398 
1381 1403 1379 1362 1361 1400 1401 1362 1400 
1362 1401 1363 1363 1401 1397 1402 1363 1397 
1357 1363 1397 1398 1357 1397 1406 1384 1382 
1382 1383 1421 1405 1384 1406 1421 1406 1382 
1404 1421 1383 1369 1407 1404 1407 1369 1385 
1385 1373 1408 1422 1389 1388 1405 1422 1388 
1422 1409 1389 1409 1392 1389 1352 1424 1420 
1424 1352 1390 1409 1376 1392 1391 1424 1390 
1409 1378 1376 1410 1378 1409 1391 1394 1411 
1413 1430 1397 1397 1430 1398 1430 1414 1398 
1410 1395 1378 1396 1395 1412 1413 1401 1412 
1401 1396 1412 1397 1401 1413 1398 1416 1381 
1394 1415 1411 1375 1415 1394 1416 1379 1381 
1416 1417 1379 1380 1399 1418 1419 1380 1418 
1422 1405 1406 1421 1429 1406 1407 1408 1404 
1385 1408 1407 1420 1421 1404 1408 1420 1404 
1408 1373 1420 1406 1429 1422 1429 1423 1422 
1422 1410 1409 1425 1410 1422 1422 1426 1425 
1424 1391 1428 1430 1431 1414 1428 1391 1411 
1395 1410 1425 1426 1412 1425 1412 1395 1425 
1427 1413 1426 1413 1412 1426 1430 1413 1427 
1428 1419 1418 1416 1398 1414 1416 1414 1417 
1417 1414 1418 1399 1379 1417 1418 1399 1417 
1415 1375 1419 1419 1375 1380 1420 1424 1421 
1421 1430 1429 1421 1424 1431 1423 1426 1422 
1429 1427 1423 1427 1426 1423 1430 1427 1429 
1421 1431 1430 1424 1428 1431 1418 1414 1431 
1428 1418 1431 1411 1419 1428 1411 1415 1419 

