# vtk DataFile Version 5.1
vtk output
ASCII
DATASET POLYDATA
POINTS 1043 float
35.2517 32.3827 0.99556 35.4129 35.2499 0.639479 37.5779 35.4126 0.90589 
38.1758 38.1693 0.662765 39.5419 38.7561 1.12929 38.2081 44.185 0.707495 
40.608 44.2186 0.938798 40.5746 47.3944 1.05598 40.8357 49.61 0.964305 
43.2387 51.9777 1.30612 32.9977 26.1647 1.823 35.2984 26.3468 2.37993 
32.8208 29.3695 1.41141 37.4087 29.444 2.42892 38.244 32.1957 2.08014 
42.2338 41.285 2.17086 42.3246 41.4474 2.16417 41.9668 44.6821 1.54963 
32.6686 47.3512 1.99883 35.1192 47.4282 1.57261 35.4385 50.1205 1.96336 
27.7179 20.4539 2.86912 30.6666 20.1966 2.81018 32.382 20.6982 2.94787 
30.4525 23.2576 2.30184 20.1104 38.3091 2.72406 25.2056 47.1952 2.96353 
44.9108 50.077 2.51665 43.048 55.9397 2.13766 45.404 55.8525 2.62202 
40.4044 59.1633 2.78843 45.693 59.0756 2.65715 43.2874 61.9329 2.83976 
25.4334 14.2726 4.10838 29.4772 14.95 4.12799 27.809 17.2423 3.35382 
27.6066 17.6171 3.31366 15.0288 20.426 4.0056 35.9884 23.1713 3.58966 
12.4496 29.3509 3.59398 48.206 59.149 3.66496 48.0508 62.2347 3.43668 
45.68 65.1844 3.30283 43.0035 68.4326 4.24192 46.6104 68.4884 3.79736 
48.2915 69.1986 3.9667 49.66 68.0789 4.33813 48.347 69.6846 4.48034 
48.655 69.8802 4.76001 25.219 3.54884 5.36302 25.5593 4.68405 4.77053 
26.7994 5.91039 5.14535 25.3477 9.02871 5.06517 27.7557 8.71061 5.5549 
20.0962 11.4756 5.3268 30.248 14.2628 4.68504 15.1042 17.5568 4.53031 
4.68354 23.3766 5.40729 2.82876 26.9334 5.3141 4.04848 28.8218 4.74758 
4.96412 29.3784 4.61028 7.4688 29.356 4.31464 3.28514 31.6994 5.49018 
4.63682 34.7046 5.3582 5.48769 41.213 5.28769 49.5841 65.3392 4.24034 
51.0477 68.6033 5.26988 40.0652 69.3255 4.77267 40.3646 71.0463 5.35261 
43.217 70.3736 5.11448 42.4889 69.5757 4.6795 44.8016 70.095 5.21247 
52.0845 81.3887 5.35976 50.6454 82.6984 5.55337 52.3856 82.1942 5.39848 
22.0791 1.09669 6.46444 22.4822 2.8857 5.73272 24.1454 2.06627 6.40749 
26.3291 4.11251 6.07323 22.7346 4.59456 5.36496 27.5972 5.4679 6.30794 
21.4044 5.70755 5.85012 28.7337 7.82727 6.46275 17.7373 8.04973 6.59137 
30.5317 10.3435 6.64359 12.4456 11.4058 6.55609 9.5246 13.5642 6.43707 
35.2758 14.4777 6.86852 7.38912 17.7272 5.67863 3.28099 17.2568 6.6531 
3.77721 16.793 6.32197 4.98355 17.5017 6.01481 3.95063 20.6571 6.29184 
1.98438 23.9606 6.31594 3.07917 24.2618 5.62158 1.87048 26.4953 6.35039 
2.72833 31.7506 6.26495 3.4465 35.1116 6.52039 47.9113 38.3276 6.648 
7.11634 44.3599 5.35502 5.29283 44.2112 6.58871 6.30047 44.5201 5.7912 
6.69963 47.2901 6.24129 5.66985 45.9967 6.72596 10.0548 50.1442 5.76394 
9.14612 50.4507 6.04292 12.5795 53.1196 5.8494 38.2932 70.9739 5.5208 
50.347 69.8307 6.50464 45.091 70.6823 6.56539 37.9718 72.6488 6.00084 
42.2228 71.438 6.38373 40.7872 72.1991 6.23922 37.9474 74.007 6.50688 
39.3888 73.6499 6.8803 51.2281 81.5249 5.75055 50.5792 81.1655 6.59795 
52.2836 81.0194 5.73095 49.9094 82.3072 5.74653 53.467 86.822 6.10725 
20.6696 2.32009 6.70041 20.6689 1.93123 7.57088 19.6862 5.80685 6.71328 
30.1755 8.39757 7.85976 13.4494 10.0243 7.07027 7.17482 14.3632 6.5632 
7.21912 13.4245 7.5401 5.49368 15.1358 6.75354 5.17121 14.9951 7.86314 
6.9857 16.2154 6.01202 2.9475 20.483 6.89162 2.25121 20.0905 7.79961 
40.2885 20.2401 6.99328 3.67898 38.5454 7.50393 5.47263 47.2009 7.77951 
7.44845 50.2308 6.65451 7.80007 52.873 6.99642 6.87934 53.2751 7.98081 
52.5781 68.7727 6.6762 53.7888 68.9564 7.63481 50.8813 69.9044 8.06349 
37.6068 76.1931 6.95132 38.9999 75.3137 7.46671 38.4056 78.1638 7.48276 
53.4241 80.0319 7.69971 47.9367 83.2173 6.62252 48.5695 81.8217 7.3866 
49.1531 81.4641 7.61291 54.1531 82.4475 6.0557 45.0513 83.5973 7.92363 
46.5558 83.7794 7.06416 47.5321 85.2218 6.8472 55.4992 86.1022 6.53648 
53.0752 89.0263 6.52739 56.1127 89.3038 6.58033 57.3078 90.0113 7.1055 
55.6773 91.4919 6.86458 55.7832 92.5899 7.65248 57.9143 91.6189 7.72706 
22.3952 0.948805 7.47059 24.353 2.15935 7.90941 19.3952 5.03698 7.9523 
18.4453 6.21399 7.79576 14.6034 8.54083 8.02531 9.54077 11.975 7.9302 
34.7588 12.0226 8.17117 8.10884 12.7687 8.03808 35.9383 13.9781 7.75526 
36.1945 13.3856 8.85179 2.5693 17.9142 8.15231 3.89021 16.0432 8.05422 
38.4037 16.8641 7.65612 38.6173 16.1866 9.05895 39.8446 17.9418 8.12424 
1.43066 23.7718 7.66101 47.9001 32.3763 8.01491 48.2544 35.2237 7.45088 
7.68902 55.7755 7.86077 6.85116 56.3219 9.00534 8.14124 59.4077 8.1882 
7.53546 60.1859 9.21627 9.76917 61.0031 7.91883 25.11 68.2219 7.69338 
55.0805 68.6443 8.3022 52.9141 69.8549 8.86906 56.0178 70.3791 9.69952 
39.8916 73.8514 7.90133 35.3509 77.0796 7.73075 39.2615 76.8829 8.34005 
38.3787 79.9388 7.81398 39.6356 80.9343 8.42872 44.9429 82.7989 9.27241 
58.0458 89.6136 7.63269 53.0341 92.3872 7.80974 53.1471 91.3886 7.33085 
22.502 2.66446 9.24192 20.8967 3.16253 8.85699 19.7306 5.02596 9.32882 
27.4304 4.82448 9.11595 18.3032 6.35858 9.33976 30.4339 7.85578 9.16168 
15.147 8.21125 9.05006 12.0173 10.4613 9.39729 8.65238 12.5832 9.03173 
4.56821 16.5474 9.56945 2.68705 18.5154 9.20932 41.4857 19.0649 9.16102 
2.20894 19.7443 8.99777 44.6161 21.3364 9.49004 45.4109 23.0027 9.0216 
1.21049 26.0538 9.53354 2.07049 32.3957 9.21952 50.36 32.3943 9.48659 
55.7613 65.152 9.00349 55.7818 69.0686 8.75113 41.5217 72.2202 9.17554 
56.6666 72.9954 10.0754 55.3351 79.5106 8.93709 58.0921 79.6226 9.61903 
38.4701 82.4532 8.71491 40.3551 82.8913 8.8381 42.5692 83.8654 9.03182 
40.91 85.3132 9.03093 42.0974 85.587 8.76644 48.1652 92.5367 9.35732 
59.3267 92.751 9.93885 59.9713 91.4051 9.87139 49.8749 92.9767 9.11292 
53.1311 93.9264 9.09078 50.2499 93.7446 9.64161 22.9218 4.35928 11.0582 
20.4182 5.37231 10.5328 17.4435 7.38293 10.548 33.1166 10.0334 10.7347 
34.8294 11.8302 10.4141 7.50558 14.5497 10.5231 4.79963 17.3547 10.6622 
3.52615 18.8696 10.6507 41.6805 19.0661 10.4054 2.25339 20.866 10.7004 
45.738 22.3621 10.4115 47.3151 23.7428 10.4562 47.0627 24.2643 9.66919 
1.2164 26.0771 10.7596 48.5689 25.4847 10.5109 49.8175 26.9065 10.6245 
51.0244 28.8265 10.5806 50.9519 32.2167 9.86095 6.4605 56.3865 10.3529 
8.35417 64.3605 10.4501 9.18343 66.0012 10.3669 57.3559 65.2727 10.2198 
58.005 65.1861 10.7294 57.0887 68.8238 9.72111 57.9759 68.5854 10.4273 
50.7985 69.8142 10.7127 53.8668 70.2115 10.0038 55.7941 71.152 10.4146 
42.4562 71.5238 10.7652 57.4594 71.3007 10.3432 40.1083 74.0121 10.6251 
58.034 72.9652 11.1125 32.9346 79.8857 9.74606 55.5133 79.1047 10.2732 
56.8643 79.8791 8.95573 34.8324 80.6424 9.37466 35.5986 82.738 10.0086 
41.0581 82.2883 10.2369 60.353 83.1081 10.9054 42.5235 83.1657 10.8558 
60.5328 92.3793 11.0391 59.0315 93.0448 10.4983 48.1232 94.5401 10.5879 
47.9095 93.8187 10.0531 52.7122 94.489 10.8768 25.5184 4.31687 11.0459 
28.0233 5.93488 12.2487 50.5509 26.9564 11.7439 51.5571 27.8075 11.8245 
52.9205 32.2139 11.1037 53.6937 31.7293 11.7497 7.93199 65.1466 11.9087 
9.9863 68.0366 10.9148 50.3624 69.8202 12.3257 44.7197 70.6688 12.1422 
56.206 78.709 12.0545 59.521 80.1536 10.5289 41.3625 81.7564 12.1956 
60.8762 89.731 10.8895 43.0282 92.5724 11.202 59.971 92.606 10.5205 
45.4218 93.9943 10.9693 50.0723 95.1811 11.7279 47.9939 95.1506 11.6753 
23.1771 5.23721 12.113 25.0018 4.65568 11.7316 20.4835 6.06567 11.5079 
19.503 7.58116 12.636 15.5625 9.23361 11.2991 35.9951 13.8765 11.9403 
39.9404 17.9192 11.9228 1.93595 23.011 12.0162 44.4855 21.5168 11.5412 
1.29261 25.5162 11.9149 52.8971 29.4426 12.0604 4.17855 44.4188 11.8423 
58.3376 56.1962 11.6403 58.6572 71.3041 10.9814 60.1288 71.6725 11.9456 
12.7853 73.8748 12.349 56.24 73.0886 12.214 57.8004 73.686 11.8881 
60.5065 73.7069 12.5053 22.5778 77.1815 11.7926 40.0096 77.1953 11.9003 
40.9918 80.8249 12.3228 58.4221 78.0884 12.3595 60.7584 79.4632 11.9043 
43.6712 94.3211 12.0223 25.1303 5.21384 12.5382 27.4705 6.10694 13.1788 
29.8768 7.87433 13.4773 1.4141 25.2838 12.83 48.7136 25.6234 13.1216 
53.3816 29.4343 13.0606 55.5831 32.3438 13.2668 56.5465 34.5606 13.2292 
3.27616 41.109 13.4394 3.44212 41.5754 13.0508 60.3485 50.3044 13.6877 
60.5962 56.2268 13.3486 59.9477 56.2973 12.8567 8.75773 68.5171 12.8655 
50.6037 69.97 13.1445 44.8414 70.7631 13.3284 53.1737 70.9406 13.7902 
42.507 71.9099 13.2972 10.4377 74.1149 13.4514 40.8999 73.7706 13.3074 
61.1915 75.404 13.0198 12.3397 74.4001 12.7044 58.1898 74.7443 13.2405 
40.2321 76.5752 12.7787 60.9673 77.0826 13.1821 62.4979 77.0508 13.7759 
41.1998 80.2801 13.4315 55.5446 78.9979 13.1817 58.8144 77.0855 13.6421 
59.8078 78.2475 12.4045 61.7745 79.437 12.8236 42.9223 82.4215 13.2026 
44.8999 82.3656 13.4171 37.8221 92.326 13.5352 62.3503 91.2791 13.4096 
60.9024 92.5507 13.2159 40.5239 94.4032 13.6476 45.2728 95.3162 13.1982 
48.2316 95.5476 13.211 23.0556 7.78214 15.1094 20.2196 8.67302 14.4418 
2.52717 23.8284 14.182 1.38095 29.3268 14.6523 53.0936 29.4164 14.4815 
55.8867 32.0457 14.2983 56.693 32.9843 14.5241 57.7677 34.7011 14.4893 
63.1149 62.1944 14.707 45.4559 70.8983 14.4706 48.0367 70.506 14.4301 
53.0937 71.1217 14.2007 9.07555 71.3704 14.3218 43.094 71.9809 14.2209 
9.84548 74.1077 14.2769 42.156 73.3808 14.9643 40.9442 74.4644 13.8488 
57.1803 75.0021 14.2837 11.1383 75.8182 13.8338 12.4252 76.8431 13.8431 
57.5715 76.932 14.533 56.6084 77.8967 15.033 42.6286 80.8439 15.4555 
55.0843 79.3243 14.6425 42.0359 81.2625 13.9339 63.7031 86.0329 14.1344 
63.7522 89.614 14.3554 63.0189 91.2416 14.4768 40.287 95.0004 14.515 
42.6825 95.4234 14.6607 28.156 7.66284 14.9183 25.4531 7.50292 15.3688 
1.82987 25.7015 14.5216 2.23431 26.1762 15.9638 59.4563 36.3511 15.5551 
60.746 38.0603 15.9181 45.4527 71.7379 16.1281 55.9657 74.3668 14.9376 
56.3919 77.4838 16.3261 9.97553 77.6636 16.0017 41.1762 76.8102 14.68 
63.68 77.1662 14.6882 64.0808 77.0514 15.0904 65.3103 77.1339 16.356 
54.906 79.4487 16.0026 43.8127 82.0481 15.0028 43.7842 81.77 15.8943 
64.869 86.122 15.3853 30.4046 88.839 15.0805 32.7012 92.917 15.9134 
50.6631 95.441 14.598 27.7286 8.58799 16.2992 30.5702 10.9634 16.4527 
33.3971 13.813 16.3799 36.1483 16.5007 16.4275 7.67234 19.8441 16.1089 
5.04237 23.2053 16.0309 1.41397 29.799 16.4625 62.1739 40.9919 16.1905 
48.2667 71.1547 16.0224 41.9347 73.4796 14.8801 55.3644 75.1389 16.446 
12.2784 79.9706 15.7775 43.4845 80.8333 16.9634 53.1344 80.2466 15.9794 
14.8459 80.5017 15.3833 65.6524 86.5993 16.2616 65.2074 89.3483 15.9878 
63.2465 91.5555 15.7777 33.1124 93.6145 16.235 20.1361 11.5304 17.2384 
15.1391 14.6481 17.125 2.67221 26.7392 17.0796 1.53533 29.7344 17.1476 
1.47612 32.0237 17.6904 1.35349 34.8896 17.4739 61.0929 38.1478 16.936 
62.9394 41.1411 17.1256 3.62416 47.5252 17.0567 45.7768 72.0953 16.7885 
50.1774 71.902 16.8036 53.1275 74.0465 17.3858 43.8119 74.976 17.467 
45.2571 73.5652 17.7497 54.7663 75.166 17.109 9.62835 77.3388 16.9869 
43.1682 76.9611 17.3261 55.607 77.4082 17.8925 43.6459 80.2315 17.4349 
55.053 79.0489 17.3985 11.7005 80.5308 16.6208 12.4369 82.0318 17.4504 
44.8569 81.8906 17.0384 25.3114 89.1726 17.5206 65.829 89.4657 16.9626 
27.8853 92.7313 17.7837 60.9244 92.8038 17.3132 30.5777 93.8781 17.4587 
32.8337 94.4953 17.3079 35.2159 95.1759 17.1414 55.4349 94.4962 17.3375 
40.8533 96.1354 17.0895 12.9419 17.6634 18.5504 50.6597 29.1606 18.7408 
1.16221 34.9623 18.5487 63.316 41.0575 18.4706 64.5918 42.767 18.6171 
65.4438 44.2176 18.6282 65.4055 47.0151 17.8764 6.8435 65.271 18.5824 
47.6941 72.5788 17.8132 50.2879 74.0766 18.8243 45.8749 74.6608 18.6198 
47.9803 74.0846 19.0073 52.523 75.4916 18.9966 10.4653 80.6352 18.6117 
44.1193 79.3909 18.0622 45.8919 80.5876 19.1592 53.3485 79.7534 18.7089 
44.477 81.4678 17.6802 50.5885 80.6434 19.2024 47.9615 80.9738 19.123 
11.8809 83.3512 18.6197 65.0808 90.7332 18.591 28.0966 93.8313 18.8069 
30.2597 94.4087 18.4883 43.0339 96.2853 18.5674 30.1933 13.8905 20.3604 
32.3349 14.9475 19.694 17.5758 17.97 20.251 2.54878 29.5821 18.7909 
1.92065 32.2716 19.8624 1.02477 34.0721 19.7635 1.4125 38.1568 20.4009 
61.9477 39.3682 18.5377 66.4577 44.9424 20.1045 66.0564 53.193 18.2734 
44.9843 77.0775 18.8111 53.5758 76.7401 19.2079 68.3656 77.1015 20.0007 
54.6698 78.05 18.8568 50.5438 80.0766 20.638 13.1364 85.3927 19.2942 
20.2216 88.7987 19.102 67.4716 88.7158 19.1883 57.7512 93.8227 19.9401 
53.0419 95.0439 20.0149 25.3766 11.9288 19.8634 64.5414 42.4164 19.7214 
67.7862 47.613 20.1425 68.3459 50.0552 20.3122 47.7656 74.6128 19.2572 
47.9882 77.3461 20.3752 50.641 76.9692 20.4683 52.4944 77.8907 20.1997 
47.7487 80.1591 20.1692 52.2562 79.4926 19.9424 68.2738 80.0978 19.9891 
68.4082 83.069 19.8654 11.2554 84.086 19.7648 17.5606 89.0881 20.2334 
19.7032 89.9557 20.0666 22.7777 91.6882 20.0527 22.509 14.6611 21.152 
25.2146 14.1303 21.6886 27.8448 13.9753 21.5203 29.9732 14.4922 21.2388 
19.2586 18.0692 21.3266 32.9692 16.7816 21.8831 18.3351 18.4772 21.0491 
34.9649 17.8547 21.1267 17.1527 19.6521 21.8395 1.35006 34.3988 20.8028 
63.2634 41.2764 21.2226 66.7641 45.3594 20.4377 68.5829 47.3809 21.4895 
69.0702 49.3292 21.1086 4.83004 56.2321 21.3494 10.4283 83.2208 21.1137 
70.7515 83.5523 22.1434 69.0525 83.0184 20.5551 11.1893 84.7195 20.4824 
11.7592 86.9756 21.2032 12.4779 87.6654 21.1859 69.0136 88.7708 21.8007 
15.0283 89.0172 21.3911 19.3776 90.6864 21.1022 22.4852 92.3537 21.3171 
24.6199 93.1783 20.8678 58.5646 93.4283 21.5085 37.6488 96.2678 21.3495 
25.4527 15.256 22.789 60.1861 38.8022 22.5121 1.56662 37.7664 22.3318 
1.65884 41.1918 22.8967 65.6154 44.3256 22.9571 69.4813 48.9357 22.7299 
70.2031 50.1741 22.7196 71.0443 52.5904 22.6315 10.5467 86.5636 22.9463 
71.378 86.2068 23.0881 11.265 87.3493 22.2415 69.8283 88.0401 22.6322 
12.0967 88.5888 22.9976 68.7178 89.1164 22.644 20.195 91.6144 22.4191 
30.2407 94.9187 22.7029 45.5537 95.9711 22.7823 40.6799 96.4692 22.7525 
45.1587 26.751 23.9085 10.9086 87.6617 23.9582 14.7566 89.8262 24.0762 
66.1112 90.0555 24.1851 27.8285 16.4644 24.7396 17.7462 20.785 23.7627 
2.68523 35.6777 23.6007 2.04847 38.3096 24.0685 70.6928 50.8712 23.8887 
5.77395 62.4877 23.7527 73.5417 68.1696 23.7952 73.2882 83.9999 24.2048 
10.2857 86.3021 23.653 72.8672 85.5956 24.2893 70.1734 87.9891 23.9204 
12.0994 88.8824 24.0839 68.6129 89.061 23.898 20.1976 91.7362 24.0287 
27.3177 94.201 24.4946 30.3319 17.495 25.3413 37.2076 21.3575 24.8763 
1.84216 47.0255 25.6768 3.61282 55.9206 25.7025 75.1824 62.2545 25.3388 
75.5262 68.133 25.7074 74.2382 68.2194 24.438 74.0781 80.2064 25.1762 
74.1046 83.6005 25.2907 73.1609 85.8893 25.456 10.9808 87.8883 25.3457 
70.0692 88.0402 25.273 71.4038 87.1824 25.6066 12.1806 88.915 24.6965 
14.7753 89.8066 25.2611 17.9465 90.8852 25.3026 22.4369 92.4938 25.4176 
41.1126 25.2995 27.2615 2.13637 41.3414 26.6837 1.62441 44.3078 26.6937 
1.70303 47.193 26.8958 2.11002 50.2254 26.7423 71.5769 52.5299 25.7159 
72.4657 54.1852 26.432 74.4323 58.05 26.559 76.2391 62.118 26.7567 
8.06396 76.9324 26.8459 74.9219 80.0824 26.1571 73.4649 85.5693 26.4106 
10.0022 86.4104 27.1036 22.5269 92.2813 26.7893 32.6973 95.0949 26.7912 
19.7096 22.7354 27.3605 4.24944 38.5882 27.5375 76.7832 62.0262 27.9155 
75.7039 80.5397 27.1489 75.2805 82.8699 27.049 11.7801 88.3823 26.3451 
24.7848 93.0771 26.9773 12.4011 29.2817 28.174 45.718 28.9334 28.2886 
9.77451 32.2066 28.2557 2.67876 41.4768 27.8438 1.91538 44.2358 28.1717 
73.454 56.1999 28.0177 75.5242 59.7806 28.2033 77.47 64.8498 27.8995 
76.23 77.1202 27.7904 76.3822 80.815 27.9823 9.00215 80.7254 28.0293 
75.4246 83.3465 27.8452 12.0613 88.1546 27.6443 22.5452 23.2789 29.5447 
43.5577 28.365 29.9615 45.448 29.3363 29.4426 53.1806 35.1678 29.5092 
1.70377 50.1924 29.5102 77.4526 62.9965 29.4641 78.7017 67.8453 29.4254 
76.884 77.1204 28.612 77.8901 77.1159 29.8385 77.8666 80.1713 29.9172 
76.9024 80.1467 28.6275 77.0696 82.4166 30.1206 9.69987 86.1149 30.1011 
17.4789 90.0537 29.4855 37.7957 95.4026 29.486 22.9095 23.8396 30.3157 
43.2705 28.7906 31.086 45.1719 29.7523 30.5684 55.6398 38.246 30.8114 
2.17179 47.3286 30.6788 75.3004 59.7082 30.4757 78.7192 65.357 30.7403 
79.4482 67.7329 30.5324 78.7458 77.4103 30.9154 77.5814 81.2747 29.8327 
77.071 82.0512 29.6704 76.7619 82.8361 30.8444 9.72244 86.0992 30.1277 
73.1349 85.3254 30.3417 17.7836 89.8718 30.6709 58.0972 92.4024 30.743 
52.8176 94.0094 30.5996 29.8901 21.1757 30.3091 28.0739 22.2189 31.5777 
22.1231 25.6189 31.5521 80.5402 68.8716 32.4955 78.903 71.2361 30.2974 
80.2434 70.7687 31.6811 77.673 81.8933 32.0621 11.7742 87.0446 31.1616 
32.4265 23.2789 32.3653 1.97995 50.1968 32.2054 77.5343 63.2939 31.8337 
79.8098 67.3239 32.3037 80.4556 70.2374 31.8709 79.4964 77.8181 32.1239 
8.25735 79.7935 32.266 78.6583 80.1707 32.0628 9.05845 83.6775 31.788 
10.1658 85.8248 32.0284 17.4529 89.2624 32.1874 25.242 91.8006 32.0582 
50.3608 94.1799 31.9499 42.8995 95.0883 32.133 27.8668 23.7096 33.1646 
19.9559 29.1692 33.6572 17.0307 31.7313 34.1199 45.7912 31.7884 33.7485 
12.5653 35.4061 33.3689 3.27603 47.8055 32.6707 1.91647 53.2763 33.4383 
76.1116 62.0985 33.3633 80.6568 68.7858 33.4471 81.1973 70.4401 33.2069 
78.6704 80.4248 33.5897 8.00276 79.9596 33.587 77.3736 81.9413 33.1436 
29.7751 93.0708 33.773 29.8965 24.1864 34.364 20.323 29.7183 34.452 
45.5251 32.2004 34.8867 9.83824 41.2249 34.9147 2.39647 53.0096 35.0781 
70.5732 56.3984 34.7005 80.598 68.8469 34.5145 81.8646 71.4367 34.8578 
81.403 74.0865 33.7199 7.76559 80.4994 35.1957 70.5773 85.6973 34.6856 
19.5017 31.5105 35.6705 43.5887 31.2446 35.3884 2.8459 53.3171 35.9576 
82.2383 74.2286 36.5846 9.60684 83.8604 36.0094 30.0809 25.1581 35.6995 
30.356 25.7344 36.5435 32.9891 25.8921 36.4474 49.9971 35.9291 35.7907 
2.30395 58.3783 35.9225 80.3111 68.8516 35.5613 81.7826 71.3373 36.419 
81.1945 76.7037 36.5215 78.4445 80.0934 36.1348 8.37188 82.3155 36.0427 
20.1447 89.0931 36.1312 22.5705 89.9886 36.0854 32.5692 93.034 36.4124 
30.1225 26.4361 37.4809 47.9655 35.3312 37.5005 49.6776 36.3306 36.8841 
2.68558 56.1188 37.2584 3.33406 64.7887 37.9214 75.9896 65.0623 37.5786 
81.6435 71.3735 36.9156 82.1299 74.381 38.2493 80.9737 76.6928 37.4378 
7.1679 80.3948 38.0821 9.78067 83.3871 37.6504 68.1509 85.8724 37.4226 
24.685 90.5126 36.5627 24.7709 90.184 37.8309 55.4148 91.5997 37.3689 
40.3982 93.9721 37.2439 63.0575 50.3617 38.7783 2.79041 62.1008 38.869 
4.08268 68.0248 39.4408 7.09945 80.3331 38.9961 73.1576 82.779 38.7309 
15.2028 85.6708 38.6612 65.8522 86.3462 38.9709 24.8919 89.7826 39.1077 
79.459 70.2439 39.4434 81.6569 74.0135 39.3947 80.6943 76.5107 38.3807 
7.32441 80.6767 39.943 8.44329 81.9897 38.6251 67.955 85.4836 38.5875 
6.24619 77.5444 40.335 75.7683 80.4387 40.326 9.48569 82.3962 39.3969 
52.8911 91.5477 40.0129 45.5289 92.8744 40.4387 40.3041 93.1329 40.4926 
32.3293 29.0544 41.1859 34.9158 29.7282 41.3587 25.4077 32.6936 41.1861 
42.2195 33.4383 40.9234 4.28034 59.502 41.4062 72.4275 62.9172 40.9965 
3.2355 63.9224 41.365 3.39887 64.155 41.6984 78.9357 71.2703 41.938 
79.9637 72.3443 41.1865 80.7325 74.0128 40.7004 78.3722 76.4354 42.0927 
68.5379 83.6589 41.8334 22.9707 88.2597 41.1315 52.807 91.1153 41.2323 
50.4171 91.6929 41.4029 25.79 33.226 41.9823 3.81158 62.5265 42.0879 
4.22234 62.3774 42.5614 70.7173 62.2449 42.8422 75.7649 68.2421 42.8332 
5.26006 74.0522 43.1007 79.2995 75.0892 42.0812 29.9233 89.8815 43.2615 
32.7416 91.0536 42.762 40.5154 92.2311 43.0636 24.9497 35.0607 43.1616 
4.16614 65.3264 42.9958 4.43855 68.9065 43.2835 78.9637 74.0031 43.1606 
68.2943 83.1722 42.9351 66.2016 84.0248 43.3968 57.8807 88.5344 42.6173 
30.6949 32.0945 44.2435 35.1335 31.921 44.5485 28.1908 33.0463 43.5113 
27.3583 34.8794 44.6934 25.3519 35.5911 43.9516 10.1812 53.3752 43.9883 
4.7627 71.0918 44.1799 77.7508 71.4355 44.336 78.0171 73.9596 44.1347 
73.1122 79.6218 43.8725 9.46173 79.7608 44.1877 14.9232 82.716 44.4237 
27.751 35.4157 45.4831 42.4943 36.0512 45.2005 24.5046 37.4829 45.1098 
24.908 38.0063 45.9014 17.7138 44.4128 45.4059 5.6456 74.3634 45.8896 
76.6735 73.9197 45.9526 6.05973 75.7213 45.8796 6.91532 77.2309 45.2444 
68.6478 80.7036 46.0544 35.5636 90.7863 44.8918 37.9385 90.9125 45.3935 
45.3113 91.068 45.0198 40.3934 91.2635 45.1306 37.7067 34.7715 47.4116 
5.78284 71.6556 46.7796 76.2163 71.0095 47.0502 7.07135 76.2903 46.9765 
55.8267 86.7403 47.3301 37.6621 90.2674 46.3473 33.1119 34.2677 47.6793 
34.8988 33.178 46.4046 35.5418 34.277 47.703 76.3378 73.4866 46.7312 
6.07765 74.2859 47.2959 37.7475 89.6169 47.3138 35.4098 34.8936 48.5634 
43.1051 37.9576 48.445 47.9744 41.2894 48.2686 52.3126 45.0221 47.8052 
9.75857 62.1151 48.4192 6.8745 71.3657 48.3735 75.5056 71.4255 48.1182 
6.92138 74.3876 48.4864 75.1527 73.2942 48.1104 7.82917 76.0076 48.1092 
63.0107 82.7904 48.0338 30.0419 86.5822 48.6401 32.9848 88.2878 47.6732 
33.009 35.7342 49.1869 35.101 35.5713 49.5241 37.5499 35.8877 49.3416 
30.1184 38.171 49.7632 59.9539 53.8581 49.1847 12.3991 59.1608 49.686 
73.1597 73.7446 49.727 9.974 76.2269 49.5227 70.4626 76.7014 49.1911 
68.8746 77.9949 49.0505 65.6159 79.959 49.4843 27.9489 85.4322 49.0978 
47.7804 88.154 48.9357 30.5105 38.7096 50.5142 17.4223 53.1593 51.0772 
58.5674 52.8141 49.8938 58.1957 53.1551 51.0086 71.8642 68.9531 51.1503 
12.1286 75.9535 51.2324 56.1033 84.3127 50.5844 35.4289 37.2397 51.6813 
29.7177 40.6422 51.7025 72.9648 70.7932 51.0895 72.531 72.9426 50.7995 
17.748 79.7128 50.6311 55.8222 83.6761 51.4603 52.8659 85.5337 50.5125 
40.3928 86.6983 51.4774 42.7526 86.7913 51.4483 50.9675 46.8051 52.5904 
11.7369 67.7722 52.9911 71.1565 68.8349 52.2212 71.5419 70.9425 52.5535 
72.3493 71.4301 51.6982 12.0142 74.1467 52.7689 60.7479 80.2818 52.4739 
32.5393 83.8016 52.9592 37.9367 38.5605 53.4357 40.3907 39.1485 53.1229 
70.6308 70.8482 53.75 68.4326 73.6153 53.6885 14.7673 74.8131 54.1378 
55.3254 82.4453 52.9603 45.3311 85.3109 52.8168 40.0867 40.5041 55.5867 
22.515 50.1672 53.7712 69.0945 72.6102 53.9799 39.9802 84.0152 54.1095 
42.9135 83.7372 54.4149 37.5795 39.2261 54.3991 69.2809 68.4505 54.925 
69.7899 69.2006 54.6702 69.7325 70.1647 54.7009 68.6493 71.0484 55.4543 
50.6906 80.7677 55.7918 40.2754 41.1097 56.4734 17.47 62.1495 56.4108 
68.2811 68.401 56.0452 14.2478 71.2999 55.8121 67.798 70.5424 56.4435 
30.3121 79.8072 55.9997 37.8253 41.4676 57.5663 35.8312 41.8129 57.0835 
65.5718 65.7615 57.8388 67.0208 66.8983 56.7071 66.4888 67.973 58.1494 
66.1771 70.7651 57.6805 60.7978 74.4152 57.9844 30.4991 79.1841 56.5897 
37.7309 42.2016 58.4741 67.4308 68.8411 57.1044 30.1343 77.3936 58.0082 
38.0563 43.0611 59.6823 39.9592 42.2217 58.555 42.9368 43.7847 59.289 
40.3778 43.2369 60.2408 17.5562 68.2768 59.0503 65.6323 68.1514 59.1268 
17.6588 70.9966 58.831 64.8287 70.1594 59.0246 63.4643 70.929 59.4582 
19.8342 73.2233 58.5934 55.7698 74.6893 59.6838 40.1079 43.3516 60.4077 
37.8499 43.931 60.5899 63.5803 65.4406 60.5747 64.6185 67.5305 60.0131 
22.8571 73.43 59.5722 38.1141 44.525 61.4144 43.0099 45.0983 61.7547 
32.6384 49.8242 62.0405 29.9599 53.0255 61.9967 28.3025 53.7344 61.023 
60.8116 62.7619 62.0278 19.8191 68.2612 60.7794 20.4629 68.5199 61.3041 
62.9055 68.0454 61.5823 60.7438 70.7111 61.1547 22.5747 70.3243 61.8705 
55.6986 71.4995 62.1854 40.3439 74.979 61.3772 48.2729 49.9411 63.1869 
30.4748 53.4347 62.7998 22.0084 68.1709 62.3251 40.1632 45.1774 62.9257 
24.4802 62.1829 63.4486 60.9781 64.8988 63.5524 60.4223 67.5104 63.3262 
58.8619 68.4574 63.4341 45.0794 47.5211 63.8414 55.9974 58.5351 64.2373 
59.8828 63.238 64.4219 24.2919 65.2481 64.55 59.9777 64.8811 64.6408 
40.6331 47.4426 65.4699 57.2631 60.341 65.6788 58.7444 62.6752 65.953 
58.691 64.8926 65.7871 27.492 67.4408 65.4987 42.675 47.7286 65.9881 
56.0118 59.6241 67.7418 28.1449 62.8408 66.9369 26.0281 64.9158 65.7032 
27.5418 64.8473 66.7333 59.4465 63.8676 65.4776 26.0707 66.9192 65.2693 
40.3517 68.5371 66.2888 45.471 68.4431 66.1642 37.8816 70.4348 64.8054 
56.8234 60.372 66.9102 57.2538 62.0535 67.4193 27.8674 64.9799 66.7603 
57.3449 64.0072 66.6794 55.6767 64.8746 66.8368 30.3706 64.8927 67.6217 
43.2103 49.1225 67.7526 45.3146 49.8961 68.6336 48.9633 52.2436 68.6702 
33.4138 57.198 68.6701 52.4059 56.5328 68.593 32.5544 59.4022 69.1025 
55.514 59.6126 68.5002 30.681 62.4517 68.5092 55.7842 61.5244 68.6332 
30.7205 64.0465 68.1198 32.4954 64.7524 68.2895 34.74 64.7951 68.5987 
49.9755 53.7044 69.9173 50.9053 55.4776 70.2012 36.0243 56.0257 70.3259 
31.6525 62.913 68.9457 32.8497 62.1915 69.5043 35.1549 61.8284 70.2254 
35.0284 64.317 68.9506 42.8185 51.4198 70.6825 37.6356 53.8064 69.7965 
49.5643 53.7103 71.1505 33.5097 59.4666 69.7922 34.6537 58.8872 70.3237 
53.9216 59.4219 69.678 54.8346 60.7309 69.1498 37.6986 62.1701 70.2752 
45.4561 62.3493 70.0629 45.2169 51.3474 71.5994 38.6384 54.3097 70.8719 
37.4798 56.3327 71.5063 50.8655 57.1472 70.984 36.5426 56.7521 71.0319 
35.4185 59.333 70.7066 50.461 58.8148 70.9678 37.6348 59.4371 71.3669 
48.3273 59.1222 71.3884 35.2647 61.7086 70.2147 45.7327 52.0636 73.3255 
44.1607 52.8823 73.3332 48.0588 52.9357 73.2956 40.6545 54.6888 71.9283 
49.222 55.4109 72.5262 38.3495 57.0539 71.9265 47.953 58.7407 71.6331 
48.4662 55.6669 73.0557 45.9078 53.1614 74.5726 42.8252 56.1712 72.7127 
42.9751 55.5953 72.8755 45.9048 54.3958 74.166 47.6966 54.7538 73.8684 
47.1311 53.3922 74.441 43.5615 53.9045 73.2845 
POLYGONS 2096 6285
OFFSETS vtktypeint64
0 3 6 9 12 15 18 21 24 
27 30 33 36 39 42 45 48 51 
54 57 60 63 66 69 72 75 78 
81 84 87 90 93 96 99 102 105 
108 111 114 117 120 123 126 129 132 
135 138 141 144 147 150 153 156 159 
162 165 168 171 174 177 180 183 186 
189 192 195 198 201 204 207 210 213 
216 219 222 225 228 231 234 237 240 
243 246 249 252 255 258 261 264 267 
270 273 276 279 282 285 288 291 294 
297 300 303 306 309 312 315 318 321 
324 327 330 333 336 339 342 345 348 
351 354 357 360 363 366 369 372 375 
378 381 384 387 390 393 396 399 402 
405 408 411 414 417 420 423 426 429 
432 435 438 441 444 447 450 453 456 
459 462 465 468 471 474 477 480 483 
486 489 492 495 498 501 504 507 510 
513 516 519 522 525 528 531 534 537 
540 543 546 549 552 555 558 561 564 
567 570 573 576 579 582 585 588 591 
594 597 600 603 606 609 612 615 618 
621 624 627 630 633 636 639 642 645 
648 651 654 657 660 663 666 669 672 
675 678 681 684 687 690 693 696 699 
702 705 708 711 714 717 720 723 726 
729 732 735 738 741 744 747 750 753 
756 759 762 765 768 771 774 777 780 
783 786 789 792 795 798 801 804 807 
810 813 816 819 822 825 828 831 834 
837 840 843 846 849 852 855 858 861 
864 867 870 873 876 879 882 885 888 
891 894 897 900 903 906 909 912 915 
918 921 924 927 930 933 936 939 942 
945 948 951 954 957 960 963 966 969 
972 975 978 981 984 987 990 993 996 
999 1002 1005 1008 1011 1014 1017 1020 1023 
1026 1029 1032 1035 1038 1041 1044 1047 1050 
1053 1056 1059 1062 1065 1068 1071 1074 1077 
1080 1083 1086 1089 1092 1095 1098 1101 1104 
1107 1110 1113 1116 1119 1122 1125 1128 1131 
1134 1137 1140 1143 1146 1149 1152 1155 1158 
1161 1164 1167 1170 1173 1176 1179 1182 1185 
1188 1191 1194 1197 1200 1203 1206 1209 1212 
1215 1218 1221 1224 1227 1230 1233 1236 1239 
1242 1245 1248 1251 1254 1257 1260 1263 1266 
1269 1272 1275 1278 1281 1284 1287 1290 1293 
1296 1299 1302 1305 1308 1311 1314 1317 1320 
1323 1326 1329 1332 1335 1338 1341 1344 1347 
1350 1353 1356 1359 1362 1365 1368 1371 1374 
1377 1380 1383 1386 1389 1392 1395 1398 1401 
1404 1407 1410 1413 1416 1419 1422 1425 1428 
1431 1434 1437 1440 1443 1446 1449 1452 1455 
1458 1461 1464 1467 1470 1473 1476 1479 1482 
1485 1488 1491 1494 1497 1500 1503 1506 1509 
1512 1515 1518 1521 1524 1527 1530 1533 1536 
1539 1542 1545 1548 1551 1554 1557 1560 1563 
1566 1569 1572 1575 1578 1581 1584 1587 1590 
1593 1596 1599 1602 1605 1608 1611 1614 1617 
1620 1623 1626 1629 1632 1635 1638 1641 1644 
1647 1650 1653 1656 1659 1662 1665 1668 1671 
1674 1677 1680 1683 1686 1689 1692 1695 1698 
1701 1704 1707 1710 1713 1716 1719 1722 1725 
1728 1731 1734 1737 1740 1743 1746 1749 1752 
1755 1758 1761 1764 1767 1770 1773 1776 1779 
1782 1785 1788 1791 1794 1797 1800 1803 1806 
1809 1812 1815 1818 1821 1824 1827 1830 1833 
1836 1839 1842 1845 1848 1851 1854 1857 1860 
1863 1866 1869 1872 1875 1878 1881 1884 1887 
1890 1893 1896 1899 1902 1905 1908 1911 1914 
1917 1920 1923 1926 1929 1932 1935 1938 1941 
1944 1947 1950 1953 1956 1959 1962 1965 1968 
1971 1974 1977 1980 1983 1986 1989 1992 1995 
1998 2001 2004 2007 2010 2013 2016 2019 2022 
2025 2028 2031 2034 2037 2040 2043 2046 2049 
2052 2055 2058 2061 2064 2067 2070 2073 2076 
2079 2082 2085 2088 2091 2094 2097 2100 2103 
2106 2109 2112 2115 2118 2121 2124 2127 2130 
2133 2136 2139 2142 2145 2148 2151 2154 2157 
2160 2163 2166 2169 2172 2175 2178 2181 2184 
2187 2190 2193 2196 2199 2202 2205 2208 2211 
2214 2217 2220 2223 2226 2229 2232 2235 2238 
2241 2244 2247 2250 2253 2256 2259 2262 2265 
2268 2271 2274 2277 2280 2283 2286 2289 2292 
2295 2298 2301 2304 2307 2310 2313 2316 2319 
2322 2325 2328 2331 2334 2337 2340 2343 2346 
2349 2352 2355 2358 2361 2364 2367 2370 2373 
2376 2379 2382 2385 2388 2391 2394 2397 2400 
2403 2406 2409 2412 2415 2418 2421 2424 2427 
2430 2433 2436 2439 2442 2445 2448 2451 2454 
2457 2460 2463 2466 2469 2472 2475 2478 2481 
2484 2487 2490 2493 2496 2499 2502 2505 2508 
2511 2514 2517 2520 2523 2526 2529 2532 2535 
2538 2541 2544 2547 2550 2553 2556 2559 2562 
2565 2568 2571 2574 2577 2580 2583 2586 2589 
2592 2595 2598 2601 2604 2607 2610 2613 2616 
2619 2622 2625 2628 2631 2634 2637 2640 2643 
2646 2649 2652 2655 2658 2661 2664 2667 2670 
2673 2676 2679 2682 2685 2688 2691 2694 2697 
2700 2703 2706 2709 2712 2715 2718 2721 2724 
2727 2730 2733 2736 2739 2742 2745 2748 2751 
2754 2757 2760 2763 2766 2769 2772 2775 2778 
2781 2784 2787 2790 2793 2796 2799 2802 2805 
2808 2811 2814 2817 2820 2823 2826 2829 2832 
2835 2838 2841 2844 2847 2850 2853 2856 2859 
2862 2865 2868 2871 2874 2877 2880 2883 2886 
2889 2892 2895 2898 2901 2904 2907 2910 2913 
2916 2919 2922 2925 2928 2931 2934 2937 2940 
2943 2946 2949 2952 2955 2958 2961 2964 2967 
2970 2973 2976 2979 2982 2985 2988 2991 2994 
2997 3000 3003 3006 3009 3012 3015 3018 3021 
3024 3027 3030 3033 3036 3039 3042 3045 3048 
3051 3054 3057 3060 3063 3066 3069 3072 3075 
3078 3081 3084 3087 3090 3093 3096 3099 3102 
3105 3108 3111 3114 3117 3120 3123 3126 3129 
3132 3135 3138 3141 3144 3147 3150 3153 3156 
3159 3162 3165 3168 3171 3174 3177 3180 3183 
3186 3189 3192 3195 3198 3201 3204 3207 3210 
3213 3216 3219 3222 3225 3228 3231 3234 3237 
3240 3243 3246 3249 3252 3255 3258 3261 3264 
3267 3270 3273 3276 3279 3282 3285 3288 3291 
3294 3297 3300 3303 3306 3309 3312 3315 3318 
3321 3324 3327 3330 3333 3336 3339 3342 3345 
3348 3351 3354 3357 3360 3363 3366 3369 3372 
3375 3378 3381 3384 3387 3390 3393 3396 3399 
3402 3405 3408 3411 3414 3417 3420 3423 3426 
3429 3432 3435 3438 3441 3444 3447 3450 3453 
3456 3459 3462 3465 3468 3471 3474 3477 3480 
3483 3486 3489 3492 3495 3498 3501 3504 3507 
3510 3513 3516 3519 3522 3525 3528 3531 3534 
3537 3540 3543 3546 3549 3552 3555 3558 3561 
3564 3567 3570 3573 3576 3579 3582 3585 3588 
3591 3594 3597 3600 3603 3606 3609 3612 3615 
3618 3621 3624 3627 3630 3633 3636 3639 3642 
3645 3648 3651 3654 3657 3660 3663 3666 3669 
3672 3675 3678 3681 3684 3687 3690 3693 3696 
3699 3702 3705 3708 3711 3714 3717 3720 3723 
3726 3729 3732 3735 3738 3741 3744 3747 3750 
3753 3756 3759 3762 3765 3768 3771 3774 3777 
3780 3783 3786 3789 3792 3795 3798 3801 3804 
3807 3810 3813 3816 3819 3822 3825 3828 3831 
3834 3837 3840 3843 3846 3849 3852 3855 3858 
3861 3864 3867 3870 3873 3876 3879 3882 3885 
3888 3891 3894 3897 3900 3903 3906 3909 3912 
3915 3918 3921 3924 3927 3930 3933 3936 3939 
3942 3945 3948 3951 3954 3957 3960 3963 3966 
3969 3972 3975 3978 3981 3984 3987 3990 3993 
3996 3999 4002 4005 4008 4011 4014 4017 4020 
4023 4026 4029 4032 4035 4038 4041 4044 4047 
4050 4053 4056 4059 4062 4065 4068 4071 4074 
4077 4080 4083 4086 4089 4092 4095 4098 4101 
4104 4107 4110 4113 4116 4119 4122 4125 4128 
4131 4134 4137 4140 4143 4146 4149 4152 4155 
4158 4161 4164 4167 4170 4173 4176 4179 4182 
4185 4188 4191 4194 4197 4200 4203 4206 4209 
4212 4215 4218 4221 4224 4227 4230 4233 4236 
4239 4242 4245 4248 4251 4254 4257 4260 4263 
4266 4269 4272 4275 4278 4281 4284 4287 4290 
4293 4296 4299 4302 4305 4308 4311 4314 4317 
4320 4323 4326 4329 4332 4335 4338 4341 4344 
4347 4350 4353 4356 4359 4362 4365 4368 4371 
4374 4377 4380 4383 4386 4389 4392 4395 4398 
4401 4404 4407 4410 4413 4416 4419 4422 4425 
4428 4431 4434 4437 4440 4443 4446 4449 4452 
4455 4458 4461 4464 4467 4470 4473 4476 4479 
4482 4485 4488 4491 4494 4497 4500 4503 4506 
4509 4512 4515 4518 4521 4524 4527 4530 4533 
4536 4539 4542 4545 4548 4551 4554 4557 4560 
4563 4566 4569 4572 4575 4578 4581 4584 4587 
4590 4593 4596 4599 4602 4605 4608 4611 4614 
4617 4620 4623 4626 4629 4632 4635 4638 4641 
4644 4647 4650 4653 4656 4659 4662 4665 4668 
4671 4674 4677 4680 4683 4686 4689 4692 4695 
4698 4701 4704 4707 4710 4713 4716 4719 4722 
4725 4728 4731 4734 4737 4740 4743 4746 4749 
4752 4755 4758 4761 4764 4767 4770 4773 4776 
4779 4782 4785 4788 4791 4794 4797 4800 4803 
4806 4809 4812 4815 4818 4821 4824 4827 4830 
4833 4836 4839 4842 4845 4848 4851 4854 4857 
4860 4863 4866 4869 4872 4875 4878 4881 4884 
4887 4890 4893 4896 4899 4902 4905 4908 4911 
4914 4917 4920 4923 4926 4929 4932 4935 4938 
4941 4944 4947 4950 4953 4956 4959 4962 4965 
4968 4971 4974 4977 4980 4983 4986 4989 4992 
4995 4998 5001 5004 5007 5010 5013 5016 5019 
5022 5025 5028 5031 5034 5037 5040 5043 5046 
5049 5052 5055 5058 5061 5064 5067 5070 5073 
5076 5079 5082 5085 5088 5091 5094 5097 5100 
5103 5106 5109 5112 5115 5118 5121 5124 5127 
5130 5133 5136 5139 5142 5145 5148 5151 5154 
5157 5160 5163 5166 5169 5172 5175 5178 5181 
5184 5187 5190 5193 5196 5199 5202 5205 5208 
5211 5214 5217 5220 5223 5226 5229 5232 5235 
5238 5241 5244 5247 5250 5253 5256 5259 5262 
5265 5268 5271 5274 5277 5280 5283 5286 5289 
5292 5295 5298 5301 5304 5307 5310 5313 5316 
5319 5322 5325 5328 5331 5334 5337 5340 5343 
5346 5349 5352 5355 5358 5361 5364 5367 5370 
5373 5376 5379 5382 5385 5388 5391 5394 5397 
5400 5403 5406 5409 5412 5415 5418 5421 5424 
5427 5430 5433 5436 5439 5442 5445 5448 5451 
5454 5457 5460 5463 5466 5469 5472 5475 5478 
5481 5484 5487 5490 5493 5496 5499 5502 5505 
5508 5511 5514 5517 5520 5523 5526 5529 5532 
5535 5538 5541 5544 5547 5550 5553 5556 5559 
5562 5565 5568 5571 5574 5577 5580 5583 5586 
5589 5592 5595 5598 5601 5604 5607 5610 5613 
5616 5619 5622 5625 5628 5631 5634 5637 5640 
5643 5646 5649 5652 5655 5658 5661 5664 5667 
5670 5673 5676 5679 5682 5685 5688 5691 5694 
5697 5700 5703 5706 5709 5712 5715 5718 5721 
5724 5727 5730 5733 5736 5739 5742 5745 5748 
5751 5754 5757 5760 5763 5766 5769 5772 5775 
5778 5781 5784 5787 5790 5793 5796 5799 5802 
5805 5808 5811 5814 5817 5820 5823 5826 5829 
5832 5835 5838 5841 5844 5847 5850 5853 5856 
5859 5862 5865 5868 5871 5874 5877 5880 5883 
5886 5889 5892 5895 5898 5901 5904 5907 5910 
5913 5916 5919 5922 5925 5928 5931 5934 5937 
5940 5943 5946 5949 5952 5955 5958 5961 5964 
5967 5970 5973 5976 5979 5982 5985 5988 5991 
5994 5997 6000 6003 6006 6009 6012 6015 6018 
6021 6024 6027 6030 6033 6036 6039 6042 6045 
6048 6051 6054 6057 6060 6063 6066 6069 6072 
6075 6078 6081 6084 6087 6090 6093 6096 6099 
6102 6105 6108 6111 6114 6117 6120 6123 6126 
6129 6132 6135 6138 6141 6144 6147 6150 6153 
6156 6159 6162 6165 6168 6171 6174 6177 6180 
6183 6186 6189 6192 6195 6198 6201 6204 6207 
6210 6213 6216 6219 6222 6225 6228 6231 6234 
6237 6240 6243 6246 6249 6252 6255 6258 6261 
6264 6267 6270 6273 6276 6279 6282 6285 
CONNECTIVITY vtktypeint64
2 0 1 25 3 1 2 1 3 
5 3 25 5 4 3 6 4 5 
7 6 5 12 11 10 12 25 0 
13 12 14 14 12 0 0 25 1 
14 0 2 4 2 3 15 4 16 
25 26 5 16 4 17 17 4 6 
17 15 16 26 18 5 7 5 18 
6 7 17 7 27 17 19 182 20 
19 20 18 7 18 20 8 7 20 
27 7 8 9 27 8 20 182 9 
8 20 9 37 24 21 22 21 24 
23 22 38 38 22 24 24 39 10 
10 38 24 11 38 10 10 39 12 
13 11 12 12 39 25 182 18 26 
18 182 19 9 182 28 28 29 9 
31 28 30 29 28 31 30 32 31 
32 40 31 41 40 32 34 33 23 
23 33 35 56 37 35 23 35 36 
21 35 37 36 35 21 22 36 21 
23 36 22 24 37 39 39 61 25 
25 61 64 175 14 2 2 4 98 
98 4 15 17 27 15 28 182 30 
29 31 40 32 30 42 41 32 42 
44 42 43 41 42 45 45 42 44 
45 47 48 51 50 52 53 51 52 
52 54 33 53 52 33 55 53 33 
55 33 34 23 55 34 35 33 56 
37 92 39 39 57 58 60 58 59 
61 58 60 61 60 59 39 58 61 
63 61 59 175 13 14 61 63 64 
104 106 25 26 25 106 40 213 29 
213 40 41 67 42 182 42 67 43 
65 45 46 41 45 65 46 66 65 
45 66 46 43 67 69 69 67 68 
70 43 69 44 43 71 71 43 69 
45 44 48 48 44 71 66 45 48 
74 72 73 77 75 76 79 76 75 
77 76 49 78 49 50 49 76 79 
49 79 50 80 50 51 80 78 50 
53 80 51 50 79 52 52 79 81 
82 80 53 122 83 54 81 122 54 
52 81 54 85 56 124 54 124 56 
84 53 55 33 54 56 171 55 23 
55 171 87 90 91 88 90 92 91 
88 91 92 38 171 23 56 88 92 
37 56 92 94 57 93 92 57 39 
94 93 58 58 93 95 57 94 58 
95 96 58 209 11 13 62 59 58 
62 58 96 62 63 59 96 97 63 
96 63 62 175 2 98 64 63 97 
133 64 97 27 98 15 99 64 100 
64 99 25 25 99 104 101 99 100 
102 101 100 103 102 100 99 101 102 
104 99 102 106 104 105 136 106 105 
9 393 27 29 213 9 26 106 182 
42 30 182 107 182 110 67 182 68 
182 107 68 71 69 109 71 109 48 
108 66 48 68 111 69 111 68 112 
68 107 112 112 107 110 110 113 114 
112 110 114 115 73 72 115 72 116 
116 72 117 116 118 73 116 73 115 
74 117 72 148 117 74 119 74 73 
75 120 79 77 49 78 120 122 79 
79 122 81 80 82 123 162 83 122 
54 83 124 82 53 84 126 125 86 
85 86 56 86 125 56 125 127 129 
129 127 90 88 125 129 56 125 88 
129 90 88 130 90 89 130 89 131 
130 92 90 130 131 93 92 130 93 
57 92 93 132 38 209 38 11 209 
209 13 175 176 175 98 100 64 133 
98 27 393 102 103 134 102 135 104 
104 135 105 137 136 135 105 135 136 
106 136 177 182 106 181 41 65 213 
65 66 138 138 66 108 69 111 109 
142 114 113 141 143 113 143 142 113 
144 117 218 145 118 146 146 118 147 
118 116 147 148 218 117 149 145 146 
145 73 118 145 149 150 118 145 151 
73 118 151 73 151 119 119 148 74 
119 152 148 151 153 119 152 119 154 
154 119 153 154 153 156 156 155 154 
158 155 156 158 156 157 75 121 120 
121 75 159 159 75 77 77 160 159 
121 161 120 160 77 78 120 161 122 
198 78 80 198 160 78 162 122 161 
198 80 123 162 163 83 83 163 124 
84 123 82 200 123 165 165 123 84 
124 163 85 163 164 86 85 163 86 
164 166 126 164 126 86 84 55 165 
87 165 55 87 167 165 126 127 125 
128 127 126 172 168 167 90 169 89 
90 127 128 90 128 169 169 128 170 
87 171 167 171 172 167 173 206 171 
131 89 169 173 171 132 171 38 132 
93 131 174 93 174 95 100 133 103 
133 134 103 135 102 134 329 393 9 
178 177 137 136 137 177 177 179 106 
106 179 181 182 181 250 213 138 139 
65 138 213 139 183 213 138 108 140 
138 140 139 111 215 109 140 108 48 
139 184 185 183 139 185 112 215 111 
112 186 215 114 186 112 113 110 187 
187 110 262 113 187 141 114 142 186 
186 142 188 141 187 143 142 143 188 
188 143 190 190 143 189 117 144 116 
145 149 151 152 154 192 155 192 154 
227 193 153 153 194 156 153 193 194 
192 155 158 156 194 157 157 194 193 
195 121 159 159 160 195 196 121 195 
121 197 161 196 197 121 161 197 199 
162 161 199 162 199 201 200 198 123 
201 163 162 163 201 202 163 202 203 
164 163 203 165 233 200 165 168 233 
164 203 166 126 166 235 203 235 166 
165 167 168 126 235 128 204 169 170 
204 170 128 172 171 206 204 205 169 
206 173 132 208 206 132 131 207 174 
208 132 209 174 210 95 95 210 96 
211 97 96 212 175 176 135 134 248 
135 248 137 306 329 9 213 306 9 
177 178 179 178 180 179 249 179 180 
249 181 179 250 181 249 183 214 213 
139 140 184 109 215 284 48 109 368 
109 284 368 368 140 48 214 183 185 
143 187 189 187 262 189 218 217 144 
190 189 220 189 219 220 147 422 146 
147 116 422 149 191 221 146 191 149 
151 149 221 222 223 220 220 223 221 
221 223 151 151 223 153 153 224 227 
192 158 225 226 288 192 225 226 192 
193 227 228 158 157 225 229 228 227 
157 193 228 196 195 197 197 195 230 
197 231 199 230 231 197 232 201 199 
234 233 168 168 172 299 300 172 206 
237 205 204 169 205 131 131 205 207 
237 207 205 206 208 238 238 208 240 
240 208 209 209 241 240 241 209 242 
242 209 175 241 242 175 244 241 175 
210 243 96 246 245 175 246 175 212 
176 247 212 326 176 98 305 134 133 
180 178 248 251 213 252 253 213 214 
254 252 213 253 254 213 214 254 253 
182 250 313 313 110 182 140 368 255 
140 255 184 185 184 256 253 214 185 
260 215 186 216 259 257 259 216 261 
313 262 110 218 264 217 217 264 263 
262 313 265 265 406 266 265 266 262 
189 262 219 262 266 219 315 190 267 
218 148 268 220 267 190 191 269 221 
422 191 146 220 269 267 221 269 220 
220 219 222 383 268 148 152 383 148 
222 153 223 288 383 152 192 288 152 
153 291 224 226 225 270 270 225 271 
272 273 224 227 224 229 229 224 273 
229 273 272 228 229 274 274 157 228 
160 198 275 198 276 275 199 231 232 
232 298 201 201 298 202 168 299 234 
128 236 204 235 236 128 237 204 236 
300 206 238 237 239 207 239 301 207 
207 301 174 174 301 210 301 243 210 
244 245 277 244 175 245 278 277 245 
246 278 245 243 432 96 211 96 432 
246 212 247 212 247 279 211 432 97 
279 176 326 247 176 279 326 280 279 
133 97 327 248 178 137 366 213 252 
180 281 249 313 282 309 282 313 250 
255 368 283 184 255 256 254 253 259 
215 258 284 185 256 257 257 259 185 
185 259 253 258 215 260 338 258 260 
186 188 260 260 188 314 314 188 190 
315 314 190 263 264 285 217 263 144 
313 406 265 315 267 287 286 264 268 
218 268 264 266 406 219 219 406 222 
153 222 289 153 289 291 288 226 270 
224 291 272 225 157 271 291 318 272 
272 318 293 160 230 195 230 160 275 
295 294 275 294 230 275 295 275 276 
230 294 231 231 294 296 231 296 232 
297 296 231 198 321 276 232 296 297 
198 200 321 233 321 200 236 235 413 
240 302 238 301 303 243 323 241 244 
323 244 277 304 277 278 278 246 304 
304 246 279 280 304 279 246 247 279 
432 327 97 133 327 305 281 250 249 
282 250 281 254 366 252 335 255 283 
255 335 256 254 259 307 308 254 307 
258 336 284 257 256 335 336 258 338 
216 257 310 307 261 311 259 261 307 
308 307 312 312 307 311 261 216 311 
216 310 311 264 316 285 286 317 264 
264 317 316 263 285 144 144 285 422 
144 422 116 286 268 317 287 267 269 
191 351 269 351 191 422 222 355 289 
270 290 288 270 271 290 289 318 291 
272 293 229 229 293 292 229 292 274 
295 319 294 276 319 295 276 320 319 
297 296 359 294 359 296 359 232 297 
232 487 298 203 202 429 235 203 429 
234 299 411 411 299 172 300 411 172 
236 413 237 302 528 238 528 302 240 
237 301 239 360 301 237 322 303 360 
303 301 360 303 322 243 278 324 277 
304 324 278 324 304 280 325 324 280 
326 325 280 393 326 98 327 328 305 
305 436 134 329 306 330 331 330 306 
248 535 180 330 306 366 366 306 213 
180 535 281 332 282 281 370 282 332 
283 368 333 334 284 336 284 334 368 
283 333 335 337 282 370 282 337 309 
257 335 310 312 339 308 309 337 340 
311 341 339 312 311 339 313 309 423 
260 314 338 314 342 338 314 315 342 
342 315 345 316 347 285 285 347 346 
317 348 316 317 343 348 349 343 317 
343 349 344 285 346 422 405 344 349 
349 317 405 350 345 315 287 350 315 
317 268 405 287 269 350 269 351 350 
268 383 405 383 288 384 222 352 355 
288 290 384 290 353 384 290 271 354 
353 290 354 289 355 318 355 387 318 
356 318 387 293 318 357 318 356 357 
292 293 357 320 276 321 358 359 294 
233 234 411 240 461 528 237 414 360 
277 324 362 243 361 432 363 325 326 
326 364 363 365 364 326 327 305 328 
134 535 248 308 366 254 334 367 368 
335 333 369 334 336 367 367 336 371 
370 372 337 338 373 336 371 336 373 
338 374 373 341 311 310 341 310 375 
376 337 372 397 376 372 340 337 377 
377 337 376 340 423 309 340 377 423 
341 375 347 339 341 343 343 341 347 
339 343 344 376 397 377 378 379 347 
379 346 347 348 347 316 343 347 348 
346 381 422 382 380 345 345 350 382 
350 380 382 351 422 450 222 427 352 
353 385 384 408 274 292 387 355 386 
294 319 358 358 319 320 320 321 388 
320 389 358 388 389 320 232 359 487 
233 410 321 298 429 202 412 411 300 
300 238 528 360 390 322 241 461 240 
241 323 461 322 390 243 390 361 243 
363 362 324 324 325 363 363 364 362 
364 363 365 432 433 327 327 433 491 
365 326 393 392 365 393 329 330 366 
371 394 367 335 369 395 335 395 310 
375 395 396 375 310 395 374 342 398 
338 342 374 378 375 396 375 378 347 
339 344 399 401 400 399 342 345 398 
379 396 381 346 379 381 344 405 399 
381 402 422 380 403 404 380 350 403 
450 403 351 403 350 351 313 501 406 
425 405 383 384 425 383 406 407 222 
407 427 222 384 385 425 385 353 354 
454 385 354 271 157 458 454 354 271 
386 355 352 274 408 157 386 459 387 
292 357 408 389 388 409 388 321 409 
359 428 487 487 429 298 411 410 233 
235 429 413 413 429 460 413 414 237 
360 391 390 360 414 391 461 323 277 
390 391 361 391 415 361 361 415 432 
392 364 365 416 393 329 464 416 329 
308 577 366 367 394 368 394 417 368 
368 438 333 417 438 368 369 333 438 
371 373 418 371 418 394 369 439 395 
339 577 308 395 439 419 373 374 418 
395 419 396 418 398 444 374 398 418 
401 577 339 399 401 339 378 396 379 
397 420 377 448 420 397 420 423 377 
444 345 380 398 345 444 380 421 444 
381 396 402 399 405 401 449 313 423 
421 380 404 422 479 450 450 404 403 
383 424 405 405 425 424 406 455 407 
426 425 385 426 385 454 457 352 427 
458 454 271 386 352 457 157 408 458 
409 321 410 358 428 359 505 428 358 
412 410 411 300 528 412 391 414 430 
391 430 415 431 432 415 434 392 393 
434 393 416 435 434 416 464 435 416 
466 464 329 366 466 329 281 535 467 
281 467 332 332 467 370 437 468 394 
468 417 394 394 418 441 394 441 437 
369 438 439 440 441 418 419 439 442 
372 443 397 418 444 440 419 442 445 
419 445 396 473 397 443 473 448 397 
446 444 421 396 445 447 402 396 447 
402 447 422 423 420 448 422 478 479 
449 423 448 421 450 446 404 450 421 
451 406 501 424 425 452 406 453 455 
425 426 452 426 481 452 456 407 455 
427 407 456 427 456 457 408 504 458 
459 386 457 408 357 504 389 505 358 
409 505 389 412 485 410 428 521 487 
487 460 429 430 431 415 461 277 362 
432 462 433 550 362 364 364 392 550 
433 462 491 550 392 434 434 492 550 
492 434 435 463 492 435 464 463 435 
465 464 466 417 468 438 372 370 467 
372 467 443 441 468 437 438 468 469 
468 441 470 471 468 470 439 438 469 
439 469 472 470 441 440 442 439 445 
470 440 444 475 474 446 422 447 476 
477 475 446 422 476 478 449 448 473 
450 479 475 449 473 480 446 450 477 
518 501 449 449 501 313 453 451 520 
406 451 453 458 503 454 483 453 482 
455 453 483 455 483 456 387 459 484 
484 459 548 410 485 409 505 521 428 
413 430 414 488 430 619 431 430 488 
488 489 432 431 488 432 462 489 490 
462 432 489 466 493 465 466 366 494 
366 556 494 556 366 577 468 471 469 
439 496 445 439 472 496 577 401 497 
444 495 470 445 496 498 444 446 495 
474 495 446 474 475 495 445 498 447 
497 405 515 401 405 497 476 447 498 
478 499 479 450 475 477 515 405 516 
473 536 480 449 480 518 480 500 518 
405 424 516 501 520 451 516 452 502 
424 452 516 452 481 502 481 426 454 
356 387 484 412 486 485 526 486 412 
412 528 526 525 487 521 413 460 430 
362 550 641 462 490 491 550 492 463 
531 550 463 552 327 491 327 552 305 
463 506 531 464 506 463 506 464 465 
493 506 465 493 466 507 507 466 508 
508 466 494 471 470 509 471 509 469 
470 495 509 495 510 509 510 511 509 
469 509 511 472 512 496 472 469 512 
469 511 512 496 512 498 510 495 513 
513 495 475 476 512 514 498 512 476 
513 479 499 476 514 478 478 514 499 
513 475 479 536 517 480 480 517 500 
518 519 501 501 519 520 520 519 563 
453 546 482 453 520 546 565 357 356 
356 484 565 521 505 522 409 522 505 
523 522 409 485 523 409 486 524 485 
527 487 525 529 460 487 527 529 487 
461 587 528 619 489 488 362 626 461 
491 490 530 552 605 305 493 532 506 
305 605 436 532 493 507 533 532 507 
534 533 508 508 533 507 494 534 508 
556 534 494 535 576 467 443 536 473 
511 510 499 499 510 513 512 511 499 
512 499 514 515 516 537 516 538 537 
557 539 536 517 539 500 536 539 517 
540 539 557 539 540 500 540 541 500 
500 541 518 518 541 543 502 542 516 
502 481 542 519 544 563 519 518 544 
563 545 520 520 545 546 570 481 454 
503 458 547 570 454 547 547 454 503 
457 456 548 548 459 457 548 566 484 
485 524 523 523 549 522 571 549 523 
486 586 524 486 526 586 527 525 529 
525 572 529 572 460 529 430 460 625 
430 625 619 489 530 490 491 551 552 
531 506 532 553 531 532 533 534 554 
554 534 555 436 698 134 556 555 534 
577 497 515 537 538 516 559 540 557 
541 540 559 516 542 560 558 516 560 
559 557 561 541 559 561 518 543 544 
570 542 481 570 562 542 458 504 547 
564 456 483 456 564 617 456 617 548 
521 522 549 523 524 571 571 521 549 
489 573 530 489 619 573 362 641 626 
573 551 530 530 551 491 533 553 532 
535 134 698 577 590 556 516 558 537 
557 568 561 543 541 561 542 562 560 
543 569 544 483 482 564 357 565 504 
528 670 526 528 587 670 460 572 618 
587 461 603 603 461 567 626 567 461 
574 551 573 551 574 552 605 588 436 
533 554 553 555 575 554 555 556 610 
610 609 555 590 610 556 443 467 612 
577 515 593 593 537 578 515 537 593 
650 579 536 536 579 557 578 558 580 
537 558 578 557 579 568 560 581 558 
561 568 582 562 583 560 583 581 560 
561 582 543 543 582 569 562 570 583 
563 544 584 584 545 563 545 584 602 
545 602 546 585 482 546 547 504 570 
504 668 570 482 585 564 566 548 652 
524 586 571 525 521 618 625 460 618 
567 626 603 574 604 552 656 550 531 
552 604 605 554 751 553 575 751 554 
698 589 535 589 576 535 632 590 577 
632 577 591 591 577 592 536 443 612 
635 536 612 536 635 650 594 593 578 
580 595 578 595 594 578 580 558 595 
579 596 568 581 597 558 597 598 558 
568 596 599 582 568 599 597 581 583 
569 582 600 582 599 600 544 569 600 
544 600 601 544 601 584 546 602 624 
546 624 585 565 669 504 669 668 504 
565 484 691 691 484 652 652 484 566 
586 670 571 638 618 521 571 638 521 
572 525 618 550 656 641 573 619 574 
606 588 605 436 607 698 608 751 575 
575 555 608 555 609 608 590 611 610 
577 593 633 593 594 613 558 598 595 
579 615 596 666 597 583 616 602 584 
602 616 624 586 526 670 625 627 619 
656 531 553 588 606 436 607 436 606 
589 726 576 590 632 611 633 593 621 
593 613 621 621 594 622 613 594 621 
615 579 650 594 595 614 598 614 595 
615 623 596 599 596 623 600 599 623 
666 583 570 601 616 584 616 602 624 
585 705 564 564 705 617 548 617 652 
638 571 670 587 678 670 625 618 694 
604 574 628 574 619 628 604 628 605 
628 629 605 605 629 606 642 607 606 
607 642 698 609 751 608 630 609 610 
620 631 611 631 610 611 632 620 611 
644 632 591 674 644 591 633 621 634 
634 622 636 621 622 634 594 636 622 
666 636 614 614 636 594 666 614 598 
623 615 637 615 650 637 666 598 597 
623 637 600 600 651 601 651 616 601 
616 689 624 585 624 689 585 689 705 
587 724 678 587 603 724 603 640 639 
626 640 603 627 696 619 711 609 630 
711 630 631 631 630 610 467 576 726 
643 631 620 632 643 620 644 659 632 
577 674 591 674 577 645 674 645 646 
577 633 645 633 646 645 612 665 635 
645 633 634 647 646 645 634 647 645 
647 634 648 634 636 649 600 756 651 
616 732 689 653 618 638 694 618 672 
603 639 654 640 655 639 640 639 626 
657 606 629 698 726 589 658 711 631 
643 632 659 644 660 659 646 647 662 
661 646 662 665 650 635 634 649 647 
663 647 649 663 662 647 664 663 649 
662 663 664 649 636 666 637 650 677 
756 637 677 637 756 600 668 757 570 
616 651 732 691 690 565 638 670 671 
653 638 671 618 653 672 638 672 653 
639 655 654 655 640 654 641 695 655 
641 655 626 626 655 640 619 696 709 
628 619 709 628 697 629 628 709 697 
656 553 751 657 642 606 658 631 643 
699 658 643 680 699 643 643 659 680 
660 644 674 675 673 660 674 675 660 
674 646 661 612 684 665 686 665 684 
676 662 664 664 649 666 650 665 677 
757 666 570 651 756 667 667 732 651 
652 617 705 669 565 690 671 670 678 
653 773 672 672 693 694 654 724 603 
655 724 654 641 656 725 629 697 657 
657 679 642 698 642 679 726 752 467 
681 659 660 660 673 681 673 675 682 
675 674 682 467 765 612 682 674 714 
714 674 683 683 674 661 683 661 685 
661 662 685 676 685 662 686 687 665 
716 664 666 665 687 677 756 688 667 
667 688 732 690 749 669 669 749 668 
678 692 671 692 653 671 625 694 627 
655 695 724 725 695 641 697 679 657 
727 659 681 681 673 727 467 753 765 
701 700 673 682 701 673 701 682 714 
685 702 683 684 703 686 703 731 686 
676 704 685 704 702 685 721 686 731 
704 676 664 664 716 704 721 687 686 
668 749 757 678 706 692 692 773 653 
693 672 773 693 707 694 695 708 724 
695 725 736 697 709 679 679 710 698 
609 711 751 739 467 752 680 659 727 
673 700 727 701 714 713 612 715 703 
684 612 703 666 757 716 707 693 773 
724 718 772 694 707 696 707 717 696 
693 717 707 724 708 718 708 695 718 
694 696 627 726 698 710 699 680 740 
467 739 753 700 712 727 712 700 701 
713 712 701 714 720 713 612 765 715 
715 731 703 702 704 730 732 733 689 
705 734 652 691 652 750 706 722 692 
722 706 723 706 678 724 722 706 724 
692 723 735 692 722 723 724 723 722 
692 735 773 679 719 710 726 710 719 
727 712 713 728 727 713 713 720 728 
714 683 720 720 683 729 683 702 729 
702 730 729 755 704 716 755 716 746 
687 721 677 677 721 756 716 757 746 
756 784 688 784 732 688 689 794 705 
734 705 794 691 769 690 690 769 749 
691 750 796 707 773 717 696 717 820 
736 844 708 736 708 695 737 736 725 
709 809 679 727 791 680 791 740 680 
741 728 742 742 728 720 731 715 744 
766 730 704 731 745 721 704 755 766 
733 732 784 733 784 747 784 748 747 
747 748 733 733 748 689 652 734 795 
735 723 724 656 844 736 725 656 736 
719 738 726 740 776 699 741 727 728 
741 791 727 742 760 741 742 720 743 
720 729 743 754 744 765 765 744 715 
743 729 730 782 743 730 758 748 784 
750 770 796 795 750 652 718 708 774 
708 844 774 696 820 709 656 751 844 
809 719 679 726 738 752 776 711 658 
658 699 776 759 791 741 743 760 742 
743 761 760 761 743 782 763 744 754 
744 763 731 745 731 763 767 745 763 
767 815 745 745 815 721 764 755 746 
764 757 746 746 757 764 748 758 689 
689 758 794 794 795 734 749 769 786 
749 786 768 750 795 770 691 796 769 
735 724 771 724 772 771 718 774 772 
820 717 797 709 820 809 738 777 752 
777 739 752 739 777 753 777 799 753 
799 810 753 765 753 810 765 762 754 
763 754 767 754 762 767 721 815 756 
783 755 764 758 784 794 769 828 786 
735 806 773 717 773 797 719 809 738 
738 775 777 776 790 711 777 778 799 
779 759 741 779 741 780 810 792 765 
741 760 780 782 781 761 781 760 761 
782 730 766 757 783 764 803 757 749 
768 785 749 785 803 749 768 786 785 
795 826 770 796 828 769 735 804 806 
774 805 772 819 820 797 751 845 844 
751 711 790 775 788 777 781 780 760 
781 779 780 781 782 793 824 765 792 
824 762 765 767 762 814 802 783 757 
866 756 815 756 866 784 802 757 803 
785 768 786 773 787 797 773 806 797 
738 809 775 809 789 788 775 809 788 
788 778 777 788 789 778 790 776 740 
777 798 778 798 799 778 791 790 740 
791 759 779 779 781 800 800 793 782 
781 793 800 766 755 813 767 814 815 
801 802 783 755 783 801 783 802 801 
803 785 834 735 771 804 771 772 804 
804 772 805 806 807 797 797 807 808 
797 808 819 789 798 778 791 779 811 
779 800 811 811 800 812 800 782 812 
782 813 863 782 766 813 814 879 815 
852 802 803 828 834 785 854 795 794 
828 785 786 816 807 804 807 806 804 
807 806 816 808 807 816 819 818 808 
790 791 811 832 790 811 810 821 792 
792 821 824 821 823 824 812 782 822 
762 824 814 813 801 825 813 755 801 
784 866 794 796 829 828 805 837 804 
837 805 774 774 817 830 808 858 819 
808 816 858 843 817 774 774 844 843 
789 809 846 847 799 798 810 799 831 
811 812 832 832 812 822 823 833 824 
802 825 801 834 852 803 826 827 770 
827 829 770 796 770 829 816 804 836 
830 838 837 830 837 774 809 820 900 
751 859 845 869 846 809 789 846 798 
847 831 799 831 840 821 810 831 821 
822 839 832 823 821 840 840 833 823 
839 863 861 839 782 863 839 822 782 
824 833 814 865 825 802 794 853 854 
794 866 853 828 881 834 795 854 826 
826 854 841 827 826 841 835 827 841 
829 827 841 829 841 828 804 837 836 
836 837 838 816 836 855 842 855 836 
838 842 836 838 830 842 830 817 842 
843 893 817 859 870 845 846 869 860 
848 790 832 831 847 840 847 849 840 
848 839 850 832 839 848 839 861 850 
840 849 833 849 851 833 833 851 814 
825 863 813 842 856 855 845 870 871 
869 809 900 790 859 751 846 885 798 
798 885 847 849 862 851 851 862 814 
895 863 864 895 825 865 864 825 895 
863 825 864 865 852 890 865 802 852 
902 854 853 881 828 867 857 856 817 
817 856 842 816 855 875 858 816 875 
893 857 817 819 858 868 819 900 820 
870 859 871 848 872 790 850 877 848 
850 861 877 862 873 814 814 896 879 
879 866 815 834 874 852 880 852 874 
841 854 902 898 881 867 856 875 855 
857 893 892 875 868 858 868 876 819 
858 876 868 884 845 871 870 859 871 
869 911 860 885 846 860 848 877 872 
847 885 849 877 861 878 878 861 863 
862 849 873 814 873 896 879 915 866 
866 891 853 874 834 880 834 881 880 
882 841 902 828 841 883 841 882 883 
883 898 828 867 828 898 856 857 892 
875 856 892 945 868 875 876 868 945 
819 876 945 859 956 871 905 859 790 
790 886 905 790 872 886 877 887 872 
887 886 872 877 888 887 887 888 863 
888 878 863 877 878 888 873 849 889 
880 890 852 853 891 902 898 897 881 
880 881 897 902 883 882 892 917 875 
819 945 900 884 956 845 884 871 956 
894 886 887 894 863 895 887 863 894 
885 889 849 873 889 896 866 915 891 
897 898 909 875 917 945 893 843 844 
899 893 844 844 845 956 869 900 911 
894 895 901 879 936 915 922 865 890 
880 897 890 902 903 883 883 903 898 
917 892 904 899 904 893 893 904 892 
860 911 885 886 906 905 906 886 907 
907 886 894 894 908 907 908 901 895 
894 901 908 896 936 879 895 865 922 
899 844 910 956 944 844 911 931 885 
859 905 912 931 913 885 914 912 905 
905 906 908 905 908 914 906 907 908 
913 896 889 885 913 889 921 914 895 
914 908 895 897 937 890 922 890 937 
891 903 902 903 955 898 898 955 909 
910 904 899 916 917 904 844 944 929 
859 940 956 859 918 940 919 920 918 
859 919 918 859 912 919 919 912 920 
895 922 921 926 923 915 909 937 897 
904 910 916 924 917 916 925 920 912 
913 931 933 925 921 920 925 914 921 
912 914 925 896 913 933 896 933 936 
921 922 935 915 936 942 915 942 926 
915 923 926 915 926 891 926 955 891 
955 937 909 917 924 927 945 917 927 
916 927 924 928 924 916 910 928 916 
929 930 928 929 928 844 844 928 910 
956 940 948 911 949 931 918 920 932 
932 921 934 920 921 932 921 935 934 
935 922 952 942 973 926 903 891 955 
924 928 927 930 927 928 930 938 928 
945 927 939 938 939 927 930 938 927 
930 929 938 911 900 993 932 941 918 
941 940 918 932 951 941 932 935 951 
932 934 935 953 942 933 942 936 933 
937 952 922 973 955 926 943 939 938 
943 945 939 945 946 900 993 900 947 
949 911 967 940 941 951 931 949 933 
933 949 950 935 952 951 953 973 942 
952 937 954 938 959 943 938 929 959 
929 944 959 945 943 959 957 947 946 
947 900 946 993 947 946 995 911 993 
967 958 949 958 950 949 950 953 933 
954 937 955 945 957 946 957 993 946 
965 994 956 948 965 956 911 995 960 
948 971 965 948 940 961 953 950 958 
952 954 962 962 954 963 951 952 962 
973 983 955 981 982 955 959 944 964 
959 964 969 956 991 964 944 956 964 
966 971 948 960 967 911 966 948 961 
968 966 961 968 961 962 940 951 961 
953 958 967 951 962 961 963 954 988 
981 955 983 959 1010 945 990 964 991 
945 993 957 994 965 984 984 965 970 
968 963 972 962 963 968 982 954 955 
969 964 974 974 964 990 959 969 1010 
975 994 984 970 965 971 960 977 967 
978 977 960 976 978 960 966 979 971 
979 966 968 979 968 972 977 953 967 
953 977 980 978 973 977 973 980 977 
963 988 972 973 953 980 956 994 992 
960 995 997 984 970 971 985 984 971 
997 976 960 976 986 978 987 988 985 
985 971 987 971 972 987 971 979 972 
987 972 988 973 978 986 989 973 986 
989 1000 973 982 988 954 1017 988 982 
974 990 969 956 992 991 945 1004 993 
1010 1004 945 994 975 996 975 984 985 
976 997 986 986 997 989 997 999 989 
998 988 1015 985 988 998 999 1000 989 
1001 973 1000 983 973 1001 1016 983 1001 
1017 983 1016 981 983 1017 982 981 1017 
1009 990 991 1009 969 990 994 1003 992 
1003 1002 992 975 998 996 975 985 998 
1005 1000 997 1000 999 997 1000 1006 1001 
1005 1006 1000 1006 1007 1001 1007 1008 1001 
1026 988 1017 1015 988 1026 1031 969 1009 
1010 969 1031 1011 992 1002 993 1013 1012 
1004 1013 993 994 1014 1003 1014 994 996 
995 993 1012 995 1006 997 995 1012 1006 
1014 1015 1026 996 1015 1014 996 998 1015 
997 1006 1005 1016 1008 1007 1016 1001 1008 
991 1018 1009 992 1018 991 1030 992 1011 
1010 1031 1019 1010 1020 1004 1010 1019 1020 
1011 1002 1003 1021 1011 1003 1022 1004 1020 
1004 1023 1013 1004 1022 1023 1003 1014 1021 
1014 1024 1021 1014 1026 1024 1013 1007 1012 
1007 1006 1012 1023 1007 1013 1027 1007 1023 
1025 1016 1023 1016 1027 1023 1025 1033 1016 
1016 1033 1017 1033 1034 1017 1017 1034 1026 
1016 1007 1027 1018 1028 1029 1009 1018 1029 
1030 1028 1018 1030 1018 992 1009 1029 1031 
1020 1019 1031 1011 1021 1030 1022 1020 1023 
1023 1020 1025 1020 1033 1025 1034 1035 1021 
1032 1021 1035 1021 1026 1034 1024 1026 1021 
1029 1028 1036 1029 1037 1031 1032 1030 1021 
1032 1035 1030 1033 1020 1031 1039 1040 1035 
1035 1038 1039 1037 1033 1031 1034 1033 1037 
1034 1038 1035 1038 1034 1037 1028 1030 1036 
1030 1041 1036 1029 1036 1042 1042 1038 1029 
1036 1039 1042 1039 1038 1042 1039 1036 1040 
1036 1041 1040 1030 1035 1040 1041 1030 1040 
1029 1038 1037 
