g 502
v 166.0 180.0 47.5
v 166.0 179.5 48.0
v 165.5 180.0 48.0
v 167.0 180.0 47.5
v 167.5 180.0 48.0
v 166.0 182.0 47.5
v 165.5 182.0 48.0
v 167.0 182.0 47.5
v 167.5 182.0 48.0
v 166.0 182.5 48.0
v 167.0 182.5 48.0
v 166.0 176.0 48.5
v 165.5 176.0 49.0
v 167.0 176.0 48.5
v 167.5 176.0 49.0
v 166.0 178.0 48.5
v 165.5 178.0 49.0
v 167.0 179.0 48.5
v 166.5 180.0 49.0
v 165.5 182.0 49.0
v 167.5 182.0 49.0
v 166.0 174.5 50.0
v 165.5 175.0 50.0
v 167.0 174.5 50.0
v 165.5 179.0 50.0
v 165.5 180.0 50.0
v 166.0 173.0 50.5
v 166.0 172.5 51.0
v 167.0 173.0 50.5
v 167.5 173.0 51.0
v 166.5 174.0 51.0
v 167.5 174.0 51.0
v 167.0 171.5 52.0
v 167.5 172.0 52.0
v 166.0 172.5 52.0
v 165.5 173.0 52.0
v 167.5 173.0 52.0
v 166.5 174.0 52.0
v 165.5 175.0 52.0
v 167.5 185.0 52.0
v 167.0 186.0 51.5
v 167.5 186.0 52.0
v 167.0 172.0 52.5
v 166.0 173.0 52.5
v 167.0 173.5 53.0
v 166.5 174.0 53.0
v 167.5 174.0 53.0
v 167.5 175.0 53.0
v 165.5 186.0 53.0
v 166.0 187.0 52.5
v 165.5 187.0 53.0
v 167.0 187.0 52.5
v 167.0 174.0 53.5
v 167.5 176.0 54.0
v 165.5 177.0 54.0
v 167.5 177.0 54.0
v 165.5 186.0 54.0
v 165.5 188.0 54.0
v 166.0 188.5 54.0
v 167.0 188.5 54.0
v 166.0 228.0 53.5
v 165.5 228.0 54.0
v 166.5 228.0 54.0
v 167.0 176.0 54.5
v 166.0 177.0 54.5
v 167.5 178.0 55.0
v 165.5 179.0 55.0
v 167.5 179.0 55.0
v 165.5 184.0 55.0
v 167.5 184.0 55.0
v 165.5 185.0 55.0
v 158.0 208.0 54.5
v 157.0 209.0 54.5
v 159.0 209.0 54.5
v 158.0 210.0 54.5
v 159.0 210.0 54.5
v 166.0 226.5 55.0
v 165.5 227.0 55.0
v 166.5 227.0 55.0
v 167.0 178.0 55.5
v 167.5 180.0 56.0
v 165.5 181.0 56.0
v 167.5 181.0 56.0
v 165.5 183.0 56.0
v 167.5 183.0 56.0
v 164.0 184.0 55.5
v 164.0 183.5 56.0
v 163.5 184.0 56.0
v 165.0 183.5 56.0
v 165.0 185.0 55.5
v 169.0 186.0 55.5
v 164.0 187.0 55.5
v 164.0 188.0 55.5
v 165.0 189.0 55.5
v 166.0 189.0 55.5
v 169.0 189.0 55.5
v 168.0 189.5 56.0
v 157.0 207.0 55.5
v 157.0 206.5 56.0
v 159.0 207.0 55.5
v 159.0 206.5 56.0
v 159.5 207.0 56.0
v 155.5 209.0 56.0
v 160.5 209.0 56.0
v 160.5 210.0 56.0
v 157.0 211.0 55.5
v 160.0 211.0 55.5
v 160.5 211.0 56.0
v 157.0 211.5 56.0
v 166.0 227.0 55.5
v 166.0 228.0 55.5
v 166.0 230.0 55.5
v 165.5 231.0 56.0
v 166.0 232.0 55.5
v 166.5 232.0 56.0
v 167.0 180.0 56.5
v 169.5 184.0 57.0
v 162.5 185.0 57.0
v 170.5 186.0 57.0
v 162.5 187.0 57.0
v 163.5 189.0 57.0
v 170.5 189.0 57.0
v 165.0 190.5 57.0
v 155.5 208.0 57.0
v 155.5 210.0 57.0
v 161.5 210.0 57.0
v 160.5 212.0 57.0
v 158.0 212.5 57.0
v 160.0 212.5 57.0
v 164.0 227.0 56.5
v 165.0 227.0 56.5
v 165.0 228.0 56.5
v 166.5 230.0 57.0
v 165.0 230.5 57.0
v 164.5 231.0 57.0
v 166.0 233.0 56.5
v 166.5 233.0 57.0
v 165.0 234.0 56.5
v 164.5 234.0 57.0
v 165.5 183.0 58.0
v 164.0 183.5 58.0
v 168.0 183.5 58.0
v 169.0 183.5 58.0
v 169.5 184.0 58.0
v 162.5 185.0 58.0
v 170.5 185.0 58.0
v 162.5 188.0 58.0
v 165.0 190.5 58.0
v 166.0 191.0 57.5
v 157.0 206.5 58.0
v 155.5 208.0 58.0
v 155.5 209.0 58.0
v 160.5 212.0 58.0
v 162.0 222.0 57.5
v 164.0 222.0 57.5
v 161.0 223.0 57.5
v 164.0 224.0 57.5
v 161.0 225.0 57.5
v 162.0 226.0 57.5
v 164.0 226.0 57.5
v 165.0 226.0 57.5
v 166.0 226.0 57.5
v 166.0 227.0 57.5
v 162.0 228.0 57.5
v 166.0 228.0 57.5
v 163.0 229.0 57.5
v 165.0 229.0 57.5
v 166.0 229.0 57.5
v 163.0 230.0 57.5
v 166.0 230.0 57.5
v 165.5 230.0 58.0
v 164.0 231.0 57.5
v 165.5 231.0 58.0
v 166.0 231.0 57.5
v 164.5 232.0 58.0
v 165.5 233.0 58.0
v 164.5 235.0 58.0
v 165.0 235.5 58.0
v 165.0 183.5 59.0
v 168.0 183.5 59.0
v 162.5 186.0 59.0
v 162.5 187.0 59.0
v 171.5 188.0 59.0
v 171.5 189.0 59.0
v 163.5 190.0 59.0
v 158.0 206.5 59.0
v 160.0 207.5 59.0
v 161.0 207.5 59.0
v 161.5 208.0 59.0
v 156.5 209.0 59.0
v 157.5 212.0 59.0
v 158.0 212.5 59.0
v 162.0 218.0 58.5
v 163.0 218.0 58.5
v 161.0 219.0 58.5
v 165.0 220.0 58.5
v 162.0 221.0 58.5
v 164.0 221.0 58.5
v 165.0 221.0 58.5
v 166.0 222.0 58.5
v 166.5 222.0 59.0
v 165.0 224.0 58.5
v 168.0 224.0 58.5
v 168.5 224.0 59.0
v 166.0 225.0 58.5
v 166.5 225.0 59.0
v 161.0 226.0 58.5
v 160.0 227.0 58.5
v 161.0 229.0 58.5
v 162.0 229.0 58.5
v 167.0 229.0 58.5
v 162.0 230.0 58.5
v 166.0 230.0 58.5
v 162.0 231.0 58.5
v 168.0 231.0 58.5
v 163.0 232.0 58.5
v 164.0 232.0 58.5
v 163.0 233.0 58.5
v 164.5 235.0 59.0
v 165.0 184.0 59.5
v 169.0 184.5 60.0
v 170.5 186.0 60.0
v 163.5 187.0 60.0
v 162.5 188.0 60.0
v 171.5 188.0 60.0
v 170.5 191.0 60.0
v 166.0 193.5 60.0
v 169.0 193.5 60.0
v 158.0 206.5 60.0
v 160.0 206.5 60.0
v 156.5 208.0 60.0
v 162.5 210.0 60.0
v 156.5 211.0 60.0
v 157.5 212.0 60.0
v 162.5 212.0 60.0
v 159.0 214.0 59.5
v 160.0 214.0 59.5
v 162.0 217.0 59.5
v 163.0 217.0 59.5
v 165.0 218.0 59.5
v 159.0 220.0 59.5
v 158.5 220.0 60.0
v 160.0 220.0 59.5
v 166.5 220.0 60.0
v 166.5 222.0 60.0
v 168.0 222.0 59.5
v 168.0 221.5 60.0
v 167.5 222.0 60.0
v 167.0 224.0 59.5
v 167.0 225.0 59.5
v 168.5 225.0 60.0
v 169.5 226.0 60.0
v 158.5 227.0 60.0
v 159.5 229.0 60.0
v 169.5 231.0 60.0
v 167.0 233.0 59.5
v 168.0 234.0 59.5
v 163.0 235.0 59.5
v 163.0 235.5 60.0
v 163.5 187.0 61.0
v 170.5 188.0 61.0
v 171.5 189.0 61.0
v 171.5 191.0 61.0
v 171.5 192.0 61.0
v 165.0 193.5 61.0
v 170.0 193.5 61.0
v 159.0 206.5 61.0
v 162.5 209.0 61.0
v 156.5 212.0 61.0
v 162.5 212.0 61.0
v 162.0 213.0 60.5
v 162.5 213.0 61.0
v 162.0 214.0 60.5
v 164.0 215.0 60.5
v 166.5 218.0 61.0
v 166.5 220.0 61.0
v 167.0 221.0 60.5
v 167.0 222.0 60.5
v 168.0 221.5 61.0
v 169.5 223.0 61.0
v 159.5 230.0 61.0
v 159.5 231.0 61.0
v 169.5 232.0 61.0
v 160.5 233.0 61.0
v 161.5 234.0 61.0
v 161.5 235.0 61.0
v 168.0 235.0 60.5
v 169.0 235.0 60.5
v 169.5 235.0 61.0
v 162.0 235.5 61.0
v 168.0 235.5 61.0
v 169.0 235.5 61.0
v 165.0 186.0 61.5
v 166.0 186.0 61.5
v 163.5 189.0 62.0
v 171.5 189.0 62.0
v 162.5 191.0 62.0
v 163.5 192.0 62.0
v 170.5 193.0 62.0
v 161.5 207.0 62.0
v 162.5 209.0 62.0
v 156.5 210.0 62.0
v 156.5 212.0 62.0
v 163.5 212.0 62.0
v 157.5 215.0 62.0
v 165.5 215.0 62.0
v 167.5 219.0 62.0
v 167.5 220.0 62.0
v 168.5 221.0 62.0
v 157.5 225.0 62.0
v 169.5 225.0 62.0
v 170.5 226.0 62.0
v 169.5 227.0 62.0
v 158.5 229.0 62.0
v 159.5 232.0 62.0
v 160.5 233.0 62.0
v 160.5 234.0 62.0
v 169.0 187.5 63.0
v 171.5 190.0 63.0
v 163.5 191.0 63.0
v 162.5 192.0 63.0
v 171.5 192.0 63.0
v 162.5 193.0 63.0
v 170.5 194.0 63.0
v 169.0 195.5 63.0
v 160.0 204.5 63.0
v 159.5 205.0 63.0
v 160.5 205.0 63.0
v 158.5 207.0 63.0
v 161.0 207.5 63.0
v 161.5 209.0 63.0
v 157.5 212.0 63.0
v 157.5 226.0 63.0
v 158.5 227.0 63.0
v 170.5 227.0 63.0
v 159.5 230.0 63.0
v 159.5 232.0 63.0
v 160.5 233.0 63.0
v 170.5 235.0 63.0
v 162.0 235.5 63.0
v 170.0 235.5 63.0
v 166.0 188.5 64.0
v 169.0 188.5 64.0
v 170.5 190.0 64.0
v 162.5 192.0 64.0
v 168.0 196.5 64.0
v 160.0 205.0 63.5
v 160.0 206.0 63.5
v 159.0 208.0 63.5
v 157.5 210.0 64.0
v 163.5 211.0 64.0
v 167.5 220.0 64.0
v 157.5 225.0 64.0
v 158.5 226.0 64.0
v 160.5 235.0 64.0
v 161.0 235.5 64.0
v 167.0 188.5 65.0
v 168.0 188.5 65.0
v 170.5 191.0 65.0
v 164.0 191.5 65.0
v 170.5 194.0 65.0
v 168.5 196.0 65.0
v 168.0 196.5 65.0
v 160.0 207.5 65.0
v 157.5 210.0 65.0
v 164.5 210.0 65.0
v 167.5 218.0 65.0
v 167.5 219.0 65.0
v 157.5 225.0 65.0
v 158.5 226.0 65.0
v 159.5 234.0 65.0
v 164.0 191.5 66.0
v 163.5 192.0 66.0
v 169.5 194.0 66.0
v 160.0 206.0 65.5
v 162.0 206.0 65.5
v 160.0 207.0 65.5
v 163.0 207.0 65.5
v 163.0 208.0 65.5
v 157.5 209.0 66.0
v 164.5 210.0 66.0
v 167.5 217.0 66.0
v 168.5 218.0 66.0
v 168.5 219.0 66.0
v 169.5 225.0 66.0
v 170.5 226.0 66.0
v 158.5 229.0 66.0
v 159.5 234.0 66.0
v 160.5 235.0 66.0
v 168.5 192.0 67.0
v 168.5 196.0 67.0
v 164.0 198.0 66.5
v 165.0 199.0 66.5
v 167.0 200.0 66.5
v 164.0 201.0 66.5
v 162.0 203.0 66.5
v 162.0 205.0 66.5
v 158.5 206.0 67.0
v 158.5 207.0 67.0
v 164.0 207.0 66.5
v 158.5 208.0 67.0
v 157.5 209.0 67.0
v 165.5 209.0 67.0
v 165.5 210.0 67.0
v 165.5 211.0 67.0
v 167.5 217.0 67.0
v 168.5 218.0 67.0
v 158.5 227.0 67.0
v 158.5 228.0 67.0
v 159.5 232.0 67.0
v 159.5 233.0 67.0
v 166.0 191.5 68.0
v 167.0 191.5 68.0
v 169.5 193.0 68.0
v 169.5 196.0 68.0
v 169.5 197.0 68.0
v 168.5 200.0 68.0
v 162.0 201.0 67.5
v 163.0 201.0 67.5
v 166.0 201.0 67.5
v 167.0 201.0 67.5
v 165.0 202.0 67.5
v 165.0 203.0 67.5
v 158.5 205.0 68.0
v 166.5 210.0 68.0
v 166.5 211.0 68.0
v 166.5 212.0 68.0
v 167.5 216.0 68.0
v 168.5 217.0 68.0
v 157.5 219.0 68.0
v 157.5 222.0 68.0
v 159.5 227.0 68.0
v 170.5 228.0 68.0
v 159.5 231.0 68.0
v 160.5 232.0 68.0
v 170.5 233.0 68.0
v 160.5 235.0 68.0
v 161.0 235.5 68.0
v 167.0 186.0 68.5
v 167.0 185.5 69.0
v 166.5 186.0 69.0
v 167.5 186.0 69.0
v 167.0 188.0 68.5
v 166.5 188.0 69.0
v 167.5 188.0 69.0
v 166.0 192.5 69.0
v 163.5 195.0 69.0
v 163.5 196.0 69.0
v 169.5 198.0 69.0
v 168.5 199.0 69.0
v 161.5 200.0 69.0
v 160.5 201.0 69.0
v 160.5 202.0 69.0
v 166.0 203.0 68.5
v 167.5 203.0 69.0
v 158.5 206.0 69.0
v 157.5 207.0 69.0
v 166.5 210.0 69.0
v 167.5 211.0 69.0
v 167.5 212.0 69.0
v 157.5 216.0 69.0
v 157.5 218.0 69.0
v 158.5 219.0 69.0
v 158.5 222.0 69.0
v 159.5 229.0 69.0
v 160.5 230.0 69.0
v 169.5 230.0 69.0
v 160.5 233.0 69.0
v 160.5 234.0 69.0
v 170.5 234.0 69.0
v 170.5 235.0 69.0
v 162.0 235.5 69.0
v 169.0 235.5 69.0
v 170.0 235.5 69.0
v 166.0 192.5 70.0
v 167.0 192.5 70.0
v 168.0 193.5 70.0
v 163.5 195.0 70.0
v 169.5 195.0 70.0
v 161.5 199.0 70.0
v 159.5 202.0 70.0
v 158.5 206.0 70.0
v 167.5 210.0 70.0
v 157.5 213.0 70.0
v 157.5 215.0 70.0
v 158.5 216.0 70.0
v 167.5 216.0 70.0
v 168.5 217.0 70.0
v 158.5 220.0 70.0
v 159.5 221.0 70.0
v 159.5 222.0 70.0
v 168.5 222.0 70.0
v 158.5 223.0 70.0
v 169.5 223.0 70.0
v 158.5 224.0 70.0
v 169.5 224.0 70.0
v 169.5 227.0 70.0
v 161.0 228.0 69.5
v 160.0 229.0 69.5
v 169.5 229.0 70.0
v 161.0 230.0 69.5
v 168.5 230.0 70.0
v 160.5 231.0 70.0
v 160.5 232.0 70.0
v 168.0 232.0 69.5
v 167.5 232.0 70.0
v 161.5 233.0 70.0
v 167.5 234.0 70.0
v 170.0 234.0 69.5
v 161.5 235.0 70.0
v 170.0 235.0 69.5
v 162.0 235.5 70.0
v 166.5 190.0 71.0
v 167.5 190.0 71.0
v 167.0 191.0 70.5
v 166.5 191.0 71.0
v 167.5 191.0 71.0
v 167.0 193.5 71.0
v 162.5 198.0 71.0
v 169.5 198.0 71.0
v 168.5 199.0 71.0
v 161.5 200.0 71.0
v 160.5 201.0 71.0
v 168.5 203.0 71.0
v 168.5 205.0 71.0
v 157.5 206.0 71.0
v 157.5 211.0 71.0
v 157.5 212.0 71.0
v 158.5 213.0 71.0
v 158.5 217.0 71.0
v 168.5 218.0 71.0
v 159.5 222.0 71.0
v 168.5 224.0 71.0
v 169.5 225.0 71.0
v 169.5 226.0 71.0
v 168.5 227.0 71.0
v 168.5 229.0 71.0
v 168.5 230.0 71.0
v 161.0 231.0 70.5
v 162.0 231.0 70.5
v 161.0 232.0 70.5
v 161.5 232.0 71.0
v 161.5 234.0 71.0
v 167.5 189.0 72.0
v 166.5 192.0 72.0
v 167.5 192.0 72.0
v 166.0 193.5 72.0
v 162.5 197.0 72.0
v 169.5 197.0 72.0
v 168.5 198.0 72.0
v 159.5 203.0 72.0
v 158.5 205.0 72.0
v 157.5 206.0 72.0
v 168.5 206.0 72.0
v 157.5 209.0 72.0
v 157.5 210.0 72.0
v 158.5 211.0 72.0
v 158.5 214.0 72.0
v 167.5 215.0 72.0
v 167.5 218.0 72.0
v 160.5 222.0 72.0
v 159.5 223.0 72.0
v 159.5 224.0 72.0
v 168.5 224.0 72.0
v 168.5 226.0 72.0
v 168.5 227.0 72.0
v 164.0 228.0 71.5
v 164.0 229.0 71.5
v 165.0 230.0 71.5
v 167.5 230.0 72.0
v 163.0 231.0 71.5
v 164.0 231.0 71.5
v 162.0 232.0 71.5
v 163.0 232.0 71.5
v 164.0 232.0 71.5
v 167.5 234.0 72.0
v 164.0 235.5 72.0
v 166.0 235.5 72.0
v 166.5 190.0 73.0
v 167.5 190.0 73.0
v 166.5 192.0 73.0
v 167.5 192.0 73.0
v 169.5 197.0 73.0
v 168.5 198.0 73.0
v 158.5 203.0 73.0
v 168.5 206.0 73.0
v 157.5 207.0 73.0
v 167.5 207.0 73.0
v 157.5 208.0 73.0
v 158.5 209.0 73.0
v 158.5 211.0 73.0
v 167.5 211.0 73.0
v 167.5 214.0 73.0
v 160.0 217.0 72.5
v 161.0 217.0 72.5
v 162.0 219.0 72.5
v 162.0 220.0 72.5
v 160.5 222.0 73.0
v 160.0 223.0 72.5
v 160.5 223.0 73.0
v 160.0 224.0 72.5
v 161.0 224.0 72.5
v 168.0 224.0 72.5
v 161.0 225.0 72.5
v 163.0 226.0 72.5
v 163.0 227.0 72.5
v 168.0 227.0 72.5
v 165.0 229.0 72.5
v 166.0 229.0 72.5
v 166.0 230.0 72.5
v 165.0 231.0 72.5
v 165.0 232.0 72.5
v 163.0 233.0 72.5
v 164.0 233.0 72.5
v 163.0 234.0 72.5
v 165.0 234.0 72.5
v 167.0 234.0 72.5
v 164.0 235.0 72.5
v 166.0 235.0 72.5
v 167.0 190.0 73.5
v 167.0 192.0 73.5
v 166.5 193.0 74.0
v 167.5 193.0 74.0
v 166.0 193.5 74.0
v 168.0 193.5 74.0
v 168.5 194.0 74.0
v 169.5 195.0 74.0
v 162.0 196.5 74.0
v 163.0 196.5 74.0
v 159.5 200.0 74.0
v 159.5 202.0 74.0
v 158.5 203.0 74.0
v 158.5 209.0 74.0
v 167.5 209.0 74.0
v 160.0 213.0 73.5
v 160.0 214.0 73.5
v 161.0 215.0 73.5
v 161.0 216.0 73.5
v 163.0 216.0 73.5
v 165.0 216.0 73.5
v 162.0 218.0 73.5
v 163.0 219.0 73.5
v 163.0 220.0 73.5
v 161.0 222.0 73.5
v 162.0 222.0 73.5
v 164.0 222.0 73.5
v 166.0 222.0 73.5
v 161.0 223.0 73.5
v 162.0 224.0 73.5
v 165.0 224.0 73.5
v 162.0 225.0 73.5
v 166.0 228.0 73.5
v 166.0 234.0 73.5
v 166.0 193.5 75.0
v 168.0 193.5 75.0
v 168.5 194.0 75.0
v 165.0 194.5 75.0
v 159.5 201.0 75.0
v 158.5 206.0 75.0
v 158.5 207.0 75.0
v 167.5 207.0 75.0
v 167.5 208.0 75.0
v 160.0 211.0 74.5
v 161.0 212.0 74.5
v 161.0 213.0 74.5
v 166.0 214.0 74.5
v 163.0 215.0 74.5
v 165.0 215.0 74.5
v 162.0 223.0 74.5
v 164.0 223.0 74.5
v 164.0 224.0 74.5
v 164.0 225.0 74.5
v 165.0 225.0 74.5
v 164.0 193.5 76.0
v 165.0 193.5 76.0
v 168.0 194.0 75.5
v 168.0 195.0 75.5
v 159.5 199.0 76.0
v 158.5 200.0 76.0
v 158.5 201.0 76.0
v 168.5 202.0 76.0
v 168.5 203.0 76.0
v 167.5 205.0 76.0
v 159.5 206.0 76.0
v 167.5 206.0 76.0
v 160.0 209.0 75.5
v 166.0 210.0 75.5
v 163.0 211.0 75.5
v 163.0 212.0 75.5
v 164.0 212.0 75.5
v 166.0 193.5 77.0
v 167.5 196.0 77.0
v 168.5 197.0 77.0
v 158.5 198.0 77.0
v 168.5 200.0 77.0
v 168.5 201.0 77.0
v 167.5 202.0 77.0
v 158.5 203.0 77.0
v 158.5 204.0 77.0
v 167.5 204.0 77.0
v 159.5 206.0 77.0
v 166.0 207.0 76.5
v 166.0 208.0 76.5
v 164.0 210.0 76.5
v 163.0 192.5 78.0
v 165.0 192.5 78.0
v 167.5 196.0 78.0
v 168.5 197.0 78.0
v 168.5 199.0 78.0
v 167.5 200.0 78.0
v 159.5 203.0 78.0
v 160.0 205.0 77.5
v 160.0 206.0 77.5
v 166.0 206.0 77.5
v 164.0 207.0 77.5
v 162.0 208.0 77.5
v 164.0 208.0 77.5
v 167.5 197.0 79.0
v 158.5 198.0 79.0
v 157.5 199.0 79.0
v 167.0 201.5 79.0
v 159.5 203.0 79.0
v 166.0 203.0 78.5
v 166.0 204.0 78.5
v 161.0 204.5 79.0
v 164.0 206.0 78.5
v 162.0 191.5 80.0
v 164.0 191.5 80.0
v 159.0 194.0 79.5
v 158.5 194.0 80.0
v 166.5 194.0 80.0
v 159.0 195.0 79.5
v 167.5 195.0 80.0
v 158.5 197.0 80.0
v 157.5 198.0 80.0
v 158.5 199.0 80.0
v 158.5 200.0 80.0
v 167.5 201.0 80.0
v 160.0 202.0 79.5
v 167.0 201.5 80.0
v 160.0 203.0 79.5
v 160.0 192.0 80.5
v 158.5 193.0 81.0
v 160.0 193.0 80.5
v 165.5 193.0 81.0
v 166.5 194.0 81.0
v 158.5 196.0 81.0
v 167.5 196.0 81.0
v 157.5 197.0 81.0
v 167.5 197.0 81.0
v 158.5 198.0 81.0
v 161.0 202.0 80.5
v 165.0 202.0 80.5
v 162.0 203.0 80.5
v 164.0 203.0 80.5
v 163.0 190.5 82.0
v 164.5 192.0 82.0
v 165.5 193.0 82.0
v 166.5 195.0 82.0
v 157.5 196.0 82.0
v 166.5 196.0 82.0
v 167.5 198.0 82.0
v 166.0 199.0 81.5
v 167.5 199.0 82.0
v 161.0 200.0 81.5
v 167.0 200.0 81.5
v 161.0 201.0 81.5
v 162.0 201.0 81.5
v 164.0 201.0 81.5
v 165.0 201.0 81.5
v 161.0 189.5 83.0
v 165.5 194.0 83.0
v 165.5 195.0 83.0
v 158.5 197.0 83.0
v 167.0 198.0 82.5
v 167.0 199.0 82.5
v 162.0 200.0 82.5
v 164.0 200.0 82.5
v 163.5 191.0 84.0
v 164.5 192.0 84.0
v 158.5 194.0 84.0
v 158.5 195.0 84.0
v 165.0 197.0 83.5
v 160.0 198.0 83.5
v 161.0 198.0 83.5
v 162.0 188.5 85.0
v 162.5 189.0 85.0
v 162.5 190.0 85.0
v 163.5 191.0 85.0
v 164.5 193.0 85.0
v 163.0 196.0 84.5
v 164.0 196.0 84.5
v 161.0 197.0 84.5
v 163.0 197.0 84.5
v 160.5 188.0 86.0
v 161.0 188.5 86.0
v 162.5 189.0 86.0
v 163.5 190.0 86.0
v 163.5 193.0 86.0
v 163.0 194.0 85.5
v 160.0 195.0 85.5
v 163.0 195.0 85.5
v 159.0 186.0 86.5
v 158.5 186.0 87.0
v 160.0 186.0 86.5
v 160.5 187.0 87.0
v 162.5 190.0 87.0
v 160.0 193.0 86.5
v 162.0 193.0 86.5
v 163.0 193.0 86.5
v 161.0 194.0 86.5
v 162.0 194.0 86.5
v 160.0 183.0 87.5
v 160.0 182.5 88.0
v 159.5 183.0 88.0
v 160.5 183.0 88.0
v 160.0 184.0 87.5
v 158.5 185.0 88.0
v 160.5 185.0 88.0
v 160.5 187.0 88.0
v 158.5 189.0 88.0
v 162.5 189.0 88.0
v 158.5 190.0 88.0
v 162.5 191.0 88.0
v 160.0 192.0 87.5
v 159.0 183.0 88.5
v 159.0 182.5 89.0
v 158.5 183.0 89.0
v 158.5 184.0 89.0
v 160.0 183.5 89.0
v 160.0 189.0 88.5
v 162.0 189.0 88.5
v 159.0 190.0 88.5
v 161.0 191.0 88.5
v 162.0 191.0 88.5
v 159.0 182.5 90.0
v 158.5 183.0 90.0
v 160.5 184.0 90.0
v 160.5 185.0 90.0
v 158.5 186.0 90.0
v 158.5 187.0 90.0
v 158.5 184.0 91.0
v 158.5 185.0 91.0
v 160.5 186.0 91.0
v 159.0 187.0 90.5
v 160.0 187.0 90.5
v 159.0 184.0 91.5
v 159.0 185.0 91.5
v 160.0 186.0 91.5
v 167.0 179.0 48.5
v 166.5 174.0 52.0
v 167.0 173.5 53.0
v 165.0 230.5 57.0
v 165.5 231.0 58.0
v 167.5 222.0 60.0
v 167.0 221.0 60.5
v 168.0 221.5 61.0
v 160.0 183.5 89.0
v 166.5 180.0 49.0
v 166.0 173.0 52.5
v 166.0 173.0 52.5
v 167.0 221.0 60.5
v 166.5 228.0 54.0
v 166.5 228.0 54.0
v 158.5 186.0 90.0
v 158.5 186.0 90.0
v 160.0 183.5 89.0
v 160.0 184.0 87.5
v 160.0 184.0 87.5
v 165.5 173.0 51.0
v 165.5 173.0 51.0
v 166.5 174.0 51.0
v 166.5 174.0 51.0
v 165.0 230.5 57.0
v 165.5 181.0 56.0
v 165.5 181.0 56.0
v 165.5 181.0 56.0
v 167.0 180.0 56.5
v 167.5 176.0 54.0
v 167.5 176.0 54.0
v 167.0 176.0 54.5
v 166.0 177.0 54.5
v 166.0 177.0 54.5
v 167.0 201.5 79.0
v 167.0 201.5 79.0
v 167.0 193.5 71.0
v 167.0 193.5 71.0
v 166.5 192.0 72.0
v 167.0 193.5 71.0
v 167.0 193.5 71.0
v 167.0 179.0 48.5
v 167.5 180.0 48.0
v 167.5 179.0 55.0
v 167.0 222.0 60.5
v 158.5 217.0 71.0
v 158.5 217.0 71.0
v 158.5 217.0 71.0
v 166.0 228.0 73.5
v 166.0 228.0 73.5
v 166.0 228.0 73.5
v 166.0 222.0 73.5
v 166.0 229.0 72.5
v 160.0 183.5 89.0
v 159.0 183.0 88.5
v 158.5 183.0 89.0
v 158.5 184.0 89.0
v 158.5 185.0 88.0
v 158.5 185.0 88.0
v 158.5 185.0 88.0
v 167.5 181.0 56.0
v 168.0 183.5 59.0
v 167.0 194.0 75.5
v 167.0 194.0 75.5
v 167.0 194.0 75.5
v 167.0 194.0 75.5
v 165.0 229.0 57.5
v 165.0 229.0 57.5
v 165.0 230.5 57.0
v 165.5 182.0 49.0
v 165.5 186.0 53.0
v 165.5 186.0 53.0
v 167.5 185.0 52.0
v 167.0 201.5 79.0
v 170.5 193.0 62.0
v 170.5 193.0 62.0
v 170.5 193.0 62.0
v 170.0 193.5 61.0
v 170.0 193.5 61.0
v 165.5 179.0 55.0
v 165.5 179.0 55.0
v 167.0 178.0 55.5
v 165.5 181.0 56.0
v 168.0 183.5 58.0
v 157.0 207.0 55.5
v 157.0 207.0 55.5
v 157.0 206.5 56.0
v 160.5 185.0 88.0
v 161.0 189.5 83.0
v 161.0 189.5 83.0
v 158.5 186.0 90.0
v 166.0 189.0 55.5
v 166.0 189.0 55.5
v 165.0 190.5 58.0
v 167.0 224.0 59.5
v 167.0 224.0 59.5
v 167.0 224.0 59.5
v 168.0 221.5 60.0
v 168.0 222.0 59.5
v 167.5 185.0 52.0
v 167.5 207.0 73.0
f 1 2 3
f 2 1 4
f 6 1 3
f 7 6 3
f 4 1 8
f 8 1 6
f 9 5 4
f 8 9 4
f 6 7 10
f 8 6 10
f 11 8 10
f 9 8 11
f 16 12 13
f 17 16 13
f 14 12 891
f 891 12 16
f 891 15 14
f 850 859 2
f 18 2 4
f 3 2 859
f 18 4 5
f 859 919 3
f 3 919 7
f 892 9 891
f 891 9 21
f 10 7 919
f 11 10 21
f 10 919 21
f 21 9 11
f 12 22 23
f 12 23 13
f 14 22 12
f 24 22 14
f 24 14 15
f 13 39 17
f 25 16 17
f 16 25 891
f 891 26 19
f 25 26 891
f 19 26 20
f 27 28 870
f 28 27 29
f 27 873 32
f 27 32 29
f 32 30 29
f 22 31 39
f 23 22 39
f 31 24 32
f 31 22 24
f 32 24 15
f 23 39 13
f 32 15 891
f 17 39 25
f 919 949 21
f 21 922 891
f 28 35 36
f 870 28 36
f 33 35 29
f 35 28 29
f 33 29 30
f 33 30 34
f 34 30 37
f 36 872 871
f 851 872 36
f 30 32 37
f 39 31 38
f 37 32 891
f 39 55 25
f 25 55 26
f 26 55 20
f 20 55 49
f 949 919 921
f 40 920 41
f 41 42 922
f 33 34 43
f 35 44 36
f 35 33 43
f 35 43 44
f 860 43 37
f 43 34 37
f 852 861 37
f 45 851 44
f 852 46 38
f 36 44 851
f 852 37 47
f 39 38 65
f 38 46 65
f 47 37 48
f 37 891 48
f 891 922 70
f 51 50 49
f 920 52 41
f 49 50 52
f 41 52 42
f 852 53 46
f 852 47 53
f 46 53 65
f 47 48 883
f 53 47 883
f 883 48 879
f 65 55 39
f 48 891 880
f 880 891 56
f 55 57 49
f 922 42 70
f 49 57 51
f 50 51 58
f 50 58 59
f 52 50 59
f 60 52 59
f 42 52 60
f 882 54 881
f 65 64 56
f 64 880 56
f 65 67 55
f 56 67 65
f 66 56 68
f 56 891 68
f 67 84 55
f 891 70 85
f 84 69 55
f 69 71 55
f 57 55 71
f 57 92 51
f 70 42 60
f 92 95 51
f 942 58 51
f 59 58 941
f 60 59 941
f 72 103 73
f 103 75 73
f 73 75 72
f 74 72 76
f 76 72 75
f 61 77 78
f 61 78 62
f 77 61 63
f 77 63 79
f 79 864 111
f 56 66 931
f 929 56 80
f 930 931 68
f 931 66 68
f 68 932 930
f 68 891 81
f 81 891 83
f 67 82 84
f 891 85 83
f 86 87 88
f 87 86 89
f 89 69 84
f 85 70 117
f 89 86 90
f 69 90 71
f 89 90 69
f 92 86 88
f 57 90 92
f 90 86 92
f 71 90 57
f 93 92 120
f 91 70 96
f 96 119 91
f 93 94 92
f 92 94 95
f 70 60 97
f 96 70 97
f 97 60 941
f 99 98 101
f 98 100 101
f 101 100 102
f 72 104 935
f 104 100 98
f 104 102 100
f 72 934 103
f 72 74 104
f 75 103 125
f 74 76 105
f 105 104 74
f 106 75 125
f 75 106 109
f 75 107 76
f 109 107 75
f 76 107 105
f 107 108 105
f 77 110 78
f 77 79 110
f 110 111 62
f 78 110 62
f 110 79 111
f 112 61 62
f 61 112 133
f 61 133 863
f 864 133 111
f 114 112 113
f 115 133 112
f 114 115 112
f 68 81 878
f 875 893 116
f 876 878 83
f 878 81 83
f 118 92 88
f 70 91 117
f 91 119 117
f 120 92 118
f 121 93 120
f 93 121 94
f 96 122 119
f 94 121 123
f 123 95 94
f 228 97 941
f 934 124 103
f 109 106 125
f 109 129 107
f 107 129 127
f 107 127 108
f 108 127 105
f 129 109 128
f 160 130 131
f 130 167 132
f 130 132 131
f 111 170 62
f 62 170 112
f 113 134 135
f 113 170 134
f 113 112 170
f 133 115 137
f 139 113 135
f 114 113 136
f 114 136 137
f 114 137 115
f 138 113 139
f 138 136 113
f 137 136 138
f 82 140 84
f 142 83 85
f 88 87 141
f 89 141 87
f 140 89 84
f 141 89 140
f 117 143 85
f 85 143 933
f 144 143 117
f 141 118 88
f 145 118 141
f 117 119 144
f 144 119 146
f 118 145 120
f 146 119 122
f 147 121 120
f 123 121 943
f 149 941 943
f 95 123 148
f 149 228 941
f 97 228 96
f 934 936 150
f 99 101 150
f 150 124 934
f 151 124 150
f 188 102 104
f 124 151 103
f 151 152 103
f 188 104 105
f 152 125 103
f 105 126 188
f 126 105 153
f 105 127 153
f 128 109 192
f 129 128 153
f 153 127 129
f 155 154 157
f 154 156 158
f 158 159 154
f 157 154 160
f 161 157 160
f 162 157 161
f 160 159 130
f 160 154 159
f 161 160 131
f 131 163 161
f 163 162 161
f 130 159 167
f 163 132 165
f 131 132 163
f 164 166 159
f 167 159 166
f 132 167 165
f 167 168 165
f 168 211 165
f 167 166 169
f 168 917 211
f 916 171 211
f 111 133 170
f 169 212 172
f 169 172 167
f 134 172 135
f 134 167 172
f 171 918 854
f 171 916 918
f 173 853 174
f 174 874 170
f 170 133 174
f 172 175 135
f 133 137 174
f 135 175 139
f 137 173 174
f 176 173 137
f 175 219 139
f 138 176 137
f 138 139 177
f 177 139 219
f 138 178 176
f 138 177 178
f 877 911 140
f 911 877 910
f 223 141 179
f 911 141 140
f 911 179 141
f 142 180 83
f 221 911 143
f 143 911 933
f 143 144 221
f 141 223 145
f 144 146 221
f 221 146 183
f 145 181 120
f 181 182 120
f 120 182 147
f 183 146 122
f 184 183 122
f 121 185 943
f 943 185 149
f 96 228 122
f 186 150 101
f 186 101 102
f 150 231 151
f 186 231 150
f 102 187 186
f 188 187 102
f 190 151 231
f 152 151 190
f 188 126 189
f 152 109 125
f 152 190 109
f 189 126 232
f 126 153 232
f 191 109 233
f 109 191 192
f 153 128 236
f 193 195 197
f 194 193 197
f 198 194 197
f 196 194 199
f 199 194 198
f 195 243 156
f 154 197 156
f 197 195 156
f 155 197 154
f 198 197 155
f 155 200 198
f 200 199 198
f 199 200 201
f 249 201 200
f 200 157 202
f 155 157 200
f 206 249 200
f 280 203 204
f 157 205 202
f 205 200 202
f 205 206 200
f 158 207 159
f 157 162 205
f 162 250 206
f 162 206 205
f 252 204 203
f 207 158 208
f 162 163 250
f 203 250 215
f 215 252 203
f 208 209 207
f 159 209 164
f 207 209 159
f 163 165 250
f 164 209 210
f 164 210 166
f 165 211 250
f 215 250 211
f 254 212 209
f 209 212 210
f 166 212 169
f 210 212 166
f 211 171 213
f 282 214 212
f 171 854 213
f 282 216 214
f 214 216 212
f 212 217 172
f 212 216 217
f 172 217 175
f 213 854 176
f 211 213 176
f 176 215 211
f 217 216 218
f 258 219 218
f 218 219 217
f 217 219 175
f 176 178 257
f 177 219 291
f 178 177 291
f 179 220 223
f 220 179 911
f 221 220 911
f 145 223 181
f 222 221 183
f 182 181 223
f 182 224 147
f 223 224 182
f 225 222 183
f 224 121 147
f 183 184 225
f 121 224 185
f 122 226 263
f 184 122 263
f 122 927 226
f 927 122 228
f 228 149 227
f 229 231 186
f 186 187 230
f 230 187 188
f 109 190 233
f 234 191 233
f 153 235 232
f 305 192 191
f 305 191 234
f 192 305 128
f 236 128 305
f 236 237 153
f 239 237 238
f 240 237 239
f 193 238 243
f 238 237 243
f 194 238 193
f 239 238 194
f 243 237 305
f 193 243 195
f 194 196 239
f 196 240 239
f 243 242 241
f 196 199 244
f 199 277 244
f 199 201 277
f 862 201 245
f 246 247 248
f 253 241 242
f 243 241 156
f 245 201 249
f 248 946 246
f 948 945 280
f 280 947 948
f 156 241 158
f 280 944 203
f 158 241 253
f 249 206 250
f 944 250 203
f 280 204 251
f 251 204 252
f 158 253 208
f 209 208 253
f 253 254 209
f 255 252 215
f 254 281 212
f 281 282 212
f 216 284 218
f 176 256 215
f 258 218 284
f 176 257 256
f 215 256 257
f 219 258 259
f 219 259 291
f 223 220 293
f 293 260 223
f 221 222 318
f 224 223 295
f 223 260 295
f 261 222 225
f 261 225 262
f 225 184 262
f 184 263 262
f 149 185 298
f 226 927 263
f 927 264 263
f 149 298 265
f 149 265 227
f 228 227 926
f 227 265 926
f 928 228 926
f 267 229 186
f 186 230 267
f 267 231 229
f 188 300 230
f 300 188 189
f 300 189 232
f 300 232 268
f 232 235 268
f 268 235 270
f 269 234 233
f 269 305 234
f 153 237 271
f 153 271 272
f 153 272 235
f 235 272 270
f 271 237 273
f 274 272 271
f 274 271 273
f 236 305 237
f 237 274 273
f 237 240 274
f 240 275 274
f 240 196 275
f 196 276 275
f 242 243 305
f 196 244 276
f 276 244 277
f 862 245 278
f 248 247 279
f 855 857 277
f 248 856 894
f 280 857 947
f 242 305 253
f 245 249 278
f 248 894 946
f 305 310 253
f 251 313 280
f 251 252 313
f 252 255 313
f 281 254 253
f 216 282 284
f 255 215 283
f 257 283 215
f 284 285 258
f 288 283 257
f 285 286 258
f 257 287 288
f 289 283 288
f 258 286 290
f 258 290 259
f 287 257 178
f 287 178 291
f 288 287 291
f 292 288 291
f 289 288 292
f 293 220 294
f 294 220 318
f 318 220 221
f 260 293 294
f 295 260 294
f 222 261 318
f 296 261 262
f 224 295 185
f 297 185 295
f 262 263 296
f 298 185 297
f 263 264 296
f 924 264 266
f 267 230 326
f 329 231 267
f 349 231 329
f 301 300 268
f 231 350 302
f 231 302 190
f 190 302 233
f 301 268 270
f 233 302 269
f 302 303 269
f 303 305 269
f 274 304 270
f 272 274 270
f 274 275 306
f 276 308 307
f 277 308 276
f 277 857 308
f 308 857 280
f 308 280 309
f 280 313 311
f 311 313 312
f 314 336 253
f 336 281 253
f 281 336 282
f 282 315 284
f 255 283 313
f 315 316 284
f 317 284 316
f 284 317 285
f 313 283 341
f 317 286 285
f 283 289 341
f 290 286 340
f 290 340 259
f 259 340 291
f 292 291 341
f 341 289 292
f 318 342 294
f 296 318 261
f 296 319 318
f 295 320 297
f 298 320 321
f 297 320 298
f 296 264 319
f 319 264 322
f 323 298 321
f 322 264 924
f 298 323 265
f 324 925 325
f 325 926 265
f 326 327 267
f 267 327 348
f 326 230 328
f 329 267 348
f 330 328 230
f 330 230 300
f 331 330 300
f 231 349 350
f 300 301 331
f 350 332 303
f 302 350 303
f 332 305 303
f 310 333 334
f 313 335 312
f 310 334 253
f 339 335 313
f 253 334 314
f 282 336 315
f 336 337 315
f 337 316 315
f 338 316 337
f 341 339 313
f 316 338 317
f 286 317 340
f 291 340 341
f 343 342 318
f 294 360 295
f 342 360 294
f 319 344 318
f 295 360 320
f 360 321 320
f 345 321 360
f 299 344 322
f 344 319 322
f 321 345 323
f 361 324 325
f 346 325 265
f 326 347 327
f 326 328 347
f 327 347 348
f 347 328 348
f 329 348 364
f 328 330 364
f 348 328 364
f 349 329 364
f 330 379 364
f 364 350 349
f 379 330 331
f 331 301 379
f 301 270 379
f 379 270 304
f 379 304 351
f 351 304 274
f 274 306 351
f 276 307 460
f 307 308 352
f 308 492 352
f 492 308 309
f 309 280 492
f 280 311 494
f 353 334 333
f 353 333 310
f 353 354 334
f 386 311 312
f 312 335 386
f 335 339 386
f 334 387 314
f 314 387 336
f 355 317 338
f 317 355 356
f 317 356 340
f 342 358 357
f 343 358 342
f 357 360 342
f 318 359 343
f 359 318 344
f 344 925 359
f 925 324 359
f 359 324 361
f 362 361 325
f 363 346 265
f 362 325 346
f 363 362 346
f 365 350 364
f 379 351 366
f 350 365 332
f 351 306 366
f 366 306 404
f 404 306 405
f 405 306 275
f 460 307 367
f 367 307 368
f 492 368 352
f 368 307 352
f 280 494 492
f 305 431 310
f 310 431 353
f 431 369 353
f 311 385 494
f 353 369 370
f 370 354 353
f 311 386 385
f 354 370 334
f 337 371 338
f 371 389 338
f 389 355 338
f 355 389 356
f 357 413 360
f 358 413 357
f 360 372 373
f 359 361 374
f 414 359 374
f 391 361 362
f 265 323 393
f 265 394 417
f 265 417 363
f 394 265 393
f 377 375 398
f 376 375 377
f 379 376 377
f 378 376 379
f 377 401 364
f 379 377 364
f 401 380 365
f 364 401 365
f 379 366 381
f 381 366 404
f 365 527 332
f 332 527 305
f 427 275 276
f 427 276 460
f 382 460 367
f 382 367 383
f 384 383 367
f 368 384 367
f 368 492 384
f 370 369 431
f 336 410 337
f 337 410 371
f 410 388 371
f 388 389 371
f 340 356 438
f 340 438 341
f 343 390 358
f 343 359 390
f 390 359 414
f 360 448 345
f 374 361 391
f 323 392 393
f 363 417 362
f 362 417 391
f 393 392 395
f 395 394 393
f 395 418 396
f 395 396 400
f 400 423 395
f 396 398 375
f 397 396 375
f 397 375 376
f 400 396 397
f 398 399 377
f 378 397 376
f 378 400 397
f 377 399 401
f 378 379 400
f 402 380 401
f 379 381 403
f 379 403 400
f 380 402 365
f 381 404 403
f 405 275 426
f 426 275 427
f 460 382 406
f 406 382 383
f 407 406 383
f 383 384 407
f 370 408 334
f 386 497 385
f 334 408 387
f 408 409 387
f 409 432 387
f 387 434 336
f 336 434 410
f 411 388 410
f 356 389 438
f 412 372 360
f 413 412 360
f 358 390 476
f 390 414 476
f 373 446 447
f 373 447 360
f 372 446 373
f 360 447 448
f 448 519 345
f 345 519 323
f 391 415 374
f 416 415 391
f 392 323 519
f 395 392 519
f 419 395 519
f 420 421 394
f 395 419 418
f 395 420 394
f 395 422 420
f 422 423 420
f 423 421 420
f 395 423 422
f 396 424 398
f 398 456 399
f 402 401 456
f 401 399 456
f 426 425 404
f 405 426 404
f 460 406 428
f 428 406 407
f 428 407 429
f 305 430 431
f 384 492 407
f 495 408 370
f 409 408 432
f 497 386 433
f 432 434 387
f 433 386 436
f 386 339 436
f 411 410 435
f 411 389 388
f 411 435 389
f 436 339 470
f 389 437 438
f 439 440 441
f 440 439 442
f 443 439 441
f 444 443 441
f 445 442 439
f 443 445 439
f 413 358 476
f 412 446 372
f 413 446 412
f 476 446 413
f 374 415 414
f 416 449 415
f 416 391 450
f 391 417 450
f 449 416 450
f 451 452 418
f 419 451 418
f 394 524 417
f 417 524 450
f 453 418 452
f 421 524 394
f 453 424 396
f 418 453 396
f 423 454 421
f 454 455 421
f 423 400 454
f 400 455 454
f 424 456 398
f 456 457 402
f 403 458 400
f 402 555 365
f 403 404 425
f 403 425 458
f 365 555 527
f 459 458 426
f 458 425 426
f 426 427 459
f 427 460 459
f 527 484 305
f 461 462 305
f 429 407 492
f 463 430 462
f 462 430 305
f 463 464 431
f 430 463 431
f 431 464 370
f 498 465 432
f 465 434 432
f 467 497 436
f 497 433 436
f 434 435 410
f 434 466 435
f 435 468 389
f 468 469 389
f 509 436 470
f 438 437 469
f 469 437 389
f 470 339 471
f 438 472 341
f 341 473 474
f 471 339 341
f 474 471 341
f 440 620 441
f 620 440 442
f 446 475 478
f 446 476 475
f 414 477 476
f 447 446 478
f 479 477 414
f 447 478 448
f 414 415 479
f 479 415 449
f 480 419 519
f 520 449 450
f 419 480 451
f 481 453 452
f 453 481 424
f 524 421 455
f 424 482 456
f 482 457 456
f 458 483 400
f 458 459 483
f 459 460 483
f 460 428 487
f 484 485 305
f 486 461 485
f 485 461 305
f 487 428 429
f 488 487 429
f 461 486 462
f 429 492 488
f 462 489 463
f 489 464 463
f 491 464 490
f 464 493 370
f 491 493 464
f 493 495 370
f 494 385 496
f 495 432 408
f 495 532 432
f 532 563 432
f 563 498 432
f 498 499 465
f 465 499 434
f 466 434 499
f 466 499 501
f 501 499 498
f 467 500 497
f 501 503 466
f 467 436 502
f 466 503 435
f 503 504 435
f 504 468 435
f 502 436 505
f 543 468 507
f 469 468 543
f 508 506 505
f 436 509 505
f 469 472 438
f 469 543 472
f 543 510 472
f 508 505 473
f 509 511 505
f 511 473 505
f 470 471 511
f 509 470 511
f 472 510 512
f 341 472 512
f 511 474 473
f 471 474 511
f 513 443 444
f 443 513 514
f 443 514 445
f 445 514 442
f 516 515 513
f 517 514 513
f 515 517 513
f 478 475 518
f 476 518 475
f 476 477 518
f 478 548 448
f 518 548 478
f 548 519 448
f 449 520 479
f 521 520 450
f 480 522 451
f 522 452 451
f 523 452 522
f 450 524 521
f 481 523 631
f 523 481 452
f 400 524 455
f 585 552 424
f 525 524 400
f 526 482 552
f 482 424 552
f 482 526 457
f 457 555 402
f 527 528 484
f 483 460 559
f 529 484 528
f 460 487 559
f 484 529 485
f 485 895 486
f 530 462 486
f 897 595 462
f 487 488 531
f 489 462 595
f 531 488 533
f 489 490 464
f 488 492 533
f 490 532 491
f 493 491 532
f 492 494 533
f 495 493 532
f 494 496 533
f 565 533 496
f 565 496 534
f 496 385 534
f 534 385 535
f 497 535 385
f 606 567 498
f 500 536 497
f 501 498 567
f 537 536 500
f 467 537 500
f 467 502 537
f 502 538 537
f 503 501 539
f 539 501 540
f 540 501 571
f 505 570 538
f 505 538 502
f 539 541 504
f 503 539 504
f 542 541 540
f 541 539 540
f 571 542 540
f 505 506 570
f 504 541 468
f 541 507 468
f 541 542 507
f 507 542 543
f 506 508 570
f 508 473 576
f 510 543 577
f 510 577 512
f 341 512 577
f 576 473 578
f 578 473 341
f 620 579 441
f 441 579 444
f 620 442 544
f 444 579 513
f 442 514 544
f 514 517 544
f 888 515 516
f 515 888 546
f 515 546 517
f 517 546 544
f 890 546 545
f 548 518 547
f 521 550 549
f 521 549 520
f 520 549 479
f 480 548 522
f 519 548 480
f 521 524 584
f 631 551 481
f 551 424 481
f 585 424 551
f 584 524 525
f 553 526 552
f 400 554 525
f 526 553 457
f 554 400 588
f 457 553 555
f 400 483 950
f 556 527 555
f 529 527 557
f 528 527 529
f 558 485 529
f 485 594 896
f 559 487 560
f 897 594 595
f 487 531 560
f 490 489 595
f 560 531 533
f 490 561 532
f 532 599 562
f 561 599 532
f 562 563 532
f 603 533 564
f 565 564 533
f 534 535 565
f 497 536 565
f 536 566 565
f 535 497 565
f 606 498 605
f 536 609 566
f 537 609 536
f 501 567 571
f 568 571 567
f 568 610 569
f 538 609 537
f 570 609 538
f 568 572 571
f 572 568 569
f 610 572 569
f 542 571 573
f 573 571 574
f 572 575 571
f 575 574 571
f 542 573 543
f 543 573 615
f 570 508 576
f 543 615 618
f 543 618 577
f 341 577 578
f 620 544 580
f 513 579 516
f 516 579 888
f 579 581 888
f 544 546 580
f 580 546 582
f 888 581 887
f 546 889 582
f 582 889 623
f 477 623 886
f 623 477 479
f 479 549 583
f 583 549 550
f 584 583 550
f 550 521 584
f 523 630 631
f 585 551 631
f 525 554 584
f 584 554 586
f 552 587 553
f 586 554 588
f 553 587 555
f 587 589 555
f 591 555 590
f 556 555 591
f 556 557 527
f 556 591 557
f 483 559 592
f 663 529 591
f 591 529 557
f 592 559 593
f 529 635 558
f 558 635 636
f 558 636 485
f 560 640 559
f 641 596 595
f 596 561 595
f 595 561 490
f 596 597 561
f 647 560 533
f 599 561 600
f 561 598 600
f 599 601 563
f 562 599 563
f 602 599 600
f 602 601 599
f 533 603 647
f 498 563 601
f 498 601 604
f 604 601 602
f 604 602 651
f 564 565 603
f 498 651 605
f 498 604 651
f 902 652 901
f 605 898 606
f 603 607 647
f 565 566 607
f 603 565 607
f 567 898 608
f 567 606 898
f 898 609 608
f 566 609 607
f 607 609 647
f 567 608 568
f 610 568 608
f 610 608 609
f 617 610 609
f 609 570 617
f 572 610 611
f 617 611 610
f 611 612 575
f 572 611 575
f 574 613 573
f 574 575 614
f 613 574 614
f 575 612 614
f 611 617 612
f 617 614 612
f 570 576 617
f 573 613 615
f 614 615 613
f 616 615 614
f 616 614 617
f 616 619 615
f 619 618 615
f 617 576 619
f 619 577 618
f 578 577 619
f 576 578 619
f 620 621 581
f 579 620 581
f 580 582 621
f 620 580 621
f 621 622 581
f 581 622 887
f 621 582 623
f 622 547 518
f 624 547 622
f 625 623 479
f 626 625 479
f 624 548 547
f 657 548 624
f 627 626 479
f 479 583 627
f 628 548 629
f 629 548 657
f 584 627 583
f 548 628 522
f 630 523 522
f 632 585 631
f 588 682 586
f 586 682 584
f 587 552 660
f 589 587 660
f 589 590 555
f 589 660 590
f 660 633 590
f 686 591 633
f 633 591 590
f 483 592 634
f 663 664 529
f 529 664 635
f 592 593 666
f 485 636 637
f 637 636 635
f 639 637 635
f 666 559 640
f 593 559 666
f 637 638 594
f 485 637 594
f 639 638 637
f 595 594 638
f 595 638 641
f 641 638 639
f 596 641 642
f 642 641 639
f 647 642 639
f 640 647 639
f 640 560 647
f 642 643 597
f 596 642 597
f 647 643 642
f 561 597 643
f 598 561 643
f 598 643 644
f 644 643 645
f 647 646 643
f 646 645 643
f 644 648 600
f 598 644 600
f 669 648 645
f 648 644 645
f 600 648 602
f 602 669 649
f 602 648 669
f 900 650 647
f 602 649 651
f 669 651 649
f 669 672 651
f 605 672 898
f 605 651 672
f 617 653 616
f 616 653 619
f 617 619 653
f 621 914 622
f 621 623 914
f 624 654 657
f 914 624 622
f 913 654 624
f 623 625 914
f 625 655 915
f 655 625 626
f 656 655 626
f 693 656 626
f 626 627 693
f 657 628 629
f 627 584 693
f 680 631 658
f 631 630 658
f 631 680 632
f 585 699 552
f 699 659 552
f 682 588 884
f 552 659 660
f 950 483 661
f 661 483 662
f 660 686 633
f 634 662 483
f 591 686 663
f 664 663 686
f 667 664 686
f 634 592 666
f 664 665 635
f 667 665 664
f 666 667 634
f 635 665 667
f 639 635 667
f 666 640 668
f 666 668 667
f 668 639 667
f 640 639 668
f 669 645 670
f 645 646 670
f 646 647 670
f 671 669 670
f 647 650 671
f 670 647 671
f 672 669 671
f 650 673 671
f 671 673 672
f 650 899 673
f 673 898 672
f 915 655 676
f 655 656 676
f 675 674 657
f 912 657 654
f 915 676 677
f 656 693 677
f 676 656 677
f 674 705 628
f 657 674 628
f 692 677 693
f 705 522 628
f 630 522 678
f 679 658 678
f 658 630 678
f 679 680 658
f 681 584 682
f 632 699 585
f 885 950 683
f 683 950 685
f 660 659 684
f 661 685 950
f 660 684 686
f 662 702 661
f 703 702 662
f 662 634 703
f 703 634 687
f 634 690 687
f 687 690 703
f 667 686 689
f 689 686 688
f 690 689 688
f 690 667 689
f 634 667 690
f 674 675 705
f 675 657 691
f 657 677 691
f 733 691 677
f 692 733 677
f 522 694 678
f 678 694 679
f 693 584 695
f 695 584 696
f 681 696 584
f 682 697 681
f 923 697 682
f 632 698 699
f 683 700 885
f 699 684 659
f 699 701 684
f 685 724 683
f 701 716 684
f 685 661 702
f 686 684 716
f 716 717 704
f 717 702 704
f 702 703 704
f 688 686 716
f 688 716 704
f 690 688 704
f 703 690 704
f 706 705 675
f 706 675 691
f 733 692 707
f 707 692 693
f 708 707 693
f 693 695 708
f 708 695 709
f 696 710 695
f 721 710 696
f 680 737 632
f 681 721 696
f 681 697 721
f 737 698 632
f 699 698 711
f 700 723 721
f 699 725 712
f 699 711 725
f 700 683 724
f 712 713 701
f 699 712 701
f 724 685 714
f 716 701 713
f 716 713 712
f 724 717 715
f 685 702 717
f 685 717 714
f 714 717 724
f 715 717 716
f 727 522 705
f 727 744 522
f 744 694 522
f 718 733 707
f 707 708 718
f 694 719 720
f 708 709 710
f 718 708 710
f 720 737 694
f 737 679 694
f 709 695 710
f 679 737 680
f 737 739 698
f 739 711 698
f 739 722 711
f 725 711 722
f 723 700 724
f 725 754 726
f 723 724 726
f 716 712 725
f 726 716 725
f 715 716 726
f 724 715 726
f 727 705 728
f 705 745 728
f 705 706 745
f 742 744 727
f 706 731 745
f 731 706 691
f 732 729 730
f 744 729 732
f 691 733 731
f 744 732 694
f 735 719 734
f 719 694 734
f 736 719 735
f 720 719 736
f 718 710 750
f 736 737 720
f 710 721 750
f 750 721 738
f 740 738 721
f 739 741 722
f 740 723 753
f 721 723 740
f 722 741 725
f 725 741 739
f 754 725 739
f 753 726 755
f 753 723 726
f 755 726 754
f 742 743 744
f 729 743 730
f 744 743 729
f 731 746 745
f 732 747 694
f 733 761 731
f 761 733 748
f 749 734 747
f 734 694 747
f 733 718 748
f 748 718 750
f 751 734 749
f 735 734 751
f 735 751 736
f 751 737 736
f 737 765 739
f 739 765 752
f 768 753 752
f 738 740 766
f 739 752 754
f 755 754 752
f 753 755 752
f 938 727 756
f 938 743 742
f 727 938 742
f 727 757 756
f 727 728 757
f 745 757 728
f 758 757 745
f 730 760 732
f 746 773 745
f 773 746 759
f 759 746 731
f 747 732 760
f 761 759 731
f 774 747 760
f 749 747 774
f 783 761 750
f 761 748 750
f 749 774 751
f 750 775 783
f 775 750 762
f 774 737 751
f 762 750 764
f 737 774 765
f 766 764 738
f 738 764 750
f 768 767 765
f 763 770 769
f 740 770 763
f 766 740 763
f 765 767 752
f 768 752 767
f 769 753 768
f 770 753 769
f 740 753 770
f 757 779 756
f 743 781 730
f 757 758 772
f 772 758 745
f 730 781 760
f 773 772 745
f 773 759 761
f 760 782 774
f 766 763 783
f 766 783 776
f 776 783 775
f 762 764 776
f 775 762 776
f 774 784 765
f 785 765 784
f 768 765 785
f 768 785 777
f 778 777 785
f 763 778 783
f 764 766 776
f 778 768 777
f 769 768 778
f 763 769 778
f 938 756 788
f 788 756 779
f 780 779 757
f 772 780 757
f 781 782 760
f 792 772 773
f 783 792 773
f 773 761 783
f 784 774 782
f 785 784 782
f 783 778 785
f 786 938 788
f 786 788 787
f 789 788 779
f 780 799 779
f 799 780 790
f 772 790 780
f 782 781 801
f 792 800 772
f 801 802 791
f 782 801 793
f 793 801 791
f 794 793 791
f 783 794 792
f 792 794 791
f 782 793 785
f 794 785 793
f 783 785 794
f 939 796 795
f 939 786 796
f 797 786 787
f 797 787 788
f 797 788 789
f 797 789 798
f 798 789 799
f 789 779 799
f 781 808 801
f 799 772 800
f 790 772 799
f 800 792 802
f 792 791 802
f 771 803 804
f 805 803 771
f 805 771 819
f 937 939 806
f 797 806 795
f 806 939 795
f 795 796 797
f 796 786 797
f 797 798 807
f 743 823 781
f 807 798 799
f 810 807 799
f 834 809 808
f 801 808 811
f 809 812 808
f 812 811 808
f 799 800 812
f 799 812 810
f 810 812 809
f 802 801 811
f 812 802 811
f 800 802 812
f 813 814 815
f 814 813 816
f 869 813 815
f 867 869 815
f 868 816 813
f 830 907 817
f 868 909 937
f 937 816 868
f 803 818 804
f 805 818 803
f 819 818 805
f 937 806 820
f 797 820 806
f 797 822 820
f 743 821 823
f 797 807 822
f 825 781 823
f 822 807 824
f 809 824 810
f 810 824 807
f 781 825 808
f 834 808 825
f 826 827 828
f 903 904 905
f 906 903 905
f 815 814 858
f 827 826 858
f 858 814 816
f 908 903 906
f 816 937 858
f 818 840 804
f 804 840 771
f 937 820 858
f 938 940 743
f 940 841 743
f 841 821 743
f 820 822 832
f 820 832 831
f 821 833 823
f 831 833 821
f 823 833 825
f 831 825 833
f 834 825 831
f 832 835 831
f 835 834 831
f 822 824 835
f 832 822 835
f 835 809 834
f 824 809 835
f 827 836 837
f 828 827 837
f 828 837 829
f 827 838 836
f 858 838 827
f 829 843 818
f 838 858 839
f 818 843 840
f 858 820 839
f 839 820 831
f 841 845 821
f 831 821 845
f 846 831 845
f 836 847 837
f 847 842 837
f 837 842 829
f 838 847 836
f 829 842 843
f 940 845 841
f 846 845 940
f 846 844 831
f 831 844 839
f 847 848 843
f 842 847 843
f 838 839 848
f 847 838 848
f 843 848 840
f 839 840 848
f 839 849 865
f 839 844 849
f 866 849 846
f 844 846 849
