g 512
v 159.0 287.0 91.5
v 159.5 287.0 92.0
v 159.0 285.5 93.0
v 159.5 286.0 93.0
v 157.5 287.0 93.0
v 159.0 285.5 94.0
v 159.5 286.0 94.0
v 157.5 287.0 94.0
v 159.5 289.0 94.0
v 156.0 298.0 93.5
v 157.0 298.0 93.5
v 157.5 298.0 94.0
v 140.0 305.0 93.5
v 145.0 305.0 93.5
v 141.0 305.5 94.0
v 141.0 306.0 93.5
v 142.0 306.0 93.5
v 142.0 305.5 94.0
v 139.0 307.0 93.5
v 138.5 307.0 94.0
v 140.0 306.5 94.0
v 143.0 307.0 93.5
v 143.5 307.0 94.0
v 140.0 308.0 93.5
v 143.0 308.0 93.5
v 143.5 308.0 94.0
v 140.0 308.5 94.0
v 141.0 308.5 94.0
v 143.0 308.5 94.0
v 159.5 287.0 95.0
v 159.5 289.0 95.0
v 159.0 290.0 94.5
v 160.0 289.5 95.0
v 160.0 290.0 94.5
v 160.5 290.0 95.0
v 160.0 291.0 94.5
v 160.5 291.0 95.0
v 154.5 298.0 95.0
v 157.5 298.0 95.0
v 155.0 299.0 94.5
v 154.5 299.0 95.0
v 157.0 299.0 94.5
v 158.0 298.5 95.0
v 158.0 299.0 94.5
v 140.0 303.5 95.0
v 147.0 304.0 94.5
v 139.0 305.0 94.5
v 143.5 305.0 95.0
v 146.0 305.0 94.5
v 148.0 305.0 94.5
v 144.5 306.0 95.0
v 148.0 306.0 94.5
v 141.0 306.5 95.0
v 142.0 306.5 95.0
v 145.0 306.5 95.0
v 140.0 307.5 95.0
v 140.0 308.0 94.5
v 140.5 308.0 95.0
v 142.5 308.0 95.0
v 140.5 309.0 95.0
v 141.0 309.5 95.0
v 159.5 288.0 96.0
v 160.5 289.0 96.0
v 157.5 290.0 96.0
v 161.5 291.0 96.0
v 160.0 292.5 96.0
v 158.0 297.0 95.5
v 158.0 298.0 95.5
v 159.0 298.0 95.5
v 159.0 299.0 95.5
v 159.5 299.0 96.0
v 155.0 300.5 96.0
v 158.0 300.5 96.0
v 146.0 302.0 95.5
v 147.0 302.0 95.5
v 149.0 302.0 95.5
v 150.0 302.0 95.5
v 142.0 303.0 95.5
v 141.0 304.0 95.5
v 141.0 303.5 96.0
v 143.5 304.0 96.0
v 146.0 304.0 95.5
v 142.0 305.0 95.5
v 150.0 305.0 95.5
v 141.0 306.0 95.5
v 149.0 306.0 95.5
v 142.5 307.0 96.0
v 144.0 307.0 95.5
v 145.0 306.5 96.0
v 140.0 308.0 95.5
v 139.0 309.0 95.5
v 140.0 309.0 95.5
v 141.0 308.5 96.0
v 143.0 308.5 96.0
v 139.0 309.5 96.0
v 140.0 309.5 96.0
v 159.5 288.0 97.0
v 157.5 289.0 97.0
v 160.5 289.0 97.0
v 159.5 291.0 97.0
v 160.5 291.0 97.0
v 151.0 298.0 96.5
v 159.5 298.0 97.0
v 148.0 299.0 96.5
v 150.0 299.0 96.5
v 144.0 301.0 96.5
v 146.0 301.0 96.5
v 147.0 301.0 96.5
v 149.0 301.0 96.5
v 150.0 301.0 96.5
v 154.0 300.5 97.0
v 155.0 300.5 97.0
v 155.5 301.0 97.0
v 142.0 302.0 96.5
v 143.0 302.0 96.5
v 145.0 302.0 96.5
v 148.0 302.0 96.5
v 151.0 302.0 96.5
v 152.0 302.0 96.5
v 156.0 301.5 97.0
v 157.0 301.5 97.0
v 143.0 303.0 96.5
v 150.0 303.0 96.5
v 153.0 303.0 96.5
v 137.0 304.0 96.5
v 138.0 304.0 96.5
v 143.0 304.0 96.5
v 150.0 304.0 96.5
v 136.0 305.0 96.5
v 135.0 306.0 96.5
v 151.0 306.0 96.5
v 135.0 307.0 96.5
v 143.0 307.0 96.5
v 137.0 308.0 96.5
v 144.0 308.0 96.5
v 148.0 308.0 96.5
v 149.0 308.0 96.5
v 137.0 309.0 96.5
v 141.0 309.0 96.5
v 149.0 308.5 97.0
v 139.0 309.5 97.0
v 140.0 310.0 96.5
v 141.0 310.0 96.5
v 159.0 286.5 98.0
v 159.5 287.0 98.0
v 160.0 287.5 98.0
v 160.5 289.0 98.0
v 160.0 290.0 97.5
v 159.0 290.5 98.0
v 160.0 290.5 98.0
v 159.5 291.0 98.0
v 161.0 290.5 98.0
v 151.0 296.0 97.5
v 154.0 296.0 97.5
v 149.0 297.0 97.5
v 153.0 297.0 97.5
v 160.5 297.0 98.0
v 147.0 298.0 97.5
v 150.0 298.0 97.5
v 160.5 298.0 98.0
v 147.0 299.0 97.5
v 154.0 301.0 97.5
v 155.0 301.0 97.5
v 138.0 302.0 97.5
v 138.0 301.5 98.0
v 153.0 302.0 97.5
v 155.0 302.0 97.5
v 156.0 301.5 98.0
v 157.0 301.5 98.0
v 138.0 303.0 97.5
v 135.0 304.0 97.5
v 154.0 304.0 97.5
v 133.0 305.0 97.5
v 152.0 305.0 97.5
v 134.0 307.0 97.5
v 133.0 308.0 97.5
v 134.0 309.0 97.5
v 148.0 308.5 98.0
v 139.0 310.0 97.5
v 149.0 309.5 98.0
v 138.0 311.0 97.5
v 163.0 286.0 98.5
v 164.0 287.0 98.5
v 161.0 288.0 98.5
v 164.0 288.0 98.5
v 157.5 289.0 99.0
v 161.0 289.0 98.5
v 158.5 290.0 99.0
v 164.0 290.0 98.5
v 158.5 291.0 99.0
v 163.0 291.0 98.5
v 162.0 292.0 98.5
v 157.0 293.0 98.5
v 160.0 293.0 98.5
v 158.0 294.0 98.5
v 161.5 297.0 99.0
v 158.5 300.0 99.0
v 158.5 301.0 99.0
v 139.0 301.5 99.0
v 156.0 302.0 98.5
v 155.0 303.0 98.5
v 154.0 305.0 98.5
v 155.0 305.0 98.5
v 131.0 307.0 98.5
v 131.0 308.0 98.5
v 132.0 308.0 98.5
v 145.0 309.0 98.5
v 148.0 309.0 98.5
v 151.0 308.5 99.0
v 133.0 310.0 98.5
v 135.0 310.0 98.5
v 147.0 310.0 98.5
v 148.0 309.5 99.0
v 150.0 309.5 99.0
v 135.0 311.0 98.5
v 142.0 311.0 98.5
v 145.0 311.0 98.5
v 142.0 312.0 98.5
v 162.0 285.0 99.5
v 162.0 284.5 100.0
v 163.0 285.0 99.5
v 164.0 285.0 99.5
v 164.0 284.5 100.0
v 166.0 287.0 99.5
v 166.0 288.0 99.5
v 164.0 289.0 99.5
v 165.0 289.0 99.5
v 165.0 290.0 99.5
v 161.0 293.0 99.5
v 162.0 293.0 99.5
v 159.0 294.0 99.5
v 160.0 294.0 99.5
v 149.0 294.5 100.0
v 147.0 295.5 100.0
v 144.0 297.5 100.0
v 140.0 299.5 100.0
v 159.0 300.0 99.5
v 160.0 300.0 99.5
v 137.0 300.5 100.0
v 131.0 304.0 99.5
v 132.0 304.0 99.5
v 130.0 306.0 99.5
v 131.0 306.0 99.5
v 130.0 308.0 99.5
v 130.0 309.0 99.5
v 151.0 308.5 100.0
v 149.0 309.5 100.0
v 132.0 311.0 99.5
v 134.0 311.0 99.5
v 134.0 312.0 99.5
v 137.0 312.0 99.5
v 137.0 313.0 99.5
v 138.0 313.0 99.5
v 142.0 312.5 100.0
v 137.0 313.5 100.0
v 138.0 313.5 100.0
v 141.0 313.5 100.0
v 165.0 285.5 101.0
v 166.0 285.5 101.0
v 167.5 287.0 101.0
v 167.5 288.0 101.0
v 151.0 292.5 101.0
v 150.0 293.5 101.0
v 162.0 294.0 100.5
v 163.0 294.0 100.5
v 163.5 294.0 101.0
v 162.5 298.0 101.0
v 141.0 298.5 101.0
v 138.0 299.5 101.0
v 139.0 299.5 101.0
v 140.0 299.5 101.0
v 161.5 300.0 101.0
v 135.0 300.5 101.0
v 137.0 300.5 101.0
v 157.0 304.0 100.5
v 130.0 305.0 100.5
v 157.5 305.0 101.0
v 128.0 306.0 100.5
v 156.0 306.5 101.0
v 130.0 310.0 100.5
v 130.0 311.0 100.5
v 150.0 310.5 101.0
v 133.0 312.0 100.5
v 133.0 313.0 100.5
v 147.0 312.5 101.0
v 136.0 313.5 101.0
v 137.0 313.5 101.0
v 141.0 313.5 101.0
v 140.0 314.5 101.0
v 165.0 284.5 102.0
v 166.0 284.5 102.0
v 167.5 286.0 102.0
v 167.5 287.0 102.0
v 157.5 289.0 102.0
v 167.5 289.0 102.0
v 156.0 289.5 102.0
v 167.5 290.0 102.0
v 155.0 290.5 102.0
v 152.0 291.5 102.0
v 150.0 293.5 102.0
v 163.5 294.0 102.0
v 145.0 295.5 102.0
v 163.5 296.0 102.0
v 162.5 297.0 102.0
v 142.0 297.5 102.0
v 136.0 299.5 102.0
v 140.0 299.5 102.0
v 133.0 300.5 102.0
v 134.0 300.5 102.0
v 161.5 301.0 102.0
v 131.0 301.5 102.0
v 132.0 301.5 102.0
v 161.0 302.5 102.0
v 160.5 303.0 102.0
v 161.0 303.0 101.5
v 161.5 303.0 102.0
v 160.0 303.5 102.0
v 159.5 304.0 102.0
v 160.0 304.0 101.5
v 161.0 303.5 102.0
v 160.5 304.0 102.0
v 160.0 304.5 102.0
v 157.5 306.0 102.0
v 158.0 306.0 101.5
v 158.0 305.5 102.0
v 158.5 306.0 102.0
v 158.0 306.5 102.0
v 128.0 309.0 101.5
v 154.0 308.5 102.0
v 128.0 310.0 101.5
v 129.0 310.0 101.5
v 149.0 311.0 101.5
v 151.0 310.5 102.0
v 131.0 312.0 101.5
v 131.0 313.0 101.5
v 148.0 312.5 102.0
v 133.0 314.5 102.0
v 166.0 284.5 103.0
v 168.5 287.0 103.0
v 158.0 287.5 103.0
v 168.5 288.0 103.0
v 167.5 289.0 103.0
v 154.0 290.5 103.0
v 153.0 291.5 103.0
v 146.0 294.5 103.0
v 163.5 296.0 103.0
v 143.0 296.5 103.0
v 144.0 296.5 103.0
v 163.5 298.0 103.0
v 141.0 298.5 103.0
v 162.5 299.0 103.0
v 135.0 299.5 103.0
v 161.5 301.0 103.0
v 163.0 301.0 102.5
v 130.0 301.5 103.0
v 159.5 303.0 103.0
v 161.0 303.0 102.5
v 160.0 304.0 102.5
v 126.0 305.0 102.5
v 127.0 305.0 102.5
v 158.0 306.0 102.5
v 125.0 307.0 102.5
v 156.5 307.0 103.0
v 155.0 307.5 103.0
v 156.0 307.5 103.0
v 125.0 309.0 102.5
v 124.5 309.0 103.0
v 127.0 309.0 102.5
v 152.0 309.5 103.0
v 127.0 311.0 102.5
v 129.0 312.0 102.5
v 149.0 311.5 103.0
v 129.0 313.0 102.5
v 148.0 312.5 103.0
v 133.0 314.5 103.0
v 134.0 315.5 103.0
v 140.0 315.5 103.0
v 142.0 316.0 102.5
v 144.0 315.5 103.0
v 145.0 315.5 103.0
v 141.0 316.5 103.0
v 142.0 316.5 103.0
v 167.0 284.5 104.0
v 168.5 286.0 104.0
v 167.5 291.0 104.0
v 147.0 293.5 104.0
v 149.0 293.5 104.0
v 146.0 294.5 104.0
v 164.5 295.0 104.0
v 144.0 295.5 104.0
v 142.0 297.5 104.0
v 163.5 298.0 104.0
v 139.0 298.5 104.0
v 163.0 299.0 103.5
v 163.5 299.0 104.0
v 165.0 299.0 103.5
v 165.0 298.5 104.0
v 164.5 299.0 104.0
v 165.5 299.0 104.0
v 163.0 300.0 103.5
v 164.0 300.0 103.5
v 165.0 299.5 104.0
v 164.0 301.0 103.5
v 164.5 301.0 104.0
v 162.0 301.5 104.0
v 162.0 302.5 104.0
v 161.5 303.0 104.0
v 162.0 303.0 103.5
v 163.0 302.5 104.0
v 162.5 303.0 104.0
v 159.5 304.0 104.0
v 161.0 304.0 103.5
v 162.0 303.5 104.0
v 159.0 305.0 103.5
v 160.0 305.0 103.5
v 161.0 304.5 104.0
v 160.5 305.0 104.0
v 157.0 307.0 103.5
v 156.0 307.5 104.0
v 157.0 308.0 103.5
v 158.0 307.5 104.0
v 124.5 309.0 104.0
v 157.0 308.5 104.0
v 125.0 310.0 103.5
v 126.0 310.0 103.5
v 153.0 309.5 104.0
v 126.0 312.0 103.5
v 127.0 313.0 103.5
v 148.0 314.0 103.5
v 148.5 314.0 104.0
v 133.0 315.0 103.5
v 132.0 316.0 103.5
v 132.5 316.0 104.0
v 139.0 315.5 104.0
v 141.0 315.5 104.0
v 142.0 315.5 104.0
v 145.0 315.5 104.0
v 132.0 316.5 104.0
v 140.0 316.5 104.0
v 143.0 316.5 104.0
v 165.0 283.5 105.0
v 168.0 284.5 105.0
v 161.0 285.5 105.0
v 169.5 286.0 105.0
v 159.0 287.5 105.0
v 157.0 288.5 105.0
v 169.5 290.0 105.0
v 155.0 290.5 105.0
v 153.0 291.5 105.0
v 168.5 292.0 105.0
v 149.0 292.5 105.0
v 151.0 292.5 105.0
v 148.0 293.5 105.0
v 145.0 295.5 105.0
v 166.0 296.0 104.5
v 166.5 296.0 105.0
v 142.0 296.5 105.0
v 165.0 297.0 104.5
v 140.0 297.5 105.0
v 164.5 298.0 105.0
v 165.0 299.0 104.5
v 138.0 299.5 105.0
v 165.0 300.0 104.5
v 165.5 300.0 105.0
v 136.0 300.5 105.0
v 164.0 300.5 105.0
v 165.0 300.5 105.0
v 126.0 302.5 105.0
v 161.0 303.0 104.5
v 161.5 303.0 105.0
v 162.0 303.0 104.5
v 160.0 304.0 104.5
v 162.5 304.0 105.0
v 161.0 304.5 105.0
v 160.5 305.0 105.0
v 162.0 304.5 105.0
v 160.5 306.0 105.0
v 122.5 307.0 105.0
v 122.5 308.0 105.0
v 159.0 307.5 105.0
v 156.0 308.5 105.0
v 122.5 311.0 105.0
v 125.0 311.0 104.5
v 154.0 310.5 105.0
v 123.0 311.5 105.0
v 124.0 311.5 105.0
v 152.0 311.5 105.0
v 126.0 314.0 104.5
v 128.0 314.0 104.5
v 126.0 314.5 105.0
v 130.0 315.0 104.5
v 129.0 316.0 104.5
v 133.0 316.0 104.5
v 135.0 316.0 104.5
v 141.0 316.0 104.5
v 142.0 316.0 104.5
v 146.5 316.0 105.0
v 129.0 316.5 105.0
v 132.0 316.5 105.0
v 133.0 317.0 104.5
v 134.0 317.0 104.5
v 141.0 316.5 105.0
v 141.5 317.0 105.0
v 142.0 317.0 104.5
v 143.0 317.0 104.5
v 146.0 316.5 105.0
v 133.0 317.5 105.0
v 134.0 317.5 105.0
v 142.0 317.5 105.0
v 162.0 284.5 106.0
v 167.0 284.5 106.0
v 160.0 285.5 106.0
v 161.0 285.5 106.0
v 170.5 287.0 106.0
v 170.5 288.0 106.0
v 156.0 288.5 106.0
v 157.0 288.5 106.0
v 169.5 289.0 106.0
v 153.0 290.5 106.0
v 151.0 291.5 106.0
v 147.0 293.5 106.0
v 167.5 294.0 106.0
v 145.0 294.5 106.0
v 144.0 295.5 106.0
v 165.5 297.0 106.0
v 140.0 297.5 106.0
v 167.0 298.0 105.5
v 167.0 297.5 106.0
v 166.5 298.0 106.0
v 167.5 298.0 106.0
v 138.0 298.5 106.0
v 139.0 298.5 106.0
v 166.0 298.5 106.0
v 165.5 299.0 106.0
v 166.0 299.0 105.5
v 167.0 298.5 106.0
v 166.5 299.0 106.0
v 164.5 300.0 106.0
v 166.0 299.5 106.0
v 165.0 301.0 105.5
v 165.5 301.0 106.0
v 163.0 303.0 105.5
v 161.5 304.0 106.0
v 162.0 303.5 106.0
v 163.0 303.5 106.0
v 160.5 305.0 106.0
v 161.0 304.5 106.0
v 159.5 306.0 106.0
v 160.0 305.5 106.0
v 122.5 307.0 106.0
v 122.0 308.0 105.5
v 122.0 309.0 105.5
v 123.0 309.0 105.5
v 122.5 310.0 106.0
v 123.0 310.0 105.5
v 151.0 311.5 106.0
v 124.0 313.0 105.5
v 125.0 313.0 105.5
v 149.0 313.5 106.0
v 129.0 316.5 106.0
v 133.0 316.5 106.0
v 134.0 316.5 106.0
v 135.0 316.5 106.0
v 137.0 317.0 105.5
v 141.0 317.0 105.5
v 130.0 317.5 106.0
v 132.0 317.5 106.0
v 136.0 317.5 106.0
v 138.0 318.0 105.5
v 141.0 318.0 105.5
v 142.0 317.5 106.0
v 144.0 317.5 106.0
v 138.0 318.5 106.0
v 141.0 318.5 106.0
v 168.0 283.5 107.0
v 161.0 284.5 107.0
v 170.5 286.0 107.0
v 158.5 287.0 107.0
v 157.0 287.5 107.0
v 158.0 287.5 107.0
v 154.0 289.5 107.0
v 155.0 289.5 107.0
v 170.5 291.0 107.0
v 151.0 291.5 107.0
v 168.5 293.0 107.0
v 167.5 296.0 107.0
v 168.0 296.5 107.0
v 167.5 297.0 107.0
v 168.0 297.0 106.5
v 168.5 297.0 107.0
v 141.0 297.5 107.0
v 143.0 297.5 107.0
v 167.0 298.0 106.5
v 168.0 297.5 107.0
v 138.0 298.5 107.0
v 166.0 299.0 106.5
v 165.5 299.0 107.0
v 135.0 299.5 107.0
v 134.0 300.5 107.0
v 164.5 301.0 107.0
v 163.0 303.0 106.5
v 162.5 303.0 107.0
v 162.5 304.0 107.0
v 162.0 304.5 107.0
v 161.0 305.5 107.0
v 121.0 307.0 106.5
v 159.5 307.0 107.0
v 159.0 307.5 107.0
v 122.0 310.0 106.5
v 155.0 309.5 107.0
v 156.0 309.5 107.0
v 121.0 311.0 106.5
v 153.0 310.5 107.0
v 123.0 312.0 106.5
v 150.0 313.5 107.0
v 125.0 315.0 106.5
v 126.0 315.0 106.5
v 126.0 316.0 106.5
v 133.0 317.0 106.5
v 135.0 317.0 106.5
v 128.0 317.5 107.0
v 130.0 317.5 107.0
v 131.0 317.5 107.0
v 132.0 318.0 106.5
v 136.0 318.0 106.5
v 137.0 317.5 107.0
v 142.0 317.5 107.0
v 132.0 318.5 107.0
v 136.0 318.5 107.0
v 165.0 283.5 108.0
v 167.0 283.5 108.0
v 160.5 285.0 108.0
v 159.0 285.5 108.0
v 171.5 286.0 108.0
v 156.5 288.0 108.0
v 155.0 288.5 108.0
v 171.5 289.0 108.0
v 169.5 292.0 108.0
v 150.0 293.5 108.0
v 169.5 294.0 108.0
v 147.0 294.5 108.0
v 144.0 296.5 108.0
v 166.5 297.0 108.0
v 168.0 297.0 107.5
v 166.5 298.0 108.0
v 142.0 298.5 108.0
v 135.0 299.5 108.0
v 136.0 299.5 108.0
v 164.5 300.0 108.0
v 165.5 300.0 108.0
v 166.0 300.0 107.5
v 166.0 299.5 108.0
v 166.5 300.0 108.0
v 137.0 300.5 108.0
v 166.0 300.5 108.0
v 165.5 301.0 108.0
v 164.0 302.5 108.0
v 162.5 304.0 108.0
v 161.0 304.5 108.0
v 162.0 304.5 108.0
v 120.0 306.0 107.5
v 121.0 306.0 107.5
v 159.5 306.0 108.0
v 119.5 311.0 108.0
v 155.0 310.5 108.0
v 121.5 312.0 108.0
v 153.0 311.5 108.0
v 121.5 313.0 108.0
v 151.0 312.5 108.0
v 152.0 312.5 108.0
v 150.0 313.5 108.0
v 129.0 317.5 108.0
v 136.0 317.5 108.0
v 138.0 317.5 108.0
v 139.0 317.5 108.0
v 130.0 318.5 108.0
v 131.0 318.5 108.0
v 134.0 318.5 108.0
v 135.0 318.5 108.0
v 140.0 318.5 108.0
v 142.0 318.5 108.0
v 165.0 282.5 109.0
v 167.0 282.5 109.0
v 161.0 283.5 109.0
v 163.0 283.5 109.0
v 164.0 283.5 109.0
v 170.0 283.5 109.0
v 171.5 285.0 109.0
v 157.0 286.5 109.0
v 156.5 287.0 109.0
v 158.0 286.5 109.0
v 170.5 291.0 109.0
v 170.5 293.0 109.0
v 149.0 294.5 109.0
v 169.5 295.0 109.0
v 148.0 295.5 109.0
v 145.0 296.5 109.0
v 168.0 297.5 109.0
v 167.5 298.0 109.0
v 168.0 298.0 108.5
v 168.5 298.0 109.0
v 165.5 299.0 109.0
v 167.0 299.0 108.5
v 168.0 298.5 109.0
v 167.5 299.0 109.0
v 166.0 300.0 108.5
v 167.0 299.5 109.0
v 135.0 300.5 109.0
v 136.0 300.5 109.0
v 138.0 300.5 109.0
v 163.0 302.5 109.0
v 164.0 302.5 109.0
v 162.0 304.0 108.5
v 161.5 304.0 109.0
v 161.5 305.0 109.0
v 160.0 306.5 109.0
v 119.5 311.0 109.0
v 154.0 310.5 109.0
v 155.0 310.5 109.0
v 119.5 312.0 109.0
v 121.0 312.0 108.5
v 153.0 311.5 109.0
v 150.0 312.5 109.0
v 123.0 315.5 109.0
v 124.0 316.5 109.0
v 145.0 316.5 109.0
v 146.0 316.5 109.0
v 136.0 318.0 108.5
v 144.0 317.5 109.0
v 128.0 318.5 109.0
v 129.0 318.5 109.0
v 132.0 318.5 109.0
v 133.0 318.5 109.0
v 137.0 319.0 108.5
v 134.0 319.5 109.0
v 137.0 319.5 109.0
v 163.0 282.5 110.0
v 170.0 283.5 110.0
v 159.0 284.5 110.0
v 160.0 284.5 110.0
v 171.5 285.0 110.0
v 172.5 286.0 110.0
v 153.5 290.0 110.0
v 171.5 290.0 110.0
v 151.5 292.0 110.0
v 171.5 292.0 110.0
v 151.5 293.0 110.0
v 149.0 294.5 110.0
v 150.0 294.5 110.0
v 167.5 297.0 110.0
v 167.0 298.0 109.5
v 168.0 298.0 109.5
v 142.0 298.5 110.0
v 139.0 299.5 110.0
v 134.0 300.5 110.0
v 135.0 300.5 110.0
v 165.5 301.0 110.0
v 164.0 301.5 110.0
v 165.0 301.5 110.0
v 121.0 302.5 110.0
v 120.0 303.5 110.0
v 161.5 304.0 110.0
v 117.5 306.0 110.0
v 118.0 310.0 109.5
v 154.0 310.5 110.0
v 118.5 312.0 110.0
v 152.0 311.5 110.0
v 150.0 312.5 110.0
v 148.0 314.5 110.0
v 122.0 315.5 110.0
v 123.0 315.5 110.0
v 147.0 315.5 110.0
v 124.0 316.5 110.0
v 145.0 316.5 110.0
v 125.0 317.5 110.0
v 127.0 318.5 110.0
v 132.0 319.5 110.0
v 133.0 319.5 110.0
v 162.0 282.5 111.0
v 166.0 282.5 111.0
v 160.0 283.5 111.0
v 154.5 289.0 111.0
v 155.5 289.0 111.0
v 153.5 290.0 111.0
v 153.5 291.0 111.0
v 155.0 291.0 110.5
v 154.5 291.0 111.0
v 155.0 290.5 111.0
v 155.5 291.0 111.0
v 172.5 291.0 111.0
v 150.0 294.5 111.0
v 170.5 295.0 111.0
v 145.0 298.0 110.5
v 147.0 298.0 110.5
v 167.5 298.0 111.0
v 142.0 299.0 110.5
v 145.0 299.0 110.5
v 167.5 299.0 111.0
v 167.0 299.5 111.0
v 136.0 300.5 111.0
v 138.0 300.5 111.0
v 134.0 301.5 111.0
v 135.0 301.5 111.0
v 137.0 301.5 111.0
v 164.0 301.5 111.0
v 120.5 303.0 111.0
v 119.0 303.5 111.0
v 120.0 303.5 111.0
v 117.5 306.0 111.0
v 157.0 306.5 111.0
v 158.0 306.5 111.0
v 116.5 309.0 111.0
v 117.5 310.0 111.0
v 143.0 315.5 111.0
v 124.0 316.5 111.0
v 126.0 317.5 111.0
v 127.0 318.5 111.0
v 130.0 318.5 111.0
v 138.0 318.5 111.0
v 131.0 319.5 111.0
v 137.0 319.5 111.0
v 165.0 281.0 111.5
v 165.0 280.5 112.0
v 164.5 281.0 112.0
v 166.0 281.5 112.0
v 161.0 282.5 112.0
v 170.0 282.5 112.0
v 160.0 283.5 112.0
v 172.0 283.5 112.0
v 158.0 284.5 112.0
v 157.5 285.0 112.0
v 159.0 284.5 112.0
v 173.5 285.0 112.0
v 173.5 286.0 112.0
v 156.5 287.0 112.0
v 155.0 288.5 112.0
v 154.5 289.0 112.0
v 155.5 289.0 112.0
v 173.5 289.0 112.0
v 154.0 290.0 111.5
v 156.0 290.0 111.5
v 154.5 291.0 112.0
v 155.0 290.5 112.0
v 155.5 291.0 112.0
v 152.5 292.0 112.0
v 172.5 292.0 112.0
v 152.5 293.0 112.0
v 171.5 294.0 112.0
v 170.5 295.0 112.0
v 146.0 299.0 111.5
v 147.0 299.0 111.5
v 143.0 300.0 111.5
v 146.0 300.0 111.5
v 131.0 300.5 112.0
v 132.0 300.5 112.0
v 134.0 300.5 112.0
v 135.0 300.5 112.0
v 137.0 300.5 112.0
v 144.0 301.0 111.5
v 165.0 300.5 112.0
v 121.0 301.5 112.0
v 122.0 301.5 112.0
v 118.0 304.5 112.0
v 116.5 306.0 112.0
v 160.0 305.5 112.0
v 115.5 308.0 112.0
v 116.5 309.0 112.0
v 143.0 315.5 112.0
v 130.0 318.5 112.0
v 131.0 319.5 112.0
v 165.0 281.5 113.0
v 166.0 281.5 113.0
v 163.0 282.5 113.0
v 170.0 282.5 113.0
v 173.5 287.0 113.0
v 156.5 288.0 113.0
v 173.5 289.0 113.0
v 154.5 290.0 113.0
v 172.5 290.0 113.0
v 153.5 291.0 113.0
v 155.0 291.0 112.5
v 156.5 291.0 113.0
v 155.0 291.5 113.0
v 155.5 292.0 113.0
v 172.5 292.0 113.0
v 151.5 294.0 113.0
v 171.5 294.0 113.0
v 154.0 295.0 112.5
v 153.5 295.0 113.0
v 154.0 294.5 113.0
v 154.5 295.0 113.0
v 150.0 296.0 112.5
v 151.0 296.0 112.5
v 150.0 298.0 112.5
v 149.0 299.0 112.5
v 151.0 299.0 112.5
v 151.5 299.0 113.0
v 167.0 298.5 113.0
v 150.0 300.0 112.5
v 165.5 300.0 113.0
v 122.0 301.0 112.5
v 122.0 300.5 113.0
v 121.5 301.0 113.0
v 130.0 300.5 113.0
v 133.0 300.5 113.0
v 134.0 301.0 112.5
v 137.0 301.0 112.5
v 145.0 301.0 112.5
v 150.0 301.0 112.5
v 150.5 301.0 113.0
v 165.0 300.5 113.0
v 121.5 302.0 113.0
v 134.0 302.0 112.5
v 138.0 302.0 112.5
v 144.0 302.0 112.5
v 146.0 302.0 112.5
v 149.0 302.0 112.5
v 148.5 302.0 113.0
v 119.0 302.5 113.0
v 135.0 303.0 112.5
v 138.0 303.0 112.5
v 149.0 302.5 113.0
v 147.0 304.0 112.5
v 148.0 304.0 112.5
v 148.5 304.0 113.0
v 117.0 304.5 113.0
v 147.0 304.5 113.0
v 148.0 304.5 113.0
v 115.5 306.0 113.0
v 154.0 307.0 112.5
v 152.0 308.0 112.5
v 154.0 308.0 112.5
v 115.5 309.0 113.0
v 150.0 309.0 112.5
v 152.0 309.0 112.5
v 115.5 311.0 113.0
v 146.0 313.0 112.5
v 147.0 313.0 112.5
v 142.0 314.5 113.0
v 143.0 314.5 113.0
v 121.0 316.5 113.0
v 123.0 317.5 113.0
v 125.0 318.5 113.0
v 137.0 318.5 113.0
v 130.0 319.5 113.0
v 135.0 319.5 113.0
v 165.0 282.0 113.5
v 163.0 283.0 113.5
v 164.0 283.0 113.5
v 167.0 283.0 113.5
v 170.0 283.0 113.5
v 161.0 284.0 113.5
v 162.0 284.0 113.5
v 172.0 285.0 113.5
v 158.0 286.0 113.5
v 159.0 286.0 113.5
v 172.0 286.0 113.5
v 158.0 287.0 113.5
v 173.0 287.0 113.5
v 157.0 288.0 113.5
v 173.0 289.0 113.5
v 154.0 291.0 113.5
v 154.5 291.0 114.0
v 155.5 291.0 114.0
v 157.0 291.0 113.5
v 154.5 292.0 114.0
v 156.0 292.0 113.5
v 155.5 292.0 114.0
v 172.0 292.0 113.5
v 155.0 292.5 114.0
v 154.5 293.0 114.0
v 156.0 293.0 113.5
v 171.0 293.0 113.5
v 155.0 294.0 113.5
v 171.0 294.0 113.5
v 154.0 294.5 114.0
v 155.0 295.0 113.5
v 153.5 296.0 114.0
v 155.0 297.0 113.5
v 153.0 298.0 113.5
v 154.0 298.0 113.5
v 166.0 298.0 113.5
v 167.0 298.0 113.5
v 150.0 299.0 113.5
v 151.5 299.0 114.0
v 154.0 299.0 113.5
v 166.5 299.0 114.0
v 148.0 300.0 113.5
v 149.0 300.0 113.5
v 151.0 300.0 113.5
v 152.0 299.5 114.0
v 152.0 300.0 113.5
v 154.0 300.0 113.5
v 164.0 300.0 113.5
v 165.0 300.0 113.5
v 133.0 301.0 113.5
v 148.0 301.0 113.5
v 149.0 301.0 113.5
v 152.0 301.0 113.5
v 157.0 301.0 113.5
v 159.0 301.0 113.5
v 161.0 301.0 113.5
v 163.0 301.0 113.5
v 121.5 302.0 114.0
v 125.0 302.0 113.5
v 147.0 302.0 113.5
v 160.0 302.0 113.5
v 119.0 303.0 113.5
v 122.0 302.5 114.0
v 124.0 303.0 113.5
v 127.0 303.0 113.5
v 128.0 303.0 113.5
v 132.0 303.0 113.5
v 134.0 303.0 113.5
v 139.0 303.0 113.5
v 146.0 303.0 113.5
v 147.0 303.0 113.5
v 149.0 302.5 114.0
v 148.5 303.0 114.0
v 151.0 303.0 113.5
v 154.0 303.0 113.5
v 155.0 303.0 113.5
v 161.0 303.0 113.5
v 130.0 304.0 113.5
v 153.0 304.0 113.5
v 116.0 306.0 113.5
v 145.0 306.0 113.5
v 150.0 306.0 113.5
v 154.0 306.0 113.5
v 155.0 306.0 113.5
v 153.0 307.0 113.5
v 136.0 308.0 113.5
v 149.0 308.0 113.5
v 150.0 308.0 113.5
v 135.0 309.0 113.5
v 148.0 309.0 113.5
v 138.0 310.0 113.5
v 147.0 310.0 113.5
v 116.0 311.0 113.5
v 136.0 312.0 113.5
v 136.0 313.0 113.5
v 119.0 314.0 113.5
v 137.0 314.0 113.5
v 142.0 314.5 114.0
v 121.0 316.0 113.5
v 122.0 316.0 113.5
v 127.0 316.0 113.5
v 128.0 317.0 113.5
v 130.0 317.0 113.5
v 134.0 317.0 113.5
v 155.0 291.0 114.5
v 155.0 292.0 114.5
v 154.0 293.0 114.5
v 153.0 294.0 114.5
v 154.0 294.0 114.5
v 153.0 295.0 114.5
v 153.0 296.0 114.5
v 155.0 296.0 114.5
v 152.0 297.0 114.5
v 154.0 297.0 114.5
v 152.0 298.0 114.5
v 152.0 299.0 114.5
v 153.0 299.0 114.5
v 166.0 299.0 114.5
v 153.0 300.0 114.5
v 151.0 301.0 114.5
v 162.0 301.0 114.5
v 122.0 302.0 114.5
v 124.0 302.0 114.5
v 127.0 302.0 114.5
v 128.0 302.0 114.5
v 130.0 302.0 114.5
v 151.0 302.0 114.5
v 157.0 302.0 114.5
v 159.0 302.0 114.5
v 161.0 302.0 114.5
v 129.0 303.0 114.5
v 153.0 303.0 114.5
v 157.0 303.0 114.5
v 160.0 303.0 114.5
v 132.0 304.0 114.5
v 134.0 304.0 114.5
v 149.0 304.0 114.5
v 154.0 304.0 114.5
v 135.0 305.0 114.5
v 145.0 305.0 114.5
v 148.0 305.0 114.5
v 150.0 305.0 114.5
v 155.0 305.0 114.5
v 136.0 307.0 114.5
v 149.0 307.0 114.5
v 150.0 307.0 114.5
v 135.0 308.0 114.5
v 148.0 308.0 114.5
v 147.0 309.0 114.5
v 139.0 310.0 114.5
v 146.0 310.0 114.5
v 146.0 311.0 114.5
v 137.0 312.0 114.5
v 144.0 312.0 114.5
v 145.0 312.0 114.5
v 137.0 313.0 114.5
v 138.0 314.0 114.5
v 142.0 314.0 114.5
v 125.0 317.0 114.5
v 127.0 317.0 114.5
v 136.0 317.0 114.5
v 137.0 317.0 114.5
v 130.0 318.0 114.5
v 134.0 318.0 114.5
v 135.0 318.0 114.5
v 141.0 308.5 94.0
v 160.0 289.5 95.0
v 157.0 299.0 94.5
v 158.0 298.5 95.0
v 144.5 306.0 95.0
v 141.0 306.5 95.0
v 140.0 308.0 94.5
v 141.0 308.5 96.0
v 155.5 301.0 97.0
v 143.0 307.0 96.5
v 160.0 290.0 97.5
v 160.0 290.0 97.5
v 160.0 290.0 97.5
v 161.0 290.5 98.0
v 156.5 307.0 103.0
v 156.0 307.5 104.0
v 132.5 316.0 104.0
v 141.0 315.5 104.0
v 142.0 315.5 104.0
v 165.0 300.0 104.5
v 164.0 300.5 105.0
v 160.0 304.0 104.5
v 160.0 304.0 104.5
v 132.0 316.5 105.0
v 141.5 317.0 105.0
v 164.5 300.0 106.0
v 162.0 303.5 106.0
v 133.0 316.5 106.0
v 163.0 303.0 106.5
v 162.0 304.0 108.5
v 155.0 290.5 111.0
v 154.0 290.0 111.5
v 156.0 290.0 111.5
v 154.5 290.0 113.0
v 154.0 290.5 113.0
v 155.0 291.0 112.5
v 155.0 291.5 113.0
v 154.5 295.0 113.0
v 151.0 299.0 112.5
v 167.0 298.5 113.0
v 150.0 300.0 112.5
v 150.0 300.0 112.5
v 122.0 301.0 112.5
v 150.0 301.0 112.5
v 121.5 302.0 113.0
v 148.5 302.0 113.0
v 154.0 291.0 113.5
v 154.5 291.0 114.0
v 154.0 294.5 114.0
v 152.0 299.5 114.0
v 149.0 302.5 114.0
v 159.0 285.5 94.0
v 159.0 285.5 94.0
v 159.5 286.0 94.0
v 159.5 287.0 95.0
v 157.5 287.0 94.0
v 140.0 315.5 103.0
v 134.0 315.5 103.0
v 164.5 300.0 106.0
v 165.0 301.0 105.5
v 142.0 306.5 95.0
v 164.5 300.0 106.0
v 162.0 303.5 106.0
v 162.0 303.5 106.0
v 163.0 303.0 105.5
v 163.0 303.0 105.5
v 164.5 301.0 104.0
v 163.0 302.5 104.0
v 155.5 291.0 111.0
v 141.0 308.5 94.0
v 141.0 308.5 96.0
v 166.0 298.0 113.5
v 155.0 291.5 113.0
v 154.5 291.0 111.0
v 152.0 299.5 114.0
v 156.0 290.0 111.5
v 134.0 300.5 110.0
v 134.0 300.5 110.0
v 134.0 301.5 111.0
v 134.0 301.5 111.0
v 134.0 300.5 112.0
v 134.0 300.5 112.0
v 154.5 295.0 113.0
v 153.5 296.0 114.0
v 153.5 296.0 114.0
v 167.0 298.0 109.5
v 167.0 298.0 109.5
v 165.5 299.0 109.0
v 165.5 299.0 109.0
v 165.5 299.0 109.0
v 167.0 299.5 109.0
v 167.0 299.5 109.0
v 167.0 299.0 108.5
v 167.0 299.0 108.5
v 154.0 290.0 111.5
v 154.5 290.0 113.0
v 155.0 290.5 112.0
v 157.5 298.0 94.0
v 155.0 297.0 113.5
v 155.0 297.0 113.5
v 155.0 296.0 114.5
v 155.0 296.0 114.5
v 157.0 288.5 105.0
v 157.0 288.5 105.0
v 165.0 300.5 112.0
v 140.0 306.5 94.0
v 140.0 306.5 94.0
v 141.0 306.0 95.5
v 142.0 305.0 95.5
v 121.0 301.5 112.0
v 121.5 302.0 113.0
v 121.5 302.0 113.0
v 134.0 316.5 106.0
v 120.5 303.0 111.0
v 164.5 298.0 105.0
v 164.5 298.0 105.0
v 163.5 298.0 104.0
v 164.5 300.0 106.0
v 125.0 310.0 103.5
v 125.0 310.0 103.5
v 157.0 307.5 106.0
v 157.0 307.5 106.0
v 156.0 309.5 107.0
v 155.0 310.5 108.0
v 156.5 307.0 103.0
v 156.0 307.5 103.0
v 149.0 307.0 114.5
v 149.0 307.0 114.5
v 150.0 305.0 114.5
v 152.0 301.0 113.5
v 152.0 301.0 113.5
v 151.0 303.0 113.5
v 148.5 303.0 114.0
v 148.5 303.0 114.0
v 151.0 302.0 114.5
v 145.0 306.5 96.0
v 163.5 298.0 103.0
v 164.5 300.0 108.0
v 130.0 318.0 114.5
v 130.0 318.0 114.5
v 160.0 290.0 97.5
v 151.5 299.0 113.0
v 155.0 307.5 103.0
v 155.0 307.5 103.0
v 156.5 307.0 103.0
v 142.0 316.5 103.0
v 142.0 316.5 103.0
v 142.0 316.0 102.5
v 142.0 316.0 102.5
v 142.0 315.5 104.0
v 142.0 315.5 104.0
v 144.0 315.5 103.0
v 161.5 301.0 103.0
v 161.5 301.0 103.0
v 162.0 301.5 104.0
v 155.0 288.5 111.0
v 155.0 288.5 111.0
v 156.5 287.0 112.0
v 156.0 290.0 111.5
v 155.5 289.0 111.0
v 146.0 300.0 96.5
v 146.0 300.0 96.5
v 147.0 299.0 97.5
v 147.0 298.0 97.5
v 151.0 291.5 107.0
v 151.0 291.5 107.0
v 151.5 292.0 110.0
v 138.0 302.0 112.5
v 138.0 302.0 112.5
v 156.5 288.0 108.0
v 157.0 287.5 107.0
v 154.5 291.0 111.0
v 155.0 294.0 113.5
v 154.0 294.5 114.0
v 154.0 294.5 114.0
v 155.0 291.5 113.0
v 155.0 291.5 113.0
v 159.0 287.5 105.0
v 159.0 286.5 98.0
v 157.5 290.0 96.0
v 157.5 290.0 96.0
v 159.5 291.0 97.0
v 159.5 291.0 97.0
v 160.5 291.0 97.0
v 160.5 291.0 97.0
v 159.0 290.5 98.0
v 151.0 291.5 106.0
v 133.0 315.0 103.5
v 161.0 301.0 113.5
v 161.0 301.0 113.5
v 163.0 301.0 113.5
v 162.0 301.0 114.5
v 157.0 307.5 106.0
v 157.0 307.5 106.0
v 159.0 307.5 107.0
v 152.0 298.0 114.5
v 161.0 301.0 113.5
v 160.0 305.5 112.0
v 161.0 303.0 113.5
v 161.0 303.0 113.5
v 161.0 302.0 114.5
v 157.0 307.5 106.0
v 142.5 308.0 95.0
v 134.0 315.5 103.0
v 121.5 313.0 108.0
v 121.5 313.0 108.0
v 154.5 291.0 112.0
v 155.0 291.0 112.5
v 154.0 290.5 113.0
v 149.0 304.0 95.5
v 149.0 304.0 95.5
v 149.0 302.0 95.5
v 150.0 307.0 114.5
v 153.0 307.0 113.5
v 153.0 307.0 113.5
v 132.0 316.0 103.5
v 132.0 316.5 105.0
v 132.0 316.5 104.0
v 132.0 316.0 103.5
v 121.0 311.0 106.5
v 119.5 311.0 108.0
v 144.0 317.5 109.0
v 144.0 317.5 109.0
v 157.0 293.0 98.5
v 158.5 291.0 99.0
v 157.0 293.0 98.5
v 158.5 290.0 99.0
v 116.5 305.0 112.0
v 116.5 305.0 112.0
v 117.0 304.5 113.0
v 119.0 303.5 111.0
v 118.0 304.5 112.0
v 117.0 304.5 113.0
v 138.0 300.5 109.0
v 119.5 311.0 108.0
v 116.5 306.0 112.0
v 154.0 291.0 113.5
v 121.0 311.0 106.5
v 166.5 299.0 114.0
v 166.0 299.0 114.5
v 166.0 299.0 114.5
v 134.0 315.5 103.0
v 148.5 302.0 113.0
v 148.0 304.0 112.5
v 147.0 302.0 113.5
v 158.0 287.5 103.0
v 129.0 316.0 104.5
v 129.0 316.0 104.5
v 157.5 289.0 99.0
v 130.0 317.0 113.5
v 125.0 317.0 114.5
v 125.0 317.0 114.5
v 135.0 309.0 113.5
v 156.0 307.5 104.0
v 158.0 307.5 104.0
v 157.0 308.5 104.0
v 124.0 311.5 105.0
f 1 5 32
f 2 1 32
f 3 5 1
f 3 1 2
f 3 2 4
f 3 1163 1167
f 1164 3 4
f 7 1164 4
f 1167 5 3
f 64 5 1167
f 5 64 32
f 4 2 7
f 32 9 2
f 15 1218 16
f 16 17 18
f 15 16 18
f 23 18 17
f 23 17 22
f 19 24 1218
f 16 1218 24
f 17 16 25
f 25 16 24
f 22 17 25
f 26 23 22
f 25 26 22
f 24 19 27
f 1181 24 27
f 25 24 1181
f 29 25 1181
f 26 25 29
f 8 6 1165
f 8 1165 1166
f 7 2 30
f 2 9 30
f 30 9 31
f 33 31 9
f 1113 9 32
f 33 32 34
f 33 34 35
f 32 36 34
f 37 35 34
f 36 37 34
f 10 154 38
f 11 1209 67
f 67 12 39
f 41 40 38
f 38 40 10
f 10 42 11
f 40 42 10
f 43 39 12
f 1115 1209 42
f 43 1114 44
f 42 1209 11
f 43 44 70
f 82 48 14
f 14 49 82
f 46 82 49
f 47 1218 13
f 83 13 1217
f 55 14 51
f 14 55 49
f 46 52 50
f 19 47 20
f 1218 47 19
f 15 1117 1218
f 18 1117 15
f 54 1117 18
f 23 54 18
f 19 20 91
f 91 20 47
f 57 19 56
f 56 58 57
f 59 54 26
f 54 23 26
f 19 57 27
f 57 1112 27
f 1118 60 28
f 57 58 60
f 59 26 29
f 59 29 1181
f 28 60 61
f 1314 28 61
f 62 30 31
f 31 33 62
f 62 33 35
f 62 35 63
f 32 64 36
f 63 35 37
f 63 37 65
f 37 36 66
f 65 37 66
f 36 64 66
f 11 67 195
f 154 156 38
f 67 39 68
f 69 195 67
f 69 67 68
f 156 41 38
f 39 43 68
f 70 68 43
f 70 69 68
f 70 71 69
f 72 40 41
f 40 73 42
f 72 73 40
f 42 73 44
f 70 44 73
f 71 70 73
f 75 74 1322
f 76 118 77
f 13 79 80
f 13 80 45
f 78 80 79
f 127 122 78
f 46 76 82
f 1322 74 82
f 45 129 47
f 13 45 47
f 13 83 79
f 83 78 79
f 83 127 78
f 82 81 48
f 50 76 46
f 50 86 76
f 84 76 86
f 83 1217 1219
f 85 1172 1220
f 54 87 83
f 133 14 48
f 133 48 81
f 14 133 51
f 50 52 86
f 129 134 47
f 21 53 85
f 1172 85 53
f 51 133 88
f 1116 88 89
f 51 1247 55
f 49 55 89
f 46 49 89
f 52 46 136
f 52 136 86
f 47 134 91
f 56 19 90
f 56 90 58
f 87 54 59
f 91 90 19
f 91 92 90
f 92 1119 90
f 90 93 58
f 58 1182 60
f 94 59 1119
f 135 59 94
f 92 91 95
f 96 92 95
f 60 1182 61
f 92 96 1119
f 1314 61 1182
f 145 8 1166
f 30 62 145
f 145 62 97
f 1167 98 64
f 97 62 63
f 99 97 63
f 99 63 148
f 64 98 1124
f 1124 100 64
f 101 148 63
f 63 65 101
f 1291 1294 1295
f 65 66 101
f 1292 101 66
f 296 154 10
f 11 296 10
f 1337 296 11
f 11 195 1337
f 157 69 103
f 69 71 103
f 105 104 109
f 156 102 110
f 41 156 111
f 111 156 110
f 41 111 72
f 108 1272 107
f 104 1272 108
f 109 104 108
f 105 109 110
f 102 105 110
f 72 111 112
f 72 112 113
f 107 106 116
f 74 107 116
f 75 107 74
f 108 107 75
f 75 117 108
f 1323 109 117
f 109 108 117
f 77 109 1323
f 110 109 77
f 118 110 77
f 119 110 118
f 119 111 110
f 72 113 120
f 73 72 120
f 121 73 120
f 114 80 78
f 122 114 78
f 122 115 114
f 106 115 116
f 116 115 122
f 74 116 82
f 75 1322 117
f 1323 117 1321
f 118 76 123
f 170 125 126
f 81 116 127
f 116 122 127
f 82 116 81
f 123 76 128
f 118 123 128
f 119 118 131
f 131 124 119
f 170 175 129
f 170 129 125
f 126 125 129
f 45 126 129
f 84 128 76
f 84 131 128
f 131 118 128
f 175 130 129
f 83 87 127
f 81 127 133
f 84 86 136
f 84 136 131
f 132 130 175
f 129 130 132
f 134 129 132
f 127 87 1121
f 87 59 1121
f 135 1121 59
f 88 133 135
f 89 88 135
f 89 135 207
f 207 46 89
f 136 46 207
f 137 131 136
f 132 138 134
f 134 138 91
f 139 94 1119
f 135 94 207
f 140 137 136
f 131 137 140
f 91 138 95
f 95 138 141
f 142 96 141
f 96 95 141
f 96 139 1119
f 96 142 139
f 142 143 139
f 1167 1290 98
f 144 8 145
f 146 145 97
f 146 97 99
f 146 99 147
f 148 1297 147
f 148 147 99
f 1252 98 149
f 150 151 1123
f 1293 1123 151
f 1122 1296 152
f 1123 1125 150
f 152 1296 192
f 1295 1294 151
f 154 153 156
f 69 157 195
f 159 155 1275
f 102 153 159
f 153 155 159
f 156 153 102
f 103 160 157
f 158 1273 1274
f 104 1275 161
f 105 1275 104
f 159 1275 105
f 102 159 105
f 104 161 1272
f 103 71 73
f 197 103 73
f 111 163 112
f 162 163 111
f 112 163 113
f 169 197 73
f 165 164 80
f 111 119 166
f 111 166 162
f 163 162 167
f 113 163 167
f 1120 167 168
f 113 168 120
f 121 120 169
f 120 168 169
f 169 73 121
f 45 164 170
f 80 164 45
f 124 166 119
f 124 172 166
f 172 162 166
f 172 167 162
f 45 170 126
f 124 131 174
f 124 174 172
f 170 171 175
f 204 173 240
f 176 173 204
f 175 173 176
f 131 209 174
f 176 177 175
f 132 175 138
f 175 177 138
f 136 207 178
f 140 136 178
f 138 179 141
f 141 179 142
f 139 217 94
f 94 217 207
f 179 138 181
f 179 181 142
f 142 257 143
f 143 257 216
f 143 216 139
f 217 139 216
f 98 1290 1357
f 145 340 144
f 145 146 340
f 146 184 340
f 183 182 185
f 1357 186 98
f 184 147 187
f 146 147 184
f 182 184 187
f 189 182 187
f 189 185 182
f 149 98 186
f 188 149 186
f 1297 187 147
f 190 149 188
f 150 187 151
f 151 187 1297
f 152 187 150
f 192 187 152
f 189 187 191
f 191 187 192
f 190 193 149
f 151 1297 194
f 194 1295 151
f 1297 1337 194
f 195 194 1337
f 153 263 155
f 195 157 196
f 234 107 1275
f 157 160 238
f 238 160 103
f 238 103 197
f 169 198 197
f 239 164 165
f 80 199 165
f 165 199 239
f 200 169 168
f 164 239 170
f 167 172 201
f 167 200 168
f 167 201 200
f 201 203 200
f 275 169 203
f 203 169 200
f 201 172 203
f 172 174 202
f 172 202 203
f 174 209 202
f 203 202 209
f 206 204 205
f 204 206 176
f 176 206 177
f 207 208 178
f 178 208 140
f 131 140 214
f 131 214 209
f 205 249 210
f 205 210 206
f 177 206 210
f 210 211 177
f 177 211 138
f 208 207 212
f 213 208 212
f 140 208 213
f 140 213 180
f 214 140 180
f 210 215 211
f 138 211 215
f 217 212 207
f 181 138 253
f 253 142 181
f 257 218 216
f 218 217 216
f 219 221 220
f 221 222 223
f 220 221 223
f 258 223 222
f 220 1357 219
f 219 1357 184
f 221 219 184
f 182 221 184
f 182 183 221
f 183 227 221
f 227 222 221
f 258 222 224
f 224 222 227
f 183 185 227
f 224 227 225
f 185 189 226
f 185 226 227
f 228 226 189
f 228 227 226
f 1338 1335 1336
f 1360 1335 1338
f 228 189 191
f 1296 230 192
f 229 230 1296
f 194 195 231
f 231 232 194
f 194 229 1296
f 194 232 229
f 262 153 154
f 196 231 195
f 196 232 231
f 229 232 196
f 263 233 155
f 233 234 1275
f 155 233 1275
f 107 235 106
f 234 235 107
f 238 267 157
f 196 157 267
f 268 236 114
f 115 268 114
f 235 268 115
f 106 235 115
f 197 237 238
f 236 199 80
f 114 236 80
f 197 198 237
f 275 238 198
f 198 238 237
f 239 274 170
f 273 175 171
f 170 273 171
f 274 273 170
f 198 169 275
f 240 241 312
f 173 312 241
f 173 241 240
f 275 203 277
f 240 242 243
f 240 243 204
f 209 279 203
f 203 279 277
f 204 243 242
f 204 244 205
f 242 244 204
f 214 246 209
f 205 244 249
f 244 245 249
f 247 180 213
f 180 247 214
f 245 248 249
f 210 249 215
f 215 249 250
f 215 251 138
f 250 251 215
f 138 251 253
f 250 252 251
f 251 252 253
f 253 257 142
f 254 218 257
f 217 218 254
f 379 217 254
f 380 217 379
f 253 252 255
f 256 253 255
f 257 253 256
f 258 224 260
f 258 260 259
f 260 225 261
f 224 225 260
f 186 1357 294
f 225 227 295
f 225 295 261
f 228 295 227
f 296 1337 294
f 1337 186 294
f 228 191 297
f 191 192 297
f 192 230 385
f 153 262 263
f 154 299 262
f 230 229 264
f 264 265 230
f 266 385 230
f 265 266 230
f 229 196 264
f 196 265 264
f 267 303 196
f 270 236 271
f 268 271 236
f 267 238 272
f 269 274 239
f 199 269 239
f 270 269 199
f 236 270 199
f 238 275 272
f 308 175 309
f 273 309 175
f 308 312 173
f 175 308 173
f 311 276 240
f 312 311 240
f 242 276 278
f 240 276 242
f 242 278 244
f 278 245 244
f 247 282 214
f 246 214 282
f 245 280 281
f 245 281 248
f 213 332 247
f 282 247 332
f 248 281 283
f 248 283 249
f 249 283 250
f 213 212 285
f 213 285 332
f 250 283 284
f 250 286 252
f 217 380 212
f 285 212 380
f 286 250 284
f 252 286 255
f 255 286 287
f 256 255 287
f 254 257 288
f 289 257 256
f 223 258 290
f 259 290 258
f 291 290 259
f 259 292 291
f 259 260 292
f 292 260 293
f 260 261 293
f 261 295 293
f 228 297 295
f 298 343 154
f 296 298 154
f 297 192 385
f 343 299 154
f 300 263 262
f 385 266 301
f 265 196 301
f 265 301 266
f 302 234 233
f 196 303 301
f 305 235 234
f 302 348 234
f 303 267 304
f 305 268 235
f 269 270 306
f 271 307 270
f 307 271 268
f 309 273 274
f 269 306 274
f 275 310 272
f 272 310 267
f 313 314 315
f 313 315 316
f 317 318 319
f 314 320 315
f 317 319 321
f 316 315 320
f 275 277 414
f 319 318 322
f 321 319 322
f 414 277 279
f 414 279 363
f 323 324 325
f 325 324 326
f 363 279 209
f 324 323 327
f 326 324 327
f 363 209 1254
f 245 366 328
f 245 278 366
f 369 209 246
f 1254 209 329
f 329 209 369
f 245 328 331
f 328 330 331
f 245 331 280
f 246 282 333
f 246 333 369
f 330 371 331
f 280 331 281
f 333 282 332
f 281 371 334
f 281 331 371
f 281 334 283
f 283 334 335
f 283 335 284
f 374 285 380
f 332 285 336
f 336 285 374
f 284 335 337
f 337 1315 284
f 1315 286 284
f 288 379 254
f 1315 287 286
f 256 287 1353
f 289 256 376
f 288 257 289
f 220 290 510
f 223 290 220
f 291 338 290
f 338 291 292
f 339 292 293
f 293 341 339
f 1357 296 294
f 293 295 342
f 295 297 342
f 262 299 449
f 299 344 449
f 344 299 343
f 386 263 387
f 452 387 300
f 387 263 300
f 262 452 300
f 345 233 388
f 386 388 263
f 388 233 263
f 345 302 233
f 301 303 346
f 303 304 349
f 303 349 346
f 347 305 234
f 348 347 234
f 350 268 305
f 304 267 351
f 270 307 306
f 267 400 351
f 352 309 274
f 306 352 274
f 267 310 353
f 400 267 353
f 355 311 312
f 354 1264 409
f 403 354 409
f 355 276 311
f 275 356 310
f 310 356 353
f 313 357 314
f 313 316 357
f 317 358 318
f 275 415 356
f 320 314 357
f 321 358 317
f 316 320 357
f 318 358 322
f 275 414 415
f 321 322 358
f 276 360 278
f 360 359 278
f 325 361 323
f 325 326 361
f 323 361 327
f 326 327 361
f 278 362 366
f 1256 364 365
f 366 362 367
f 366 368 328
f 369 1255 329
f 328 368 330
f 330 368 371
f 368 370 371
f 370 373 371
f 371 373 334
f 334 373 335
f 372 332 336
f 374 372 336
f 335 375 337
f 374 380 429
f 1315 337 375
f 377 289 376
f 289 379 288
f 377 381 289
f 379 289 1260
f 1260 289 381
f 1262 1263 1259
f 1257 1260 381
f 1261 378 382
f 338 292 383
f 292 339 383
f 383 339 384
f 339 341 384
f 1214 296 1357
f 293 342 447
f 293 447 341
f 341 447 384
f 448 296 1214
f 448 298 296
f 342 297 385
f 385 301 522
f 388 302 345
f 301 346 458
f 301 458 389
f 390 347 348
f 302 390 348
f 349 458 346
f 391 305 347
f 393 307 268
f 393 268 350
f 304 351 394
f 304 394 395
f 304 395 349
f 1248 395 1228
f 396 397 398
f 397 396 399
f 393 462 307
f 462 306 307
f 351 400 394
f 395 394 401
f 401 394 400
f 398 402 396
f 399 396 402
f 354 400 1265
f 403 400 354
f 403 401 400
f 403 404 401
f 353 469 405
f 409 1264 1266
f 403 409 404
f 353 356 469
f 406 407 408
f 406 408 410
f 276 355 360
f 356 415 411
f 469 1134 412
f 407 413 408
f 410 408 413
f 1134 416 412
f 278 478 362
f 363 418 414
f 418 420 414
f 420 415 414
f 362 479 367
f 478 479 362
f 419 1237 1255
f 1236 1237 419
f 1126 1127 420
f 363 420 418
f 415 420 421
f 422 367 479
f 1255 369 481
f 420 1127 423
f 421 420 423
f 424 366 367
f 424 367 422
f 424 425 366
f 366 425 368
f 481 369 426
f 1231 370 425
f 425 370 368
f 333 332 487
f 369 333 487
f 487 332 372
f 427 428 370
f 370 428 373
f 373 428 1358
f 429 430 374
f 491 373 1358
f 335 373 491
f 335 491 375
f 491 431 375
f 375 431 1315
f 380 497 429
f 433 1299 1327
f 432 431 491
f 1168 1169 1299
f 1168 1299 434
f 437 380 379
f 497 380 437
f 433 1327 438
f 377 435 381
f 1258 381 435
f 1130 1258 435
f 379 436 440
f 290 338 510
f 443 220 510
f 383 384 442
f 442 384 444
f 443 1357 220
f 445 1357 443
f 444 384 518
f 384 447 518
f 298 448 343
f 342 385 450
f 447 342 450
f 448 344 343
f 449 344 448
f 452 262 449
f 386 453 521
f 451 453 387
f 453 386 387
f 452 451 387
f 521 388 386
f 389 522 301
f 302 454 390
f 454 302 388
f 522 389 455
f 455 456 522
f 458 455 389
f 456 455 458
f 459 350 305
f 457 459 391
f 459 305 391
f 347 457 391
f 349 392 460
f 458 349 460
f 459 532 350
f 532 393 350
f 1226 1228 395
f 398 397 461
f 397 399 461
f 465 352 462
f 462 352 306
f 532 462 393
f 395 401 463
f 395 463 464
f 1226 395 464
f 398 461 402
f 402 461 399
f 352 465 309
f 463 1132 467
f 1131 1178 466
f 463 401 404
f 1178 405 466
f 464 463 467
f 468 359 355
f 469 470 405
f 406 471 407
f 410 471 406
f 1178 1179 405
f 355 359 360
f 356 411 472
f 356 472 469
f 469 412 473
f 470 469 473
f 407 471 413
f 413 471 410
f 411 415 472
f 416 1134 474
f 474 1133 475
f 415 417 472
f 475 472 417
f 473 412 416
f 473 416 476
f 476 416 474
f 359 662 278
f 415 480 477
f 415 477 417
f 417 477 475
f 278 662 478
f 480 415 421
f 422 479 553
f 1255 481 419
f 1366 1367 1365
f 553 424 422
f 1230 1368 483
f 1230 483 370
f 369 487 484
f 369 484 426
f 481 426 484
f 424 482 485
f 486 424 485
f 1368 488 483
f 370 483 427
f 427 483 488
f 427 488 428
f 372 374 487
f 428 488 489
f 428 489 1359
f 374 430 559
f 487 374 559
f 489 488 490
f 559 429 497
f 559 430 429
f 491 1358 1328
f 491 1328 1330
f 1299 433 493
f 493 494 1299
f 494 434 1299
f 1129 1168 495
f 1129 496 436
f 495 496 1129
f 1328 1358 498
f 1330 1328 1329
f 433 438 499
f 1128 1135 500
f 433 500 493
f 501 493 500
f 501 494 493
f 564 434 494
f 1168 434 439
f 495 1168 439
f 495 439 502
f 502 439 434
f 502 503 504
f 502 504 495
f 495 504 496
f 436 505 440
f 436 496 505
f 496 504 505
f 437 379 440
f 437 440 506
f 497 437 506
f 500 1135 507
f 501 500 507
f 508 501 507
f 494 501 508
f 504 503 509
f 505 504 509
f 441 576 338
f 576 510 338
f 441 338 631
f 631 338 511
f 338 383 511
f 383 442 511
f 512 443 513
f 513 443 510
f 512 1215 443
f 1214 1357 445
f 443 1215 1289
f 444 518 514
f 518 515 514
f 516 1214 517
f 516 582 448
f 1214 516 448
f 519 520 449
f 448 519 449
f 520 584 452
f 1277 451 452
f 449 520 452
f 521 453 451
f 385 522 450
f 523 388 521
f 523 524 454
f 524 390 454
f 388 523 454
f 524 347 390
f 457 347 524
f 525 456 458
f 458 460 597
f 458 597 525
f 527 528 529
f 528 527 530
f 526 532 459
f 533 534 535
f 529 536 527
f 533 535 537
f 530 527 536
f 598 465 462
f 532 531 462
f 464 1229 1227
f 535 534 539
f 537 535 539
f 598 599 465
f 599 309 465
f 466 405 538
f 464 467 1229
f 1132 1229 467
f 1171 541 1137
f 405 470 538
f 545 1171 542
f 1177 540 1170
f 541 1171 545
f 473 543 470
f 538 470 544
f 544 470 543
f 1174 545 542
f 1175 1176 1173
f 474 546 547
f 475 546 474
f 543 473 476
f 543 476 547
f 547 476 474
f 549 546 477
f 477 546 475
f 478 662 550
f 548 480 1305
f 549 480 548
f 477 480 549
f 551 479 550
f 479 478 550
f 421 419 1305
f 1305 480 421
f 479 551 553
f 551 552 553
f 1305 419 481
f 552 554 555
f 552 555 553
f 553 555 424
f 1305 481 484
f 610 1305 484
f 482 555 554
f 424 555 482
f 482 612 614
f 485 482 614
f 486 485 614
f 488 1368 558
f 1368 557 558
f 559 556 487
f 488 558 490
f 490 558 617
f 489 490 617
f 489 617 1359
f 492 560 498
f 1328 498 560
f 562 563 494
f 568 494 563
f 568 564 494
f 434 565 502
f 564 565 434
f 502 565 503
f 440 505 572
f 572 506 440
f 567 1328 566
f 1135 1139 507
f 508 507 1139
f 1224 508 1139
f 494 508 1224
f 565 564 570
f 570 564 569
f 503 565 570
f 1136 570 571
f 503 571 509
f 509 571 505
f 569 564 573
f 574 569 573
f 570 569 574
f 571 570 574
f 442 631 511
f 575 631 442
f 576 632 513
f 632 512 513
f 510 576 513
f 442 444 575
f 632 1215 512
f 578 1215 632
f 444 514 575
f 575 514 577
f 579 1215 580
f 580 1215 578
f 514 515 577
f 577 515 637
f 579 516 517
f 446 1282 517
f 518 637 515
f 581 519 448
f 582 581 448
f 583 637 518
f 447 583 518
f 447 450 638
f 583 447 638
f 450 585 693
f 638 450 693
f 1277 521 451
f 450 522 585
f 456 525 586
f 456 586 522
f 587 588 589
f 587 589 590
f 591 526 459
f 459 592 591
f 457 592 459
f 524 592 457
f 528 593 529
f 589 588 594
f 530 593 528
f 590 589 594
f 531 532 595
f 533 596 534
f 536 529 593
f 537 596 533
f 530 536 593
f 595 462 531
f 534 596 539
f 460 1137 597
f 537 539 596
f 309 599 308
f 1137 541 600
f 600 541 545
f 600 1140 602
f 545 1140 600
f 1140 603 602
f 601 544 603
f 1140 545 1138
f 547 546 604
f 543 547 604
f 543 604 544
f 603 544 604
f 604 546 549
f 604 549 605
f 662 606 550
f 1304 607 548
f 551 550 609
f 550 606 609
f 607 1304 1306
f 551 609 552
f 552 609 554
f 611 1305 610
f 609 482 554
f 487 613 484
f 613 610 484
f 1349 666 668
f 612 1317 614
f 556 613 487
f 1368 1316 557
f 614 1316 1368
f 556 559 615
f 556 615 669
f 557 668 558
f 558 724 616
f 616 617 558
f 724 618 616
f 616 618 617
f 617 618 621
f 617 621 1359
f 769 559 497
f 506 769 497
f 560 1359 621
f 561 1328 619
f 561 619 562
f 562 620 563
f 619 620 562
f 563 620 568
f 572 726 506
f 1328 560 621
f 1328 621 566
f 566 621 622
f 566 622 623
f 624 567 623
f 567 566 623
f 567 619 1328
f 567 624 619
f 625 619 624
f 620 619 625
f 568 620 625
f 626 568 625
f 626 564 568
f 571 627 505
f 625 624 628
f 629 625 628
f 626 625 629
f 564 680 573
f 573 680 574
f 627 571 574
f 441 631 630
f 633 691 578
f 632 633 578
f 578 1281 580
f 635 579 580
f 637 634 577
f 635 516 579
f 636 581 582
f 516 636 582
f 1278 519 581
f 745 1276 1298
f 1278 520 519
f 1277 639 521
f 1278 639 1277
f 585 522 693
f 522 640 693
f 696 523 641
f 521 694 523
f 694 641 523
f 523 696 524
f 695 522 750
f 522 586 750
f 586 643 750
f 587 644 588
f 587 590 644
f 642 592 524
f 525 645 586
f 586 645 643
f 588 644 594
f 590 594 644
f 591 532 526
f 591 646 532
f 592 646 591
f 525 597 702
f 645 525 702
f 598 648 647
f 462 648 598
f 702 597 1137
f 702 1137 649
f 650 651 652
f 652 651 653
f 599 1189 308
f 647 599 598
f 1189 599 647
f 462 654 648
f 649 1137 600
f 650 655 651
f 653 651 655
f 862 355 312
f 656 600 657
f 600 602 657
f 468 760 359
f 602 603 658
f 657 602 658
f 359 760 662
f 663 659 604
f 659 660 604
f 658 603 604
f 660 658 604
f 548 663 549
f 663 605 549
f 604 605 663
f 606 662 661
f 608 1313 663
f 608 663 607
f 607 663 548
f 606 661 609
f 665 611 610
f 1235 1232 1234
f 609 664 482
f 665 610 613
f 1331 1332 721
f 721 666 1331
f 613 556 667
f 665 613 667
f 667 556 669
f 667 669 670
f 615 559 671
f 559 769 671
f 671 669 615
f 772 769 506
f 618 724 725
f 618 725 773
f 621 618 773
f 622 621 672
f 679 673 626
f 674 564 626
f 564 674 675
f 729 505 627
f 505 729 572
f 623 622 676
f 677 623 676
f 624 623 677
f 624 677 628
f 628 678 679
f 679 629 628
f 626 673 734
f 626 629 679
f 564 675 680
f 1333 627 574
f 1333 574 681
f 441 685 684
f 441 686 685
f 682 686 630
f 686 441 630
f 631 682 630
f 683 682 631
f 684 740 632
f 684 632 576
f 441 684 576
f 575 577 687
f 687 577 634
f 687 634 688
f 689 578 691
f 1281 689 690
f 578 689 1281
f 634 637 688
f 516 835 636
f 835 516 635
f 637 583 692
f 583 638 692
f 693 692 638
f 694 521 639
f 694 639 1278
f 696 641 694
f 522 695 640
f 640 695 693
f 793 642 697
f 697 642 524
f 696 697 524
f 642 793 592
f 643 645 751
f 698 699 700
f 698 700 701
f 595 532 753
f 753 532 646
f 793 646 592
f 751 645 702
f 699 704 700
f 701 700 704
f 708 647 648
f 1345 462 595
f 1345 595 754
f 652 706 650
f 653 706 652
f 705 703 707
f 708 755 647
f 709 708 648
f 648 654 709
f 462 710 654
f 710 709 654
f 655 650 706
f 656 1199 600
f 1199 1249 600
f 653 655 706
f 312 308 862
f 759 656 657
f 760 468 355
f 711 712 657
f 712 759 657
f 711 713 714
f 711 658 713
f 657 658 711
f 713 715 714
f 1141 659 715
f 713 660 659
f 658 660 713
f 662 763 661
f 663 716 659
f 715 659 716
f 763 609 661
f 716 663 1233
f 609 764 664
f 716 1233 665
f 717 1346 764
f 665 718 719
f 719 716 665
f 720 1346 717
f 720 721 1332
f 718 665 667
f 722 718 667
f 720 770 721
f 666 770 668
f 721 770 666
f 769 723 669
f 723 768 669
f 667 670 768
f 768 670 669
f 558 668 770
f 669 671 769
f 506 726 727
f 727 772 506
f 621 773 775
f 672 621 775
f 673 679 728
f 729 726 572
f 731 672 730
f 622 672 731
f 622 731 676
f 628 677 732
f 628 732 733
f 678 628 733
f 673 728 734
f 728 679 734
f 626 734 674
f 675 674 734
f 675 734 680
f 574 680 681
f 679 678 735
f 736 679 735
f 734 679 736
f 683 780 682
f 682 780 737
f 686 737 685
f 682 737 686
f 687 738 575
f 575 738 631
f 739 632 740
f 687 741 738
f 741 687 688
f 739 691 633
f 632 739 633
f 742 741 688
f 690 689 1269
f 739 689 691
f 690 1269 1281
f 688 637 742
f 636 836 581
f 636 835 836
f 743 1278 581
f 637 692 746
f 637 746 744
f 694 1278 747
f 694 748 696
f 749 748 694
f 747 749 694
f 693 695 792
f 695 750 792
f 698 752 699
f 643 751 750
f 750 751 795
f 698 701 752
f 646 797 753
f 793 797 646
f 1201 1202 1197
f 1204 1198 1203
f 704 699 752
f 705 795 1205
f 795 751 1205
f 701 704 752
f 595 796 754
f 753 796 595
f 708 756 755
f 708 709 756
f 1199 656 757
f 1221 355 862
f 757 656 759
f 758 712 711
f 759 712 758
f 760 761 662
f 758 711 714
f 762 758 714
f 865 762 715
f 715 762 714
f 715 716 865
f 865 716 811
f 717 764 766
f 767 765 718
f 716 719 765
f 765 719 718
f 766 720 717
f 767 722 667
f 718 722 767
f 770 720 766
f 723 769 768
f 667 768 767
f 558 770 724
f 724 770 771
f 724 771 773
f 725 724 773
f 774 727 726
f 772 727 774
f 775 776 672
f 726 729 774
f 672 776 730
f 677 676 818
f 732 677 818
f 680 734 681
f 733 732 777
f 778 733 777
f 678 733 778
f 678 778 735
f 819 734 736
f 683 950 780
f 781 684 828
f 779 828 685
f 828 684 685
f 737 779 685
f 683 631 827
f 738 829 631
f 781 832 740
f 832 739 740
f 684 781 740
f 738 741 829
f 689 739 832
f 741 742 829
f 581 836 782
f 1269 783 1267
f 581 782 784
f 743 581 784
f 637 744 790
f 743 784 785
f 786 787 788
f 788 1180 786
f 744 746 790
f 743 845 1278
f 785 845 743
f 845 747 1278
f 696 748 791
f 791 748 749
f 791 749 747
f 693 792 692
f 750 795 792
f 697 696 793
f 793 696 794
f 753 797 796
f 795 705 798
f 801 754 796
f 1200 1216 707
f 798 705 707
f 799 798 707
f 800 756 709
f 710 800 709
f 801 1345 754
f 759 860 757
f 757 860 1199
f 756 802 755
f 803 802 756
f 800 803 756
f 710 804 800
f 860 759 805
f 805 759 758
f 761 760 806
f 355 1221 760
f 807 662 761
f 807 761 808
f 808 761 806
f 805 758 762
f 662 807 763
f 805 762 865
f 763 807 809
f 609 763 809
f 765 810 716
f 810 811 716
f 609 812 764
f 812 813 764
f 813 766 764
f 935 767 768
f 766 813 941
f 941 770 766
f 935 768 769
f 771 770 941
f 815 775 773
f 774 729 814
f 816 776 775
f 944 1333 681
f 776 816 817
f 730 776 817
f 730 817 731
f 676 731 818
f 818 820 732
f 734 819 681
f 732 820 777
f 821 819 736
f 822 823 824
f 780 822 824
f 825 823 822
f 825 822 780
f 737 780 779
f 825 780 950
f 683 827 950
f 779 826 828
f 827 631 829
f 828 832 781
f 829 742 833
f 689 830 831
f 832 830 689
f 834 833 742
f 1269 689 831
f 782 836 837
f 836 1268 1271
f 838 836 1271
f 742 637 834
f 637 839 834
f 782 1143 784
f 782 843 1143
f 782 837 1208
f 1270 783 1269
f 1187 838 1271
f 1269 882 1270
f 637 790 879
f 839 637 879
f 1143 880 784
f 784 880 785
f 1318 1143 1185
f 1318 880 1143
f 787 840 788
f 1142 1206 1208
f 1208 841 1142
f 788 1144 1180
f 789 1270 844
f 882 844 1270
f 880 845 785
f 790 846 879
f 747 845 847
f 790 746 848
f 846 790 848
f 747 886 791
f 847 886 747
f 692 848 746
f 791 893 696
f 886 893 791
f 692 792 849
f 848 692 849
f 893 892 696
f 696 892 794
f 849 792 795
f 887 849 795
f 793 794 851
f 850 793 851
f 892 851 794
f 799 1216 795
f 799 795 798
f 796 797 853
f 852 796 853
f 797 793 850
f 797 850 853
f 853 850 851
f 1216 799 707
f 308 855 854
f 308 1189 855
f 800 858 857
f 914 801 796
f 796 852 915
f 853 859 852
f 859 915 852
f 1188 1191 1192
f 803 856 1190
f 857 856 803
f 800 857 803
f 800 804 858
f 858 804 914
f 801 1280 1345
f 710 1279 804
f 1015 914 796
f 915 1015 796
f 853 915 859
f 865 860 805
f 1221 806 760
f 806 919 808
f 919 807 808
f 1344 1342 1343
f 863 807 919
f 807 864 809
f 1340 864 807
f 809 864 609
f 609 866 812
f 866 867 812
f 812 867 813
f 765 767 1031
f 867 936 813
f 941 813 936
f 935 769 938
f 938 769 772
f 937 772 774
f 938 772 937
f 940 814 868
f 771 941 773
f 773 941 1046
f 815 773 1046
f 868 1333 944
f 814 1334 868
f 731 817 869
f 818 731 869
f 869 820 818
f 944 681 819
f 820 869 870
f 777 820 946
f 820 870 946
f 778 777 946
f 735 778 946
f 736 735 946
f 819 821 946
f 946 821 736
f 823 871 949
f 823 949 824
f 824 949 780
f 823 825 871
f 825 872 871
f 873 826 779
f 780 949 779
f 779 949 873
f 825 950 872
f 827 874 950
f 826 952 828
f 827 951 874
f 829 951 827
f 952 832 828
f 829 954 951
f 829 833 954
f 830 955 831
f 832 955 830
f 954 833 834
f 831 955 1269
f 959 834 875
f 834 839 875
f 875 839 877
f 836 1207 837
f 837 878 1208
f 1269 876 882
f 877 839 879
f 880 881 1320
f 880 1318 881
f 1146 1147 1145
f 878 1319 1208
f 1208 1319 841
f 1319 842 883
f 1318 1185 1184
f 1319 883 841
f 844 884 789
f 882 884 844
f 879 846 885
f 786 1180 972
f 789 884 972
f 885 846 848
f 973 885 848
f 786 1284 787
f 972 1284 786
f 973 848 887
f 888 889 890
f 890 1194 888
f 887 848 849
f 1057 892 893
f 851 892 853
f 853 892 895
f 895 892 894
f 887 795 1216
f 898 887 1216
f 897 899 896
f 900 898 1216
f 901 902 903
f 901 308 902
f 308 904 902
f 854 904 308
f 905 855 1189
f 906 905 1193
f 1193 905 1189
f 1193 857 907
f 906 1193 907
f 857 858 907
f 908 853 997
f 909 899 910
f 1003 994 860
f 994 911 1216
f 911 900 1216
f 901 903 912
f 1154 1223 861
f 901 1221 862
f 1225 861 1223
f 308 901 862
f 854 1072 904
f 855 1072 854
f 1013 1072 855
f 907 913 906
f 858 914 907
f 915 853 908
f 916 915 908
f 997 916 908
f 922 917 909
f 918 1155 917
f 910 922 909
f 860 865 1003
f 1222 919 806
f 913 907 920
f 914 921 907
f 921 920 907
f 1015 921 914
f 917 922 918
f 919 926 863
f 921 1085 920
f 1017 1355 923
f 924 927 923
f 928 927 924
f 925 928 924
f 929 864 926
f 1347 1339 1341
f 811 810 1079
f 864 929 609
f 1029 1030 930
f 1079 765 1030
f 810 765 1079
f 609 929 866
f 1029 930 1031
f 930 932 1031
f 765 932 1030
f 1030 932 930
f 933 866 929
f 866 933 867
f 1034 935 934
f 1325 935 931
f 932 765 1031
f 1031 767 935
f 936 867 933
f 1034 934 937
f 934 935 937
f 935 938 937
f 939 868 944
f 940 868 939
f 1046 942 815
f 815 942 775
f 943 816 942
f 816 775 942
f 816 943 817
f 869 817 943
f 946 944 819
f 869 945 870
f 946 870 945
f 871 947 949
f 871 872 947
f 873 948 826
f 948 873 949
f 872 950 947
f 950 874 951
f 952 826 953
f 826 948 953
f 949 953 948
f 947 879 949
f 950 879 947
f 951 879 950
f 955 832 956
f 832 952 956
f 954 957 951
f 957 879 951
f 954 834 957
f 955 958 1269
f 956 1002 955
f 1002 958 955
f 834 959 957
f 876 1269 958
f 876 958 960
f 1002 960 958
f 879 1183 949
f 960 965 876
f 952 1002 956
f 959 961 957
f 875 877 961
f 959 875 961
f 953 1002 952
f 1183 953 949
f 961 879 957
f 877 879 961
f 1207 1348 880
f 1207 963 1348
f 1207 836 963
f 836 838 964
f 964 838 1187
f 876 965 882
f 960 1002 965
f 973 983 879
f 880 1348 845
f 966 883 963
f 1159 1148 1158
f 841 883 968
f 1187 968 964
f 884 882 965
f 884 965 967
f 1002 967 965
f 879 969 973
f 879 885 969
f 845 1348 847
f 883 966 970
f 1288 971 962
f 1287 1283 971
f 967 972 884
f 883 970 968
f 885 973 969
f 1348 886 847
f 1002 972 967
f 973 887 975
f 893 886 1056
f 889 1160 890
f 891 1284 977
f 1149 1285 974
f 1194 890 976
f 1286 787 1284
f 972 977 1284
f 900 953 1183
f 1057 893 1056
f 1195 889 888
f 978 1160 889
f 891 1195 888
f 891 977 1195
f 1000 977 972
f 879 983 1183
f 887 983 975
f 975 983 973
f 1057 1059 892
f 1000 1211 977
f 1061 892 1059
f 894 892 1061
f 894 984 895
f 1150 984 894
f 894 897 896
f 894 1061 897
f 1307 985 1253
f 980 981 986
f 1151 1350 982
f 898 1183 983
f 887 898 983
f 853 895 989
f 988 853 989
f 1153 895 984
f 1152 989 895
f 1150 1153 984
f 1161 1253 985
f 991 990 897
f 1186 992 990
f 990 899 897
f 1161 1241 992
f 981 1000 986
f 1000 993 986
f 1211 1000 981
f 972 1001 1000
f 1002 1001 972
f 953 994 1002
f 900 995 953
f 995 994 953
f 987 898 900
f 1005 902 1070
f 1070 902 904
f 905 996 855
f 905 906 996
f 853 988 997
f 989 998 988
f 998 997 988
f 1152 1155 998
f 989 1152 998
f 990 1066 899
f 899 1066 910
f 990 992 999
f 1000 1241 993
f 994 1003 1002
f 995 911 994
f 900 911 995
f 902 1068 1004
f 902 1004 903
f 903 1004 912
f 1071 1070 904
f 1013 855 996
f 906 913 1013
f 996 906 1013
f 916 997 1006
f 1356 997 918
f 998 918 997
f 918 998 1155
f 1066 922 910
f 1162 922 1066
f 1007 1001 1002
f 1003 865 1301
f 919 1008 926
f 1008 919 1009
f 919 1156 1009
f 1009 912 1004
f 913 1014 1013
f 913 920 1014
f 1015 915 1016
f 915 916 1016
f 916 1006 1016
f 1016 1006 1017
f 1354 1017 1006
f 918 922 1018
f 1162 1244 1157
f 1020 1019 1241
f 1000 1022 1241
f 1022 1021 1241
f 1013 1081 1072
f 1014 1081 1013
f 921 1015 1085
f 1016 1085 1015
f 1017 923 1016
f 1354 1355 1017
f 1157 925 924
f 1157 1244 925
f 1244 1083 925
f 1308 1309 1311
f 926 1008 1026
f 1016 1086 1085
f 923 927 1016
f 928 1087 927
f 927 1087 1016
f 1083 928 925
f 1087 928 1083
f 1025 1031 1243
f 865 811 1079
f 929 926 1026
f 1005 1035 1010
f 1035 1012 1024
f 1031 1028 1243
f 1030 1029 1025
f 1010 1042 1009
f 1029 1031 1025
f 1008 1042 1026
f 1009 1042 1008
f 1010 1035 1042
f 1011 1035 1005
f 1012 1035 1011
f 931 1034 1326
f 929 1026 933
f 1090 1032 1364
f 1033 1034 1036
f 931 935 1034
f 1036 1034 1038
f 1026 1039 936
f 933 1026 936
f 1042 1039 1026
f 1032 1040 1364
f 1096 1040 1037
f 1040 1032 1037
f 937 1038 1034
f 936 1039 1042
f 1040 1050 1364
f 1038 937 1098
f 1041 1050 1040
f 1041 1040 1102
f 1098 774 1101
f 1098 937 774
f 1102 1043 1041
f 1100 814 940
f 774 814 1100
f 1101 774 1100
f 936 1042 941
f 1041 1043 1050
f 1100 940 1044
f 1044 940 939
f 941 1042 1045
f 1045 1042 1035
f 1046 1045 1035
f 1362 1046 1035
f 1047 1363 1364
f 1044 944 1103
f 939 944 1044
f 1046 941 1045
f 942 1046 1362
f 1047 1364 1048
f 1361 1048 1364
f 1050 1361 1364
f 942 1362 943
f 1361 869 1048
f 946 1108 944
f 1107 1108 946
f 1048 943 1362
f 869 943 1048
f 869 1109 945
f 1110 945 1251
f 946 945 1110
f 836 1051 963
f 836 964 1051
f 1051 1052 966
f 963 1051 966
f 964 968 1052
f 1051 964 1052
f 970 966 1052
f 971 1053 962
f 968 970 1052
f 886 1348 1053
f 886 1053 1054
f 1054 1053 1055
f 971 1283 1055
f 1053 971 1055
f 886 1054 1056
f 1160 1056 1055
f 1055 1056 1054
f 1283 1160 1055
f 1160 978 1057
f 1056 1160 1057
f 977 1058 1195
f 978 1060 1057
f 1057 1060 1059
f 979 1196 1212
f 1211 1060 978
f 977 1210 1213
f 980 1307 1059
f 981 980 1059
f 1060 981 1059
f 1211 981 1060
f 1307 1062 985
f 980 1063 1307
f 1307 1063 1062
f 980 986 1063
f 1183 1352 900
f 982 1350 1351
f 985 1062 1161
f 1241 1161 1062
f 1241 1062 1065
f 1065 1062 1063
f 986 993 1065
f 1063 986 1065
f 900 1064 987
f 990 999 1066
f 993 1241 1065
f 1300 1302 1067
f 1068 902 1069
f 902 1005 1069
f 1071 904 1072
f 1066 999 1073
f 1074 1000 1075
f 1000 1001 1075
f 1002 1076 1007
f 1003 1301 1303
f 1004 1068 1009
f 1069 1009 1068
f 1010 1009 1069
f 1005 1010 1069
f 1005 1070 1011
f 1012 1011 1070
f 1071 1012 1070
f 1012 1071 1077
f 1077 1071 1072
f 1162 1066 1244
f 1242 1245 1246
f 1073 1244 1066
f 1241 1078 1020
f 1241 1021 1078
f 1075 1079 1074
f 1080 1079 1075
f 1001 1007 1080
f 1001 1080 1075
f 1310 1007 1076
f 1023 1080 1007
f 1308 1311 1312
f 1024 1012 1077
f 1364 1024 1077
f 1072 1081 1077
f 1081 1014 1082
f 1243 1078 1025
f 1021 1025 1078
f 1021 1084 1025
f 1021 1022 1089
f 1084 1021 1089
f 1022 1000 1074
f 1022 1074 1089
f 1089 1074 1079
f 865 1079 1080
f 1023 865 1080
f 1364 1077 1093
f 1093 1077 1081
f 1082 1093 1081
f 1014 920 1085
f 1014 1085 1082
f 1086 1016 1087
f 1019 1088 1083
f 1088 1087 1083
f 1019 1020 1088
f 1025 1084 1089
f 1079 1030 1089
f 1086 1096 1085
f 1027 1096 1086
f 1243 1028 1238
f 1243 1238 1240
f 1088 1091 1087
f 1025 1089 1030
f 1085 1090 1082
f 1090 1093 1082
f 1036 1027 1086
f 1028 1092 1239
f 1028 1031 1092
f 1027 1036 1095
f 1027 1095 1096
f 1036 1086 1094
f 1094 1086 1087
f 1033 1094 1091
f 1091 1094 1087
f 1034 1033 1091
f 1324 1034 1091
f 1326 1034 1324
f 1090 1364 1093
f 1032 1090 1096
f 1096 1090 1085
f 1033 1036 1094
f 1032 1096 1037
f 1095 1097 1096
f 1036 1038 1097
f 1036 1097 1095
f 1097 1098 1096
f 1097 1038 1098
f 1040 1096 1099
f 1101 1100 1096
f 1098 1101 1096
f 1040 1099 1102
f 1043 1102 1103
f 1103 1102 1099
f 1096 1104 1099
f 1104 1103 1099
f 1100 1104 1096
f 1044 1103 1104
f 1100 1044 1104
f 1105 1047 1106
f 1047 1048 1106
f 1050 1043 1103
f 1050 1103 1110
f 1110 1103 1107
f 1108 1107 1103
f 944 1108 1103
f 1106 1048 1362
f 1049 1109 869
f 1361 1050 1250
f 1250 1050 1110
f 1107 1111 1110
f 1111 946 1110
f 1107 946 1111
