# vtk DataFile Version 5.1
vtk output
ASCII
DATASET POLYDATA
POINTS 1301 float
49.1083 9.65771 1.12292 51.322 11.5911 1.12131 52.1131 10.3774 1.72092 
49.0909 12.606 1.02415 46.935 11.6278 1.02401 46.9657 15.7786 0.979477 
49.049 14.4872 1.69827 46.6886 17.0146 1.43059 44.4558 7.67681 2.15728 
45.1435 7.01159 3.01627 47.0403 8.19106 2.0125 48.7371 8.36859 2.57054 
47.9047 9.88181 1.08177 53.1873 10.2518 2.25575 45.5793 16.8846 1.3506 
48.0214 17.1069 2.29065 41.2214 6.48971 3.20093 39.7426 6.97011 3.3095 
48.9086 8.1016 3.37895 39.5079 9.77055 2.90701 53.8795 10.0652 2.88839 
54.6251 11.8572 3.4727 52.1607 12.92 2.53768 37.1745 14.8597 2.95383 
39.7369 17.4454 2.41728 49.1329 17.4056 3.46111 39.7264 19.9513 2.45558 
46.3718 19.9047 3.0871 40.0839 22.8615 2.5884 44.6873 20.7248 2.79986 
41.8115 22.3579 2.552 44.0541 22.5911 3.21505 42.1694 23.6614 2.84285 
39.5429 25.1761 3.15739 41.9589 24.4982 3.11129 39.7898 5.79621 4.68694 
41.9511 5.83132 4.82351 34.9731 12.4068 3.76838 55.4826 10.8758 4.19322 
32.5902 17.4649 3.80661 32.5446 22.5211 3.68557 43.6882 24.2677 3.92625 
32.5897 27.5265 3.89882 37.5977 27.8349 3.66046 41.2248 27.5601 5.01485 
35.2914 29.5789 3.9984 37.4262 28.9028 3.92276 37.3991 5.44837 5.27388 
35.3607 5.59979 5.30457 32.5893 6.74548 5.51273 35.122 7.80599 4.39672 
51.9092 8.76861 4.88372 55.9446 10.4698 5.296 56.5021 11.8635 5.1149 
25.3969 22.5214 5.28917 39.1665 29.8325 5.12326 37.7137 30.5432 4.75827 
35.0115 32.8027 5.20154 36.7094 32.2528 5.41354 32.4532 5.2337 6.68842 
37.5668 4.87972 6.49959 52.0236 8.44173 6.53504 56.3923 10.1931 6.81402 
56.844 11.6722 5.51914 22.8474 17.3854 6.49201 51.4469 19.7362 6.82151 
25.4917 32.5903 5.88044 37.4788 32.9829 6.30898 30.1899 35.1278 5.72383 
34.9436 35.377 6.41899 29.979 6.77501 6.44971 27.8358 7.02268 7.09228 
54.6902 9.35837 6.65321 23.1829 12.4971 7.42186 20.5447 27.6033 6.68552 
20.5976 32.8111 7.00678 20.7348 35.1026 7.41199 22.9377 35.2732 6.87788 
30.0978 37.8913 6.34896 25.364 37.7519 6.9056 32.5736 37.8531 6.64331 
30.3493 40.332 7.135 31.9701 39.9398 7.31599 29.9763 4.68514 8.16548 
27.8142 4.87678 8.42534 34.8063 4.39031 8.34277 25.1692 6.95713 8.13695 
27.9312 5.70206 7.73316 44.5878 27.7195 8.63452 15.7091 30.1604 8.20391 
35.2476 38.0479 8.19821 32.8997 40.6287 8.0499 27.888 43.0834 8.0711 
31.7792 42.4962 8.52433 25.4808 5.28813 8.87916 57.9634 10.5881 8.95753 
13.6162 22.5706 9.08058 49.2176 25.7302 10.1281 15.8761 35.1907 8.73571 
23.0105 42.8049 8.73132 25.548 45.3627 8.93252 27.503 45.7058 8.96195 
27.6505 3.96612 9.96144 30.1183 3.8158 10.0357 22.8335 4.94465 10.2353 
25.3903 4.17088 10.3226 32.4941 3.96721 9.90552 51.4576 7.01033 10.3063 
58.5125 10.4813 9.93165 59.5763 12.332 9.5792 61.1051 12.313 10.9374 
58.9666 14.6134 9.96739 56.4479 17.5568 10.1284 11.0767 19.9892 10.3153 
10.9626 22.4907 9.98914 13.1023 22.4183 9.26952 47.137 28.115 10.854 
32.0448 45.1193 10.3609 25.1902 48.0008 9.93504 29.6653 47.669 10.507 
25.2459 3.67846 11.6783 20.8567 5.25437 10.8673 16.3826 7.72096 11.506 
61.1968 12.3671 11.1168 60.232 14.0092 10.7915 46.9202 28.6852 11.1942 
44.3111 32.8011 11.735 35.2446 43.1087 11.5955 27.9493 50.7589 11.3564 
22.9822 3.90081 12.0034 18.2666 5.38505 12.0126 17.8507 6.85265 11.2415 
46.675 5.28588 12.1185 15.5007 9.56707 11.2476 58.6427 9.54118 12.0364 
60.6571 10.8684 11.9576 11.1608 12.4324 12.2147 10.9126 14.7943 11.609 
60.8195 14.7989 12.1248 59.4167 15.5613 11.3064 57.0846 18.0884 11.232 
3.29096 24.8128 12.3704 3.9248 27.8904 11.9378 3.317 30.4662 12.2418 
47.0062 29.3787 11.8881 3.59537 32.7511 12.498 5.71457 37.7888 12.4628 
32.9004 45.7641 11.4692 13.5368 47.7978 12.43 23.3437 52.7512 12.0285 
27.4931 52.9211 12.1449 39.7197 3.98096 13.5263 15.7886 5.22966 13.5247 
51.235 5.91287 13.9535 13.2967 6.81584 13.5694 56.1397 7.66911 13.8132 
58.9927 9.16184 13.4833 61.2756 10.4979 13.6455 62.6333 12.6591 13.6824 
62.233 12.2498 12.9453 61.8349 14.5593 13.3455 3.25154 17.2637 13.9287 
1.17109 26.3463 13.156 2.09645 25.1812 12.8059 1.15978 27.4393 13.2646 
1.98219 27.2477 12.5941 1.31204 29.6678 13.3895 2.13001 29.5136 12.6706 
4.38397 35.1063 12.5679 3.39972 37.0196 13.4243 3.33015 36.7403 13.4239 
40.2437 37.7823 13.1697 4.72348 37.4546 12.7983 5.94836 45.4461 13.5092 
8.07529 45.5452 12.8409 23.3456 55.5683 13.4139 27.8412 55.6148 13.5806 
13.8769 5.47397 14.4282 11.3228 7.40441 14.2696 64.2242 12.541 15.5749 
3.74537 15.0412 14.3905 2.20626 17.6946 14.357 1.5908 20.0513 14.0108 
2.05931 32.2011 13.7697 2.90618 32.92 12.9853 4.73745 42.6927 13.9713 
4.13764 42.8153 15.1066 4.91113 45.1767 14.4633 4.5863 45.2652 15.1353 
6.04494 47.4343 13.9013 34.3799 47.5407 14.1844 5.46808 48.0358 14.9324 
8.20125 49.678 13.8009 30.0242 53.0097 13.635 27.0381 58.0546 14.4503 
27.6163 58.3706 14.9305 18.0359 3.77404 15.1423 13.418 4.92488 15.3331 
10.7901 6.74745 14.9637 6.22962 9.51344 15.4726 1.19253 17.8231 15.1904 
0.877992 19.8613 15.0899 0.484188 22.4968 15.4113 0.464785 24.9752 15.3303 
0.735398 27.5901 15.1406 49.1545 29.7431 15.7801 46.0268 34.6498 15.8927 
2.0433 35.0025 15.0279 2.62597 37.4279 15.6285 42.209 37.8286 15.2448 
39.4501 42.7175 15.5665 37.2604 45.3918 15.3943 6.99457 49.2708 14.1301 
6.78292 50.8933 15.3026 7.94681 51.2358 14.6596 8.52942 52.8714 15.3309 
10.683 53.4796 14.9268 29.8798 55.5514 14.9845 25.3609 59.2553 15.2337 
25.4356 59.7342 15.5235 18.0009 3.39709 16.8214 44.5478 3.85186 16.9459 
61.0822 9.13861 17.0386 2.39559 12.8113 16.071 0.874589 17.233 16.8039 
50.6002 29.4516 17.0441 1.86736 35.2532 16.7952 4.90774 47.6155 17.2228 
5.06037 47.5096 15.7444 6.95014 52.1056 16.7381 7.97092 53.5709 16.701 
9.37751 54.553 16.048 9.22805 55.4043 17.2266 10.9442 55.4574 15.9222 
28.8195 58.8467 16.1718 15.5932 3.81309 16.765 18.3493 3.27154 17.2872 
11.1265 4.80063 17.2156 6.24029 7.22206 16.9636 3.51239 8.99963 17.1959 
3.98865 7.85385 17.737 63.2649 10.5989 17.1198 2.06658 12.0816 17.1937 
64.4094 11.899 16.5342 65.3477 14.0662 17.2184 60.9351 19.854 17.2403 
53.6732 27.3054 17.4256 34.9454 50.5223 17.039 10.2519 56.1399 16.8098 
11.641 57.9698 17.2699 25.5031 61.0209 16.7251 13.2698 3.84157 18.6645 
8.73181 5.19293 18.5546 3.55269 7.62046 18.6172 56.5678 6.58775 18.6656 
2.79781 9.19998 18.4029 2.4427 10.0331 18.7208 1.82308 12.3577 18.5859 
66.0528 12.4729 18.5935 65.9364 14.7285 18.1999 54.2344 27.9365 18.4524 
49.0092 32.6506 18.8487 8.76643 55.5363 18.7554 10.7686 58.333 18.6126 
12.0472 60.0615 18.7768 12.9047 60.6595 18.535 13.5889 60.1484 17.9316 
27.6132 63.0579 18.9502 6.66096 5.82523 18.9564 67.4257 14.4654 19.7544 
53.472 29.6303 19.3759 48.0323 33.2942 18.1999 18.2203 63.0598 19.0118 
15.5322 63.0667 19.3593 8.59247 4.77832 20.268 2.49538 9.77482 20.0223 
67.6586 12.9192 20.7951 0.4217 22.4967 20.5533 0.47745 24.5735 20.6444 
56.4826 27.8579 20.2724 48.6791 35.0631 20.7093 3.70412 42.8956 20.5053 
40.6853 45.9977 19.6411 40.1265 48.2441 20.4576 36.9808 52.8026 20.7805 
13.29 62.8572 20.4382 27.9075 63.8143 19.8672 17.9612 65.6693 20.7431 
2.7379 9.1443 20.7625 3.08603 8.93584 22.267 2.78539 10.0838 22.005 
64.9633 19.2715 21.316 31.9266 60.2294 21.0853 15.5668 65.8758 21.8041 
22.9476 1.96452 22.2056 30.115 1.79403 22.1741 32.4961 1.78575 22.1675 
5.97231 5.48511 22.428 3.90741 6.96233 22.1806 60.8582 7.70262 22.3216 
2.24911 12.4141 21.9448 66.7587 11.4664 21.849 68.6201 12.5663 23.0883 
68.7812 14.6806 22.0783 0.46327 24.6128 22.3607 60.9317 24.9187 22.3868 
42.5363 45.6987 21.8491 39.7099 50.6418 22.0121 11.2333 60.757 21.9193 
32.6568 60.7525 22.0617 12.1959 62.3846 22.3876 27.9093 66.4875 22.1167 
18.0375 68.2231 22.6151 37.2905 1.59426 23.8667 10.8402 3.73754 23.8847 
51.7054 4.13763 23.8476 65.7964 10.3526 23.4847 70.6289 14.5982 23.9411 
1.46606 32.6915 23.9462 42.4594 48.1213 23.7824 33.3927 61.231 22.9938 
33.1236 63.2036 23.9922 16.3014 68.0072 23.8666 27.6657 67.8206 22.9212 
27.794 68.5768 23.4091 29.3717 68.1519 24.0256 69.4631 12.642 24.1808 
70.212 13.221 24.3851 0.496061 22.4638 23.9748 20.1753 71.2354 24.157 
22.9609 71.0744 24.2763 27.4814 70.7701 24.5473 25.3285 1.48134 25.6269 
56.1368 5.21528 25.7236 63.9914 8.94294 25.564 67.2985 11.1002 24.478 
70.6451 12.957 25.5529 71.7014 14.3778 24.7213 72.4807 14.745 25.9901 
41.8638 50.5398 25.5918 38.1093 56.1119 24.9888 37.2904 58.1174 25.6391 
35.439 60.9226 25.2702 18.6063 71.5669 25.2775 22.9018 72.8926 25.0158 
25.5334 73.0819 25.0649 20.3221 73.847 25.5118 27.5654 73.3132 25.4516 
27.1067 76.7407 25.4534 26.0154 76.7996 25.33 27.0463 77.6398 25.6832 
25.3418 78.927 26.1267 73.9305 15.2298 27.5808 72.4625 16.5122 26.405 
73.4451 16.3952 27.1529 56.375 35.2837 27.3084 22.5245 74.19 25.4424 
21.2312 75.3978 26.1631 20.8188 75.7562 27.1337 34.8915 1.40423 27.3458 
13.6034 3.1019 27.3827 18.2111 2.22961 27.3739 48.9783 3.02773 27.454 
8.65462 4.19344 27.3545 61.1043 7.22987 27.3702 70.7213 12.9211 26.6966 
49.9431 40.9818 26.6405 38.5378 57.3641 26.5547 39.2091 57.8073 27.7374 
37.1498 60.6082 27.5092 17.8209 71.051 27.3188 19.6734 74.0059 26.867 
22.3089 76.6363 26.6793 23.1589 78.1538 27.5025 27.5461 78.7632 26.9844 
25.2903 80.7873 27.5285 6.19597 5.24524 29.0758 74.0068 15.2868 28.5158 
65.8905 27.6419 29.0378 4.52594 50.2102 29.1519 42.7677 52.7888 28.7888 
32.4513 73.462 29.3811 26.7313 80.0855 27.6253 25.2485 81.7014 28.9645 
1.69579 15.0943 29.0656 74.2735 15.7696 28.9512 73.9935 17.9625 29.5007 
0.433876 24.928 29.1382 53.6494 40.0143 29.3838 47.0111 47.3631 29.37 
39.2336 60.2015 29.431 34.1917 70.5161 29.3946 20.3726 75.7427 29.1353 
29.865 76.3708 28.9765 28.4104 78.8639 28.9162 24.0439 80.5163 29.321 
32.5777 0.919583 30.9836 41.8975 1.50063 30.8256 62.9276 8.22962 30.7438 
74.2475 16.3014 29.7717 74.5018 17.7855 30.6674 73.5876 19.7192 30.2751 
67.4191 26.8996 29.904 68.0427 27.4417 30.9862 0.856439 32.7825 30.7585 
60.7559 34.9313 31.0839 54.4251 40.6329 30.6805 49.5154 45.7413 30.5218 
31.928 75.2099 30.6667 23.9764 80.5802 30.0321 25.3374 81.6573 29.6274 
27.3289 80.5514 30.8599 29.9756 1.10003 30.8566 74.1499 16.4067 31.4864 
74.2868 19.8391 31.157 53.4679 42.3772 31.3548 34.1161 73.1514 31.1008 
32.5308 0.895495 32.1104 46.7514 2.36316 32.5033 54.0958 4.19429 32.5253 
8.57577 4.43207 32.5235 56.5939 5.03648 32.4929 4.17717 7.1274 32.4988 
73.0885 15.2413 32.4589 75.2212 19.3686 31.9258 0.477222 30.2136 32.4796 
1.98993 42.5155 32.7166 48.9797 50.3391 32.8675 45.2458 53.5778 31.6962 
43.8193 57.7483 32.7514 40.1681 63.6119 32.0403 41.1852 62.6263 32.7531 
39.4252 65.2874 32.4747 20.1155 76.205 32.3979 30.6617 76.6699 32.3692 
25.4146 81.8605 32.1715 56.5938 43.1529 34.4262 59.4017 40.6023 34.1561 
50.9771 47.5581 32.8817 51.9531 47.5712 34.2284 47.4946 53.5233 34.3217 
25.5159 81.8329 32.4863 20.3668 1.76848 34.2648 3.30822 9.65382 34.2064 
71.4313 13.935 34.2791 75.5128 17.7396 34.0366 77.2834 19.4921 34.1354 
75.7702 22.3226 33.895 60.6303 39.5325 34.4084 1.92467 43.2452 34.1356 
48.4278 52.2222 34.1638 41.9446 63.1945 34.3502 14.0385 67.8659 34.3467 
38.0022 68.3265 34.0934 36.9236 70.643 34.3466 35.1956 73.6405 34.105 
29.7553 77.7449 34.4496 23.7186 80.7766 34.2155 27.1114 81.1559 34.2555 
11.0659 3.9417 35.933 6.14549 5.66018 35.7728 77.668 19.3534 35.0751 
78.3212 22.2607 36.394 66.8432 33.6578 34.902 55.5574 44.5625 35.9161 
2.8802 47.5682 36.0108 4.71509 52.6204 36.0247 46.6504 55.7184 35.7297 
45.5264 57.3652 35.061 15.7753 70.8386 35.9216 29.8715 78.145 36.0304 
25.2993 82.1027 36.3854 39.6841 1.48285 35.9586 77.1059 18.6888 35.9183 
63.0396 38.2489 36.06 49.8791 51.0803 35.7388 25.4335 1.41933 37.5458 
27.7338 1.40083 37.6498 44.403 2.21257 37.6364 5.34828 6.37694 37.7369 
3.3873 9.37886 37.8731 78.3031 20.045 37.6126 79.9322 22.577 38.0497 
0.564611 24.988 37.6746 78.2245 24.0518 37.4332 75.1908 27.4598 38.0451 
70.9527 32.7783 37.7779 66.3718 36.1359 37.2245 53.0245 47.0931 37.4611 
3.74501 50.687 37.5876 48.3864 53.1142 37.6571 8.82659 60.5428 37.6592 
45.3944 58.6812 37.3534 10.7435 63.3849 37.5933 42 65.8789 37.4832 
39.2891 68.9152 37.2486 36.5137 73.5428 37.508 27.2705 81.1528 37.5276 
25.2753 81.7972 37.2337 80.5432 22.9142 38.9915 72.2856 32.1241 38.3609 
9.98501 62.2925 37.816 6.74616 5.84888 39.15 56.0796 5.44817 39.2462 
5.62287 6.4675 39.4838 4.32019 7.57289 39.2825 3.56675 9.47412 39.3469 
65.5213 10.3587 39.2777 69.9509 13.2628 39.193 75.2295 17.6154 39.3176 
78.196 25.5707 38.7686 75.9538 27.6312 38.796 72.8387 32.7539 39.5638 
71.1004 33.5889 39.0816 1.27933 35.468 39.366 68.3704 35.5208 39.4723 
63.9011 38.3705 39.1696 42.5245 65.9157 39.2818 41.4238 68.1093 39.3788 
32.1236 77.8857 39.5397 27.3186 81.2338 39.1095 25.4375 81.5619 38.9457 
4.44268 7.91535 40.896 80.771 24.6442 40.3421 77.5764 27.1625 39.7278 
75.7408 30.9309 40.8057 75.0383 32.1681 41.4474 65.85 37.3044 40.521 
44.5298 60.6871 41.0711 41.8999 68.3182 40.9811 36.9927 75.1939 41.2172 
22.0791 79.6322 41.1349 23.3631 80.5905 41.0743 25.2465 81.4594 41.0713 
27.6983 1.67281 41.1436 30.0981 1.56932 41.1382 39.589 1.89828 41.0004 
18.3909 3.0305 40.912 20.6594 2.58547 40.997 8.90682 5.39665 40.9184 
60.753 7.90357 40.9663 3.48888 12.4043 41.3154 80.7951 23.0576 41.5273 
81.443 25.0466 41.3022 20.8035 78.5009 41.2208 20.4974 2.92647 42.8535 
11.3979 4.94182 42.5845 56.6958 6.35116 42.9624 4.05814 9.03224 42.3222 
80.9015 23.1308 42.9686 81.9436 25.2201 42.4933 80.7885 27.5979 42.5108 
81.644 26.6769 42.7406 77.9028 30.9613 42.7217 75.4399 32.528 42.6425 
77.5153 31.7802 43.2593 59.0461 40.8543 42.8419 8.29824 60.8623 42.7194 
41.9898 68.7118 42.7431 40.6228 71.2913 42.2199 39.5445 73.6031 42.9164 
37.6156 75.4437 42.7554 20.632 78.5303 42.5397 25.4024 81.4251 42.7368 
27.6511 81.5105 42.7783 34.894 1.80958 42.8408 22.6234 2.89924 44.6626 
37.2484 2.31756 44.454 51.4935 4.95425 44.4388 6.08738 7.27949 44.4495 
4.84112 8.11128 44.4771 3.81653 9.60966 44.5565 70.537 14.9993 44.4521 
80.0095 22.862 44.5441 81.612 25.4789 44.8021 81.3213 23.9005 44.0316 
81.7089 27.3404 44.2071 78.0916 32.2281 44.5639 63.6915 38.1976 44.5215 
60.7723 39.7248 44.4363 56.4453 42.4118 44.3594 52.363 46.142 44.544 
49.0191 50.3747 44.4637 4.51702 52.7797 44.5182 42.0566 68.2245 43.9975 
39.8788 73.6001 44.5316 38.8349 75.0918 44.9852 20.3526 78.1243 44.2408 
34.4033 77.7398 44.6239 30.0367 80.9251 44.5041 25.4808 81.2729 44.3885 
28.1447 81.8076 45.2778 3.7449 9.79781 46.6726 80.7275 30.4881 44.6262 
81.5869 29.4313 45.0148 82.1726 27.8212 46.0844 82.3881 30.17 46.2999 
80.4774 32.2949 46.3867 61.8116 39.1696 44.5935 15.5334 70.7235 46.1616 
39.8128 73.7141 46.7465 5.86074 7.7412 46.1107 81.4444 25.8257 46.0659 
0.402866 29.8136 46.1946 81.1923 31.2563 45.478 81.8832 31.5055 46.453 
18.3513 75.962 46.2558 38.9303 75.2877 46.2469 37.7291 76.6246 46.3192 
20.5682 77.9801 46.0121 30.2657 81.4558 46.9053 28.328 82.018 46.2753 
25.4613 3.20876 47.669 4.1492 9.28464 47.6397 5.09393 8.51092 47.1447 
61.141 9.70986 47.9367 3.0006 12.0962 47.9269 72.7981 17.692 47.8253 
75.431 19.8886 47.9329 78.0346 22.4905 47.5013 80.1613 25.0438 47.9161 
81.3981 26.2032 47.244 82.5041 28.3152 48.0932 83.3355 30.3458 48.1632 
54.7154 43.685 47.9498 44.4246 58.1065 47.909 19.4378 77.0482 46.3562 
26.0698 80.9489 47.7883 33.2161 79.3001 47.5248 29.9601 81.8677 48.0084 
64.02 11.5323 48.1637 79.0182 23.513 47.3974 38.0644 76.9315 47.8533 
34.8267 3.27115 49.3719 49.0055 5.44156 49.4352 56.1133 7.76998 49.4742 
4.07904 9.85268 49.4129 3.05048 11.9036 50.2865 83.4505 29.7438 49.452 
83.1133 32.3969 50.445 80.7457 32.8799 49.2531 58.5946 40.5211 49.6906 
48.7242 50.1634 49.5879 4.10575 52.9536 49.6364 7.4999 61.254 49.4707 
10.7505 66.087 49.5968 14.4876 69.9844 49.7881 38.9404 76.151 49.6548 
37.5246 77.946 49.6279 34.3954 79.2935 49.1647 30.1802 81.7987 49.0992 
19.9024 76.8829 49.7739 34.4308 79.8008 50.1936 6.11804 9.16805 51.5293 
4.36543 9.96185 51.0469 0.621142 24.955 51.3165 83.1132 30.1306 51.0437 
83.7302 32.7783 52.0837 77.6847 33.3415 51.8676 0.502677 35.2866 51.3076 
70.4562 34.7669 51.3583 63.4176 37.6744 51.3233 1.31799 42.8852 51.3186 
45.0678 55.9187 51.3839 40.3876 68.5169 51.4429 38.798 76.4586 51.4769 
37.4702 78.8721 51.473 34.1115 80.4888 51.3549 32.29 81.3318 51.3452 
30.1735 81.6446 51.3205 39.6595 4.61708 53.0684 70.4169 17.7151 52.9434 
73.1565 19.7816 53.1201 82.7284 30.7568 52.9632 80.2296 33.056 53.4128 
83.6236 32.6553 52.5385 63.396 37.6269 53.0375 4.536 55.2034 53.1158 
44.0221 57.9643 53.0311 16.0936 73.1707 53.0724 18.1047 75.179 52.7819 
37.7585 79.1565 53.073 25.3258 4.50735 53.0972 13.4489 7.30414 53.0297 
49.3413 6.63427 53.2444 11.2722 7.94391 52.8192 4.67703 10.4717 52.7421 
72.7739 34.3125 53.1646 78.1809 33.3803 53.6295 52.0749 45.6306 53.0273 
36.7203 80.0999 53.1632 30.2261 81.5715 52.9821 30.1128 4.68102 54.7666 
37.2578 4.76945 54.7401 13.5939 7.7666 54.5879 56.4051 9.60018 54.8272 
6.34959 10.1995 54.6224 3.95305 11.9526 54.4475 5.0948 10.8471 54.2727 
61.2428 12.0837 54.8588 1.92066 17.6022 54.7058 75.0956 22.3199 54.5921 
78.16 33.3373 54.8406 80.1739 32.4575 54.8734 68.3816 35.6924 54.7235 
6.61978 60.4886 54.7731 8.05678 63.2172 54.7285 15.9339 73.0783 54.6916 
37.9672 78.7196 54.3297 36.6917 80.4664 54.7429 35.2385 81.3117 54.9374 
80.6089 30.5414 54.9142 82.0401 31.9583 53.9574 25.4353 5.46462 56.1693 
18.1699 7.13952 56.511 8.7433 9.9894 56.3865 65.4671 15.4269 56.243 
1.50016 19.9783 56.3891 77.9865 27.7298 56.6251 79.4941 30.668 56.3286 
79.401 32.2312 56.1427 76.4262 33.9554 56.2581 78.02 33.2904 56.519 
63.415 37.6511 56.4665 5.60365 58.3861 56.4391 36.7071 80.7121 57.1199 
35.0027 81.5269 56.7438 70.5093 20.0988 58.1009 75.4269 25.1454 58.1429 
78.8125 29.4328 56.752 4.56534 55.6783 58.0662 20.5768 7.23382 58.1903 
42.1296 6.71762 58.4005 8.98063 10.5443 57.8287 11.0739 9.86072 58.1537 
53.8821 9.96016 58.109 3.24754 14.6336 57.8636 2.20906 17.8022 58.0236 
0.424721 30.0996 58.1995 78.0948 32.9717 58.3649 76.6051 34.0041 58.1225 
75.4173 34.4006 58.3204 53.9968 43.538 58.1143 3.41208 50.6003 58.1926 
3.89859 53.0189 58.1738 46.4187 52.7928 58.1492 36.7508 80.5735 57.3301 
34.9906 81.5548 58.6798 34.8899 6.72051 60.1484 3.97369 14.5341 59.4737 
61.3378 14.4516 60.1006 68.4986 19.6506 60.0881 77.6685 30.3316 59.8124 
77.0362 33.3593 60.8955 75.4922 34.4423 60.0518 47.5535 51.0533 59.9077 
7.62715 62.4596 59.8045 14.7538 71.735 59.9338 38.0358 73.5423 59.9523 
24.928 79.1552 59.8815 36.454 80.2686 59.6386 32.5787 82.1742 59.6634 
5.26177 13.7993 60.4497 1.81589 45.2832 59.8783 35.015 81.6567 59.9747 
13.6371 10.4172 61.2842 49.1519 9.87615 61.5661 59.0774 14.1549 61.9649 
59.3767 13.5968 60.511 3.89233 17.6616 62.07 1.16096 25.2988 61.5913 
77.0301 30.6912 61.103 0.5843 35.2492 61.6813 75.1646 34.4455 61.6613 
76.4678 33.7234 61.1894 68.4696 36.0891 61.5244 0.710386 37.8306 61.6494 
52.0766 45.5561 61.612 3.52633 50.5695 61.61 4.02226 52.9903 61.5908 
10.2019 66.3827 61.6112 36.7668 78.8722 61.3531 27.8332 80.7692 61.6031 
35.485 81.5979 61.5068 33.7225 82.2538 60.5816 76.6882 32.7988 62.2263 
34.2882 82.3162 61.4575 32.5223 8.13908 62.8222 22.8985 9.41725 63.5256 
42.1069 9.25264 63.6105 11.0821 12.4185 63.271 55.9694 13.1091 62.9059 
6.058 14.9536 63.3262 5.10041 15.6362 62.668 71.1521 24.533 63.7185 
73.4971 27.2222 63.6595 75.6848 30.5121 63.4125 76.3047 32.7855 63.1112 
65.8596 37.0561 63.3992 58.8774 40.5948 63.2681 11.4836 67.8979 63.2897 
36.3613 80.2861 63.4124 29.9689 81.8422 63.2414 35.5344 81.8845 63.52 
32.5827 82.5613 63.3582 25.3562 9.86388 64.9891 58.4562 15.3417 64.7446 
5.10772 16.6487 63.914 2.78818 21.6885 65.2456 1.32122 27.6595 65.1827 
74.5111 34.3506 64.9107 1.45942 43.1976 65.0357 43.1285 58.5785 65.0283 
10.2926 66.2808 65.0653 39.3737 68.168 65.0131 32.2903 82.5963 65.0397 
53.6642 13.0197 64.6384 74.9928 33.0169 65.446 27.7793 10.4475 66.3397 
15.939 12.7885 66.4428 11.3539 14.4665 66.7268 6.00964 17.5315 66.5816 
58.9185 17.0877 66.9818 3.98238 20.5435 67.4128 2.99745 22.213 66.9296 
66.0185 22.3259 66.8882 73.1571 30.2794 66.7881 73.8637 33.069 67.2278 
74.483 32.8692 66.1942 70.8372 36.0416 66.8399 73.056 34.9747 66.631 
63.7455 38.3764 66.6293 1.93494 44.9432 66.5348 52.2416 46.0266 66.6696 
3.19093 48.2625 66.8387 43.5795 57.6842 66.7592 9.61221 65.1174 66.6634 
36.3122 80.6856 66.736 32.4647 82.6865 66.7823 27.6361 11.1766 67.482 
27.693 11.9606 68.6994 46.6732 12.7767 68.1647 56.5335 17.0198 68.7516 
4.29152 20.6604 68.1311 70.31 27.8393 68.1652 72.6116 34.7004 68.4085 
70.7085 36.0503 68.7301 1.43596 37.7454 68.6121 68.5242 37.0313 68.9648 
1.43956 40.3035 68.5518 1.66813 42.7801 68.6991 53.511 44.9274 68.4784 
6.18162 58.1482 68.4536 37.0829 75.8964 68.4375 34.3737 82.6486 68.3338 
37.2498 12.5475 70.0313 6.33806 20.2934 69.9262 60.7497 20.4516 69.776 
65.8352 25.0747 70.1391 71.1794 32.9565 70.5409 72.2316 33.3096 69.4371 
3.93816 50.4697 70.1485 34.2868 82.9961 69.5765 32.5014 12.4971 70.0609 
41.9495 12.8739 69.8115 15.9122 15.2158 69.9117 71.143 35.3532 70.0366 
68.876 37.0333 70.4873 1.99456 42.7626 70.1242 4.48967 52.8674 70.0792 
5.09095 55.0561 69.8431 40.1076 65.9062 70.1553 15.9435 73.2537 70.1744 
36.2197 80.6739 70.1527 35.5981 81.9521 70.0015 25.1696 13.8173 70.9187 
53.7553 17.8263 71.5441 8.75423 20.099 71.7663 61.0887 22.5133 71.8697 
4.02883 25.0576 72.0732 4.82804 23.4648 71.7469 3.60647 29.9513 72.0542 
70.2377 32.7207 71.5691 70.0457 35.3136 72.1923 2.30785 35.4654 71.7037 
2.18557 37.6466 71.3601 68.7371 37.0594 71.703 46.776 53.0063 71.8638 
15.6578 73.3785 71.8321 20.4177 76.1786 71.8425 35.845 81.8227 71.7046 
32.8654 83.1753 71.869 2.34903 40.2928 71.477 2.84469 40.3107 72.4252 
3.23865 40.6727 73.425 14.7402 72.4359 72.1536 39.6228 15.0836 73.431 
13.7779 18.2782 72.9031 4.13622 25.2569 73.6 66.1316 29.707 73.8499 
68.3619 32.789 73.6146 68.717 35.6959 74.0943 2.87022 35.2788 73.6068 
69.3887 36.1004 72.5498 2.7024 35.1193 73.1496 2.81382 37.8187 72.6243 
3.3221 38.4279 73.5905 67.6865 37.4567 73.7567 65.2019 38.8225 72.1439 
66.5084 38.3656 73.5692 58.36 42.2345 73.6929 53.6843 45.3472 73.5629 
45.0334 55.9202 73.5199 35.2208 83.1364 73.5367 32.5911 83.2727 75.2972 
42.0799 17.1254 75.5475 56.2981 22.5565 75.2498 5.63015 24.2755 75.4143 
58.955 24.7409 75.6426 63.2052 27.8433 74.9501 3.1944 35.2808 75.4202 
67.3857 35.6956 75.6648 67.5753 37.1516 74.695 66.2216 38.6363 75.7097 
3.64005 40.3098 75.3268 65.1456 39.2796 75.1659 54.0128 45.4844 75.2635 
48.9854 50.3935 75.2793 10.7182 65.9013 75.3023 36.5847 81.4952 75.3272 
35.2865 83.2771 75.2477 32.4209 17.6628 76.9049 25.4363 18.1285 76.3931 
44.2122 18.2141 76.2903 6.07335 25.0232 77.0567 66.6171 34.8888 76.3793 
63.8233 40.2128 77.3112 64.9847 39.3778 77.0906 56.9012 43.7941 76.7475 
49.0071 50.4574 76.9837 38.7645 70.5834 77.0352 13.3386 71.4672 76.6104 
15.166 74.0379 76.8838 36.0313 82.6558 75.5227 34.9896 83.5542 76.9803 
46.8353 19.8575 77.1171 4.69103 27.5595 77.0133 65.9334 38.1643 77.5492 
4.97147 50.3007 76.8509 36.9303 81.3695 77.0011 20.7183 20.5378 78.1873 
13.5401 22.8133 78.4452 49.1568 22.5551 78.6688 53.9971 24.9506 78.8295 
63.9622 35.7635 79.1864 65.6898 37.5933 78.0013 4.17405 40.3046 78.6821 
63.8144 40.083 78.689 4.25768 42.8152 78.7183 49.2088 50.4001 78.7305 
40.2351 66.0245 78.7077 11.8938 67.8829 78.6659 14.0613 73.0794 78.7192 
38.1699 73.5521 78.6184 37.2455 81.1226 78.6852 32.5949 83.5234 78.6982 
35.2041 83.8357 78.7941 32.4331 19.4979 78.936 34.5656 19.3279 78.9953 
51.8216 24.4728 79.3559 64.3252 38.2224 79.2663 5.09366 48.4097 79.381 
36.7251 82.8441 79.0166 37.2024 20.4565 79.8455 25.3202 22.2287 80.7238 
44.3865 22.5847 80.3425 13.1969 24.8558 80.5395 6.26465 27.7652 80.4559 
8.46692 27.0444 80.9301 56.1363 27.8404 80.0955 4.45072 32.7354 80.293 
63.598 37.5599 79.9982 62.7342 40.7875 80.9466 61.3975 42.3363 80.6571 
4.93315 47.1459 79.8948 7.28071 55.1487 80.8839 8.18947 58.2689 80.5058 
13.8409 72.8698 80.4545 36.8195 83.7655 80.7883 34.715 84.1425 79.7831 
4.88193 31.1652 81.1361 4.95473 32.6781 82.2977 62.3736 40.1508 81.7768 
62.2407 41.5767 80.6315 50.5121 49.8402 81.9923 47.4669 53.4639 81.9988 
7.45569 55.9229 80.6301 12.735 26.9475 82.3897 6.05319 29.9492 82.3409 
54.1404 29.861 82.5477 5.25999 32.5356 83.1034 58.4979 32.8525 81.8306 
61.9685 42.0233 81.991 62.2901 41.7517 81.9201 6.54024 48.5326 82.1369 
37.8381 81.5309 81.8318 27.7448 25.2178 83.6578 34.8771 25.1553 83.7306 
15.8341 27.6594 83.7746 48.9708 28.0327 83.2365 7.90657 30.1276 83.7253 
6.54407 30.8365 83.6263 5.88089 32.3006 84.0012 5.51182 35.2025 84.1443 
60.9925 40.7517 83.4802 6.67402 40.9283 84.0664 6.80498 42.7822 83.7768 
60.8178 42.3681 83.4257 59.6858 43.2405 84.3242 58.4263 44.7039 83.7916 
56.9683 45.9471 83.8972 7.24205 47.9295 83.56 49.7876 51.0791 83.6107 
43.0097 61.2656 83.7134 10.6455 63.3314 83.9162 13.9794 73.4067 83.7772 
38.1819 81.3798 83.6389 34.9163 84.6033 83.7471 59.4235 40.5094 84.6526 
7.62415 45.9801 84.6063 32.4962 27.5464 85.6317 37.262 27.5928 85.5668 
16.04 28.4665 84.4694 15.7971 30.0554 85.6686 8.19972 32.6324 85.6678 
51.5319 32.7205 85.4978 6.34622 35.487 86.1664 53.8677 34.8993 85.7333 
6.26664 37.2691 86.0237 58.6905 40.7349 85.2433 58.5649 42.7655 85.6903 
7.6915 45.7788 85.0704 58.3415 44.4972 85.2706 57.096 45.9993 85.5968 
8.02603 53.344 85.4467 8.63563 55.5683 85.5663 47.0064 55.3255 85.7775 
10.1953 60.8933 85.7808 41.0611 65.1002 85.7046 14.1085 73.6317 85.4701 
15.6061 75.1935 85.7586 37.7197 84.1491 84.7659 35.3696 84.8062 85.4529 
22.8548 29.5271 86.3817 8.04303 44.6215 87.6904 34.9121 84.8731 86.2144 
41.955 30.3991 86.8942 8.11086 35.2535 87.3343 51.4247 35.2072 87.036 
6.90674 35.8142 86.8909 7.01145 38.1963 87.7092 7.28703 39.9343 87.3228 
56.8551 45.4359 87.1744 55.7897 47.2095 87.3576 54.4998 48.5994 87.2415 
14.0387 73.2954 87.0566 37.8681 83.8133 85.5387 35.1252 85.1052 86.9061 
7.83638 38.1827 88.5445 8.59848 42.8848 89.1115 54.408 43.2869 88.8429 
55.7339 45.5956 88.4761 54.5474 48.1212 89.2879 53.4127 49.9153 89.048 
52.314 51.0686 88.985 41.2079 65.6092 89.0118 14.2779 73.1856 88.8081 
38.8784 75.8031 89.0398 36.1251 85.0098 87.6946 37.8282 84.1329 88.8634 
32.4967 32.6693 89.0017 39.6286 32.7759 88.8336 15.5476 35.0087 89.2556 
44.5053 35.0119 89.3434 10.768 37.8166 89.5543 51.2859 38.0139 88.3681 
7.22062 38.7118 88.313 8.13472 39.4038 88.8157 54.7438 45.8211 89.339 
9.43115 47.9169 89.1675 55.2577 47.1387 88.5453 38.682 81.541 89.1318 
25.3702 35.3771 90.4162 46.6353 37.9711 90.2135 9.60863 41.1736 90.0293 
10.6483 42.321 91.1175 9.37729 45.0369 90.5865 53.618 45.6442 90.0218 
53.5416 47.8841 90.523 10.0816 48.3594 90.8656 53.2728 49.8064 90.2912 
51.2187 52.6519 90.9235 52.9891 50.5443 90.6105 49.838 54.2195 91.2523 
11.2604 58.0574 90.6114 15.9045 75.9283 90.6619 38.8454 81.59 90.8306 
38.1539 83.8992 90.5763 37.0163 85.1905 90.8701 39.7016 37.4107 91.4115 
9.43856 45.0467 91.8671 52.491 48.2424 91.4573 12.9448 65.6319 92.3012 
14.0573 70.6836 90.5379 38.5192 83.0619 90.8355 34.884 86.2411 92.3726 
18.2963 38.2581 91.3876 42.0285 40.3021 92.4148 13.4074 42.7388 92.6592 
49.1024 45.4554 92.2389 10.0153 44.9636 92.1717 10.8936 47.6754 92.57 
51.0621 45.7781 91.4252 51.7643 48.2745 91.9408 11.1223 50.4191 92.801 
52.028 50.2931 92.1387 50.7886 52.8369 92.4247 50.0246 54.2594 92.975 
11.555 57.3423 92.2191 15.8293 75.8075 92.6163 38.7492 83.214 92.5344 
30.9815 85.0941 92.5103 44.5259 42.6772 92.8215 49.3583 55.608 94.3411 
48.7265 56.7072 94.1638 47.6003 58.1214 94.0764 12.188 60.377 93.6781 
14.6481 70.9701 92.7168 15.1489 70.9037 94.3363 23.2702 80.4883 94.1566 
38.9655 83.3403 94.2038 37.2048 40.7512 93.0998 25.3497 42.8482 94.1144 
15.9287 43.1468 93.3844 11.4419 45.6881 93.0153 13.2761 48.1611 94.4256 
46.8124 47.912 94.1676 11.8521 50.3819 93.6792 49.2191 52.9601 94.2479 
12.9592 63.3183 94.4498 40.516 68.5677 94.0455 20.4032 78.7611 94.08 
38.3204 84.4628 93.8963 37.2787 85.6217 94.1421 35.0133 86.4211 94.0562 
15.3681 47.7527 94.9898 46.6566 50.7052 95.1481 46.989 53.1539 95.6797 
13.4352 52.7463 95.5746 48.3158 53.242 94.9665 48.5941 55.6535 95.1818 
47.6306 57.9595 95.8396 12.7928 58.2591 95.9065 46.2198 60.5007 96.3082 
44.227 63.0431 96.1811 45.2253 61.8877 96.3552 13.551 63.2641 95.7702 
41.8215 65.9588 95.8679 16.5363 76.2401 96.0234 17.1344 76.9672 95.6697 
22.1434 79.7671 93.9854 39.2048 83.4323 95.885 20.5761 47.9009 95.8999 
27.726 47.7659 96.2535 15.3817 50.502 95.9034 15.2063 52.7561 96.5829 
13.4216 55.396 96.275 14.5015 62.7321 97.2274 27.7421 48.3155 96.4624 
30.1224 48.3058 96.4718 22.987 50.6022 97.1727 27.7316 50.5671 97.2135 
34.8889 50.5152 97.3703 39.7048 50.59 97.1184 15.4071 53.271 96.8142 
14.1455 56.0402 97.0021 13.7761 58.0181 97.0018 46.3588 58.6181 96.9858 
46.3841 59.8869 96.8893 15.2888 60.736 98.0387 15.1827 63.3772 97.8278 
44.0311 62.8145 97.5809 41.6411 65.8226 97.5561 43.3219 63.6596 97.7955 
40.3984 68.34 97.7004 16.5861 70.897 97.4624 39.6499 71.1733 97.6628 
39.4663 72.9604 97.7176 39.6668 75.8474 97.453 39.6258 81.0523 97.5928 
24.7755 81.8926 97.4057 39.5652 84.3894 98.9742 30.5084 85.6919 97.57 
37.3599 86.3218 97.4639 34.7688 87.2138 97.6079 23.2146 53.0345 98.0019 
25.3657 52.9252 97.8833 39.4861 53.396 98.129 41.9819 55.4691 98.153 
15.2919 58.2304 97.8387 44.2767 58.6634 98.0352 44.5735 60.9028 97.9289 
17.2435 71.1158 98.3902 18.0246 73.0716 99.3623 18.1891 76.3792 99.7358 
23.054 80.9805 99.6772 39.8454 84.0264 99.8419 38.8443 85.0194 97.8002 
37.5115 86.568 99.4768 22.9904 55.2715 98.6024 37.3579 55.6102 98.785 
20.4849 55.7633 98.6392 22.9145 55.6848 98.7288 34.9627 55.6556 98.5507 
20.5324 58.1071 99.1387 22.9624 58.0957 99.2637 30.4176 58.0293 98.5057 
37.6834 58.0839 99.1959 39.4782 57.7253 99.1717 41.8585 58.1276 98.7051 
39.9473 60.6154 99.3544 18.268 60.6542 99.1267 32.7955 60.5639 98.8449 
42.4605 61.0672 98.8142 34.8761 63.1727 99.3226 41.4808 63.8751 99.0455 
39.9749 62.9591 99.386 16.3354 65.7052 98.7611 41.0241 65.2297 98.7982 
39.9639 65.3549 99.136 37.5302 65.8591 99.4999 39.0251 69.0228 98.9281 
40.5545 66.8326 98.2995 16.4073 67.537 98.6812 18.1705 71.0197 99.4395 
38.9448 70.6993 98.8418 39.138 73.0881 99.1734 40.005 75.8162 99.638 
39.9436 78.4751 99.5143 20.594 78.8655 99.6312 39.3417 80.9653 99.5111 
24.7722 82.0942 99.6877 27.465 83.8511 99.4485 39.1394 85.1093 99.4952 
32.5379 87.116 100.009 35.2418 87.2746 99.6054 22.9725 60.6095 99.5466 
17.8776 65.7251 99.6866 35.5718 69.8529 99.9332 37.9578 70.9267 99.6309 
38.0532 74.3521 101.179 38.0654 72.3558 100.095 22.7846 80.3917 101.031 
25.289 81.4227 101.433 25.7205 82.4485 100.528 27.9619 83.821 100.982 
39.595 83.9786 100.552 30.9959 85.9665 100.988 32.6873 86.7365 101.109 
37.362 85.9801 100.888 34.8749 86.4071 101.306 20.1107 68.4756 100.361 
23.069 68.1977 100.52 20.2385 71.2998 100.412 18.9312 73.565 100.138 
20.5294 72.938 100.638 27.734 73.3713 100.768 32.5218 73.3032 101.015 
38.727 73.7975 100.534 41.0331 77.0089 101.511 19.12 76.8441 100.653 
20.4639 76.7494 101.294 22.7116 76.0162 101.379 41.5251 77.1495 101.584 
39.5958 78.4573 100.825 41.6664 77.4768 101.639 19.3663 77.4131 100.419 
20.8119 78.0779 101.028 37.9319 78.3907 101.027 37.413 80.4156 100.96 
38.5864 80.6414 100.394 28.8137 84.8026 100.324 39.0329 84.8697 100.337 
34.0372 76.1198 101.537 37.2632 75.8944 101.526 22.8427 78.4891 101.625 
25.2582 78.5506 101.747 27.4188 81.409 101.816 37.7245 83.6166 101.413 
29.7695 84.0071 101.613 32.3663 83.8647 101.796 
POLYGONS 2608 7821
OFFSETS vtktypeint64
0 3 6 9 12 15 18 21 24 
27 30 33 36 39 42 45 48 51 
54 57 60 63 66 69 72 75 78 
81 84 87 90 93 96 99 102 105 
108 111 114 117 120 123 126 129 132 
135 138 141 144 147 150 153 156 159 
162 165 168 171 174 177 180 183 186 
189 192 195 198 201 204 207 210 213 
216 219 222 225 228 231 234 237 240 
243 246 249 252 255 258 261 264 267 
270 273 276 279 282 285 288 291 294 
297 300 303 306 309 312 315 318 321 
324 327 330 333 336 339 342 345 348 
351 354 357 360 363 366 369 372 375 
378 381 384 387 390 393 396 399 402 
405 408 411 414 417 420 423 426 429 
432 435 438 441 444 447 450 453 456 
459 462 465 468 471 474 477 480 483 
486 489 492 495 498 501 504 507 510 
513 516 519 522 525 528 531 534 537 
540 543 546 549 552 555 558 561 564 
567 570 573 576 579 582 585 588 591 
594 597 600 603 606 609 612 615 618 
621 624 627 630 633 636 639 642 645 
648 651 654 657 660 663 666 669 672 
675 678 681 684 687 690 693 696 699 
702 705 708 711 714 717 720 723 726 
729 732 735 738 741 744 747 750 753 
756 759 762 765 768 771 774 777 780 
783 786 789 792 795 798 801 804 807 
810 813 816 819 822 825 828 831 834 
837 840 843 846 849 852 855 858 861 
864 867 870 873 876 879 882 885 888 
891 894 897 900 903 906 909 912 915 
918 921 924 927 930 933 936 939 942 
945 948 951 954 957 960 963 966 969 
972 975 978 981 984 987 990 993 996 
999 1002 1005 1008 1011 1014 1017 1020 1023 
1026 1029 1032 1035 1038 1041 1044 1047 1050 
1053 1056 1059 1062 1065 1068 1071 1074 1077 
1080 1083 1086 1089 1092 1095 1098 1101 1104 
1107 1110 1113 1116 1119 1122 1125 1128 1131 
1134 1137 1140 1143 1146 1149 1152 1155 1158 
1161 1164 1167 1170 1173 1176 1179 1182 1185 
1188 1191 1194 1197 1200 1203 1206 1209 1212 
1215 1218 1221 1224 1227 1230 1233 1236 1239 
1242 1245 1248 1251 1254 1257 1260 1263 1266 
1269 1272 1275 1278 1281 1284 1287 1290 1293 
1296 1299 1302 1305 1308 1311 1314 1317 1320 
1323 1326 1329 1332 1335 1338 1341 1344 1347 
1350 1353 1356 1359 1362 1365 1368 1371 1374 
1377 1380 1383 1386 1389 1392 1395 1398 1401 
1404 1407 1410 1413 1416 1419 1422 1425 1428 
1431 1434 1437 1440 1443 1446 1449 1452 1455 
1458 1461 1464 1467 1470 1473 1476 1479 1482 
1485 1488 1491 1494 1497 1500 1503 1506 1509 
1512 1515 1518 1521 1524 1527 1530 1533 1536 
1539 1542 1545 1548 1551 1554 1557 1560 1563 
1566 1569 1572 1575 1578 1581 1584 1587 1590 
1593 1596 1599 1602 1605 1608 1611 1614 1617 
1620 1623 1626 1629 1632 1635 1638 1641 1644 
1647 1650 1653 1656 1659 1662 1665 1668 1671 
1674 1677 1680 1683 1686 1689 1692 1695 1698 
1701 1704 1707 1710 1713 1716 1719 1722 1725 
1728 1731 1734 1737 1740 1743 1746 1749 1752 
1755 1758 1761 1764 1767 1770 1773 1776 1779 
1782 1785 1788 1791 1794 1797 1800 1803 1806 
1809 1812 1815 1818 1821 1824 1827 1830 1833 
1836 1839 1842 1845 1848 1851 1854 1857 1860 
1863 1866 1869 1872 1875 1878 1881 1884 1887 
1890 1893 1896 1899 1902 1905 1908 1911 1914 
1917 1920 1923 1926 1929 1932 1935 1938 1941 
1944 1947 1950 1953 1956 1959 1962 1965 1968 
1971 1974 1977 1980 1983 1986 1989 1992 1995 
1998 2001 2004 2007 2010 2013 2016 2019 2022 
2025 2028 2031 2034 2037 2040 2043 2046 2049 
2052 2055 2058 2061 2064 2067 2070 2073 2076 
2079 2082 2085 2088 2091 2094 2097 2100 2103 
2106 2109 2112 2115 2118 2121 2124 2127 2130 
2133 2136 2139 2142 2145 2148 2151 2154 2157 
2160 2163 2166 2169 2172 2175 2178 2181 2184 
2187 2190 2193 2196 2199 2202 2205 2208 2211 
2214 2217 2220 2223 2226 2229 2232 2235 2238 
2241 2244 2247 2250 2253 2256 2259 2262 2265 
2268 2271 2274 2277 2280 2283 2286 2289 2292 
2295 2298 2301 2304 2307 2310 2313 2316 2319 
2322 2325 2328 2331 2334 2337 2340 2343 2346 
2349 2352 2355 2358 2361 2364 2367 2370 2373 
2376 2379 2382 2385 2388 2391 2394 2397 2400 
2403 2406 2409 2412 2415 2418 2421 2424 2427 
2430 2433 2436 2439 2442 2445 2448 2451 2454 
2457 2460 2463 2466 2469 2472 2475 2478 2481 
2484 2487 2490 2493 2496 2499 2502 2505 2508 
2511 2514 2517 2520 2523 2526 2529 2532 2535 
2538 2541 2544 2547 2550 2553 2556 2559 2562 
2565 2568 2571 2574 2577 2580 2583 2586 2589 
2592 2595 2598 2601 2604 2607 2610 2613 2616 
2619 2622 2625 2628 2631 2634 2637 2640 2643 
2646 2649 2652 2655 2658 2661 2664 2667 2670 
2673 2676 2679 2682 2685 2688 2691 2694 2697 
2700 2703 2706 2709 2712 2715 2718 2721 2724 
2727 2730 2733 2736 2739 2742 2745 2748 2751 
2754 2757 2760 2763 2766 2769 2772 2775 2778 
2781 2784 2787 2790 2793 2796 2799 2802 2805 
2808 2811 2814 2817 2820 2823 2826 2829 2832 
2835 2838 2841 2844 2847 2850 2853 2856 2859 
2862 2865 2868 2871 2874 2877 2880 2883 2886 
2889 2892 2895 2898 2901 2904 2907 2910 2913 
2916 2919 2922 2925 2928 2931 2934 2937 2940 
2943 2946 2949 2952 2955 2958 2961 2964 2967 
2970 2973 2976 2979 2982 2985 2988 2991 2994 
2997 3000 3003 3006 3009 3012 3015 3018 3021 
3024 3027 3030 3033 3036 3039 3042 3045 3048 
3051 3054 3057 3060 3063 3066 3069 3072 3075 
3078 3081 3084 3087 3090 3093 3096 3099 3102 
3105 3108 3111 3114 3117 3120 3123 3126 3129 
3132 3135 3138 3141 3144 3147 3150 3153 3156 
3159 3162 3165 3168 3171 3174 3177 3180 3183 
3186 3189 3192 3195 3198 3201 3204 3207 3210 
3213 3216 3219 3222 3225 3228 3231 3234 3237 
3240 3243 3246 3249 3252 3255 3258 3261 3264 
3267 3270 3273 3276 3279 3282 3285 3288 3291 
3294 3297 3300 3303 3306 3309 3312 3315 3318 
3321 3324 3327 3330 3333 3336 3339 3342 3345 
3348 3351 3354 3357 3360 3363 3366 3369 3372 
3375 3378 3381 3384 3387 3390 3393 3396 3399 
3402 3405 3408 3411 3414 3417 3420 3423 3426 
3429 3432 3435 3438 3441 3444 3447 3450 3453 
3456 3459 3462 3465 3468 3471 3474 3477 3480 
3483 3486 3489 3492 3495 3498 3501 3504 3507 
3510 3513 3516 3519 3522 3525 3528 3531 3534 
3537 3540 3543 3546 3549 3552 3555 3558 3561 
3564 3567 3570 3573 3576 3579 3582 3585 3588 
3591 3594 3597 3600 3603 3606 3609 3612 3615 
3618 3621 3624 3627 3630 3633 3636 3639 3642 
3645 3648 3651 3654 3657 3660 3663 3666 3669 
3672 3675 3678 3681 3684 3687 3690 3693 3696 
3699 3702 3705 3708 3711 3714 3717 3720 3723 
3726 3729 3732 3735 3738 3741 3744 3747 3750 
3753 3756 3759 3762 3765 3768 3771 3774 3777 
3780 3783 3786 3789 3792 3795 3798 3801 3804 
3807 3810 3813 3816 3819 3822 3825 3828 3831 
3834 3837 3840 3843 3846 3849 3852 3855 3858 
3861 3864 3867 3870 3873 3876 3879 3882 3885 
3888 3891 3894 3897 3900 3903 3906 3909 3912 
3915 3918 3921 3924 3927 3930 3933 3936 3939 
3942 3945 3948 3951 3954 3957 3960 3963 3966 
3969 3972 3975 3978 3981 3984 3987 3990 3993 
3996 3999 4002 4005 4008 4011 4014 4017 4020 
4023 4026 4029 4032 4035 4038 4041 4044 4047 
4050 4053 4056 4059 4062 4065 4068 4071 4074 
4077 4080 4083 4086 4089 4092 4095 4098 4101 
4104 4107 4110 4113 4116 4119 4122 4125 4128 
4131 4134 4137 4140 4143 4146 4149 4152 4155 
4158 4161 4164 4167 4170 4173 4176 4179 4182 
4185 4188 4191 4194 4197 4200 4203 4206 4209 
4212 4215 4218 4221 4224 4227 4230 4233 4236 
4239 4242 4245 4248 4251 4254 4257 4260 4263 
4266 4269 4272 4275 4278 4281 4284 4287 4290 
4293 4296 4299 4302 4305 4308 4311 4314 4317 
4320 4323 4326 4329 4332 4335 4338 4341 4344 
4347 4350 4353 4356 4359 4362 4365 4368 4371 
4374 4377 4380 4383 4386 4389 4392 4395 4398 
4401 4404 4407 4410 4413 4416 4419 4422 4425 
4428 4431 4434 4437 4440 4443 4446 4449 4452 
4455 4458 4461 4464 4467 4470 4473 4476 4479 
4482 4485 4488 4491 4494 4497 4500 4503 4506 
4509 4512 4515 4518 4521 4524 4527 4530 4533 
4536 4539 4542 4545 4548 4551 4554 4557 4560 
4563 4566 4569 4572 4575 4578 4581 4584 4587 
4590 4593 4596 4599 4602 4605 4608 4611 4614 
4617 4620 4623 4626 4629 4632 4635 4638 4641 
4644 4647 4650 4653 4656 4659 4662 4665 4668 
4671 4674 4677 4680 4683 4686 4689 4692 4695 
4698 4701 4704 4707 4710 4713 4716 4719 4722 
4725 4728 4731 4734 4737 4740 4743 4746 4749 
4752 4755 4758 4761 4764 4767 4770 4773 4776 
4779 4782 4785 4788 4791 4794 4797 4800 4803 
4806 4809 4812 4815 4818 4821 4824 4827 4830 
4833 4836 4839 4842 4845 4848 4851 4854 4857 
4860 4863 4866 4869 4872 4875 4878 4881 4884 
4887 4890 4893 4896 4899 4902 4905 4908 4911 
4914 4917 4920 4923 4926 4929 4932 4935 4938 
4941 4944 4947 4950 4953 4956 4959 4962 4965 
4968 4971 4974 4977 4980 4983 4986 4989 4992 
4995 4998 5001 5004 5007 5010 5013 5016 5019 
5022 5025 5028 5031 5034 5037 5040 5043 5046 
5049 5052 5055 5058 5061 5064 5067 5070 5073 
5076 5079 5082 5085 5088 5091 5094 5097 5100 
5103 5106 5109 5112 5115 5118 5121 5124 5127 
5130 5133 5136 5139 5142 5145 5148 5151 5154 
5157 5160 5163 5166 5169 5172 5175 5178 5181 
5184 5187 5190 5193 5196 5199 5202 5205 5208 
5211 5214 5217 5220 5223 5226 5229 5232 5235 
5238 5241 5244 5247 5250 5253 5256 5259 5262 
5265 5268 5271 5274 5277 5280 5283 5286 5289 
5292 5295 5298 5301 5304 5307 5310 5313 5316 
5319 5322 5325 5328 5331 5334 5337 5340 5343 
5346 5349 5352 5355 5358 5361 5364 5367 5370 
5373 5376 5379 5382 5385 5388 5391 5394 5397 
5400 5403 5406 5409 5412 5415 5418 5421 5424 
5427 5430 5433 5436 5439 5442 5445 5448 5451 
5454 5457 5460 5463 5466 5469 5472 5475 5478 
5481 5484 5487 5490 5493 5496 5499 5502 5505 
5508 5511 5514 5517 5520 5523 5526 5529 5532 
5535 5538 5541 5544 5547 5550 5553 5556 5559 
5562 5565 5568 5571 5574 5577 5580 5583 5586 
5589 5592 5595 5598 5601 5604 5607 5610 5613 
5616 5619 5622 5625 5628 5631 5634 5637 5640 
5643 5646 5649 5652 5655 5658 5661 5664 5667 
5670 5673 5676 5679 5682 5685 5688 5691 5694 
5697 5700 5703 5706 5709 5712 5715 5718 5721 
5724 5727 5730 5733 5736 5739 5742 5745 5748 
5751 5754 5757 5760 5763 5766 5769 5772 5775 
5778 5781 5784 5787 5790 5793 5796 5799 5802 
5805 5808 5811 5814 5817 5820 5823 5826 5829 
5832 5835 5838 5841 5844 5847 5850 5853 5856 
5859 5862 5865 5868 5871 5874 5877 5880 5883 
5886 5889 5892 5895 5898 5901 5904 5907 5910 
5913 5916 5919 5922 5925 5928 5931 5934 5937 
5940 5943 5946 5949 5952 5955 5958 5961 5964 
5967 5970 5973 5976 5979 5982 5985 5988 5991 
5994 5997 6000 6003 6006 6009 6012 6015 6018 
6021 6024 6027 6030 6033 6036 6039 6042 6045 
6048 6051 6054 6057 6060 6063 6066 6069 6072 
6075 6078 6081 6084 6087 6090 6093 6096 6099 
6102 6105 6108 6111 6114 6117 6120 6123 6126 
6129 6132 6135 6138 6141 6144 6147 6150 6153 
6156 6159 6162 6165 6168 6171 6174 6177 6180 
6183 6186 6189 6192 6195 6198 6201 6204 6207 
6210 6213 6216 6219 6222 6225 6228 6231 6234 
6237 6240 6243 6246 6249 6252 6255 6258 6261 
6264 6267 6270 6273 6276 6279 6282 6285 6288 
6291 6294 6297 6300 6303 6306 6309 6312 6315 
6318 6321 6324 6327 6330 6333 6336 6339 6342 
6345 6348 6351 6354 6357 6360 6363 6366 6369 
6372 6375 6378 6381 6384 6387 6390 6393 6396 
6399 6402 6405 6408 6411 6414 6417 6420 6423 
6426 6429 6432 6435 6438 6441 6444 6447 6450 
6453 6456 6459 6462 6465 6468 6471 6474 6477 
6480 6483 6486 6489 6492 6495 6498 6501 6504 
6507 6510 6513 6516 6519 6522 6525 6528 6531 
6534 6537 6540 6543 6546 6549 6552 6555 6558 
6561 6564 6567 6570 6573 6576 6579 6582 6585 
6588 6591 6594 6597 6600 6603 6606 6609 6612 
6615 6618 6621 6624 6627 6630 6633 6636 6639 
6642 6645 6648 6651 6654 6657 6660 6663 6666 
6669 6672 6675 6678 6681 6684 6687 6690 6693 
6696 6699 6702 6705 6708 6711 6714 6717 6720 
6723 6726 6729 6732 6735 6738 6741 6744 6747 
6750 6753 6756 6759 6762 6765 6768 6771 6774 
6777 6780 6783 6786 6789 6792 6795 6798 6801 
6804 6807 6810 6813 6816 6819 6822 6825 6828 
6831 6834 6837 6840 6843 6846 6849 6852 6855 
6858 6861 6864 6867 6870 6873 6876 6879 6882 
6885 6888 6891 6894 6897 6900 6903 6906 6909 
6912 6915 6918 6921 6924 6927 6930 6933 6936 
6939 6942 6945 6948 6951 6954 6957 6960 6963 
6966 6969 6972 6975 6978 6981 6984 6987 6990 
6993 6996 6999 7002 7005 7008 7011 7014 7017 
7020 7023 7026 7029 7032 7035 7038 7041 7044 
7047 7050 7053 7056 7059 7062 7065 7068 7071 
7074 7077 7080 7083 7086 7089 7092 7095 7098 
7101 7104 7107 7110 7113 7116 7119 7122 7125 
7128 7131 7134 7137 7140 7143 7146 7149 7152 
7155 7158 7161 7164 7167 7170 7173 7176 7179 
7182 7185 7188 7191 7194 7197 7200 7203 7206 
7209 7212 7215 7218 7221 7224 7227 7230 7233 
7236 7239 7242 7245 7248 7251 7254 7257 7260 
7263 7266 7269 7272 7275 7278 7281 7284 7287 
7290 7293 7296 7299 7302 7305 7308 7311 7314 
7317 7320 7323 7326 7329 7332 7335 7338 7341 
7344 7347 7350 7353 7356 7359 7362 7365 7368 
7371 7374 7377 7380 7383 7386 7389 7392 7395 
7398 7401 7404 7407 7410 7413 7416 7419 7422 
7425 7428 7431 7434 7437 7440 7443 7446 7449 
7452 7455 7458 7461 7464 7467 7470 7473 7476 
7479 7482 7485 7488 7491 7494 7497 7500 7503 
7506 7509 7512 7515 7518 7521 7524 7527 7530 
7533 7536 7539 7542 7545 7548 7551 7554 7557 
7560 7563 7566 7569 7572 7575 7578 7581 7584 
7587 7590 7593 7596 7599 7602 7605 7608 7611 
7614 7617 7620 7623 7626 7629 7632 7635 7638 
7641 7644 7647 7650 7653 7656 7659 7662 7665 
7668 7671 7674 7677 7680 7683 7686 7689 7692 
7695 7698 7701 7704 7707 7710 7713 7716 7719 
7722 7725 7728 7731 7734 7737 7740 7743 7746 
7749 7752 7755 7758 7761 7764 7767 7770 7773 
7776 7779 7782 7785 7788 7791 7794 7797 7800 
7803 7806 7809 7812 7815 7818 7821 
CONNECTIVITY vtktypeint64
10 9 8 10 0 11 10 8 12 
0 10 12 2 0 1 12 8 4 
3 12 4 3 0 12 1 0 3 
24 14 4 5 4 14 3 4 5 
6 3 5 7 5 14 7 15 5 
5 15 6 16 8 9 18 10 11 
8 16 17 19 8 17 0 18 11 
18 0 2 20 18 2 2 13 20 
13 21 20 8 19 4 4 19 24 
13 1 21 2 1 13 1 22 21 
24 37 23 37 24 19 3 6 1 
1 6 22 24 26 14 6 15 25 
25 15 7 24 23 26 14 26 29 
14 27 7 29 27 14 33 28 26 
30 26 28 29 26 31 31 26 30 
32 31 30 30 28 32 33 34 28 
34 32 28 35 17 16 16 9 36 
17 48 19 37 19 50 21 38 20 
22 6 21 37 39 23 23 39 26 
25 7 27 26 40 33 39 40 26 
27 31 97 27 29 31 40 42 33 
32 34 31 34 41 31 97 41 34 
33 42 43 43 42 45 44 34 33 
97 34 44 43 45 46 48 17 35 
48 35 47 16 36 35 10 107 9 
107 10 18 48 50 19 20 51 18 
20 72 51 72 20 52 38 53 52 
20 38 52 50 49 37 53 38 21 
49 39 37 21 6 65 6 25 65 
64 54 39 39 54 40 40 54 42 
31 41 97 42 66 57 42 57 45 
43 55 33 46 55 43 33 55 44 
56 55 46 46 45 56 58 56 45 
45 57 58 48 85 59 48 47 85 
85 47 60 59 49 48 35 60 47 
35 36 60 48 49 50 36 9 151 
51 72 61 62 72 52 63 52 53 
39 73 64 49 73 39 53 21 65 
25 27 65 27 97 65 74 42 54 
42 74 66 67 56 58 55 56 67 
58 57 67 57 66 68 69 57 68 
36 151 60 49 59 70 59 87 70 
107 18 51 70 71 73 61 72 51 
49 70 73 62 52 63 54 64 74 
97 44 88 44 55 88 74 75 66 
66 75 77 66 77 68 67 57 69 
75 76 77 78 69 68 68 77 78 
78 77 79 80 69 78 90 69 80 
82 80 81 81 80 78 87 59 83 
83 59 106 59 85 106 71 84 86 
71 87 84 84 87 83 70 87 71 
9 107 151 71 86 73 72 155 51 
155 72 62 95 155 62 109 62 63 
133 64 73 63 53 111 63 111 109 
65 112 53 98 75 89 74 89 75 
171 55 67 76 75 98 76 75 77 
171 67 69 77 76 79 79 76 98 
79 81 78 80 82 90 82 91 90 
81 91 82 81 79 92 91 81 93 
81 92 93 84 94 86 86 133 73 
109 95 62 96 64 113 64 96 74 
55 171 88 69 90 171 98 99 79 
91 171 90 79 99 92 99 100 92 
101 92 100 101 93 92 104 94 105 
84 102 94 94 102 105 103 102 84 
83 103 84 83 106 103 60 151 85 
86 104 121 94 104 86 151 107 132 
51 155 107 86 121 133 108 95 109 
111 110 109 112 111 53 115 113 114 
96 113 115 115 114 96 96 115 114 
96 114 74 74 114 89 97 88 116 
93 127 91 101 117 93 100 99 118 
101 100 119 119 100 118 120 105 102 
121 122 133 108 110 135 108 109 110 
64 136 113 110 111 124 110 124 123 
65 140 112 89 114 142 171 126 88 
99 98 185 127 93 117 211 127 117 
118 99 148 118 128 119 129 121 104 
120 129 104 105 120 104 121 130 131 
122 131 133 121 131 122 155 95 134 
95 108 134 108 135 134 64 133 136 
135 110 123 113 136 137 123 124 138 
124 111 138 111 139 138 137 161 113 
111 112 245 111 245 139 112 140 245 
113 161 114 114 161 141 140 65 97 
114 141 142 143 145 142 116 88 144 
116 144 125 142 145 89 144 88 126 
89 145 98 146 145 168 127 210 91 
117 147 211 101 119 117 119 190 117 
190 147 117 118 148 149 128 118 149 
150 193 128 128 149 150 103 296 102 
103 106 296 152 130 196 130 121 196 
130 152 131 131 152 154 132 107 153 
107 155 153 131 154 133 134 135 156 
123 157 135 159 158 123 136 199 137 
159 123 160 158 159 160 123 138 160 
137 199 161 139 245 160 139 160 138 
161 182 141 162 141 182 162 163 141 
163 162 164 165 163 164 163 165 141 
142 141 165 165 164 167 167 164 166 
142 165 143 143 165 167 143 167 166 
145 143 166 126 171 206 169 170 168 
168 170 146 170 172 146 170 185 146 
145 146 98 98 146 185 171 91 210 
99 185 173 174 99 173 174 192 99 
148 99 192 190 211 147 119 128 190 
149 148 216 150 149 175 176 150 175 
193 150 176 154 152 177 154 136 133 
154 178 136 134 156 155 156 157 134 
156 135 157 123 159 157 199 180 161 
161 181 182 97 116 225 166 183 145 
183 184 145 145 184 168 207 169 183 
183 169 184 184 169 168 187 173 185 
127 211 210 188 173 187 189 173 188 
174 173 192 192 173 189 149 216 249 
175 149 249 217 193 176 196 121 129 
85 296 106 151 313 85 85 313 296 
177 152 235 197 177 235 235 152 196 
132 221 151 132 153 221 177 197 154 
154 197 178 197 198 178 198 199 136 
178 198 136 155 156 254 254 156 157 
159 158 179 159 179 241 159 241 157 
223 180 199 158 160 179 180 200 161 
161 200 181 181 200 201 245 244 160 
181 201 182 201 202 182 182 202 162 
202 203 162 140 97 245 162 203 164 
203 204 164 204 166 164 116 205 225 
144 205 116 126 206 144 144 206 205 
169 207 170 207 208 170 171 209 206 
170 208 185 208 186 185 171 210 209 
186 188 185 185 188 187 189 188 191 
191 212 189 189 212 192 191 213 212 
212 213 192 190 128 247 192 213 214 
215 192 214 216 192 215 192 216 148 
214 213 215 175 194 176 176 194 217 
195 217 194 175 218 194 194 218 195 
219 195 218 120 102 295 332 120 295 
295 102 296 238 199 198 254 157 222 
199 239 223 180 223 200 179 160 244 
97 225 246 183 226 207 188 227 228 
191 188 228 213 229 215 231 215 230 
232 231 230 216 215 233 233 215 231 
249 216 233 233 231 232 266 175 249 
217 195 234 219 175 250 218 175 219 
195 219 267 234 195 267 294 120 332 
235 196 236 220 236 196 196 236 220 
196 129 236 120 294 129 151 221 313 
237 197 251 235 251 197 252 198 237 
197 237 198 198 252 238 238 240 239 
238 239 199 157 241 222 256 242 239 
239 242 223 179 243 241 223 242 200 
200 242 224 224 201 200 245 97 305 
166 226 183 261 205 206 207 226 208 
281 186 208 210 206 209 227 191 228 
191 227 229 213 191 229 128 193 247 
229 230 215 248 233 232 233 248 249 
266 250 175 267 219 250 240 238 268 
253 240 268 239 253 255 253 239 240 
239 255 256 257 242 256 258 244 259 
258 179 244 244 245 291 203 278 204 
97 246 305 246 225 260 206 210 306 
211 190 247 232 262 248 263 249 248 
217 234 292 217 292 193 249 263 264 
264 265 266 264 266 249 266 272 250 
250 272 267 268 238 252 241 243 258 
243 179 258 242 257 224 259 269 258 
244 291 259 201 277 202 202 277 203 
277 278 203 305 246 279 246 260 279 
204 318 166 260 225 270 246 260 270 
225 205 270 166 318 226 261 270 205 
261 206 271 271 206 280 261 271 280 
186 281 188 210 211 306 284 211 247 
230 229 232 262 232 229 263 248 262 
265 264 263 266 265 273 272 266 273 
235 360 251 252 237 274 274 237 251 
252 274 268 155 315 153 155 254 315 
254 222 299 253 275 255 299 222 241 
255 275 256 256 275 257 275 300 257 
258 269 276 259 291 269 384 201 224 
260 270 279 279 270 261 226 318 208 
206 306 280 208 318 281 282 306 211 
188 426 227 283 282 211 306 282 283 
227 379 229 307 283 211 284 307 211 
262 379 263 263 308 264 265 264 308 
285 273 265 234 267 286 272 273 287 
312 272 287 267 272 312 286 267 312 
360 235 236 253 288 275 289 290 275 
300 384 257 257 384 224 291 303 269 
426 188 281 379 262 229 193 292 247 
308 285 265 285 293 273 273 293 287 
129 294 236 251 314 274 153 315 221 
221 315 362 297 268 274 297 253 268 
298 253 297 289 253 298 288 253 289 
288 289 275 290 289 300 275 290 300 
258 316 241 258 301 316 258 276 301 
301 276 302 276 269 302 302 269 303 
201 384 277 291 245 305 277 384 278 
384 304 278 278 304 204 280 279 261 
426 379 227 247 340 284 292 340 247 
308 263 379 342 292 309 310 285 308 
234 309 292 285 310 293 234 286 311 
312 311 286 312 293 322 287 293 312 
360 236 361 274 363 297 290 289 300 
316 301 302 304 387 204 283 307 339 
339 306 283 284 339 307 234 321 309 
312 323 311 324 325 323 311 323 325 
324 323 312 236 294 361 363 274 314 
254 333 315 254 299 333 241 334 299 
241 316 334 302 326 316 302 303 326 
303 317 326 317 327 326 353 317 303 
305 378 291 384 328 304 305 279 378 
387 318 204 280 366 279 319 306 339 
340 292 341 320 309 321 320 342 309 
320 321 342 234 311 321 343 312 322 
312 343 329 330 312 329 331 312 330 
324 312 331 296 396 295 313 359 296 
296 359 396 221 362 313 251 360 314 
289 443 300 316 335 334 316 326 335 
335 326 334 326 327 336 317 336 327 
317 337 336 328 387 304 281 318 426 
366 280 306 319 389 306 341 292 342 
293 310 370 325 321 311 324 331 325 
344 330 329 343 346 329 346 344 329 
347 331 345 348 347 349 350 348 349 
351 350 349 333 299 364 364 299 334 
298 443 289 337 317 338 337 353 338 
354 352 338 354 338 353 317 353 337 
353 303 291 328 384 387 366 388 279 
389 319 339 284 380 339 379 491 308 
342 369 341 325 331 321 330 344 356 
330 345 331 356 345 330 344 346 356 
356 349 345 347 345 349 346 357 356 
357 372 356 294 332 361 295 477 332 
295 412 477 295 396 412 313 362 397 
314 420 363 314 360 420 297 363 376 
376 298 297 422 298 376 298 422 443 
326 365 334 326 336 365 338 352 365 
338 365 337 337 365 336 378 279 486 
426 449 379 284 340 380 341 368 340 
340 368 367 491 310 308 370 310 491 
342 321 430 369 342 430 370 322 293 
370 343 322 391 321 331 346 343 370 
331 347 381 370 371 346 371 357 346 
358 357 371 356 372 349 347 348 393 
347 393 381 358 372 357 349 372 351 
393 348 350 373 351 372 351 375 374 
351 374 350 398 364 334 398 334 365 
377 352 354 353 291 354 404 318 425 
355 279 388 366 306 415 306 389 407 
389 339 380 340 367 368 429 340 368 
429 368 341 391 331 381 373 372 358 
393 350 374 375 351 373 375 373 395 
374 375 382 332 477 476 359 313 396 
315 333 362 398 365 444 384 300 443 
444 365 352 377 444 352 377 354 386 
377 386 385 354 291 401 354 401 386 
387 425 318 486 279 463 279 355 463 
355 388 437 340 429 380 390 341 369 
390 429 341 321 391 430 358 371 392 
392 371 370 408 381 393 358 392 373 
394 393 374 394 374 382 375 395 383 
375 383 382 361 332 442 397 472 313 
361 459 360 362 333 418 420 376 363 
423 444 377 385 399 377 385 386 399 
386 400 399 291 447 401 378 402 403 
291 378 403 403 402 378 355 405 463 
366 415 406 366 406 388 415 306 407 
430 390 369 416 381 408 433 373 392 
409 395 373 395 410 383 382 383 411 
459 361 442 360 459 420 333 419 418 
333 421 419 377 399 423 413 423 399 
413 399 400 386 401 400 414 400 401 
405 355 437 514 426 318 437 388 406 
406 415 388 465 379 449 389 380 440 
429 428 380 391 381 416 433 409 373 
395 409 410 382 411 394 383 410 411 
412 396 417 417 396 313 362 418 397 
364 421 333 503 421 364 424 413 400 
400 414 424 401 424 414 424 401 447 
384 483 387 403 447 291 387 483 425 
403 378 486 318 404 514 415 436 437 
415 437 406 415 407 439 427 438 389 
389 440 427 380 428 440 429 390 451 
390 430 431 390 431 451 430 391 432 
455 391 416 433 392 370 408 434 416 
455 416 434 393 434 408 434 393 394 
457 409 433 434 394 411 435 410 409 
410 435 411 503 364 398 507 398 444 
405 474 463 405 437 448 474 405 448 
407 389 438 407 438 439 489 379 465 
379 489 466 454 432 391 434 470 455 
457 435 409 477 412 417 397 478 472 
397 418 478 376 420 460 460 420 459 
421 503 419 460 422 376 505 422 460 
422 505 443 423 413 444 445 413 424 
424 446 445 424 447 446 485 447 403 
425 483 404 436 415 439 438 427 450 
438 450 439 427 440 450 379 466 491 
440 428 467 428 429 467 431 430 451 
491 493 452 452 370 491 430 432 451 
370 452 469 454 453 432 370 469 433 
455 454 391 456 470 434 456 434 411 
458 456 411 441 435 457 458 411 441 
411 435 441 332 476 442 313 472 417 
417 472 565 459 442 546 418 419 478 
508 507 444 446 447 462 461 446 462 
436 439 464 464 439 488 450 475 439 
429 468 467 429 451 468 433 544 457 
456 458 497 457 471 441 398 507 503 
444 413 445 446 473 445 446 461 473 
484 462 447 484 447 485 403 486 485 
463 474 487 436 464 437 475 450 490 
490 450 440 491 466 557 440 467 490 
451 432 494 453 495 432 432 495 494 
453 454 495 454 496 495 455 496 454 
433 469 544 470 456 497 458 441 471 
458 471 497 477 417 535 537 546 442 
419 503 568 460 479 505 505 480 443 
507 540 503 443 480 541 444 509 508 
509 444 445 445 473 509 482 481 462 
481 461 462 515 463 487 516 474 448 
448 437 516 437 464 516 492 467 468 
528 492 468 468 517 528 468 451 517 
451 494 517 452 599 469 455 470 496 
471 457 498 498 497 471 419 568 478 
461 481 473 655 483 384 462 484 482 
500 485 486 486 463 515 474 516 487 
488 439 475 491 501 493 501 491 493 
494 495 518 496 470 519 457 521 498 
477 534 476 477 535 534 417 565 535 
472 478 536 442 538 537 476 538 442 
539 460 459 460 539 479 479 539 502 
479 504 505 504 479 502 505 506 480 
506 541 480 481 509 473 482 499 481 
482 523 499 484 510 523 484 523 482 
485 511 510 485 510 484 483 603 404 
485 500 512 486 513 500 500 513 512 
603 514 404 486 515 513 527 515 487 
487 516 527 514 662 426 516 556 579 
464 556 516 581 464 488 488 475 581 
466 583 557 528 490 467 528 467 492 
493 491 557 493 557 452 557 599 452 
494 518 517 495 529 518 530 496 519 
457 544 521 497 520 470 497 498 520 
498 521 520 507 630 540 617 509 481 
510 484 524 510 511 524 526 525 511 
526 511 512 512 511 485 529 517 518 
495 496 529 531 521 544 521 532 533 
472 536 565 476 566 538 546 539 459 
522 505 504 505 522 506 522 548 506 
541 506 548 572 508 509 481 499 542 
655 603 483 499 523 542 523 510 551 
510 524 551 524 511 553 511 525 553 
580 556 464 580 464 581 465 643 489 
643 466 489 466 643 583 529 496 560 
544 532 531 532 521 531 564 589 520 
589 470 520 520 521 564 521 533 564 
538 537 545 538 566 545 476 612 566 
539 504 502 503 540 547 548 522 504 
541 700 443 542 549 481 542 550 549 
523 550 542 523 543 550 523 551 552 
523 552 543 550 543 552 524 553 551 
526 554 525 554 555 553 554 553 525 
512 513 554 660 513 515 582 581 475 
475 490 582 517 529 558 529 559 558 
529 560 559 560 496 530 530 519 588 
544 562 531 533 532 563 533 563 564 
567 565 536 534 612 476 545 537 538 
568 634 478 537 545 546 547 568 503 
615 540 630 507 508 630 443 700 384 
549 619 481 551 553 593 554 526 512 
660 515 527 516 578 527 578 516 579 
530 561 560 544 469 562 562 532 531 
588 519 470 589 588 470 478 634 536 
685 539 546 539 685 504 504 685 569 
540 615 547 504 569 570 548 504 570 
571 548 570 616 541 571 541 548 571 
616 700 541 617 572 509 619 617 481 
549 573 619 550 574 575 549 550 575 
552 574 550 576 574 552 551 576 552 
553 555 577 555 554 577 554 513 660 
527 578 660 426 662 449 662 465 449 
465 662 643 528 663 490 528 625 663 
517 558 584 558 559 584 560 585 559 
561 608 586 585 560 561 586 585 561 
588 608 530 608 561 530 469 587 562 
532 562 587 563 532 590 532 587 590 
564 563 591 563 590 591 589 564 591 
547 615 635 570 592 571 575 573 549 
576 593 594 593 576 551 576 594 595 
596 594 593 595 594 596 553 577 593 
598 579 578 535 633 534 534 633 612 
535 565 633 634 670 536 547 635 568 
685 601 569 570 601 592 601 570 569 
571 592 616 508 671 630 572 671 508 
617 619 618 602 573 575 575 574 602 
595 602 574 574 576 595 593 604 596 
604 577 597 593 577 604 605 596 604 
597 605 604 554 658 577 514 603 659 
659 662 514 624 579 556 556 580 624 
583 644 557 644 645 557 645 599 557 
528 517 664 584 664 517 679 469 599 
559 585 600 679 606 469 585 586 600 
600 586 607 607 586 608 587 469 606 
587 606 609 628 588 589 610 628 589 
591 590 611 610 591 611 610 589 591 
612 545 566 536 633 567 670 633 536 
601 685 614 601 614 592 592 614 613 
595 621 602 622 621 595 595 596 622 
596 623 622 605 623 596 554 687 658 
578 661 660 579 661 578 579 624 641 
580 581 642 583 643 677 600 607 632 
607 608 632 606 626 609 632 608 588 
627 590 587 590 627 611 565 567 633 
545 685 546 592 613 616 572 617 671 
700 655 384 620 619 573 620 631 619 
573 602 620 620 602 621 620 621 622 
641 661 579 624 580 642 581 582 642 
490 663 582 559 664 584 559 600 664 
626 627 609 588 628 632 609 627 587 
628 610 650 611 629 610 610 629 650 
612 682 545 612 633 682 545 683 685 
634 568 695 653 614 685 653 613 614 
653 636 613 613 636 616 636 637 616 
700 637 697 637 700 616 620 619 631 
622 656 620 622 623 638 622 638 656 
638 623 639 597 577 640 577 658 640 
605 597 639 597 640 639 639 623 605 
660 687 554 704 660 661 689 624 642 
582 663 642 651 606 679 600 632 647 
606 651 626 648 632 628 648 628 649 
668 628 650 668 649 628 611 627 669 
611 669 629 528 664 625 645 646 599 
599 646 679 651 627 626 647 632 648 
649 668 652 629 669 650 670 693 633 
670 634 732 634 695 684 545 694 683 
635 695 568 653 654 636 654 637 636 
630 716 615 672 671 618 618 671 617 
618 701 672 619 701 618 701 619 620 
656 638 639 656 639 657 674 640 658 
639 640 657 640 674 657 689 641 624 
644 706 645 600 647 665 665 648 666 
665 647 648 668 667 652 649 652 667 
649 667 666 666 648 649 650 669 668 
633 692 682 653 654 686 673 620 656 
657 674 675 583 705 644 679 680 651 
665 666 681 692 633 693 670 732 693 
685 715 653 715 686 653 697 637 686 
686 637 654 635 699 695 615 699 635 
699 615 716 700 717 655 655 738 603 
620 673 711 603 738 659 673 656 675 
675 656 657 658 688 674 661 676 704 
641 676 661 643 662 743 643 743 677 
724 583 677 663 625 678 583 724 705 
644 705 706 706 646 645 651 680 627 
667 690 666 666 690 681 669 691 668 
682 692 713 692 693 748 545 714 694 
683 685 694 695 735 684 686 715 696 
697 686 698 696 698 686 671 716 630 
672 727 671 711 718 620 655 770 738 
688 658 702 658 687 702 674 688 703 
660 741 687 723 704 676 723 676 641 
642 663 745 625 664 678 706 707 646 
646 707 679 680 679 707 707 627 680 
665 681 708 690 667 709 681 690 709 
667 668 710 682 714 545 684 732 634 
694 685 683 696 697 698 736 700 697 
673 712 711 673 675 712 712 703 711 
702 703 688 675 674 703 712 675 703 
660 704 741 663 678 745 664 814 678 
600 665 664 667 710 709 681 709 708 
713 731 682 682 731 714 685 694 734 
685 734 715 695 699 750 716 750 699 
737 700 736 716 671 727 737 717 700 
701 727 672 701 620 728 711 719 718 
711 703 719 719 703 720 702 687 722 
687 721 722 720 703 702 722 720 702 
723 641 799 742 799 641 742 641 689 
742 689 755 763 743 662 755 689 642 
743 744 677 642 745 755 744 730 677 
677 730 724 780 707 706 664 665 758 
665 708 758 759 669 627 669 759 782 
725 708 709 669 782 691 710 668 726 
725 709 710 726 725 710 620 718 728 
719 729 718 706 756 780 692 748 713 
693 732 748 731 765 714 694 714 765 
734 733 715 765 734 694 715 733 696 
733 734 715 695 750 735 751 716 727 
701 728 727 655 717 770 729 752 718 
729 719 752 719 720 752 752 720 739 
720 722 739 722 740 739 721 740 722 
721 687 741 741 740 721 811 662 659 
811 763 662 724 756 705 756 706 705 
757 707 780 627 707 759 708 725 746 
668 691 761 726 668 747 668 761 747 
725 726 746 746 726 747 735 766 684 
762 696 733 697 762 749 697 749 736 
696 762 697 736 749 737 716 751 750 
727 728 795 795 728 718 738 772 659 
739 740 741 739 741 753 753 741 754 
704 775 741 742 755 777 743 763 744 
779 744 763 678 812 745 678 814 812 
758 708 781 760 781 708 802 691 782 
746 760 708 760 746 747 788 731 713 
684 766 732 734 762 733 749 769 737 
769 717 737 794 727 795 752 795 718 
752 739 753 704 723 775 798 723 799 
659 776 811 744 779 730 730 756 724 
802 761 691 764 747 761 764 760 747 
713 787 805 748 787 713 788 765 731 
732 766 789 734 765 790 791 766 735 
790 762 734 750 791 735 792 749 762 
750 767 791 768 767 750 792 793 749 
768 750 767 717 769 770 771 795 752 
754 741 773 741 810 773 754 773 774 
774 753 754 741 775 829 741 829 810 
659 772 776 723 798 775 763 778 779 
664 758 814 707 889 759 781 760 783 
764 784 783 761 784 764 783 760 764 
761 802 804 804 784 761 732 789 748 
793 769 749 794 825 751 794 751 727 
770 809 738 752 753 785 771 752 785 
753 774 785 783 784 786 786 784 804 
713 805 788 791 816 766 766 816 841 
806 791 767 750 806 767 793 792 769 
771 796 795 772 738 809 797 796 771 
797 771 785 785 774 797 797 774 773 
798 799 831 776 849 811 799 742 777 
745 812 755 756 730 852 756 852 780 
780 800 757 889 707 757 781 801 758 
838 782 759 781 783 801 783 803 801 
783 786 803 787 818 805 819 790 765 
790 792 762 792 807 769 769 808 770 
777 851 799 811 834 763 778 869 779 
780 813 800 889 838 759 758 801 853 
782 838 802 804 802 815 788 819 765 
766 841 789 820 792 790 791 842 816 
806 842 791 751 806 750 807 821 769 
792 821 807 751 822 806 821 808 769 
770 808 809 826 795 796 817 796 797 
817 797 773 810 817 773 772 809 776 
798 831 775 833 851 777 811 832 834 
763 834 778 813 780 852 872 889 757 
804 815 786 805 819 788 819 820 790 
820 821 792 751 825 822 808 823 824 
809 808 824 825 794 858 795 844 794 
827 826 796 796 817 827 810 828 817 
810 829 830 809 847 776 777 755 833 
869 870 779 779 870 730 755 812 835 
836 813 852 813 836 757 800 813 757 
758 853 814 853 801 837 801 803 837 
815 802 838 815 838 786 842 841 816 
822 842 806 821 823 808 822 825 857 
844 795 826 828 827 817 828 810 827 
827 810 830 776 847 849 887 755 835 
835 812 871 814 871 812 786 838 854 
854 803 786 818 840 805 840 875 805 
839 840 818 863 840 818 787 863 818 
855 863 787 748 855 787 789 855 748 
864 855 789 789 841 864 865 820 819 
856 823 821 856 843 823 823 843 824 
794 844 858 844 826 859 826 827 860 
860 827 845 827 830 845 846 830 829 
830 846 845 829 775 846 775 848 846 
848 775 831 849 850 811 851 910 799 
910 831 799 811 850 832 971 834 832 
755 851 833 755 887 851 834 971 778 
971 861 778 778 861 869 852 730 870 
803 874 837 874 803 854 896 855 864 
822 876 842 860 859 826 835 871 912 
862 838 891 854 838 862 863 875 840 
865 819 875 875 819 805 842 876 841 
820 877 821 822 857 876 877 856 821 
843 856 880 824 843 880 825 878 857 
824 880 879 879 881 824 824 881 809 
859 899 844 866 859 860 845 866 860 
845 846 866 809 884 847 884 885 847 
846 848 866 848 867 866 848 831 867 
885 892 847 847 892 849 849 892 850 
892 868 850 868 832 850 851 911 910 
851 887 911 887 835 912 853 837 873 
837 874 873 854 862 874 915 864 841 
865 877 820 897 877 865 809 881 884 
883 882 859 866 883 859 886 867 831 
861 948 869 852 928 836 814 853 871 
853 873 890 874 890 873 890 874 913 
913 874 862 896 864 915 950 897 865 
875 950 865 876 945 841 877 880 856 
878 916 857 825 858 878 858 844 899 
882 900 899 882 899 859 866 886 883 
867 886 866 831 908 886 893 892 885 
893 894 892 908 831 910 894 868 892 
971 948 861 911 887 927 928 757 836 
757 895 888 872 757 888 862 891 913 
931 875 863 855 931 863 896 931 855 
932 950 875 841 933 915 841 945 933 
877 917 880 879 880 898 878 858 918 
898 946 879 946 881 879 899 919 858 
883 901 900 882 883 900 884 881 902 
884 904 885 902 904 884 883 886 903 
885 905 906 907 886 908 906 894 885 
907 908 909 885 894 893 925 908 910 
961 757 928 757 941 895 871 853 963 
888 895 942 872 888 942 872 942 889 
853 890 929 929 890 913 897 917 877 
916 876 857 883 903 901 904 906 885 
904 902 906 903 886 901 886 907 901 
909 908 925 757 961 941 931 932 875 
896 973 931 915 973 896 950 951 897 
951 917 897 880 917 898 916 878 918 
858 919 918 990 881 946 881 990 980 
900 935 899 920 881 980 900 901 921 
881 920 902 920 906 902 922 921 901 
907 922 901 922 907 909 923 922 909 
894 906 924 923 909 925 925 910 983 
894 924 868 924 958 868 868 958 832 
958 984 832 911 926 938 938 910 911 
971 832 984 926 911 927 887 995 927 
869 985 870 995 887 912 870 985 852 
871 963 940 889 1131 838 891 838 914 
929 913 930 913 891 930 891 914 930 
916 969 876 979 918 919 900 921 935 
925 936 937 923 925 937 925 983 936 
939 926 927 927 995 939 986 928 852 
1131 889 942 929 930 943 930 914 944 
968 931 973 876 952 945 969 952 876 
916 918 953 917 934 898 934 946 898 
899 935 919 919 935 954 921 922 947 
935 921 947 922 923 947 923 937 947 
948 985 869 985 986 852 995 912 960 
960 912 871 871 940 960 853 929 949 
949 929 943 838 1131 914 944 943 930 
973 915 933 917 951 934 951 976 934 
918 979 953 935 955 954 947 955 935 
958 924 956 926 983 938 983 910 938 
959 926 939 995 959 939 1024 961 928 
941 961 962 941 962 895 942 895 962 
963 853 1077 853 949 1077 949 964 1077 
914 1131 965 944 914 966 914 965 966 
966 943 944 932 931 967 967 931 968 
945 975 933 945 952 975 916 953 969 
979 919 1001 919 954 1001 970 954 955 
920 956 906 957 970 955 906 956 924 
937 957 955 937 936 957 947 937 955 
957 936 983 962 1131 942 964 949 972 
949 943 972 972 943 966 932 974 950 
1006 974 932 967 1006 932 933 975 973 
975 952 1009 969 1009 952 977 946 934 
978 977 934 990 946 977 980 1013 920 
1001 954 992 920 1013 956 954 970 981 
982 981 970 957 982 970 957 983 982 
1019 983 926 1020 1019 926 971 1004 948 
971 984 1004 994 926 959 948 1004 985 
987 961 1024 961 987 962 964 972 988 
966 965 989 988 966 989 988 972 966 
951 950 976 975 1009 1056 934 997 978 
934 976 997 969 953 1009 953 979 1009 
979 1001 999 990 991 980 981 992 954 
982 992 981 993 982 983 985 996 986 
960 940 1075 940 963 1075 1025 962 987 
962 1025 1131 989 965 1027 988 989 1051 
989 1027 1051 976 950 974 977 998 990 
991 998 1000 991 990 998 991 1013 980 
1015 956 1013 956 1015 958 993 983 1002 
1003 992 982 1003 982 1002 1002 982 993 
983 1019 1002 926 994 1020 959 995 994 
1045 986 996 1045 996 985 995 1023 1046 
1047 1024 928 1047 928 986 995 960 1023 
1075 963 1077 1077 964 1005 964 988 1005 
1005 988 1051 1006 967 1007 967 968 1007 
968 973 1007 1007 973 975 997 976 1008 
1053 1008 976 974 1053 976 977 978 1010 
998 977 1010 978 997 1010 979 999 1009 
1010 1011 998 1012 1000 998 991 1000 1013 
1015 1016 958 1017 1014 1002 992 1003 1002 
992 1002 1014 1018 1002 1019 1017 1002 1018 
958 1016 984 1016 1029 984 1021 1004 984 
1004 1044 985 994 995 1022 1044 1045 985 
1048 1023 960 1077 1005 1026 1006 1053 974 
1011 1012 998 991 1000 1012 1000 1012 1013 
1001 992 1028 1014 1028 992 984 1029 1021 
1004 1021 1044 1022 995 1046 1005 1051 1026 
1007 1030 1006 1031 1030 1007 975 1031 1007 
1031 975 1056 997 1008 1032 1033 997 1032 
1033 1008 1053 1033 1032 1008 1010 997 1033 
1011 1010 1012 1012 1010 1034 1035 1009 999 
999 1001 1035 1012 1036 1013 1013 1036 1038 
1038 1015 1013 1001 1028 1039 1040 1039 1018 
1039 1028 1018 1014 1017 1018 1028 1014 1018 
1017 1040 1018 1016 1041 1029 1042 1018 1019 
1043 1042 1020 1042 1019 1020 1021 1029 1041 
1043 1020 1063 1064 1063 994 1063 1020 994 
1022 1064 994 1021 1089 1044 986 1045 1047 
960 1075 1048 987 1049 1025 1025 1049 1050 
1050 1131 1025 1105 1131 1050 1027 965 1052 
1027 1052 1051 1034 1010 1082 1033 1082 1010 
1056 1009 1035 1012 1034 1036 1001 1037 1035 
1039 1070 1037 1039 1037 1001 1016 1054 1041 
1018 1042 1040 1021 1041 1089 1006 1030 1080 
1030 1031 1056 1080 1030 1056 1056 1035 1083 
1035 1037 1058 1036 1034 1057 1036 1057 1059 
1082 1057 1034 1035 1058 1083 1037 1070 1058 
1038 1060 1061 1015 1038 1061 1015 1061 1016 
1061 1069 1016 1039 1040 1062 1070 1039 1062 
1069 1054 1016 1042 1062 1040 1042 1043 1062 
1054 1089 1041 1043 1063 1062 1064 1022 1073 
1047 1104 1024 987 1065 1049 1065 1050 1049 
1077 1026 1091 1026 1051 1091 1091 1051 1066 
965 1131 1067 1052 965 1067 1055 1052 1067 
1051 1052 1066 1052 1067 1066 1092 1033 1053 
1092 1053 1006 1056 1083 1081 1036 1059 1038 
1060 1038 1059 1057 1060 1059 1068 1060 1057 
1058 1070 1085 1072 1063 1064 1022 1046 1074 
1045 1104 1047 987 1076 1065 1050 1065 1076 
1078 1079 1067 1079 1066 1067 1006 1080 1092 
1080 1056 1081 1084 1068 1082 1068 1057 1082 
1083 1058 1085 1086 1060 1068 1061 1060 1086 
1086 1068 1061 1061 1068 1087 1069 1061 1087 
1062 1071 1070 1054 1069 1096 1071 1088 1070 
1054 1096 1089 1062 1063 1071 1063 1090 1071 
1063 1072 1090 1072 1064 1073 1073 1022 1074 
1046 1101 1074 1023 1048 1164 1164 1048 1075 
1024 1113 987 1113 1076 987 1091 1066 1079 
1116 1033 1092 1109 1081 1083 1109 1092 1080 
1081 1109 1080 1083 1085 1093 1068 1084 1087 
1094 1087 1084 1087 1068 1084 1085 1070 1097 
1097 1070 1088 1089 1096 1099 1072 1097 1088 
1098 1097 1072 1071 1090 1088 1088 1090 1072 
1044 1099 1124 1044 1089 1099 1100 1072 1073 
1073 1074 1100 1102 1074 1101 1044 1124 1045 
1101 1046 1103 1104 1112 1024 1024 1112 1113 
1050 1076 1105 1077 1091 1106 1091 1079 1106 
1106 1079 1107 1079 1078 1108 1079 1108 1107 
1115 1078 1067 1033 1116 1082 1087 1094 1069 
1095 1069 1094 1093 1085 1097 1095 1096 1069 
1110 1096 1095 1111 1097 1098 1072 1100 1098 
1100 1074 1102 1104 1149 1112 1106 1107 1114 
1108 1078 1115 1084 1082 1143 1094 1084 1143 
1116 1143 1082 1083 1117 1109 1083 1093 1117 
1132 1117 1093 1093 1097 1132 1118 1095 1094 
1120 1110 1095 1110 1099 1096 1121 1110 1120 
1099 1110 1121 1122 1119 1123 1119 1097 1123 
1097 1111 1123 1111 1098 1123 1098 1100 1111 
1099 1121 1124 1125 1123 1102 1123 1111 1102 
1111 1100 1102 1101 1125 1102 1125 1101 1126 
1103 1127 1126 1101 1103 1126 1045 1124 1162 
1045 1128 1104 1045 1162 1128 1103 1046 1127 
1128 1149 1104 1046 1023 1164 1138 1113 1112 
1075 1077 1197 1105 1076 1129 1248 1077 1106 
1106 1114 1130 1114 1107 1130 1130 1107 1108 
1115 1067 1131 1116 1092 1142 1141 1109 1117 
1141 1092 1109 1094 1143 1118 1120 1095 1118 
1097 1119 1132 1119 1122 1123 1127 1046 1134 
1136 1149 1128 1046 1164 1163 1113 1137 1076 
1076 1137 1138 1140 1106 1130 1154 1115 1131 
1172 1116 1142 1092 1179 1142 1141 1179 1092 
1117 1132 1141 1155 1118 1143 1116 1155 1143 
1118 1144 1120 1120 1144 1121 1121 1144 1145 
1118 1145 1144 1146 1132 1119 1119 1123 1146 
1145 1124 1121 1147 1124 1145 1123 1148 1146 
1123 1125 1148 1125 1126 1148 1133 1148 1127 
1148 1126 1127 1127 1134 1133 1134 1046 1135 
1128 1162 1136 1135 1046 1163 1137 1113 1138 
1076 1168 1129 1129 1168 1105 1105 1168 1169 
1105 1169 1151 1105 1151 1139 1131 1105 1139 
1130 1152 1140 1130 1153 1152 1108 1153 1130 
1131 1202 1154 1153 1108 1115 1154 1153 1115 
1179 1173 1142 1182 1179 1141 1183 1182 1141 
1132 1183 1141 1118 1155 1145 1172 1155 1116 
1147 1145 1174 1155 1174 1145 1146 1148 1156 
1156 1148 1157 1148 1159 1157 1159 1148 1160 
1124 1158 1162 1133 1160 1148 1135 1161 1134 
1135 1163 1161 1165 1163 1164 1149 1166 1112 
1075 1167 1164 1112 1166 1138 1166 1243 1138 
1075 1150 1167 1196 1150 1075 1138 1168 1076 
1139 1151 1170 1140 1171 1106 1153 1140 1152 
1142 1173 1172 1183 1132 1146 1172 1174 1155 
1183 1146 1156 1147 1158 1124 1147 1174 1158 
1175 1158 1174 1159 1160 1157 1158 1176 1162 
1134 1161 1160 1134 1160 1133 1136 1166 1149 
1136 1177 1166 1075 1197 1196 1170 1151 1139 
1153 1171 1140 1172 1180 1174 1180 1172 1173 
1181 1180 1173 1178 1181 1173 1181 1173 1179 
1221 1175 1174 1156 1157 1183 1157 1208 1183 
1184 1175 1221 1175 1184 1158 1184 1176 1158 
1184 1185 1176 1185 1186 1176 1186 1162 1176 
1161 1187 1160 1177 1162 1186 1136 1162 1177 
1188 1187 1163 1161 1163 1187 1163 1165 1188 
1189 1190 1177 1165 1164 1191 1164 1192 1193 
1167 1192 1164 1166 1237 1243 1192 1167 1150 
1194 1192 1150 1138 1243 1195 1150 1196 1194 
1138 1195 1168 1197 1077 1198 1077 1248 1198 
1169 1249 1151 1151 1249 1139 1200 1139 1249 
1248 1106 1199 1131 1139 1200 1202 1131 1200 
1106 1171 1199 1199 1171 1201 1201 1171 1153 
1203 1201 1153 1154 1202 1204 1154 1204 1203 
1154 1203 1153 1174 1180 1205 1221 1174 1205 
1206 1205 1180 1181 1206 1180 1179 1206 1181 
1182 1206 1179 1183 1207 1182 1183 1208 1207 
1221 1185 1184 1182 1226 1206 1157 1160 1208 
1186 1185 1209 1208 1160 1210 1160 1187 1210 
1189 1177 1209 1177 1186 1209 1187 1188 1210 
1188 1211 1210 1188 1165 1211 1165 1191 1211 
1177 1190 1166 1190 1237 1166 1191 1164 1193 
1212 1168 1195 1214 1168 1213 1169 1286 1249 
1264 1202 1200 1199 1201 1216 1217 1201 1203 
1203 1204 1218 1182 1207 1220 1205 1222 1221 
1219 1222 1205 1206 1222 1205 1206 1226 1222 
1182 1223 1226 1220 1223 1182 1207 1208 1220 
1221 1224 1185 1224 1221 1222 1226 1225 1222 
1227 1223 1220 1208 1229 1220 1229 1228 1220 
1185 1224 1209 1208 1210 1229 1230 1228 1229 
1224 1231 1209 1231 1189 1209 1226 1232 1225 
1232 1256 1225 1223 1232 1226 1230 1223 1227 
1232 1223 1230 1233 1230 1229 1210 1211 1229 
1229 1211 1233 1235 1230 1233 1236 1230 1235 
1257 1189 1231 1190 1189 1257 1211 1191 1233 
1191 1235 1233 1191 1193 1235 1193 1192 1238 
1193 1238 1235 1238 1239 1192 1238 1242 1239 
1192 1194 1242 1238 1192 1242 1194 1241 1242 
1242 1241 1239 1243 1244 1195 1196 1241 1194 
1245 1241 1196 1244 1212 1195 1196 1197 1245 
1245 1197 1246 1212 1244 1168 1244 1213 1168 
1197 1198 1246 1246 1198 1247 1247 1198 1248 
1214 1286 1168 1168 1286 1169 1248 1199 1250 
1200 1249 1215 1251 1200 1215 1250 1199 1216 
1200 1251 1264 1202 1264 1252 1252 1267 1202 
1201 1217 1253 1201 1253 1216 1253 1217 1203 
1253 1203 1218 1202 1267 1254 1204 1254 1255 
1204 1202 1254 1204 1255 1218 1222 1225 1224 
1227 1220 1228 1225 1231 1224 1225 1256 1231 
1228 1230 1227 1232 1234 1256 1232 1230 1234 
1236 1234 1230 1190 1257 1237 1256 1257 1231 
1234 1272 1256 1236 1239 1234 1239 1240 1234 
1235 1238 1236 1236 1238 1239 1257 1243 1237 
1240 1241 1234 1241 1258 1234 1240 1239 1241 
1243 1257 1271 1241 1259 1258 1241 1245 1259 
1245 1246 1259 1259 1260 1258 1261 1260 1259 
1246 1261 1259 1249 1262 1215 1263 1251 1215 
1216 1253 1266 1255 1254 1268 1257 1256 1272 
1272 1271 1257 1272 1234 1258 1271 1273 1244 
1243 1271 1244 1272 1273 1271 1273 1274 1213 
1244 1273 1213 1275 1274 1273 1276 1275 1273 
1272 1276 1273 1258 1276 1272 1277 1276 1258 
1258 1260 1277 1261 1246 1278 1260 1261 1278 
1278 1246 1279 1279 1246 1247 1274 1280 1214 
1213 1274 1214 1275 1281 1274 1281 1280 1274 
1276 1281 1275 1276 1282 1281 1279 1248 1284 
1247 1248 1279 1283 1279 1285 1285 1279 1284 
1280 1286 1214 1280 1281 1286 1281 1287 1286 
1287 1249 1286 1249 1287 1262 1288 1289 1293 
1284 1290 1288 1290 1289 1288 1248 1250 1290 
1248 1290 1284 1262 1263 1215 1290 1250 1266 
1266 1250 1216 1251 1263 1264 1252 1264 1265 
1291 1252 1265 1252 1291 1267 1253 1292 1266 
1291 1265 1267 1269 1253 1218 1269 1292 1253 
1254 1267 1268 1255 1268 1270 1269 1218 1255 
1270 1269 1255 1276 1277 1296 1296 1277 1293 
1260 1294 1277 1294 1293 1277 1278 1279 1260 
1279 1294 1260 1282 1295 1281 1295 1287 1281 
1276 1295 1282 1276 1296 1295 1294 1288 1293 
1279 1284 1294 1284 1288 1294 1287 1295 1262 
1296 1263 1295 1263 1262 1295 1297 1263 1296 
1293 1297 1296 1293 1289 1298 1289 1290 1266 
1298 1289 1266 1264 1263 1265 1265 1263 1297 
1299 1265 1297 1293 1300 1297 1300 1299 1297 
1298 1300 1293 1300 1268 1299 1268 1267 1299 
1270 1268 1300 1298 1270 1300 1269 1270 1298 
1265 1299 1267 1266 1269 1298 1292 1269 1266 

