# vtk DataFile Version 5.1
vtk output
ASCII
DATASET POLYDATA
POINTS 994 float
20.7839 14.0816 1.64869 20.082 15.1907 1.41995 27.7696 9.21079 1.97856 
25.1791 11.101 1.71053 26.0723 9.43609 2.41394 28.9303 9.3897 1.92522 
23.1378 12.0943 2.05496 27.8587 10.9591 1.53818 30.3224 11.2393 1.93755 
22.0994 13.7778 1.57634 25.0969 13.3979 1.29277 27.4929 13.4603 1.39253 
22.5608 15.9223 1.21777 24.9991 15.5475 1.24285 18.3134 15.9449 2.29609 
17.4575 18.1688 1.93135 19.5807 17.7521 1.59794 22.6471 18.2874 1.55246 
15.9624 18.348 3.01841 16.1654 19.0872 2.43986 17.2876 19.4871 1.90716 
15.9965 20.5585 2.47686 27.7312 20.4494 2.15881 29.8372 7.42922 3.19779 
27.9399 7.88509 3.22012 25.4379 9.34539 3.08405 33.1433 10.9455 2.5997 
22.7877 11.3535 3.12367 21.4325 12.6479 2.72826 35.8598 13.3079 2.77175 
19.8458 13.873 3.03105 17.424 16.2884 3.05918 37.8239 16.027 2.97919 
16.6428 17.422 2.80046 15.0078 20.3529 3.08395 35.453 20.4711 2.52471 
15.9472 22.5038 2.49681 37.5954 22.8321 2.73574 12.1579 24.8134 3.25601 
20.1084 24.9041 2.60082 14.4449 25.005 2.71706 32.8419 25.0702 2.506 
12.4765 26.7858 3.29544 25.1958 27.3168 2.91996 35.4074 27.3172 2.83482 
30.6673 6.4827 4.73732 32.6477 6.54629 4.2869 28.4336 7.34628 4.38219 
25.4909 8.99622 4.31342 40.4657 11.452 4.57945 17.1258 16.0937 4.38667 
14.323 20.0067 4.58391 40.4417 20.4881 3.3897 13.5294 21.2754 4.30833 
12.5295 22.7089 4.34632 42.8782 22.7652 3.87082 11.4643 25.403 4.20777 
10.6094 27.6112 4.51489 11.1568 28.289 3.86904 9.96582 29.9589 4.26277 
11.0579 29.3537 3.79072 11.7766 29.9624 3.73127 43.161 29.5011 3.97677 
10.0102 31.1371 4.41658 11.4999 30.3989 3.86888 15.0237 29.7918 3.73877 
40.5294 31.8774 3.95288 71.649 47.4058 3.66669 71.0352 45.1584 4.0422 
70.9525 46.0448 3.84242 73.4247 46.2648 3.69197 73.7102 45.6099 3.87419 
68.3295 47.5411 4.09494 73.609 47.7474 3.66621 75.3502 47.5171 4.30616 
74.465 47.8909 3.87562 35.7509 5.15525 5.01255 32.9388 5.15778 5.66595 
35.4548 4.12629 5.81191 36.9692 5.46413 4.93897 37.7499 6.35982 4.84881 
45.375 18.3221 5.12287 48.0155 25.0296 4.98175 9.55224 29.5578 5.38669 
45.5975 29.5235 4.42841 9.09272 32.0958 5.52434 12.3556 31.9726 4.51353 
42.9886 36.2133 5.02288 73.8218 43.1645 4.70893 66.0118 43.211 5.16741 
75.4747 44.9988 4.82654 76.0348 44.8048 5.50219 63.5051 47.5369 5.09883 
65.9772 47.7684 4.68923 68.5138 49.3175 4.62122 71.1389 49.7012 4.35595 
74.4093 50.5319 4.46987 75.5638 49.5508 4.54766 76.953 49.9514 5.80137 
74.5712 51.9239 5.04635 75.5131 51.7047 5.0964 76.5132 52.9917 5.9241 
38.2965 3.88472 5.8743 39.8514 3.96117 6.2664 43.1025 11.3978 5.68291 
45.4645 13.7644 6.10934 15.1487 18.3184 5.87292 10.7792 25.946 5.82298 
53.1739 27.2703 6.06349 50.7576 29.5087 5.37731 50.7328 31.7867 5.38253 
9.93558 33.5922 5.83505 52.7846 34.3293 5.61999 20.0283 34.2879 5.0971 
43.0823 36.3968 5.07893 45.441 38.1609 5.42834 22.6954 38.043 5.94123 
40.5037 38.6121 5.23214 43.0983 38.7901 5.35646 27.6624 41.0698 5.71799 
30.2019 41.2954 5.53766 55.7816 40.7909 5.47373 74.1229 41.0896 5.62661 
74.6069 40.2537 6.85915 75.0338 41.5126 6.30384 27.4607 42.6322 6.18343 
32.7924 43.3076 5.86409 35.3924 43.0524 5.66562 37.9026 43.2074 5.56499 
42.9448 43.3993 5.45143 45.4667 43.4568 5.41066 58.2806 43.1471 5.41012 
63.3848 43.0024 5.3854 27.6663 43.7349 6.89506 35.5641 44.5645 6.27833 
40.4994 45.2631 6.02269 42.9902 45.5366 5.88625 48.103 45.4396 5.53296 
55.7581 45.6156 5.45065 45.7368 46.7325 6.16829 50.6902 47.4532 5.98651 
58.2902 47.7525 5.81354 60.8195 47.7556 5.63617 65.8625 49.7547 5.48247 
73.5502 52.353 5.42257 77.4228 52.4313 7.23277 76.2254 53.6628 6.1014 
40.0819 2.40567 7.16269 37.7302 2.76684 7.03212 36.0851 3.43422 6.85668 
39.6988 3.37111 6.49789 32.9437 4.74295 7.02215 48.2795 15.869 6.8431 
50.6289 18.248 7.25798 13.2017 20.9507 7.23993 53.2562 22.713 7.07527 
55.6786 25.0605 7.39024 55.5067 27.4022 6.74556 9.23403 29.6528 6.64099 
55.6223 29.5838 6.44198 58.2963 29.5396 7.13914 8.59643 31.7011 7.01254 
9.32341 34.4979 6.57543 8.33503 33.7916 7.20598 63.2317 34.2186 7.10085 
9.27529 36.3112 7.48389 13.0873 36.4766 7.29118 14.8697 37.026 7.11886 
14.009 38.2529 7.73267 68.5522 38.3274 6.5924 73.7462 39.5296 6.5649 
20.4078 41.38 6.80965 12.6941 41.6963 7.49982 12.7272 42.3148 7.49287 
19.9587 42.7184 7.26586 22.6636 43.1518 7.23363 25.4022 43.1731 6.95702 
76.3801 45.3061 7.02276 30.4506 44.6069 7.23836 43.1451 47.0483 6.83231 
76.7625 47.4695 7.1733 55.9375 49.277 6.75032 77.2268 49.4046 7.00343 
68.4253 52.3555 6.81862 73.6486 54.5539 6.63065 76.6627 55.412 7.1558 
74.5457 55.7444 7.11651 76.2248 55.7583 7.27641 39.9922 2.00485 7.87567 
38.0008 2.38288 8.23097 41.9276 2.28744 8.18893 42.5111 2.88872 8.13585 
35.8245 3.24909 8.16174 42.8113 4.79552 7.55507 48.2411 11.3663 8.28778 
19.5493 13.0879 8.41276 17.0768 15.5242 8.43943 12.1672 22.5832 8.46139 
7.82756 36.3805 8.28458 71.2248 36.3685 7.74423 71.5856 35.8677 8.10571 
73.001 36.7031 8.42967 7.79835 38.6241 8.79319 12.9819 38.1592 7.79652 
74.0872 38.2818 8.46289 15.2439 40.9325 7.68638 11.4268 41.0214 7.90609 
10.7042 42.9835 8.47009 14.6143 42.1115 7.83803 14.1832 43.2036 8.20897 
18.4498 42.5949 7.57658 12.4196 42.9539 7.92853 75.7669 43.1549 8.39058 
19.8921 43.8672 8.04485 48.1237 49.8538 8.48006 77.2634 54.721 8.27468 
74.2558 56.9079 8.16681 76.2891 56.3646 7.98016 40.1367 1.69997 9.57882 
42.9642 1.69217 9.78155 60.4755 25.3523 9.33096 71.823 33.8992 9.4943 
72.6389 35.0634 9.47453 73.4444 36.4146 9.60566 6.80289 38.5088 9.76886 
11.8054 38.6279 7.90843 74.8377 40.1639 9.22067 12.403 44.0134 9.16909 
75.9348 57.3581 9.73337 45.2505 2.37243 10.0927 55.7183 18.2576 9.88311 
60.8929 24.9669 9.72689 69.1601 31.4129 9.60437 71.5265 31.6747 11.0743 
72.2233 33.5081 10.6257 6.81462 40.3193 9.66846 8.06675 41.3798 8.95419 
5.97039 41.0718 10.4313 5.73905 40.9442 10.718 6.6576 43.6887 10.0081 
5.73597 43.1819 10.4511 27.7457 46.1614 9.83465 76.8951 49.7338 9.34129 
47.9737 50.4451 9.04714 77.0972 52.459 9.63992 58.1922 52.5982 9.06808 
77.1226 54.4953 9.21984 71.0343 57.4228 9.64971 73.8292 58.0915 9.79537 
75.3536 57.9132 10.0034 74.2736 58.3856 10.5922 40.4964 1.68263 11.0741 
43.0522 1.38643 10.9525 45.7749 1.94651 10.8051 48.6509 4.34397 11.3191 
50.2632 7.19044 11.367 22.127 10.737 11.0538 63.1767 22.9734 11.6442 
68.2385 27.5513 11.4162 68.9705 29.0556 10.7436 72.5853 34.0927 11.2087 
6.19359 38.6268 10.8901 5.96977 38.5452 11.4511 5.25575 43.3255 10.8825 
6.96567 44.8259 10.9661 9.81561 44.9436 10.8932 20.1305 45.7669 11.182 
22.6625 46.0409 10.9618 48.2772 53.7495 11.407 76.5219 54.581 11.168 
50.6967 54.2827 11.2609 58.1872 55.3705 10.8527 58.3782 56.2947 11.4856 
60.8844 56.4708 11.1823 76.0551 56.9114 11.0147 63.342 57.1366 11.2225 
68.526 58.2705 11.1681 70.896 58.3608 10.8691 75.3388 57.9058 10.964 
45.6 1.30827 12.3771 48.9745 1.65827 13.3557 53.6867 10.904 12.2597 
55.3109 11.8196 13.0102 14.3588 18.4288 12.3592 60.7026 18.3833 12.5467 
66.582 24.7236 12.2568 65.3869 23.1663 12.6298 70.837 28.7738 12.4916 
8.70686 29.0645 12.2693 4.68757 43.0212 12.3735 5.43182 44.81 12.2205 
5.9836 44.7376 11.5282 19.9031 46.1054 11.7463 22.7889 46.7114 11.6875 
22.6731 47.5229 12.503 37.9142 52.2447 12.5229 40.3545 52.6609 12.3053 
42.8081 53.074 12.0604 45.6326 54.1306 12.403 53.3012 56.1793 12.4087 
55.8881 55.7968 11.5247 75.5155 57.3541 12.8786 66.0987 58.148 11.6638 
71.0435 59.1313 12.3712 74.3571 58.5368 11.3236 48.8777 1.44129 13.8081 
49.9126 2.23463 13.7563 51.2898 4.35188 13.9537 23.0899 9.87594 13.7881 
56.5996 12.5948 13.4939 12.7737 20.6744 13.7676 64.0403 20.1509 13.7692 
65.9482 22.4217 13.7898 68.0164 24.9514 13.6039 69.6256 26.674 13.8949 
71.8554 31.4628 13.4877 4.43054 43.2667 13.6106 5.24284 45.4795 13.5762 
15.0107 46.2375 13.3368 35.4912 51.5908 12.5772 40.7145 53.4404 13.1076 
40.5906 53.8491 13.7571 45.4269 55.0333 13.7343 75.584 56.7524 13.4366 
53.1538 56.926 13.6593 55.643 57.314 13.501 60.9823 57.8505 12.7384 
58.4705 58.0253 13.8721 75.1578 57.9451 13.0155 63.399 58.7075 13.6079 
68.4562 59.3519 13.5793 71.6836 59.559 13.7604 73.9052 59.0413 12.8502 
51.9477 6.1822 13.5173 61.1024 15.7516 14.9237 61.9907 17.1783 14.4693 
63.3121 18.2543 14.8104 65.2924 20.6267 15.1039 71.2334 29.2053 13.5286 
4.72753 40.7012 13.3214 4.71152 45.4697 14.6656 6.97939 46.2617 13.8755 
10.0559 46.2546 13.8585 27.6707 50.411 13.749 32.8653 51.8245 13.6741 
35.187 53.0355 14.7434 75.0374 58.2185 13.7909 45.6979 1.4636 14.9895 
48.0879 1.50384 15.1272 50.1003 2.08437 14.7141 51.5687 3.94398 15.0274 
53.4867 7.04032 15.0371 58.9976 13.5377 14.9674 12.6966 20.6264 15.0767 
74.8023 43.515 15.346 5.5118 46.8094 15.4108 12.0056 46.9439 14.8326 
20.1523 49.5806 15.13 22.629 50.287 15.1379 38.0143 53.7848 15.0154 
42.9102 54.8737 14.8831 50.2037 2.25877 15.5529 52.4823 4.56426 16.4809 
27.78 6.98457 16.3773 55.8543 9.24862 16.1798 58.2104 11.5968 16.5781 
17.9327 13.9378 16.4151 60.2709 14.0738 16.1945 65.6777 20.6849 16.3828 
11.6177 22.2341 16.3026 67.5981 23.357 16.1333 9.0314 27.0587 16.3258 
70.3975 27.2938 16.4809 71.0535 29.3489 16.2507 71.7625 33.8717 16.5344 
4.9289 38.6243 16.3935 73.8418 40.741 16.4335 4.07744 45.887 16.3 
17.5634 49.8349 16.3814 30.1954 52.5204 16.1373 75.1497 57.4298 16.5938 
74.1237 59.5858 16.282 48.611 1.93866 16.5112 38.4419 2.9712 17.5864 
53.0765 4.99534 17.7799 17.7153 13.9447 17.723 60.5476 13.9574 17.7303 
62.5998 16.5732 17.6145 66.7972 22.1254 17.6282 68.8573 24.9648 17.9901 
3.71847 43.3621 17.3929 3.73251 45.3031 17.1384 4.34342 47.805 17.4229 
74.5646 49.7876 17.9643 17.4642 50.5301 17.5527 74.9943 58.362 16.4209 
74.5439 59.1251 17.3503 73.105 60.2528 17.7238 58.4622 11.2636 18.8235 
3.42464 45.6637 18.2208 3.07308 47.3874 19.3298 3.72009 48.2414 18.7671 
9.95563 49.3376 17.8594 17.3201 50.9592 18.5362 71.5442 60.7066 19.0014 
53.2089 5.20518 19.1787 32.891 4.80692 18.9968 56.5776 9.15848 19.1747 
65.6656 20.6756 18.7999 4.90233 49.4143 18.9968 15.012 50.6204 18.8988 
74.3254 54.3522 19.2594 74.3066 56.9897 19.3061 50.879 57.9537 19.275 
73.927 59.4141 19.1231 72.7027 60.3377 18.8409 51.1374 3.9028 20.1876 
58.4106 11.3817 20.0507 61.515 15.4702 20.4306 63.5226 18.1334 20.341 
66.568 22.2934 20.4484 69.2626 26.9559 20.5425 2.82494 47.9898 20.2605 
3.38158 49.4391 20.7398 4.15147 50.2115 20.8925 7.37921 50.5562 20.2564 
14.826 51.0081 19.8694 15.1313 51.2946 20.5757 17.6325 51.6669 20.45 
40.6046 56.0514 20.5252 73.5324 58.9541 20.2348 68.5054 61.0254 20.3524 
71.4726 60.9986 20.4999 72.8337 60.0898 19.7522 27.8564 6.89685 21.6409 
68.1957 25.1041 21.5188 69.5541 31.461 22.0037 2.42414 47.6742 21.6405 
2.55556 49.7806 22.7674 4.44414 50.3911 21.0123 72.833 59.3071 21.6418 
55.6123 59.6251 21.3709 71.9273 60.8332 20.4757 68.4106 61.4436 22.1049 
50.7011 4.63481 22.9669 52.8837 6.43403 23.038 55.6221 9.30979 22.8846 
71.2835 38.4987 23.0372 2.80803 49.6493 21.9595 7.26388 50.9053 21.3581 
7.43507 51.2921 23.0949 20.2124 11.5485 22.9473 16.4764 15.1023 22.9503 
70.2135 34.3087 22.6467 72.0196 42.9286 23.3071 1.92547 48.0948 23.4094 
4.08217 50.7164 22.7257 53.0785 59.5922 22.6772 72.1832 59.9799 23.0917 
71.5969 60.8356 22.3029 68.674 61.5621 22.7946 45.328 3.07926 24.1231 
17.7693 13.6257 24.2678 60.727 16.0672 24.2082 10.5584 23.0991 24.3027 
66.611 24.5787 24.5822 67.8421 26.9273 24.0454 2.24604 45.5127 24.0333 
71.83 45.248 24.5789 1.76572 47.4768 24.0754 2.28759 49.9472 24.2522 
4.33381 51.1462 24.2493 72.0876 59.4616 24.3432 52.9934 60.0231 23.818 
53.371 60.3987 24.5677 70.7273 61.131 24.6644 45.0938 3.23301 25.4084 
22.0188 10.4678 25.6585 67.8213 29.6728 25.2408 1.92411 49.8975 25.5432 
4.21451 51.3119 25.5407 25.1854 54.4451 25.5595 37.7949 57.1677 25.4029 
71.7996 59.1583 25.2044 47.9648 59.6304 25.291 70.798 60.9029 25.454 
61.0204 18.0925 26.9812 12.225 20.4275 26.8857 63.0873 20.6954 26.7331 
66.6838 29.3318 27.2763 67.2102 29.2348 26.2478 5.54668 34.3329 26.9324 
1.90344 50.1882 26.8381 3.3987 51.0844 25.8915 71.7711 52.0818 25.8854 
71.3324 54.3676 27.0266 71.7562 56.8327 26.0709 48.367 59.9985 26.0213 
48.2825 60.4221 27.1686 69.2596 62.0249 25.4421 43.1275 3.35878 26.7976 
50.5303 6.44709 26.7994 53.2035 9.19708 26.8856 61.9622 19.6484 27.478 
1.7573 46.065 26.9243 1.49136 47.823 26.83 3.19876 51.1468 27.0603 
17.7581 53.3453 27.1213 70.4281 60.8669 26.57 66.0542 63.5004 26.8607 
67.873 63.4068 27.5926 69.5978 61.8737 27.0758 43.7599 3.51085 27.3808 
45.2905 3.93105 28.1597 47.7571 4.93146 27.9167 27.9331 7.29458 28.175 
18.0318 13.7359 28.1968 58.4177 15.8685 28.274 13.4399 19.0589 28.1392 
8.14169 27.5918 28.2476 3.39031 51.3587 28.2784 68.1917 63.2728 28.2557 
66.428 64.1681 28.0261 40.1584 3.8224 29.4885 43.2061 3.95641 29.766 
61.1538 20.268 29.6996 3.98027 38.3076 29.5161 22.5458 54.8624 29.4183 
68.9275 61.627 29.301 67.784 63.6385 29.8887 63.8895 65.045 29.9586 
65.8973 64.9898 29.7545 67.036 64.3664 29.4743 42.9977 4.29834 30.9132 
35.4111 4.82926 30.8252 45.3912 5.02003 30.6546 68.0739 36.4099 29.3259 
1.36005 50.0303 31.3331 2.58392 51.3988 31.0601 67.7667 63.3115 30.4313 
63.708 65.5209 31.1085 66.1572 65.1291 30.4544 30.163 6.60641 30.8844 
69.0286 45.5365 30.9272 69.1107 47.5611 31.1301 1.13234 50.3699 32.4923 
67.0756 64.1081 31.1724 8.03525 27.7776 32.0716 68.6397 49.8499 32.2294 
4.24334 52.0045 32.1677 68.6021 54.377 32.2141 55.6114 64.0191 31.9173 
58.0123 64.5553 31.7116 65.7511 65.2603 32.1037 64.0326 65.8366 32.0607 
38.0434 4.77852 33.5188 42.9836 5.23806 33.2854 62.3785 25.4913 32.8687 
8.18085 27.6512 33.4127 63.0267 27.4155 33.262 65.4766 34.1959 33.2408 
1.26761 47.6612 33.3714 2.21381 51.5386 32.9878 32.9868 58.3013 33.6247 
67.6274 58.7262 32.9951 43.0802 60.9772 33.5211 45.4307 61.6225 33.3375 
66.1834 63.745 33.5631 61.236 66.122 33.5277 65.2989 65.4144 33.3592 
63.5543 66.2078 33.7162 40.3938 5.11773 34.6071 32.606 6.25158 34.9006 
58.2179 20.549 34.7272 9.72801 24.8893 34.8008 62.5277 27.6305 34.2863 
1.05032 50.111 34.7073 42.9873 61.2962 34.7458 61.3714 66.5336 34.7799 
45.3723 7.4493 34.5636 66.6019 56.69 35.2039 65.5904 63.8643 34.5725 
50.4934 64.0271 35.9331 65.1395 64.9283 34.3309 64.3234 65.8248 34.3856 
61.8632 66.7984 35.7336 34.6552 5.96325 36.5759 38.1621 5.44445 35.9887 
42.8628 6.72172 36.0284 22.553 11.2777 36.1221 17.0854 15.4946 36.151 
11.6224 22.1286 36.1569 10.7864 23.3153 36.0451 62.6405 29.8227 35.6645 
19.8364 55.4832 35.9113 58.5059 66.2701 36.5017 40.1398 6.55605 37.7728 
25.5211 9.7981 37.3256 58.1177 22.864 37.2839 63.7992 36.1938 37.6371 
1.98854 45.2546 37.439 1.28199 47.9996 37.2234 0.996278 50.3302 36.8411 
2.25573 51.8779 37.6796 58.4623 66.4621 37.6898 63.2061 65.8783 37.1842 
61.4828 66.752 37.1225 38.2229 6.20141 37.9238 38.0387 6.65827 38.9207 
45.6368 11.367 38.7946 53.2528 17.9249 38.8467 60.7464 29.5669 38.6607 
1.21342 50.2122 38.211 2.413 51.97 38.7299 61.6759 66.6227 38.0228 
45.2774 11.8294 39.7026 48.2406 13.5722 38.8442 1.45815 50.4085 40.0584 
58.3034 66.6293 40.3514 33.4918 7.11296 40.0784 35.5466 6.94516 39.9861 
38.0491 7.34077 39.9749 31.0182 7.77072 39.9623 43.3526 11.0174 40.4342 
20.0803 13.5888 40.0652 4.67055 36.2407 40.0518 63.0938 38.6277 39.8577 
63.8203 47.5632 40.278 63.1495 63.6165 40.1373 62.6869 65.3444 39.7356 
61.3679 66.3022 39.6213 37.7681 7.91177 40.8677 37.7114 8.45079 41.5951 
39.6993 9.02281 41.0582 50.8369 17.8429 41.5351 53.3067 20.3 41.5092 
9.29307 26.9428 41.4339 7.81929 29.7577 41.3254 63.0109 43.1136 41.134 
2.11718 51.8935 41.4026 63.1299 54.3453 41.1998 62.6932 61.0369 41.386 
62.0789 63.467 41.9585 53.0302 66.1426 41.1736 56.0009 66.6208 41.6265 
61.17 65.6958 41.3532 35.3319 8.67275 42.9161 25.0085 11.0973 42.7561 
13.9713 19.5674 42.7668 8.74713 27.9829 41.2268 62.4596 43.1924 42.1044 
1.83054 49.8652 42.7622 2.18029 51.8209 42.5179 61.331 63.7689 42.7029 
62.0713 63.8828 41.6848 5.5007 34.344 43.982 61.7393 42.9706 43.2265 
61.5228 58.9209 43.1517 48.2993 65.1344 42.788 60.298 65.2758 42.5067 
53.1555 66.4643 43.9995 30.6086 9.19616 44.0786 38.1315 11.1737 44.2708 
53.0216 22.6287 44.0242 58.8002 33.865 44.3082 60.8904 40.8088 44.0147 
3.51916 41.0988 43.8768 15.2744 55.6601 44.1321 60.2066 63.5368 43.847 
57.7552 65.5915 44.2224 55.7886 66.4202 43.7879 28.7116 10.0188 44.9945 
30.2355 9.69517 44.9385 22.4092 13.3377 45.4062 15.5569 18.348 45.3062 
14.0551 19.8762 45.4804 50.3999 20.7538 45.0196 4.27131 38.4282 45.3617 
60.2999 40.9163 44.9388 60.8555 49.8521 45.3069 2.87091 51.8607 45.2209 
4.09603 52.8839 45.3962 58.8602 61.2771 45.8345 58.5608 63.7583 45.3665 
38.1299 62.7188 45.473 50.9351 66.24 45.8604 56.0458 66.0352 45.1961 
53.3477 66.3271 45.5519 27.9877 11.0149 46.8066 30.3595 10.8992 47.0146 
25.5366 11.8586 46.5526 38.3594 12.9955 45.9922 50.6301 22.7752 46.579 
55.4776 29.6718 46.3918 6.68893 32.065 46.498 58.8768 40.7181 47.0095 
2.58277 50.472 46.4985 53.4798 66.0223 46.5902 56.1767 65.2549 46.3266 
48.2546 20.6062 46.7523 12.4748 22.7111 47.9621 52.9862 27.4209 47.7184 
5.72372 34.2113 47.8467 3.08441 51.6796 47.9479 58.9942 54.4716 47.162 
48.1217 65.6128 48.0225 32.7023 11.8328 47.5711 45.8029 20.2075 48.2418 
55.4871 31.9087 47.6968 57.9668 38.6427 47.6766 2.78615 49.8826 47.8591 
57.8222 58.7657 47.4681 50.9389 65.9104 47.9626 24.9515 13.3163 49.3495 
17.3941 18.0075 49.3197 58.0289 45.3558 49.0427 5.39716 53.6077 49.2616 
48.4653 65.5852 49.3168 50.5047 65.4177 49.324 25.2655 13.8694 50.482 
30.0539 13.7662 50.3412 20.6029 16.1615 50.7831 38.1946 17.7272 51.0679 
11.8236 24.5629 50.7172 50.4064 27.5517 50.3125 52.9882 31.8942 50.333 
55.2789 36.4829 50.1015 57.4007 45.4074 49.8604 4.1403 52.7906 50.5598 
52.7994 63.3314 50.3914 43.5223 65.4041 51.0216 45.6102 65.6214 51.0735 
56.3942 45.2874 51.0946 3.8306 52.4497 51.899 6.61649 54.1892 51.971 
51.4341 63.9073 51.021 50.6311 64.8698 50.3666 52.5784 64.6543 49.5112 
44.9885 65.7333 52.0731 22.7412 15.4766 51.8224 24.8333 15.0383 52.1445 
45.6796 24.8905 52.0296 55.7807 47.5928 51.9 3.26004 50.2422 51.7599 
55.3272 54.2533 51.4687 53.2389 58.8991 51.9097 50.4423 63.995 51.7611 
48.2259 65.0298 51.8258 49.1163 64.4669 52.1346 22.9768 16.2122 53.2165 
27.6638 16.0015 53.0748 20.7731 16.9488 52.8312 19.7147 17.6537 53.0337 
15.6282 20.8323 53.1347 48.2828 29.6139 53.2164 53.0629 38.6182 53.0276 
53.429 40.751 53.4228 53.7044 42.9912 53.6906 3.43465 47.6889 53.1025 
53.6416 52.1869 53.6379 5.09624 53.6988 53.2384 50.5841 61.1315 53.1512 
48.2061 63.8623 53.3089 45.3936 65.2312 53.2261 25.2502 16.5846 53.9304 
22.5652 17.7835 54.8852 32.7258 18.5484 54.1283 18.3516 19.1973 54.476 
35.4384 20.3426 54.6731 14.7793 22.2801 54.7587 40.2878 22.9841 54.1785 
5.60873 36.1586 54.5401 4.94249 38.5823 54.5109 53.1548 45.3376 54.4422 
3.51371 51.1295 54.6426 3.90827 52.6796 54.5133 52.7618 54.2305 53.9527 
48.1933 61.1995 54.6374 45.7576 63.9834 54.5397 40.7105 65.4134 54.8211 
47.8274 64.6427 52.7601 43.329 65.1864 54.0783 23.1427 16.7969 53.929 
20.3313 19.0061 55.7028 17.5014 20.4826 55.7743 14.9908 22.5804 55.9698 
42.8302 27.4386 55.4926 51.435 42.8485 55.5538 3.81671 52.5442 55.8512 
51.1341 54.5181 55.1416 40.3627 25.1264 55.6163 48.4846 38.3809 56.3943 
50.3089 38.7228 55.2961 51.1283 45.3982 56.0356 51.0944 49.8074 55.9061 
3.7951 52.3042 57.1897 5.163 53.8593 55.8571 48.5682 56.7668 56.0974 
43.239 63.8965 56.0884 32.668 64.3456 57.1261 42.0842 64.7198 55.9224 
17.8403 21.2222 57.219 30.1892 20.8773 56.6612 16.9243 21.6867 57.1925 
35.1584 22.9614 56.748 43.113 31.7193 57.2987 6.7492 34.0929 57.1178 
45.4115 34.1331 56.8538 48.3359 43.03 57.5183 50.2015 43.1724 56.4057 
48.039 54.3359 56.9748 4.76672 53.7221 57.1919 42.6629 61.8133 57.4576 
42.3468 63.54 56.9449 27.9709 62.8721 57.1845 41.3406 64.1187 57.2708 
35.6351 65.1385 57.3268 40.2122 64.9749 57.0206 38.1933 65.3229 57.5006 
20.2602 21.1122 57.7832 17.2628 22.7486 58.5527 30.2534 22.8855 58.2707 
14.5636 24.6285 58.7816 32.7894 24.6273 58.817 35.2559 25.1772 58.1626 
35.6414 26.9746 59.0015 37.7915 27.4048 58.1686 40.5591 31.723 58.6173 
8.13257 32.2052 58.4691 4.98668 38.557 58.4708 45.6327 40.7927 58.5767 
48.3832 47.617 57.634 45.4396 54.2986 58.1104 40.4441 63.4435 58.3986 
38.0055 65.0056 58.5674 22.6709 22.4372 58.8707 30.5259 24.4248 59.3304 
12.3463 27.3209 59.5871 8.23682 32.3348 59.7527 45.8106 45.3269 58.9632 
3.92944 52.3183 59.8727 15.4689 57.9713 60.0123 22.6898 61.0554 59.7358 
25.6742 62.3167 59.6035 30.6882 64.1775 59.8394 38.4722 64.1041 59.3937 
32.4936 64.3845 59.7256 19.8962 22.9905 59.2557 27.7886 24.8007 60.0695 
35.6098 29.2654 60.0566 10.6473 30.0714 60.9601 40.4019 36.3583 59.8766 
5.74017 36.6077 61.1061 43.0918 43.0551 59.9788 43.145 47.6073 60.0684 
40.7348 52.2553 60.4013 4.20853 52.6676 61.1138 7.2047 54.8413 61.1656 
10.2082 55.9242 61.0028 38.066 56.9846 60.1307 20.2882 60.3096 60.8413 
38.281 61.7376 60.0319 38.2142 63.6705 59.8327 28.1917 63.4006 61.1078 
35.306 64.0794 60.0476 13.1415 27.492 60.8406 27.9848 27.3795 61.5706 
30.2806 27.4699 61.1021 12.2282 28.6348 61.2504 32.9058 29.4232 61.0806 
35.1774 31.9932 60.9018 7.0288 34.2766 61.27 4.60368 40.5328 61.3323 
40.3351 40.8773 60.5581 40.4442 45.3402 60.9669 42.7467 45.3722 60.2261 
38.0919 52.0514 61.5279 4.99143 54.0568 60.1172 34.9503 58.4213 61.1454 
17.3337 59.0677 61.28 18.7998 59.859 61.3772 22.3174 60.817 61.3331 
30.5067 63.8831 61.285 32.8247 63.7589 61.3394 20.0809 26.8219 61.7681 
22.9455 27.8216 62.3645 15.2356 27.6402 61.9712 27.7838 28.9867 62.1797 
12.6957 29.6449 62.6027 9.73305 31.9117 62.4228 7.51035 34.3625 62.5472 
6.30366 36.1786 62.5412 32.995 36.2175 61.8028 5.89108 36.801 62.2741 
5.24279 38.5844 62.5578 4.42227 42.7193 62.6498 4.23289 50.2634 62.7178 
4.41501 52.3739 62.2717 34.8401 54.1054 62.3065 5.419 53.9586 62.1625 
33.5845 56.5262 62.1141 12.6014 56.6872 62.5968 14.7837 57.5061 62.3518 
17.3675 58.7112 62.4351 32.81 61.7376 62.2315 20.0564 59.6991 62.579 
20.3479 60.0601 61.9635 22.644 60.5443 62.2227 24.6469 61.5096 62.4595 
31.8595 62.9807 62.3689 25.7277 62.2863 61.9727 28.308 63.2823 62.7941 
30.9042 63.2903 62.5772 14.8902 29.1794 62.8949 22.9867 29.1543 62.9723 
25.2619 29.5678 62.6835 22.4166 31.6804 63.3265 8.79191 33.1703 62.7352 
27.8298 36.2322 62.837 5.66358 38.8835 63.7374 5.15476 39.9398 63.813 
35.0964 49.9828 62.9848 4.75203 52.3119 64.2057 34.9376 51.8644 62.9613 
6.76488 54.0573 63.8286 32.0283 54.3366 64.023 30.4424 58.1154 63.9219 
20.1196 58.7406 63.3041 30.3452 61.66 63.9479 26.1639 61.7274 63.6036 
28.0248 62.7717 63.8363 12.3765 31.8855 63.8419 15.1865 31.4097 64.0142 
9.94219 34.0565 64.0043 7.90409 35.1595 63.5159 6.75163 37.64 64.0409 
9.4262 35.8449 64.2616 6.49439 38.1338 64.0435 4.61166 43.097 63.7612 
32.8783 50.1426 64.0942 5.24936 52.1934 65.5623 5.75222 53.4629 63.9368 
10.4413 55.1895 63.7286 17.4083 56.8976 63.8678 17.6059 56.2158 64.2561 
30.3536 56.746 64.0663 22.6035 58.702 63.5951 24.4411 58.9723 63.9008 
23.8584 60.0558 63.2714 30.1884 62.6741 63.4711 14.6278 34.1599 64.4499 
10.3838 36.7512 64.4774 6.91173 40.5038 65.1004 5.53546 40.8332 64.6387 
5.25275 43.2371 65.3051 25.3436 44.8802 65.1079 27.301 45.3042 64.942 
4.94965 47.5957 65.0612 25.1597 47.5892 64.9749 11.6995 47.9611 65.7908 
22.5797 49.9166 65.2337 30.3027 49.9183 64.9027 31.9772 50.3337 64.5448 
22.4393 52.2485 65.1926 25.0335 52.2844 64.6793 31.6003 52.3136 65.0414 
12.3671 54.5385 64.7535 30.8166 52.1949 65.3939 14.8733 53.6555 65.7069 
15.0002 54.4507 65.1556 17.8941 54.7861 65.0251 28.0469 56.3253 64.4876 
27.9786 58.8685 64.5315 27.7262 61.8907 64.2776 28.1928 60.8521 64.4902 
6.72157 42.6403 65.9506 7.02467 43.1178 66.1537 9.12262 43.4036 65.782 
5.65053 43.7889 65.8312 5.79908 45.041 66.0261 10.2319 45.1211 65.7758 
5.75041 47.9298 66.1752 15.0051 47.5147 65.6036 7.22403 47.2458 67.0124 
5.45285 49.6052 66.015 12.1666 50.2936 66.2036 20.6238 51.5984 66.2091 
5.4847 51.7515 65.9322 10.1659 51.9402 66.1844 7.38213 51.7519 66.6359 
12.2064 51.846 66.2573 6.72186 52.8217 65.541 15.751 52.3339 66.6288 
7.10666 49.815 67.1089 
POLYGONS 1989 5964
OFFSETS vtktypeint64
0 3 6 9 12 15 18 21 24 
27 30 33 36 39 42 45 48 51 
54 57 60 63 66 69 72 75 78 
81 84 87 90 93 96 99 102 105 
108 111 114 117 120 123 126 129 132 
135 138 141 144 147 150 153 156 159 
162 165 168 171 174 177 180 183 186 
189 192 195 198 201 204 207 210 213 
216 219 222 225 228 231 234 237 240 
243 246 249 252 255 258 261 264 267 
270 273 276 279 282 285 288 291 294 
297 300 303 306 309 312 315 318 321 
324 327 330 333 336 339 342 345 348 
351 354 357 360 363 366 369 372 375 
378 381 384 387 390 393 396 399 402 
405 408 411 414 417 420 423 426 429 
432 435 438 441 444 447 450 453 456 
459 462 465 468 471 474 477 480 483 
486 489 492 495 498 501 504 507 510 
513 516 519 522 525 528 531 534 537 
540 543 546 549 552 555 558 561 564 
567 570 573 576 579 582 585 588 591 
594 597 600 603 606 609 612 615 618 
621 624 627 630 633 636 639 642 645 
648 651 654 657 660 663 666 669 672 
675 678 681 684 687 690 693 696 699 
702 705 708 711 714 717 720 723 726 
729 732 735 738 741 744 747 750 753 
756 759 762 765 768 771 774 777 780 
783 786 789 792 795 798 801 804 807 
810 813 816 819 822 825 828 831 834 
837 840 843 846 849 852 855 858 861 
864 867 870 873 876 879 882 885 888 
891 894 897 900 903 906 909 912 915 
918 921 924 927 930 933 936 939 942 
945 948 951 954 957 960 963 966 969 
972 975 978 981 984 987 990 993 996 
999 1002 1005 1008 1011 1014 1017 1020 1023 
1026 1029 1032 1035 1038 1041 1044 1047 1050 
1053 1056 1059 1062 1065 1068 1071 1074 1077 
1080 1083 1086 1089 1092 1095 1098 1101 1104 
1107 1110 1113 1116 1119 1122 1125 1128 1131 
1134 1137 1140 1143 1146 1149 1152 1155 1158 
1161 1164 1167 1170 1173 1176 1179 1182 1185 
1188 1191 1194 1197 1200 1203 1206 1209 1212 
1215 1218 1221 1224 1227 1230 1233 1236 1239 
1242 1245 1248 1251 1254 1257 1260 1263 1266 
1269 1272 1275 1278 1281 1284 1287 1290 1293 
1296 1299 1302 1305 1308 1311 1314 1317 1320 
1323 1326 1329 1332 1335 1338 1341 1344 1347 
1350 1353 1356 1359 1362 1365 1368 1371 1374 
1377 1380 1383 1386 1389 1392 1395 1398 1401 
1404 1407 1410 1413 1416 1419 1422 1425 1428 
1431 1434 1437 1440 1443 1446 1449 1452 1455 
1458 1461 1464 1467 1470 1473 1476 1479 1482 
1485 1488 1491 1494 1497 1500 1503 1506 1509 
1512 1515 1518 1521 1524 1527 1530 1533 1536 
1539 1542 1545 1548 1551 1554 1557 1560 1563 
1566 1569 1572 1575 1578 1581 1584 1587 1590 
1593 1596 1599 1602 1605 1608 1611 1614 1617 
1620 1623 1626 1629 1632 1635 1638 1641 1644 
1647 1650 1653 1656 1659 1662 1665 1668 1671 
1674 1677 1680 1683 1686 1689 1692 1695 1698 
1701 1704 1707 1710 1713 1716 1719 1722 1725 
1728 1731 1734 1737 1740 1743 1746 1749 1752 
1755 1758 1761 1764 1767 1770 1773 1776 1779 
1782 1785 1788 1791 1794 1797 1800 1803 1806 
1809 1812 1815 1818 1821 1824 1827 1830 1833 
1836 1839 1842 1845 1848 1851 1854 1857 1860 
1863 1866 1869 1872 1875 1878 1881 1884 1887 
1890 1893 1896 1899 1902 1905 1908 1911 1914 
1917 1920 1923 1926 1929 1932 1935 1938 1941 
1944 1947 1950 1953 1956 1959 1962 1965 1968 
1971 1974 1977 1980 1983 1986 1989 1992 1995 
1998 2001 2004 2007 2010 2013 2016 2019 2022 
2025 2028 2031 2034 2037 2040 2043 2046 2049 
2052 2055 2058 2061 2064 2067 2070 2073 2076 
2079 2082 2085 2088 2091 2094 2097 2100 2103 
2106 2109 2112 2115 2118 2121 2124 2127 2130 
2133 2136 2139 2142 2145 2148 2151 2154 2157 
2160 2163 2166 2169 2172 2175 2178 2181 2184 
2187 2190 2193 2196 2199 2202 2205 2208 2211 
2214 2217 2220 2223 2226 2229 2232 2235 2238 
2241 2244 2247 2250 2253 2256 2259 2262 2265 
2268 2271 2274 2277 2280 2283 2286 2289 2292 
2295 2298 2301 2304 2307 2310 2313 2316 2319 
2322 2325 2328 2331 2334 2337 2340 2343 2346 
2349 2352 2355 2358 2361 2364 2367 2370 2373 
2376 2379 2382 2385 2388 2391 2394 2397 2400 
2403 2406 2409 2412 2415 2418 2421 2424 2427 
2430 2433 2436 2439 2442 2445 2448 2451 2454 
2457 2460 2463 2466 2469 2472 2475 2478 2481 
2484 2487 2490 2493 2496 2499 2502 2505 2508 
2511 2514 2517 2520 2523 2526 2529 2532 2535 
2538 2541 2544 2547 2550 2553 2556 2559 2562 
2565 2568 2571 2574 2577 2580 2583 2586 2589 
2592 2595 2598 2601 2604 2607 2610 2613 2616 
2619 2622 2625 2628 2631 2634 2637 2640 2643 
2646 2649 2652 2655 2658 2661 2664 2667 2670 
2673 2676 2679 2682 2685 2688 2691 2694 2697 
2700 2703 2706 2709 2712 2715 2718 2721 2724 
2727 2730 2733 2736 2739 2742 2745 2748 2751 
2754 2757 2760 2763 2766 2769 2772 2775 2778 
2781 2784 2787 2790 2793 2796 2799 2802 2805 
2808 2811 2814 2817 2820 2823 2826 2829 2832 
2835 2838 2841 2844 2847 2850 2853 2856 2859 
2862 2865 2868 2871 2874 2877 2880 2883 2886 
2889 2892 2895 2898 2901 2904 2907 2910 2913 
2916 2919 2922 2925 2928 2931 2934 2937 2940 
2943 2946 2949 2952 2955 2958 2961 2964 2967 
2970 2973 2976 2979 2982 2985 2988 2991 2994 
2997 3000 3003 3006 3009 3012 3015 3018 3021 
3024 3027 3030 3033 3036 3039 3042 3045 3048 
3051 3054 3057 3060 3063 3066 3069 3072 3075 
3078 3081 3084 3087 3090 3093 3096 3099 3102 
3105 3108 3111 3114 3117 3120 3123 3126 3129 
3132 3135 3138 3141 3144 3147 3150 3153 3156 
3159 3162 3165 3168 3171 3174 3177 3180 3183 
3186 3189 3192 3195 3198 3201 3204 3207 3210 
3213 3216 3219 3222 3225 3228 3231 3234 3237 
3240 3243 3246 3249 3252 3255 3258 3261 3264 
3267 3270 3273 3276 3279 3282 3285 3288 3291 
3294 3297 3300 3303 3306 3309 3312 3315 3318 
3321 3324 3327 3330 3333 3336 3339 3342 3345 
3348 3351 3354 3357 3360 3363 3366 3369 3372 
3375 3378 3381 3384 3387 3390 3393 3396 3399 
3402 3405 3408 3411 3414 3417 3420 3423 3426 
3429 3432 3435 3438 3441 3444 3447 3450 3453 
3456 3459 3462 3465 3468 3471 3474 3477 3480 
3483 3486 3489 3492 3495 3498 3501 3504 3507 
3510 3513 3516 3519 3522 3525 3528 3531 3534 
3537 3540 3543 3546 3549 3552 3555 3558 3561 
3564 3567 3570 3573 3576 3579 3582 3585 3588 
3591 3594 3597 3600 3603 3606 3609 3612 3615 
3618 3621 3624 3627 3630 3633 3636 3639 3642 
3645 3648 3651 3654 3657 3660 3663 3666 3669 
3672 3675 3678 3681 3684 3687 3690 3693 3696 
3699 3702 3705 3708 3711 3714 3717 3720 3723 
3726 3729 3732 3735 3738 3741 3744 3747 3750 
3753 3756 3759 3762 3765 3768 3771 3774 3777 
3780 3783 3786 3789 3792 3795 3798 3801 3804 
3807 3810 3813 3816 3819 3822 3825 3828 3831 
3834 3837 3840 3843 3846 3849 3852 3855 3858 
3861 3864 3867 3870 3873 3876 3879 3882 3885 
3888 3891 3894 3897 3900 3903 3906 3909 3912 
3915 3918 3921 3924 3927 3930 3933 3936 3939 
3942 3945 3948 3951 3954 3957 3960 3963 3966 
3969 3972 3975 3978 3981 3984 3987 3990 3993 
3996 3999 4002 4005 4008 4011 4014 4017 4020 
4023 4026 4029 4032 4035 4038 4041 4044 4047 
4050 4053 4056 4059 4062 4065 4068 4071 4074 
4077 4080 4083 4086 4089 4092 4095 4098 4101 
4104 4107 4110 4113 4116 4119 4122 4125 4128 
4131 4134 4137 4140 4143 4146 4149 4152 4155 
4158 4161 4164 4167 4170 4173 4176 4179 4182 
4185 4188 4191 4194 4197 4200 4203 4206 4209 
4212 4215 4218 4221 4224 4227 4230 4233 4236 
4239 4242 4245 4248 4251 4254 4257 4260 4263 
4266 4269 4272 4275 4278 4281 4284 4287 4290 
4293 4296 4299 4302 4305 4308 4311 4314 4317 
4320 4323 4326 4329 4332 4335 4338 4341 4344 
4347 4350 4353 4356 4359 4362 4365 4368 4371 
4374 4377 4380 4383 4386 4389 4392 4395 4398 
4401 4404 4407 4410 4413 4416 4419 4422 4425 
4428 4431 4434 4437 4440 4443 4446 4449 4452 
4455 4458 4461 4464 4467 4470 4473 4476 4479 
4482 4485 4488 4491 4494 4497 4500 4503 4506 
4509 4512 4515 4518 4521 4524 4527 4530 4533 
4536 4539 4542 4545 4548 4551 4554 4557 4560 
4563 4566 4569 4572 4575 4578 4581 4584 4587 
4590 4593 4596 4599 4602 4605 4608 4611 4614 
4617 4620 4623 4626 4629 4632 4635 4638 4641 
4644 4647 4650 4653 4656 4659 4662 4665 4668 
4671 4674 4677 4680 4683 4686 4689 4692 4695 
4698 4701 4704 4707 4710 4713 4716 4719 4722 
4725 4728 4731 4734 4737 4740 4743 4746 4749 
4752 4755 4758 4761 4764 4767 4770 4773 4776 
4779 4782 4785 4788 4791 4794 4797 4800 4803 
4806 4809 4812 4815 4818 4821 4824 4827 4830 
4833 4836 4839 4842 4845 4848 4851 4854 4857 
4860 4863 4866 4869 4872 4875 4878 4881 4884 
4887 4890 4893 4896 4899 4902 4905 4908 4911 
4914 4917 4920 4923 4926 4929 4932 4935 4938 
4941 4944 4947 4950 4953 4956 4959 4962 4965 
4968 4971 4974 4977 4980 4983 4986 4989 4992 
4995 4998 5001 5004 5007 5010 5013 5016 5019 
5022 5025 5028 5031 5034 5037 5040 5043 5046 
5049 5052 5055 5058 5061 5064 5067 5070 5073 
5076 5079 5082 5085 5088 5091 5094 5097 5100 
5103 5106 5109 5112 5115 5118 5121 5124 5127 
5130 5133 5136 5139 5142 5145 5148 5151 5154 
5157 5160 5163 5166 5169 5172 5175 5178 5181 
5184 5187 5190 5193 5196 5199 5202 5205 5208 
5211 5214 5217 5220 5223 5226 5229 5232 5235 
5238 5241 5244 5247 5250 5253 5256 5259 5262 
5265 5268 5271 5274 5277 5280 5283 5286 5289 
5292 5295 5298 5301 5304 5307 5310 5313 5316 
5319 5322 5325 5328 5331 5334 5337 5340 5343 
5346 5349 5352 5355 5358 5361 5364 5367 5370 
5373 5376 5379 5382 5385 5388 5391 5394 5397 
5400 5403 5406 5409 5412 5415 5418 5421 5424 
5427 5430 5433 5436 5439 5442 5445 5448 5451 
5454 5457 5460 5463 5466 5469 5472 5475 5478 
5481 5484 5487 5490 5493 5496 5499 5502 5505 
5508 5511 5514 5517 5520 5523 5526 5529 5532 
5535 5538 5541 5544 5547 5550 5553 5556 5559 
5562 5565 5568 5571 5574 5577 5580 5583 5586 
5589 5592 5595 5598 5601 5604 5607 5610 5613 
5616 5619 5622 5625 5628 5631 5634 5637 5640 
5643 5646 5649 5652 5655 5658 5661 5664 5667 
5670 5673 5676 5679 5682 5685 5688 5691 5694 
5697 5700 5703 5706 5709 5712 5715 5718 5721 
5724 5727 5730 5733 5736 5739 5742 5745 5748 
5751 5754 5757 5760 5763 5766 5769 5772 5775 
5778 5781 5784 5787 5790 5793 5796 5799 5802 
5805 5808 5811 5814 5817 5820 5823 5826 5829 
5832 5835 5838 5841 5844 5847 5850 5853 5856 
5859 5862 5865 5868 5871 5874 5877 5880 5883 
5886 5889 5892 5895 5898 5901 5904 5907 5910 
5913 5916 5919 5922 5925 5928 5931 5934 5937 
5940 5943 5946 5949 5952 5955 5958 5961 5964 

CONNECTIVITY vtktypeint64
3 2 4 7 2 3 5 2 8 
8 2 7 3 6 10 10 6 9 
7 3 11 11 3 10 11 8 7 
0 1 9 1 12 9 10 9 13 
13 9 12 11 10 13 14 15 1 
1 15 16 12 1 17 17 1 16 
13 12 17 11 13 22 22 13 17 
15 18 19 20 15 19 21 20 19 
17 16 22 4 2 25 25 2 24 
2 5 24 5 23 24 3 4 25 
6 3 27 27 3 25 26 5 8 
6 27 28 9 6 28 26 8 32 
32 8 11 29 26 32 28 0 9 
30 0 28 1 30 14 30 1 0 
31 15 14 33 15 31 33 18 15 
16 15 22 34 21 18 21 19 18 
15 20 22 32 11 41 35 32 41 
21 34 36 36 34 38 20 21 36 
22 20 39 39 20 36 11 22 41 
35 41 44 37 35 44 36 40 39 
22 39 43 41 22 43 40 38 42 
45 23 46 47 24 23 46 23 26 
46 26 76 25 24 48 26 23 5 
195 27 25 28 195 30 27 195 28 
14 30 31 49 29 32 50 106 18 
31 50 18 31 18 33 106 34 18 
51 34 106 32 35 52 49 32 52 
55 49 52 34 51 53 34 53 38 
38 53 54 35 37 52 52 37 55 
36 38 40 37 44 55 66 55 44 
42 38 56 57 42 56 62 55 66 
58 42 57 57 59 58 58 59 60 
42 58 61 61 58 60 40 42 61 
65 40 61 39 40 65 64 61 60 
59 64 60 64 59 63 67 68 69 
67 70 69 69 72 67 73 70 67 
71 70 73 71 73 74 75 74 73 
77 76 78 46 77 45 77 46 76 
79 76 80 23 45 47 48 24 47 
80 76 26 29 80 26 48 195 25 
31 30 50 104 49 55 81 105 55 
38 54 56 81 55 84 81 84 82 
55 62 84 83 59 57 115 82 84 
63 83 85 63 59 83 61 64 86 
61 86 65 63 86 64 113 39 65 
43 39 117 41 43 117 41 117 44 
117 66 44 62 66 87 84 62 87 
84 87 115 39 116 117 72 89 93 
88 68 71 122 88 90 90 88 71 
90 91 122 70 68 69 71 68 70 
69 68 72 74 90 71 74 91 90 
98 91 74 72 93 94 72 95 67 
94 95 72 67 95 73 95 96 73 
73 96 75 75 96 74 96 97 74 
97 98 74 95 99 96 100 101 97 
100 97 99 99 97 96 98 97 101 
76 102 78 76 79 102 79 80 102 
80 103 102 49 80 29 195 50 30 
104 55 105 53 51 154 54 154 197 
54 53 154 54 197 107 56 54 107 
56 107 57 108 155 82 109 82 115 
108 82 109 109 115 110 108 109 110 
63 111 86 85 111 63 111 162 86 
86 162 65 112 110 115 108 110 112 
65 162 113 112 159 108 113 116 39 
113 162 167 112 115 140 87 66 118 
118 114 87 114 115 87 66 117 118 
115 114 118 176 119 116 116 119 117 
120 117 119 126 117 120 127 117 126 
121 112 140 132 89 169 125 119 176 
117 127 128 135 117 128 118 117 129 
129 117 135 115 118 130 130 118 129 
137 115 130 140 115 137 132 131 142 
120 119 126 126 119 125 169 89 68 
68 89 72 88 169 68 122 169 88 
122 91 124 134 127 126 128 127 134 
135 128 134 136 129 135 130 129 139 
139 129 136 137 130 139 121 140 138 
131 121 138 141 131 138 142 131 141 
132 142 92 93 89 92 89 132 92 
137 139 140 92 143 93 93 143 94 
92 142 143 94 183 95 95 183 99 
99 183 144 99 101 100 99 144 101 
101 144 184 146 101 184 145 101 146 
148 149 102 149 78 102 147 148 102 
103 147 102 103 150 147 150 103 147 
78 151 77 45 77 151 193 103 80 
363 47 45 363 48 47 80 49 193 
104 193 49 229 104 105 152 105 81 
196 106 50 81 153 152 106 154 51 
153 81 82 156 155 108 156 108 157 
83 57 158 157 108 159 156 157 159 
156 159 160 158 85 83 161 85 158 
160 159 164 164 159 112 162 111 85 
162 85 163 163 85 161 162 163 198 
165 162 198 166 162 165 162 166 167 
168 116 167 167 116 113 164 121 131 
112 121 164 164 131 132 169 164 132 
175 116 171 176 116 175 170 122 123 
170 169 122 123 122 124 175 171 174 
124 91 212 125 176 133 126 125 178 
125 133 178 136 135 179 179 139 136 
91 98 177 177 98 180 138 140 181 
138 181 141 182 180 98 181 142 141 
143 183 94 182 98 145 98 101 145 
144 183 184 146 185 145 146 184 185 
186 187 184 184 187 185 189 148 147 
190 188 147 190 147 191 149 192 78 
192 149 148 191 147 193 193 147 103 
193 190 191 229 193 104 48 363 256 
256 195 48 194 229 105 194 105 152 
153 281 152 153 155 230 154 106 197 
82 155 153 230 155 156 164 169 232 
198 163 161 169 199 200 200 199 201 
202 165 198 167 203 168 167 166 203 
201 199 170 170 199 169 204 201 170 
116 168 210 210 168 205 116 210 171 
170 123 204 204 123 226 123 124 226 
209 208 205 210 205 208 171 210 174 
211 206 207 172 206 173 173 206 211 
210 208 213 213 208 209 174 210 213 
174 213 175 91 177 212 241 133 176 
126 178 241 135 134 243 214 140 139 
142 181 143 145 185 215 184 216 186 
185 187 215 186 216 217 187 186 217 
215 187 217 148 189 192 188 189 147 
190 193 229 192 151 78 229 194 281 
281 194 152 106 196 283 281 153 230 
283 197 106 156 231 230 220 156 160 
164 231 160 232 258 164 221 200 222 
200 232 169 201 222 200 165 202 166 
224 202 198 166 225 203 166 202 225 
201 204 223 206 225 202 203 225 206 
172 203 206 172 168 203 205 168 172 
205 172 208 226 124 212 208 173 209 
172 173 208 211 209 173 227 207 265 
211 207 227 209 211 227 133 241 178 
319 126 241 134 126 319 319 243 134 
177 180 212 243 179 135 179 243 139 
243 214 139 182 242 180 182 145 242 
242 145 244 245 140 270 181 140 245 
244 145 215 143 181 275 143 275 183 
183 276 184 217 228 215 217 216 228 
190 219 188 188 219 218 218 189 188 
219 190 229 229 281 255 231 284 230 
107 197 288 156 220 231 107 288 57 
220 160 231 57 288 158 258 231 164 
232 259 258 232 200 221 222 201 223 
235 202 224 235 236 202 202 236 206 
238 235 237 236 235 239 206 236 207 
354 226 212 235 238 240 240 239 235 
207 239 265 236 239 207 267 175 266 
175 213 266 175 267 176 267 241 176 
243 268 214 214 270 140 268 270 214 
268 243 298 245 273 181 300 245 299 
181 273 275 244 215 246 275 302 183 
302 276 183 215 228 246 184 276 247 
184 247 216 248 216 247 216 248 228 
249 228 248 219 252 218 218 252 251 
229 253 219 219 253 252 218 251 189 
229 254 253 254 229 255 45 151 363 
230 309 281 197 283 310 284 231 257 
258 257 231 158 288 161 232 221 259 
233 259 221 233 221 234 234 221 260 
222 260 221 260 222 223 262 198 161 
198 262 224 262 261 224 238 261 262 
238 235 261 235 224 261 240 238 263 
240 263 239 239 263 264 265 239 264 
227 265 356 209 227 318 227 356 318 
213 209 292 209 318 292 242 354 212 
213 292 266 180 242 212 243 319 295 
297 298 243 297 243 296 299 245 270 
244 246 269 245 300 271 245 271 272 
273 245 272 246 228 269 269 228 274 
276 277 247 247 277 248 228 249 274 
248 277 250 249 248 250 278 249 250 
274 249 278 253 279 252 253 254 280 
253 280 279 406 151 192 151 406 363 
254 255 307 363 308 256 366 195 256 
309 282 281 195 366 50 309 230 352 
284 352 230 197 310 288 257 285 286 
257 258 285 287 258 259 259 233 287 
287 233 315 315 233 234 234 260 315 
260 223 315 238 262 339 263 339 289 
263 238 339 290 263 289 263 291 264 
290 291 263 264 291 290 357 266 292 
267 266 357 293 267 357 267 293 294 
267 293 241 241 293 294 241 344 319 
343 344 241 295 296 243 300 272 271 
274 323 269 301 323 274 273 272 326 
275 273 326 302 275 329 250 277 304 
277 303 304 301 274 278 301 278 304 
304 278 250 305 280 306 280 254 306 
307 306 254 255 281 282 50 366 196 
452 283 196 257 311 284 312 311 257 
312 257 286 286 285 313 258 313 285 
258 287 314 223 204 315 226 354 376 
289 316 290 316 317 290 292 318 357 
357 294 293 295 319 345 320 296 295 
321 296 320 296 320 297 360 297 320 
297 360 298 244 269 323 320 321 360 
322 298 360 268 298 322 322 270 268 
299 270 322 300 299 324 325 300 324 
272 300 325 326 272 327 326 329 275 
277 276 303 328 301 304 302 329 330 
276 302 330 303 276 330 332 303 331 
304 303 332 251 252 383 279 347 252 
280 305 279 279 305 347 251 383 189 
192 189 383 383 406 192 255 333 307 
333 255 351 255 282 351 308 366 256 
196 366 452 284 334 352 335 334 284 
336 335 284 452 310 283 311 336 284 
312 337 311 312 286 313 258 314 313 
287 338 314 287 315 338 376 204 226 
289 339 316 316 340 317 290 341 264 
317 341 290 341 342 264 342 265 264 
342 356 265 294 358 241 358 343 241 
379 344 343 344 345 319 320 295 321 
299 322 324 272 325 327 301 328 323 
323 328 346 304 332 346 304 346 328 
303 330 331 305 348 347 306 349 305 
349 306 307 349 307 350 350 307 362 
307 333 362 362 333 351 282 365 364 
282 309 365 309 352 365 452 353 310 
336 311 337 369 288 353 288 310 353 
312 313 370 313 389 370 313 314 389 
389 314 372 314 338 372 161 288 375 
315 204 374 375 262 161 375 339 262 
339 390 316 316 390 340 317 340 355 
317 355 341 357 318 378 357 358 294 
242 244 393 393 244 411 295 345 359 
321 295 359 244 323 411 395 323 346 
332 331 381 395 346 332 381 395 332 
305 349 348 361 349 350 364 351 282 
451 366 308 367 352 334 387 334 335 
335 336 387 368 336 337 368 337 312 
388 368 312 288 369 371 288 371 375 
338 315 373 373 315 374 204 453 374 
376 453 204 390 377 340 340 377 355 
392 341 355 342 341 392 322 360 565 
380 411 323 331 330 404 331 404 397 
331 397 381 347 348 382 348 349 361 
382 348 361 252 461 383 347 461 252 
350 362 361 407 362 351 364 365 398 
366 385 452 388 312 370 372 338 373 
391 377 390 355 377 392 392 377 391 
356 342 402 402 318 356 242 393 354 
378 394 357 358 357 394 343 358 379 
359 345 429 360 321 565 380 412 411 
325 324 413 323 395 380 325 413 441 
326 327 441 396 381 397 362 416 361 
384 416 362 384 362 407 407 351 364 
366 451 385 365 352 398 398 352 386 
367 386 352 386 367 334 418 386 334 
418 334 387 452 369 353 368 408 336 
408 368 388 369 464 371 370 389 388 
390 399 391 391 399 392 399 400 392 
401 392 400 392 425 342 425 402 342 
318 402 410 318 394 378 410 394 318 
394 403 428 321 359 429 413 324 322 
396 412 380 327 325 441 395 381 396 
380 395 396 330 329 509 382 461 347 
382 514 461 514 382 361 405 416 384 
384 407 405 407 364 398 336 419 387 
336 408 419 420 408 388 389 435 388 
421 435 389 389 372 421 421 372 373 
453 376 447 447 376 354 401 409 392 
409 425 392 410 402 427 403 410 428 
403 394 410 394 379 358 344 379 429 
344 429 345 321 429 565 322 565 413 
412 396 414 326 441 509 326 509 329 
397 404 415 397 415 414 414 396 397 
383 534 406 406 434 363 398 417 407 
417 398 386 418 417 386 369 452 464 
436 373 374 453 436 374 454 447 354 
390 467 399 422 400 467 467 400 399 
400 422 401 401 422 423 401 423 409 
409 423 424 409 424 425 426 410 427 
410 426 428 428 426 427 430 412 414 
441 413 457 330 509 431 404 330 432 
432 433 404 433 415 404 433 414 415 
361 416 514 446 405 407 434 308 363 
463 417 418 385 462 452 488 419 408 
408 420 488 420 388 435 468 454 354 
467 437 422 437 438 422 422 438 423 
424 423 439 425 424 439 394 428 379 
429 379 481 440 412 430 432 431 442 
432 330 431 433 440 430 433 432 440 
432 442 440 414 433 430 431 509 443 
383 523 534 444 514 416 405 444 416 
405 446 445 407 417 446 385 451 462 
418 387 419 478 421 373 339 467 390 
468 354 393 437 448 438 494 468 393 
438 439 423 425 439 449 425 449 402 
402 449 450 393 411 494 443 442 431 
383 461 523 444 405 445 418 419 463 
518 464 452 465 488 420 420 435 465 
464 519 371 478 373 436 375 371 491 
467 455 437 437 455 448 438 448 439 
439 448 456 439 450 449 456 450 439 
459 458 442 442 458 440 443 509 460 
443 460 442 442 460 459 445 502 444 
446 502 445 477 308 434 477 451 308 
452 462 518 435 421 466 421 478 466 
339 375 467 469 455 467 470 455 469 
455 470 448 448 470 456 456 471 450 
427 450 428 507 379 428 494 411 495 
411 412 495 495 412 496 412 440 496 
496 440 472 473 457 474 458 472 440 
457 474 441 459 475 472 458 459 472 
459 460 475 461 514 476 434 406 515 
463 446 417 462 516 518 488 463 419 
488 486 463 435 466 465 447 536 453 
491 526 375 375 526 467 505 469 467 
469 505 470 505 479 470 471 470 480 
471 456 470 471 480 450 379 527 481 
413 565 484 457 413 474 474 413 582 
444 502 501 515 477 434 451 477 462 
518 487 464 525 488 465 478 489 490 
536 436 453 480 470 493 470 479 493 
427 402 450 379 507 527 429 482 565 
483 496 472 484 582 413 485 483 475 
475 483 472 484 497 498 582 484 498 
460 499 475 475 499 485 499 460 509 
461 500 523 476 500 461 476 514 513 
406 534 515 444 501 514 446 463 517 
517 463 486 503 486 488 557 465 466 
489 557 466 466 478 489 371 519 491 
478 436 489 526 504 467 543 454 468 
467 504 505 505 492 479 479 506 493 
492 506 479 493 506 480 480 506 520 
480 520 450 507 428 450 429 481 563 
563 482 429 565 497 484 485 508 483 
497 565 498 509 510 499 510 511 499 
508 485 499 511 508 499 500 512 523 
476 513 500 500 513 512 515 534 542 
502 535 501 446 517 502 525 517 486 
488 486 503 488 525 486 557 525 465 
464 487 519 447 454 536 526 505 504 
506 492 520 528 483 508 551 441 474 
511 528 508 441 551 552 441 552 509 
511 521 528 511 510 521 522 510 509 
510 522 521 513 524 512 523 555 534 
513 535 524 514 535 513 501 535 514 
517 535 502 489 560 557 436 536 489 
560 489 536 498 565 566 474 582 551 
521 529 528 509 530 522 522 530 531 
532 522 531 521 522 532 529 521 532 
512 524 523 454 543 536 468 494 548 
492 537 538 492 538 520 494 495 548 
507 450 527 550 548 495 496 550 495 
564 550 496 496 483 564 528 564 483 
529 532 539 530 540 541 531 530 541 
532 531 541 524 533 523 535 533 524 
515 597 477 516 462 589 535 517 610 
590 518 516 519 487 547 543 468 544 
505 537 492 468 548 544 537 545 538 
520 538 549 450 520 549 481 527 563 
528 529 564 564 529 539 509 552 568 
530 509 568 530 568 540 539 532 546 
546 532 541 533 556 523 533 535 556 
535 579 556 534 572 542 572 515 542 
597 589 477 477 589 462 610 616 535 
590 487 518 525 573 517 487 574 547 
519 547 491 505 545 537 527 450 594 
498 566 582 564 539 546 553 567 546 
554 540 568 541 540 553 540 554 553 
553 546 541 523 556 571 534 555 572 
535 616 579 589 624 516 573 610 517 
590 591 487 573 525 557 559 557 560 
593 559 560 547 558 491 491 625 526 
505 526 600 505 561 545 538 545 562 
549 681 450 450 681 667 450 667 594 
482 563 684 564 567 581 546 567 564 
552 551 604 569 553 554 554 568 570 
569 554 570 523 571 555 556 579 588 
516 624 590 557 598 573 592 487 591 
574 558 547 557 559 598 559 557 575 
559 593 575 491 558 625 536 599 560 
627 536 543 600 561 505 561 576 545 
545 576 562 549 538 562 562 681 549 
527 684 563 482 684 577 565 577 566 
569 567 553 570 568 578 592 574 487 
559 575 598 593 560 599 543 544 627 
544 548 627 580 627 550 550 627 548 
527 594 684 550 564 580 580 564 581 
565 482 577 565 577 566 583 584 581 
567 583 581 567 569 583 568 552 578 
583 569 584 584 570 578 569 570 584 
584 578 585 586 572 555 555 587 586 
571 587 555 571 596 587 588 596 556 
556 596 571 622 515 572 597 515 622 
574 592 558 598 575 593 599 536 626 
600 601 561 561 601 576 576 603 562 
562 603 681 604 551 643 581 584 628 
552 604 595 595 578 552 585 578 595 
619 572 586 579 623 588 593 611 598 
625 558 637 601 602 576 576 602 603 
551 582 643 585 595 606 595 604 606 
585 606 584 584 606 605 586 587 607 
587 596 607 608 620 586 607 608 586 
619 622 572 590 648 591 610 573 598 
636 592 591 636 558 592 666 526 625 
526 666 600 627 626 536 601 612 602 
602 612 603 603 613 681 628 605 629 
628 584 605 606 604 614 586 620 619 
608 607 596 588 633 596 623 633 588 
589 597 624 609 615 623 609 623 579 
579 616 609 591 648 675 610 598 635 
593 599 611 664 611 599 600 617 601 
601 617 612 613 603 612 613 612 639 
639 612 617 627 580 640 604 644 618 
614 629 605 605 606 614 620 608 621 
608 596 621 615 609 623 609 616 615 
610 634 616 648 590 624 558 636 637 
611 693 598 666 617 600 613 639 681 
580 581 640 594 667 684 641 581 628 
658 582 577 582 566 577 644 604 643 
614 604 630 604 618 630 630 629 614 
661 622 619 622 661 647 621 632 631 
633 632 621 633 621 596 647 597 622 
647 624 597 616 623 615 675 636 591 
664 599 626 651 639 617 642 641 628 
582 658 643 629 642 628 630 618 645 
620 621 632 632 646 620 616 691 623 
610 635 634 598 693 635 636 649 637 
664 693 611 637 655 625 626 627 638 
654 653 642 645 653 654 642 629 645 
654 642 645 629 630 645 644 643 660 
644 660 670 619 620 661 620 646 661 
623 662 632 623 632 633 624 647 673 
616 634 707 624 674 648 635 676 634 
636 637 649 655 677 625 665 664 626 
626 638 665 638 650 665 650 638 656 
665 650 656 638 627 656 679 656 627 
617 666 651 651 666 696 651 652 639 
639 652 681 640 581 657 581 641 657 
657 641 682 641 642 682 642 653 682 
577 684 731 577 731 658 653 645 659 
643 658 685 643 685 660 618 644 669 
644 670 669 669 659 618 645 618 659 
662 646 632 690 673 647 691 616 707 
694 655 637 625 677 666 651 680 652 
651 696 680 652 680 681 627 640 679 
704 679 640 657 704 640 682 653 668 
668 669 683 668 659 669 653 659 668 
671 647 672 672 647 661 671 690 647 
706 661 646 662 706 646 623 691 662 
675 648 674 676 699 707 676 707 634 
663 692 676 635 663 676 635 693 663 
637 636 694 678 664 665 679 678 665 
656 679 665 668 683 682 660 685 687 
670 660 686 660 687 686 686 669 670 
661 689 672 706 689 661 673 714 624 
693 701 663 693 664 708 702 655 694 
702 677 655 677 758 666 678 695 664 
695 709 664 679 695 678 682 711 657 
669 686 683 687 698 686 697 698 687 
672 689 671 671 689 688 688 690 671 
690 713 673 662 691 706 624 714 674 
676 692 699 675 700 636 723 694 636 
664 726 708 742 715 679 704 742 679 
704 657 711 683 686 698 658 731 705 
697 687 685 722 691 707 721 714 673 
674 714 675 699 692 754 636 700 723 
663 701 692 708 701 693 664 709 726 
702 771 677 771 758 677 695 679 715 
666 710 696 696 710 680 710 703 680 
681 680 728 680 703 728 681 728 716 
667 681 716 682 761 711 761 683 698 
682 683 761 685 658 712 658 705 712 
685 712 697 688 713 690 706 720 689 
721 673 739 722 768 706 691 722 706 
675 753 700 699 754 707 701 724 692 
701 708 725 758 743 666 710 666 743 
703 710 743 728 703 743 667 858 841 
711 744 704 737 698 697 705 731 717 
712 705 718 705 717 718 737 697 718 
718 697 712 713 688 719 688 689 719 
719 689 720 721 752 714 714 753 675 
700 753 723 692 724 754 726 725 708 
709 695 732 726 709 732 744 742 704 
698 729 761 717 731 747 713 719 673 
754 741 707 724 701 725 726 755 725 
695 715 732 715 727 732 732 715 742 
743 733 728 716 728 760 760 667 716 
734 667 760 711 745 744 711 761 745 
730 684 781 730 731 684 735 729 736 
729 737 736 729 698 737 731 730 738 
718 717 736 717 747 736 737 718 736 
673 719 739 740 739 719 719 720 750 
784 753 714 753 837 723 702 694 723 
732 755 726 728 733 760 667 734 858 
744 745 776 761 735 746 761 729 735 
748 746 747 746 735 736 730 781 738 
731 738 747 746 736 747 740 719 750 
739 740 749 739 749 721 749 751 721 
751 752 721 706 766 720 768 766 706 
752 767 714 767 784 714 722 707 770 
707 741 786 754 724 725 755 792 725 
755 732 756 732 757 756 758 774 743 
743 774 733 742 776 759 742 744 776 
667 860 842 761 789 745 667 842 843 
684 667 814 684 814 799 748 762 746 
748 747 762 738 781 763 738 763 747 
752 751 749 740 764 749 764 740 750 
765 752 749 750 766 764 720 766 750 
722 770 768 837 753 769 770 707 790 
707 786 790 771 772 758 757 732 773 
732 742 759 773 732 759 774 775 733 
733 775 760 776 745 789 761 746 777 
777 746 762 684 816 779 778 762 763 
762 780 763 762 747 780 684 779 781 
747 763 780 749 764 765 782 749 765 
765 783 752 784 769 753 768 770 826 
769 785 837 786 741 754 791 754 792 
754 725 792 771 829 772 758 772 829 
755 756 792 787 792 756 756 757 787 
829 774 758 774 788 775 789 794 759 
776 789 759 858 734 760 789 761 797 
797 761 777 777 762 778 816 684 799 
778 763 781 752 783 767 767 783 784 
766 819 764 802 819 766 785 769 784 
766 768 804 804 768 826 826 770 790 
786 754 805 702 723 828 828 771 702 
771 852 829 792 787 809 787 757 809 
757 773 809 809 773 793 773 759 793 
793 759 794 760 775 796 775 788 796 
901 841 858 667 841 860 814 667 843 
798 781 800 778 781 798 781 779 800 
783 765 819 765 764 819 783 819 784 
819 801 784 784 803 785 784 801 803 
804 802 766 785 822 837 837 828 723 
790 786 805 754 807 805 806 771 828 
754 791 807 806 852 771 791 792 808 
808 792 809 793 808 809 774 795 788 
788 795 811 796 788 811 789 810 794 
796 811 857 760 796 857 858 760 857 
810 789 797 777 778 812 812 798 813 
812 778 798 844 799 814 813 817 815 
813 800 817 798 800 813 779 816 817 
816 818 817 800 779 817 802 835 819 
821 835 802 821 802 804 803 820 785 
804 826 824 804 824 823 824 826 825 
790 805 827 806 828 871 805 807 851 
871 852 806 807 791 830 830 791 808 
808 793 839 839 793 831 793 794 831 
831 794 810 840 795 774 795 840 811 
810 777 832 810 797 777 832 777 812 
813 833 812 813 815 833 816 799 846 
818 816 834 801 820 803 801 819 820 
820 819 847 847 819 835 785 820 822 
804 823 821 821 836 867 823 836 821 
823 824 825 825 826 824 826 790 827 
828 838 871 827 805 851 807 830 851 
808 839 830 831 854 839 831 810 854 
810 832 854 811 877 857 814 863 844 
799 844 846 845 833 834 833 815 834 
834 816 846 817 818 834 815 817 834 
835 821 848 848 821 867 885 847 835 
848 885 835 867 836 823 867 823 869 
823 825 869 837 868 828 825 826 849 
868 850 828 828 850 889 870 849 826 
826 827 870 828 889 838 873 851 853 
851 830 853 830 839 853 839 875 853 
839 854 875 774 896 840 811 840 877 
854 832 855 859 855 812 832 812 855 
860 841 879 860 879 880 812 833 859 
861 859 833 861 833 862 814 843 863 
833 845 862 834 846 864 834 864 862 
845 834 862 822 865 837 822 886 865 
820 886 822 866 915 848 867 866 848 
868 837 865 825 849 869 869 849 870 
827 851 870 892 870 851 852 894 829 
894 872 829 873 892 851 829 872 774 
872 895 774 853 892 873 853 875 892 
875 874 892 875 854 874 854 855 874 
896 856 840 840 856 877 876 859 878 
876 855 859 878 859 904 880 879 860 
842 860 881 859 861 904 843 842 908 
842 881 908 861 862 904 862 864 904 
844 863 882 882 883 844 844 883 846 
883 864 846 884 847 885 820 847 884 
848 915 885 913 886 820 884 913 820 
886 868 865 887 866 867 868 888 850 
869 870 867 870 892 867 890 871 838 
871 891 852 893 852 891 852 893 894 
895 938 774 938 957 774 774 957 896 
874 855 876 896 897 856 856 897 899 
856 899 877 877 899 857 858 857 942 
898 878 900 876 878 898 858 942 901 
841 901 902 903 841 902 879 841 903 
878 904 900 879 903 880 860 880 905 
860 905 906 881 860 907 860 906 907 
907 908 881 908 910 843 863 843 911 
843 910 911 883 909 904 904 864 883 
911 912 863 863 912 882 882 912 883 
868 886 888 888 886 913 885 914 884 
915 914 885 866 887 915 850 888 889 
887 892 915 867 892 887 892 918 915 
889 890 838 889 917 890 871 890 891 
916 915 918 894 920 872 920 894 919 
876 921 874 896 922 897 921 876 898 
899 897 922 899 924 857 898 900 925 
903 927 905 904 926 900 928 926 904 
903 905 880 906 905 907 912 928 904 
908 929 911 908 911 910 909 912 904 
912 909 883 913 932 888 888 932 931 
884 932 913 914 916 884 914 915 916 
889 888 931 931 933 889 884 916 932 
916 950 932 890 917 933 934 890 933 
917 889 933 890 935 891 890 934 935 
935 934 936 933 936 934 891 935 893 
935 937 894 893 935 894 918 955 916 
937 919 894 872 920 895 920 938 895 
892 956 918 892 874 956 874 921 939 
956 874 939 921 923 939 898 923 921 
922 940 941 922 941 899 941 924 899 
898 925 923 857 924 942 900 945 925 
943 901 942 902 901 943 903 902 943 
927 903 943 964 947 946 945 900 926 
905 927 907 907 927 946 947 948 946 
948 907 946 908 907 948 908 948 929 
929 948 947 911 929 930 928 912 949 
912 911 949 911 930 949 931 932 950 
936 933 951 931 951 933 950 951 931 
935 936 951 951 937 935 937 952 919 
952 920 919 951 952 937 982 951 950 
916 982 950 953 920 952 953 954 920 
920 954 938 956 955 918 938 954 957 
957 984 896 986 958 960 956 939 961 
939 962 961 896 984 922 984 940 922 
958 964 960 964 963 960 939 965 962 
939 923 965 956 964 958 942 990 966 
941 940 924 966 968 969 967 965 925 
965 923 925 969 942 966 943 942 969 
970 943 969 944 943 970 943 970 927 
946 970 963 964 946 963 946 927 970 
925 945 971 964 972 947 964 971 972 
945 972 971 945 926 972 972 973 947 
974 973 972 947 973 929 926 928 972 
928 974 972 928 973 974 930 929 973 
928 930 973 928 949 930 953 952 975 
954 953 975 975 952 976 951 975 952 
976 954 975 951 977 975 977 976 975 
916 955 982 979 954 978 977 980 976 
951 980 977 982 980 951 979 957 954 
979 981 957 983 981 979 982 959 980 
955 992 982 986 992 955 958 986 955 
958 955 956 984 957 981 985 980 959 
988 980 985 982 985 959 961 967 956 
961 962 967 962 965 967 963 986 960 
964 956 967 940 989 991 988 942 989 
942 988 990 970 968 992 924 940 991 
989 924 991 942 924 989 968 966 990 
968 992 969 968 990 992 968 970 969 
986 970 992 963 970 986 967 925 971 
964 967 971 978 954 976 978 976 979 
983 979 976 976 980 983 981 993 984 
993 981 983 988 983 980 993 983 988 
984 987 940 993 987 984 989 993 988 
990 988 985 990 985 982 990 982 992 
993 989 987 989 940 987 
