# vtk DataFile Version 5.1
vtk output
ASCII
DATASET POLYDATA
POINTS 1157 float
64.0715 44.5114 1.004 64.4753 46.4504 1.31977 66.7002 45.1713 0.811433 
66.6543 47.1398 0.828903 69.8535 46.8641 0.746528 66.8333 48.4314 1.21722 
69.7785 48.7905 0.796994 72.4508 48.7773 0.871897 72.704 47.2033 1.18295 
62.1111 42.6678 1.82994 64.5799 43.6697 1.19149 62.0655 43.9132 2.10559 
62.6528 45.2882 2.35687 74.91 45.1229 2.17158 75.0587 46.5026 1.88056 
66.4466 49.4725 2.65145 74.8188 48.7779 1.76198 69.8655 50.5372 1.66213 
73.0796 50.8611 1.75106 75.5624 50.698 2.64327 55.9731 38.5538 3.15491 
57.3518 38.318 2.83252 58.199 40.5723 2.80689 56.1914 39.6749 3.42069 
60.1394 40.5909 2.23971 75.9054 40.918 3.34414 76.2131 42.5984 3.04861 
63.4289 46.9514 2.85158 76.0569 47.2389 2.35644 64.3469 48.168 3.30467 
67.5991 50.5188 3.04398 67.9293 50.1074 2.18976 69.9197 51.5109 2.63092 
70.6342 52.2136 3.18036 72.9736 52.8335 3.2318 52.0041 36.2568 4.87099 
54.1815 36.1048 3.8995 57.8883 36.9205 3.27433 66.999 36.2893 3.85909 
54.32 38.5463 4.04252 72.7487 38.7697 3.52922 78.6287 39.0664 4.55987 
55.8193 40.717 4.32957 78.4874 40.7919 4.16028 78.9772 42.7475 4.36897 
77.7824 44.5365 3.62238 60.7134 45.2296 4.42454 78.5485 46.6286 4.37615 
78.1988 48.3335 4.46587 76.7236 51.0796 3.96274 69.7632 52.4059 4.25207 
75.7696 53.1365 4.39385 73.1693 54.251 4.95036 52.3128 34.906 4.95764 
49.9344 36.229 6.14968 51.7649 36.9294 5.26206 78.3698 36.9179 5.07778 
61.5385 46.507 5.00872 63.9884 48.7681 5.92903 77.823 51.0699 5.203 
75.6457 54.0889 5.32172 75.7907 55.2739 6.61589 52.3431 32.5455 6.23608 
49.5858 34.6294 5.78153 47.7359 34.3161 6.53899 81.0461 36.3659 6.45631 
52.3025 38.6284 6.08262 79.7135 38.7521 5.26802 80.8831 40.2299 6.05838 
55.6036 42.5756 6.52395 80.961 44.6048 6.57024 66.0958 50.1228 5.91519 
70.0765 52.9082 5.79438 52.299 30.3541 7.5316 52.1526 31.8865 6.66967 
46.0168 32.7478 7.23068 47.7559 33.1453 6.70786 46.5145 34.5495 7.36623 
55.1171 42.8703 7.54407 58.0201 45.0324 7.67949 58.8584 45.7068 7.87854 
73.2198 55.3851 7.72723 77.6958 54.037 6.99916 75.8625 55.7604 7.51089 
55.2948 28.5169 7.91649 61.1282 26.6616 8.26607 72.797 28.387 7.68331 
81.9093 30.6682 8.02273 83.5391 32.4618 8.25947 83.3921 36.0662 8.12641 
75.1298 55.9812 7.81708 76.0924 56.6427 9.71113 75.7495 26.2354 9.01423 
78.6312 26.4002 9.34117 82.0251 28.3701 8.88403 83.9269 28.4318 9.66021 
45.4138 30.8684 8.56334 43.5185 30.4688 9.4548 43.5262 32.3207 8.97322 
44.1922 33.9634 8.92709 60.9488 46.9491 9.04132 73.0083 55.4025 8.93532 
78.2316 55.2913 8.9818 78.6732 24.1732 10.549 78.5169 24.8109 10.1813 
84.7644 26.3857 10.6942 41.1803 30.2954 10.8963 41.9369 30.243 10.122 
85.4907 30.4608 10.2964 43.3171 34.718 10.5406 44.0365 36.077 11.1685 
85.3111 36.7065 10.0259 46.7306 38.2771 10.9121 64.4811 48.6902 10.7177 
82.4336 49.1405 10.0725 72.975 55.5117 10.5021 75.5461 56.8138 10.2955 
78.3837 56.7291 11.0098 72.7977 22.2346 10.7462 43.1298 28.4449 10.9457 
52.3078 22.1923 12.2097 84.4746 22.3331 12.4416 84.9895 24.1408 11.6765 
86.2468 24.1736 12.4523 86.5291 26.0476 12.223 36.1367 27.0198 12.9501 
38.4328 28.2882 12.4864 39.6575 28.441 12.1945 40.2382 30.6648 11.735 
41.2134 34.1433 12.7507 87.3993 34.5133 12.2853 46.4245 38.5377 12.1129 
49.3668 40.3821 11.9493 66.3063 49.7772 12.3011 83.8558 50.659 12.7189 
74.0802 56.3856 11.9956 76.3022 57.6809 12.7282 61.0773 17.9205 13.4706 
52.2371 19.9714 13.4547 52.4871 20.6019 13.0324 87.0498 22.2262 13.9683 
35.5659 26.7405 13.5424 36.2921 26.931 12.9858 37.0929 28.9416 13.343 
43.3141 36.6554 13.5346 84.4659 50.8933 13.8262 83.7948 52.7146 13.8158 
82.489 55.1443 13.5477 81.2792 57.1672 13.7522 79.0243 58.9796 14.147 
85.001 20.3422 13.7949 86.5407 20.3467 14.4572 35.7277 27.8555 13.6997 
36.7626 26.8007 13.2443 76.8368 58.1219 13.6751 80.8193 57.8723 13.959 
58.1358 15.847 14.9917 55.2312 16.0145 15.2523 84.7616 18.1284 15.1087 
87.2877 19.9772 15.0724 86.7801 18.2217 15.6273 87.9694 22.0808 14.9245 
40.2299 24.0223 14.6067 32.198 24.9836 15.8666 32.0451 25.7192 15.5465 
34.5889 28.1258 14.7502 38.3977 33.7828 15.9191 89.823 36.5642 15.7369 
43.1926 36.8268 14.9889 52.6348 42.1395 15.3519 54.8189 43.4213 15.335 
55.7112 43.962 15.3528 57.9244 45.2162 15.342 87.1459 47.1004 15.4891 
73.568 56.1 15.3429 79.204 59.9778 15.9462 81.2875 59.3001 15.7732 
87.72 17.4732 16.6656 34.4268 24.6141 15.3809 31.9676 24.9715 15.9783 
31.5016 25.8624 16.1317 37.9049 33.9421 16.8731 90.4821 34.8815 16.6704 
64.7851 48.8079 16.9543 78.6424 59.9341 16.4738 81.8738 59.6211 16.8679 
69.8757 11.9546 16.8488 49.3316 15.9199 16.6477 35.2431 32.013 17.3136 
88.4138 46.6287 17.0035 87.8652 48.2656 17.136 79.6742 60.4057 17.0793 
80.6185 60.3448 17.1822 72.8079 9.88262 18.3543 81.6599 13.6312 17.7537 
87.4004 13.9867 18.3663 86.4118 14.2629 17.912 88.3647 15.9186 18.0525 
37.5506 19.9073 18.0101 34.8351 20.319 18.6356 31.3829 22.4515 18.2281 
30.6324 23.8069 17.7899 32.3847 22.7126 17.5968 30.2349 24.9104 17.8229 
30.6489 26.3418 17.6585 32.3718 30.559 19.1709 90.8413 30.4032 18.1224 
34.8323 32.4552 18.5184 37.6543 34.2606 18.1466 89.2831 46.8142 18.7304 
61.0509 46.8954 18.4243 64.4822 48.7623 18.5462 82.4172 59.6917 18.0487 
79.3835 60.6111 18.1992 81.3579 61.1205 18.9401 72.7364 8.42862 19.2719 
72.8005 7.41615 19.9728 89.3519 16.1517 18.9892 37.8382 18.3755 18.8453 
30.0279 22.889 18.6526 28.5507 24.2901 19.2445 31.7717 30.5431 19.9468 
63.3196 48.1048 18.3627 79.4112 60.8072 19.8527 81.3529 61.066 18.6446 
78.4953 7.48516 20.4529 52.3298 9.95462 20.01 88.3764 13.6683 19.2652 
89.4072 14.163 20.0591 92.46 24.3825 20.5879 92.3555 30.4449 20.5329 
91.5448 30.3851 19.2228 92.309 38.6769 20.3746 90.2943 44.7839 20.0621 
89.7935 46.7125 20.2024 87.7299 51.0173 20.0902 61.0683 5.14328 21.1916 
64.1342 5.24962 21.1939 67.0194 5.25934 21.5405 75.7311 6.10232 21.4201 
58.1865 5.35435 21.3865 78.6188 6.10247 21.7328 81.6176 7.27295 21.1901 
87.9788 9.90382 21.4381 89.3449 11.9433 21.3122 92.3185 20.4396 21.6202 
26.3732 22.4707 21.3861 28.8697 28.8315 21.6853 31.3119 30.8124 21.0221 
43.0912 37.39 21.3775 90.2392 46.3533 21.3049 79.2418 60.7703 21.4514 
83.3438 60.6788 21.875 61.0638 3.82248 22.8551 63.4982 3.90657 23.0153 
63.3029 4.41881 21.9686 66.8368 4.65832 22.7508 67.0399 4.86292 22.3031 
70.4523 5.01106 22.7673 55.4181 5.26825 21.8886 84.2611 5.6902 23.1757 
92.4998 18.2792 23.0541 93.5473 22.389 22.8623 29.1405 30.1772 23.216 
31.1411 31.2094 22.5426 32.4313 31.8131 21.8947 84.6511 59.1778 23.0105 
52.3661 3.75419 23.4365 86.9334 6.30312 23.4376 46.6147 6.1223 23.5808 
87.9179 7.07736 23.2367 35.0053 12.3564 23.6509 32.1335 14.4135 23.651 
91.9285 15.9778 23.0716 25.7114 20.4126 22.5844 24.1245 20.8279 23.2675 
23.4268 22.1716 23.5111 25.4212 24.2226 22.275 93.1325 40.7265 22.9691 
81.7609 62.2828 23.9286 52.5015 3.15993 24.2055 49.4042 3.56194 24.5714 
54.9951 3.4042 24.1136 49.6105 4.24573 23.8195 61.1594 3.47645 24.2809 
69.7748 4.63729 24.2885 69.8193 4.72957 23.7489 84.7806 5.16557 24.2185 
72.9316 5.07867 24.3368 78.6839 5.42043 24.1897 88.2211 5.96161 24.9356 
88.7491 7.00469 24.1846 89.1205 7.1849 24.6565 90.2669 9.89907 24.5154 
34.2254 13.2831 23.3914 22.4598 20.153 24.6426 22.301 21.959 24.3894 
22.9976 24.1673 24.3051 23.6967 26.4883 24.7633 25.2777 26.9105 23.7247 
25.8373 28.3071 24.4058 28.6967 30.2579 24.2197 94.3544 36.8475 24.3091 
93.2213 42.5777 24.63 92.5173 44.3804 24.8937 57.8179 45.4486 24.5133 
90.1615 48.7645 24.6509 76.4705 58.2091 24.6178 79.536 61.0662 24.4475 
81.6629 62.3839 24.3665 46.391 3.81094 25.8919 41.0267 5.69257 25.3375 
23.398 18.6062 25.1709 21.8263 22.2975 25.1639 35.2661 33.5458 24.6891 
40.3628 5.06618 25.8885 41.3471 3.90132 26.5022 87.7216 5.56093 26.5201 
89.239 6.54714 26.4419 90.0523 7.52512 26.6672 25.9348 15.852 26.0414 
21.0131 21.6874 26.0239 83.8852 61.4863 26.1092 82.1399 62.7741 26.7833 
41.3837 3.26584 27.2505 43.3554 3.28402 27.5034 37.7575 4.13124 27.7423 
78.7826 5.44156 27.5599 88.0366 5.68964 27.4793 34.7397 5.2686 27.682 
90.3751 7.84372 27.6676 19.965 18.4747 27.3792 95.5583 24.3732 27.8932 
22.2875 26.6343 27.1345 23.4091 27.9866 27.8657 95.9564 27.771 27.517 
25.3306 28.946 27.1655 95.2289 38.4113 27.913 93.9698 42.9284 27.4982 
82.0924 62.9443 27.2631 34.7567 3.93943 29.158 34.96 4.58662 28.2189 
32.003 6.03927 28.1944 90.4995 7.44333 29.1783 17.7743 19.0048 28.4643 
17.1205 18.6229 29.153 18.1174 19.8177 28.0284 95.9921 30.3912 27.8755 
49.3854 2.8696 29.0975 31.7759 4.38156 29.6084 40.6345 2.96542 29.149 
55.2778 3.0384 29.1229 29.3495 5.61034 29.7582 89.3181 6.26527 29.017 
16.8842 19.9047 28.9123 20.4259 26.4024 29.5175 22.8509 27.9417 28.8898 
26.3547 29.7342 29.3135 45.9198 39.7545 29.1267 92.8532 46.5964 29.3217 
89.6607 52.5531 29.3866 31.7163 3.91486 30.4751 29.5301 4.44328 30.8524 
34.6825 3.40772 30.5063 78.7369 5.22621 30.6796 91.0371 7.64853 30.6307 
15.0363 18.2786 31.008 14.8142 19.826 30.9451 17.1775 24.4531 30.8163 
19.8315 26.4545 30.3153 81.8464 63.3741 30.6785 83.6275 62.9957 30.7053 
31.7024 3.56449 31.8358 69.8335 4.21164 30.8073 28.6156 5.50732 30.2956 
29.3024 4.06324 31.8321 20.2028 14.1021 30.8517 20.229 11.9008 32.4375 
16.6535 15.5505 31.8731 14.3183 16.678 32.0459 13.7982 18.2408 31.7583 
12.0581 17.6254 32.8696 14.4778 22.3258 32.1363 14.8365 23.7304 32.7047 
17.4535 25.9196 32.4538 96.0795 38.5866 32.3141 49.0472 41.4006 32.2247 
95.1468 42.3654 32.4424 94.0861 45.0965 32.1973 72.4241 55.5154 32.2644 
82.0572 63.75 32.1182 83.9142 63.402 32.2676 23.4282 5.66699 33.7216 
90.2168 5.93909 33.856 17.0917 12.3456 33.9736 11.2255 16.4393 33.1787 
11.6956 16.1991 33.0636 11.1019 17.9266 33.6966 14.6256 24.6598 34.0431 
16.8948 25.9348 33.3301 28.9454 32.4084 33.8518 97.3238 31.9522 33.9242 
96.9924 34.6224 33.7346 46.5347 40.505 33.8566 94.7836 43.292 32.1094 
95.306 42.4147 33.9309 81.7866 63.8803 33.6918 83.9021 63.8882 33.7678 
20.3598 7.60417 34.4926 11.7682 14.4782 33.9255 14.545 14.0618 33.6924 
23.2195 28.9026 34.0539 40.62 1.878 35.3961 61.0447 2.48386 35.4465 
23.1277 5.21783 34.9927 26.0617 4.41483 35.2441 20.4167 6.2849 35.6805 
90.2596 5.77447 35.391 19.852 7.3572 34.9574 91.486 7.19043 35.1445 
11.8505 12.0923 35.4781 14.6495 10.8653 35.5775 10.8239 13.5975 35.063 
14.8996 12.4618 34.6666 11.0634 20.3245 35.1502 96.1703 20.1794 35.3789 
13.8699 24.454 34.9633 97.1485 26.1875 35.2586 22.9529 28.9885 35.3747 
81.6553 64.0411 35.1637 84.2888 63.8794 35.2801 82.6444 64.5494 35.5928 
34.5987 2.89754 35.2948 23.5521 4.93333 35.2182 17.8896 6.46482 37.0657 
92.2112 7.70502 37.099 93.064 10.0075 36.9552 93.7008 11.8166 36.8389 
94.4002 13.6225 36.7754 9.70168 14.7238 35.7763 9.19674 15.7766 36.0667 
11.1065 22.4975 36.7928 87.6257 59.2148 36.869 82.3547 64.9725 37.4977 
83.5482 64.479 36.0057 34.5453 2.73507 36.7831 90.5817 5.81486 36.8733 
16.6404 7.33629 36.7417 14.9547 8.01655 37.1384 9.4437 14.222 36.8064 
8.97495 18.2858 37.0116 70.3162 54.3841 36.9909 83.5953 64.7607 37.1374 
46.4741 1.47905 38.4386 52.3175 1.50054 38.4359 55.0655 1.51205 38.5292 
66.8326 2.70182 38.5235 90.5443 5.71306 38.4278 14.061 7.67647 38.6629 
92.2471 7.24401 38.555 11.8733 9.58228 38.3811 8.44335 16.1344 38.0818 
8.65553 20.1329 38.4822 20.1742 28.2415 38.4712 46.2485 41.1391 38.3632 
69.3133 53.8842 38.3505 86.9871 60.8783 38.5274 80.6738 63.7763 38.3124 
82.436 64.9606 37.0985 28.75 3.48713 39.5908 91.9414 6.79613 38.6662 
14.2107 7.36997 40.0176 92.5443 7.537 40.1665 8.37003 14.0422 40.303 
96.0839 17.927 39.9362 8.75503 22.05 40.3603 10.0977 23.0844 39.2863 
11.0707 24.1002 39.8676 97.1966 36.5063 39.871 40.4943 38.918 39.9415 
93.2772 48.8561 39.9969 87.1113 60.9556 40.0223 81.9464 64.9248 40.0515 
35.0535 1.99287 40.3602 49.3949 1.44386 39.9878 52.3162 1.40865 39.986 
72.8385 3.48866 39.9878 78.6037 4.31371 40.011 91.9215 6.6241 40.0363 
7.59077 17.8267 39.9417 97.2242 24.1023 39.9572 17.6733 27.656 40.6041 
25.7798 32.5552 39.9034 94.0183 47.1123 39.9811 83.8978 65.0508 40.043 
58.1754 1.70423 41.5379 66.8561 2.58308 41.5505 17.2627 6.14913 41.636 
7.41242 20.1829 41.631 20.7607 29.5425 41.4601 23.6194 31.8142 41.84 
97.4826 34.5367 41.4451 96.2165 40.6642 41.5378 63.8286 51.2831 41.4925 
64.6525 51.7202 41.6816 66.979 52.9004 41.5445 90.3938 55.0237 41.5359 
85.3791 63.6721 41.5276 83.8012 65.0945 41.5443 75.7075 3.90884 43.0735 
87.4946 5.19723 43.0929 95.1078 14.3731 43.088 6.56714 16.1093 41.903 
6.07585 17.8811 42.8289 96.845 22.1014 43.1077 92.745 7.6145 43.088 
94.2199 11.6653 43.0505 5.78485 13.8518 43.3945 6.68981 14.9233 42.1113 
5.2251 16.0568 43.1719 97.651 30.4194 43.1279 84.0548 65.031 43.4218 
31.8345 1.68926 44.6135 92.7307 7.42742 44.6371 8.70433 10.1283 44.398 
7.48857 11.17 44.5283 3.60206 14.3906 44.7317 3.33775 14.4546 44.8481 
3.41784 15.7839 44.6106 4.58139 16.8104 43.96 4.49857 17.4648 44.5032 
97.071 24.137 44.7084 97.3339 26.2028 44.7188 20.6028 31.6478 45.0843 
69.7633 55.1569 44.5874 72.5392 57.3624 44.5572 3.10144 14.3009 46.0396 
2.92964 15.692 45.7334 17.3915 30.6129 46.5242 70.7319 55.9594 44.8479 
84.1428 65.1358 44.9621 82.1445 65.9523 46.1253 17.518 4.78409 46.497 
90.7194 5.6876 46.1532 91.9569 6.40522 46.1688 6.08973 11.8755 46.2499 
4.50399 12.9378 46.3336 3.53376 17.6932 46.4996 96.2116 20.1711 46.1605 
6.28602 21.5407 46.6322 8.80564 23.7748 45.9449 14.2488 28.4265 46.1312 
93.1291 48.7951 46.1478 37.6444 0.762729 47.6398 17.351 4.36279 47.8564 
14.5899 5.74437 47.6131 92.9005 7.67456 47.669 2.94194 16.0049 47.4221 
3.11096 17.9511 47.8707 4.56651 20.1922 47.3885 3.64719 19.6116 48.2428 
11.7638 27.6586 47.9287 12.0796 27.2906 46.6845 95.2524 42.454 47.5887 
69.4368 55.6369 47.5303 89.5114 56.5931 47.6275 75.8296 61.0295 47.7236 
81.8714 65.9467 47.7523 83.8382 65.6824 47.6579 66.8628 2.7531 47.6123 
16.4147 4.95423 47.1288 9.00314 9.92069 49.4468 3.14734 14.4711 47.0228 
3.28936 16.3202 48.9714 2.90612 18.5704 49.4537 85.3779 63.714 47.7649 
34.6789 1.08436 49.2681 38.1715 0.71372 49.4592 52.3305 1.46876 49.2515 
17.0615 4.0703 49.2782 14.3807 5.31008 49.1851 93.9747 11.8087 49.3461 
4.81596 13.4415 49.4538 40.4643 41.2068 49.3626 41.1332 41.4872 49.4755 
46.1156 43.5564 49.1189 94.1554 45.0465 49.4011 75.6984 61.1835 49.2358 
76.6689 61.9943 49.4211 78.4879 63.3979 49.2101 81.9606 66.0797 49.2859 
37.6908 0.822638 50.9077 28.9666 1.62365 50.8041 23.2503 2.69957 50.9011 
92.5816 7.45309 50.6395 11.1688 7.75936 50.5502 8.11247 10.3014 50.8182 
5.8752 12.3368 50.7657 3.27784 18.1829 50.7485 2.8107 20.2961 50.7097 
95.6558 20.266 50.6938 17.4996 31.9094 50.9194 96.1483 36.6357 50.8533 
37.7782 40.4484 50.8206 40.3511 41.4009 50.6908 78.3537 63.5461 50.7137 
81.6839 66.1119 50.7533 92.5294 7.6583 52.181 5.40284 13.7745 51.8618 
40.6632 1.06989 52.3847 29.0518 1.54235 52.3521 49.4007 1.53772 52.3361 
55.2102 2.00423 52.2916 20.0181 3.01314 52.2299 90.4171 5.63509 52.3297 
91.9236 6.66371 52.2465 9.13073 8.60219 52.6771 6.85843 10.5959 52.4057 
5.84148 12.2057 52.4638 3.47794 18.9545 52.2217 95.0434 18.3546 52.0819 
2.71391 20.2661 52.2796 2.54171 21.902 52.7625 6.35376 26.012 52.9147 
14.318 30.607 52.579 23.0155 34.6579 52.5838 31.9435 38.3133 52.3008 
46.0498 43.7318 52.3508 49.1544 44.9923 52.3893 52.3302 46.7687 52.4295 
50.3481 45.6528 51.9844 57.6146 49.8166 52.6238 89.7291 55.1194 52.3035 
83.8721 65.3485 52.2075 81.6905 66.3533 52.2633 28.7926 1.51055 53.8358 
14.4143 4.21183 53.9142 11.2961 5.87022 54.2224 81.6077 5.44557 53.8874 
90.6282 5.78894 53.8967 5.62396 11.4201 53.8464 5.74508 13.8694 53.4246 
5.4827 16.043 53.83 4.78242 17.9711 54.1472 2.52881 20.5304 53.6147 
96.0071 26.3449 53.8201 20.4036 33.8118 54.1777 26.1681 36.1667 53.7013 
28.9019 37.2187 53.8345 35.1531 39.3543 53.948 43.7271 42.3484 53.8517 
48.9234 44.4652 53.9974 55.3 48.5672 54.0186 60.6783 51.663 54.0547 
67.5603 56.1255 53.9821 79.5231 65.4402 54.0866 83.5874 65.3762 53.6681 
82.0923 66.257 52.282 49.3977 1.67276 53.8705 75.6154 4.70742 53.7644 
3.32858 24.0003 54.036 96.2621 30.4167 53.8725 35.743 39.6697 53.791 
41.3658 41.3217 54.0492 54.3268 47.9356 54.2031 46.4715 1.68899 55.4087 
75.6003 4.87688 55.2786 90.2569 5.78086 55.4015 91.6 6.96919 55.6611 
4.30755 9.46038 55.7546 5.49959 8.48948 55.5742 92.6567 10.0506 55.2913 
5.43117 12.2185 54.8541 5.97793 14.1243 55.7078 5.61812 16.2399 55.5484 
4.71606 18.3438 55.7882 2.15689 20.7321 54.641 1.16962 21.8341 55.6561 
2.69918 24.0336 55.4612 5.52717 26.6158 55.5898 8.47347 28.2998 55.4034 
11.6443 30.0338 55.6506 26.1538 35.9716 55.3063 28.5641 36.7945 55.3984 
31.3153 37.7321 55.0531 34.9473 38.585 55.276 37.898 39.7484 55.0167 
49.3219 43.3195 55.5418 56.4203 48.5014 55.6448 57.3914 49.3255 55.4661 
63.849 53.3887 55.5175 64.776 54.1995 55.1443 67.6046 56.2707 55.2588 
69.3945 57.5715 55.5213 83.6105 64.9972 55.2425 82.1924 66.3227 54.1751 
75.8205 4.92779 55.5217 87.4287 5.8402 56.9435 90.4133 6.07527 57.1252 
5.23505 7.85657 56.9495 4.07698 9.62489 55.9341 5.69532 13.8165 57.339 
1.84599 20.1048 57.4863 4.10062 18.68 56.6363 1.09101 21.9946 56.6343 
94.6919 22.4681 56.479 2.49517 24.1332 56.9564 5.27896 26.6949 56.9643 
11.1503 29.9518 57.2018 29.1353 36.0536 56.8356 52.0242 45.2863 55.3574 
89.8656 53.0977 56.9198 66.896 55.3812 57.0951 79.113 65.6834 57.0968 
17.4192 2.9664 56.9727 69.806 4.68077 56.7632 8.60927 6.19603 57.0445 
4.7007 11.6128 56.7461 5.21423 16.2284 57.3253 4.50559 18.044 57.0236 
58.3416 48.6004 56.7533 65.0442 54.0041 56.4376 67.6604 56.0977 56.9426 
28.9377 1.4596 58.4733 58.2345 3.36729 58.5756 61.0885 3.83037 58.474 
69.9507 4.76926 57.1672 69.9263 5.09449 58.6544 10.7772 4.8334 58.0378 
5.07436 7.80001 58.2292 89.6534 6.2934 58.3812 91.2007 7.47513 58.6926 
3.86202 9.69973 57.6137 3.92746 10.1809 58.4192 4.8392 13.7343 58.531 
2.4613 18.2504 58.8397 4.30544 17.3537 57.8683 1.79225 20.0041 58.65 
1.35162 22.3555 57.4243 3.67215 25.3205 58.2306 8.33655 28.4578 58.6038 
14.0781 30.7047 58.466 20.0649 32.5179 58.3483 26.0406 34.1979 58.1519 
52.48 40.678 58.1958 55.3812 42.6312 58.1648 64.3079 50.9238 58.3448 
65.9793 53.8085 57.8221 89.6505 52.7246 58.2956 69.0914 57.0002 58.6025 
70.7586 58.7603 58.7859 72.9887 60.8382 58.664 79.2066 65.9925 58.5898 
81.5342 66.0801 59.1797 17.4058 2.75317 60.197 14.1964 3.52669 59.8769 
81.5548 6.21008 59.9475 3.92688 10.2406 60.0186 3.99574 11.6609 58.8967 
4.56151 16.0413 58.4093 2.00276 18.3749 59.8689 5.54907 26.675 60.3966 
34.7439 34.7936 58.7961 72.0781 59.6921 60.5509 73.4588 61.1571 60.2441 
81.6739 65.896 60.0257 8.35132 5.59321 60.4003 89.6075 6.64145 59.7166 
91.0152 7.73246 60.1423 3.59533 11.6979 59.8512 2.00074 22.1581 60.1538 
11.0744 29.0752 60.2523 95.0815 32.4469 60.3434 23.1162 32.1665 59.7802 
94.9896 34.2887 59.7493 58.3364 42.5232 59.6867 70.4615 57.4023 60.1956 
70.7484 58.3096 59.8813 31.834 1.57348 61.587 11.08 4.22032 61.6031 
87.352 6.42017 61.5167 90.5583 7.55035 61.7525 3.28646 11.3755 61.3535 
1.95722 14.1214 61.728 1.86763 18.7564 61.3607 3.64281 24.5116 61.4258 
17.2792 30.0306 61.308 23.0425 30.5725 61.6924 22.9233 31.3145 60.7607 
94.2246 34.5267 61.9346 93.009 40.6748 61.5712 86.8313 56.8787 61.413 
73.4583 60.6779 61.3996 76.5894 64.3289 61.4961 78.9302 66.249 62.0748 
81.5053 66.0046 60.3973 90.4501 7.5434 63.1196 1.67664 15.8564 63.3207 
5.84273 25.984 62.937 58.072 38.7646 61.8131 73.1998 59.7099 61.9165 
75.4398 62.9832 62.8144 79.0518 66.2273 63.0506 40.5928 1.81831 63.0805 
17.558 3.00859 63.3674 8.52887 5.54585 63.1428 60.8602 4.98615 62.7572 
81.8675 7.07527 63.3604 87.9468 6.54334 62.8825 5.91439 8.23316 63.0626 
2.52058 12.3291 63.2765 1.80069 13.7179 62.9482 3.31456 22.6017 63.0173 
94.1794 30.3425 63.3302 49.3547 32.5982 63.278 70.0388 48.7506 62.8542 
74.5991 60.8912 63.0436 82.4978 63.6142 63.3075 55.1474 4.35906 64.4759 
11.4239 4.33516 64.6442 8.70849 5.66947 64.4117 7.28721 6.733 63.286 
87.8169 6.72046 64.3197 88.8568 6.75356 63.1722 90.2417 7.46007 65.1232 
88.1219 6.76778 64.8777 3.0252 12.0695 64.5112 1.99024 16.1306 64.6031 
2.36193 17.4779 64.7425 92.2541 22.5405 64.5164 5.33648 24.586 64.7966 
8.01664 26.1598 64.64 93.519 26.2599 65.1616 64.0783 38.5499 64.5308 
67.234 42.4511 64.1182 92.0435 40.6544 64.8387 75.8027 61.3513 64.3642 
82.0795 63.5446 64.8274 76.7968 63.586 64.7171 80.7931 64.9309 64.9887 
77.1358 64.4869 63.9208 78.9418 65.4103 64.8648 37.6882 1.93231 64.5998 
20.0927 3.01194 64.7915 88.1877 7.24077 66.648 3.39384 12.2835 65.8085 
2.12882 13.7102 64.5466 80.4077 64.6455 66.038 61.048 6.09659 66.0892 
89.9642 7.5262 66.0105 5.02605 9.87846 66.7033 3.16125 17.8419 65.9552 
8.48972 25.7273 65.896 60.931 32.7738 66.6522 92.0619 38.377 65.966 
85.641 55.5631 66.6473 76.3727 56.9182 65.5402 83.4261 60.6166 65.8333 
82.5948 61.7027 66.5219 77.1008 63.9098 64.9179 78.7083 63.6524 66.6905 
81.0803 63.686 66.643 79.1971 64.6078 66.4978 13.7371 3.96912 67.9502 
7.87811 7.45638 67.4963 66.9671 7.54794 67.8509 87.9493 7.52576 67.507 
90.5733 9.55064 67.1528 5.23226 9.81866 67.7714 90.6697 11.8989 67.9113 
91.9618 22.9247 67.7452 92.6414 24.3754 67.8624 7.85057 24.5175 67.898 
23.0414 26.7855 66.5807 25.9708 26.8398 66.6647 28.9128 26.8451 66.7109 
40.5952 26.7986 66.7001 46.4722 26.3023 67.71 93.5064 26.433 67.5211 
93.0955 28.2887 67.5299 92.0868 34.3521 67.1252 75.6499 46.8365 67.8246 
77.8409 57.2186 66.9738 78.5771 57.067 67.8002 83.6707 58.7285 67.7575 
79.2754 61.4632 67.7855 81.0754 62.2829 68.3866 80.8258 62.9198 67.7966 
3.73314 17.622 67.0925 91.2912 22.5305 69.9389 83.6515 57.2048 69.2479 
79.6639 63.0352 67.5627 34.7548 3.31729 69.4159 11.5843 5.2777 69.2005 
46.3933 4.25299 69.1339 72.8423 8.31531 69.5849 88.0859 8.25151 69.2152 
84.678 8.69316 69.0393 82.0615 8.76834 68.7451 89.2637 8.89152 69.4033 
89.5932 9.66717 69.6982 90.1974 12.1002 69.3492 90.3181 14.1906 69.6912 
6.30116 22.473 69.2024 11.0231 24.3551 69.1195 92.6636 25.9712 69.1905 
92.3373 28.0724 69.0381 76.6626 48.5707 68.211 88.2781 48.6836 69.0511 
86.4365 52.2824 68.9181 85.0136 53.1037 70.7679 79.6577 59.0959 68.5649 
81.4584 58.9652 69.6071 81.7894 59.3061 69.9689 80.9603 61.1165 68.7736 
40.5561 4.13307 71.1923 14.1448 4.55974 70.6246 43.5101 4.44949 71.0267 
49.4711 5.50216 70.9441 54.9861 6.84723 71.0879 9.04001 7.82175 70.3453 
5.76717 10.1463 70.7347 69.8779 8.68924 70.582 87.0135 8.95648 69.8764 
78.663 9.80942 70.8503 87.7168 9.70428 70.3544 90.3382 16.6234 71.0729 
5.41341 18.1476 70.8488 6.18259 20.7861 70.8792 70.0483 32.2405 70.3658 
89.9425 36.4911 70.6068 89.2088 42.3762 70.2284 87.4232 50.3584 71.4614 
79.559 52.7253 69.912 81.7718 55.5388 70.8759 83.6033 54.9957 70.6917 
23.0683 4.00446 70.7618 7.08753 9.23021 71.129 84.1924 10.4942 70.546 
88.931 10.0085 70.1492 4.91042 11.8293 70.9349 88.189 11.3731 70.8706 
89.336 12.1289 70.5627 89.4713 14.3618 71.1862 4.91248 15.9068 70.8373 
90.1698 24.3721 72.0779 55.1869 24.4571 71.0569 88.8348 42.8469 71.3215 
86.0598 52.0832 70.6355 81.9285 57.4928 70.1905 17.2628 4.59939 72.1264 
55.2821 7.71513 72.5401 60.9629 8.77876 72.1599 72.8763 9.30395 71.3396 
6.21063 10.2277 72.1647 75.6155 10.1492 71.7768 5.20976 11.9235 72.711 
78.4864 10.7298 71.6295 78.6616 11.9462 72.4006 89.4006 16.2599 72.2044 
90.3483 17.9685 72.2136 90.6929 19.6318 72.2724 11.0017 22.5197 72.4423 
55.4075 23.7341 71.6661 55.1833 22.4485 72.6348 76.215 36.2726 71.4204 
88.4827 42.8365 72.346 88.3031 46.8913 72.5131 81.1775 46.889 72.7509 
87.957 49.1487 72.6152 82.0235 51.1003 72.5826 86.9305 50.5207 72.7354 
82.1029 52.9885 72.1447 83.923 52.894 72.0976 85.0768 51.5518 72.9105 
82.5118 54.3197 71.6394 17.1428 4.74969 72.6519 16.737 5.18552 74.2027 
40.6174 5.50154 73.8932 46.3595 6.35931 73.5225 52.2673 8.11489 73.8136 
84.4761 16.2833 73.7771 87.8323 16.6306 73.3239 89.5944 18.4129 73.6577 
8.53637 20.0889 75.8341 23.1295 20.7505 72.8908 8.72637 20.9146 74.6227 
89.1775 26.0582 73.7381 72.9668 28.2988 73.3458 89.4681 29.3854 74.3901 
89.6582 30.2485 74.1668 89.3879 32.1684 73.9868 82.6498 49.0011 73.5095 
49.4806 7.42901 73.8021 58.2574 9.51318 73.855 63.962 10.4398 73.6106 
66.8837 10.583 73.3669 88.2436 17.8644 74.3368 87.8162 19.1409 75.6294 
89.969 19.5951 73.7334 23.0383 19.999 73.736 11.3284 21.8088 73.6318 
89.2952 21.9941 74.3737 72.7443 26.4535 74.1683 78.5993 30.3297 74.1398 
82.0843 42.6571 73.9449 87.269 48.7382 74.0759 84.3544 46.9264 74.5779 
87.1175 49.4364 74.0098 84.438 49.7041 74.0478 84.1088 51.0015 73.4491 
14.3146 5.91078 75.4107 34.7428 5.73351 75.3905 37.6 5.92909 75.173 
6.27383 11.8401 75.2245 81.7338 18.127 76.1017 84.317 18.4457 75.6607 
7.3959 18.9112 75.1302 28.9148 18.0641 75.3756 49.3108 18.8865 74.6817 
8.40045 20.6121 74.9914 10.9324 20.6357 75.6221 72.8604 24.3832 75.281 
72.9612 25.8474 74.5172 88.7627 26.1328 74.3439 87.4504 26.2593 75.4434 
87.6975 27.6847 75.5135 81.8099 30.5907 74.9943 88.9154 32.1235 74.7337 
87.5282 32.7447 76.0752 87.4505 34.471 75.8331 86.9192 36.6173 75.8187 
85.1591 38.3692 76.1849 86.7265 38.6196 75.5372 86.732 40.1447 75.2525 
84.61 42.6965 75.2675 85.0053 45.332 75.0927 86.2976 44.6447 74.9144 
37.9001 7.01568 76.2981 37.7201 7.76537 77.0882 78.6305 18.2786 76.9091 
84.6137 19.3252 76.1326 88.0498 19.9456 75.9356 81.2609 26.2624 75.5914 
81.6214 24.8566 75.9451 85.0839 30.6068 75.8736 87.6654 30.7646 75.7494 
89.215 29.857 74.6868 84.5485 32.3566 75.9147 86.3973 34.7782 76.4044 
28.9298 5.96621 76.9961 7.31792 11.4396 77.3613 55.0221 12.8862 77.422 
6.46236 13.7859 76.7501 61.0577 14.4136 77.3631 58.2361 13.83 77.5003 
66.9808 15.9517 77.3623 26.0233 16.413 77.2674 49.3945 16.2956 77.4268 
75.7064 18.1505 77.472 81.4703 18.6576 76.5296 81.6298 19.8765 77.0228 
84.2719 20.2805 76.5023 69.842 20.3654 77.5362 78.6805 22.2323 77.0822 
86.2455 32.4178 76.1843 85.6831 36.1363 76.4818 86.1326 35.8378 76.5365 
26.0843 6.38695 78.3961 16.8367 6.32466 78.3289 23.1754 6.43042 78.6644 
32.0153 6.91624 77.6092 34.6943 8.16044 78.244 10.7316 8.86831 78.8665 
8.85691 10.0024 78.4388 40.6092 10.3604 78.8441 43.4072 10.3514 78.0324 
46.4475 12.462 78.9092 54.9895 14.2895 78.3042 61.053 16.2163 78.1717 
7.38713 16.0291 78.7663 63.8735 16.6491 78.0569 55.0108 15.8431 78.3022 
57.0043 15.8863 78.4335 66.9427 18.1414 78.1299 8.76852 18.3952 78.1008 
58.3674 17.1998 77.8904 69.8516 18.2075 78.0851 72.6581 18.7449 77.9755 
75.6125 18.7222 77.7468 75.7437 19.8124 77.9921 77.3626 19.9842 77.8701 
72.9054 19.6227 78.0518 77.7501 20.0209 77.8528 26.2252 7.04412 79.354 
25.6364 7.35078 79.8968 11.9561 8.56549 79.9185 34.9622 9.17649 79.2214 
34.8509 10.1722 80.3004 40.8743 11.1347 79.4063 43.6573 11.8401 79.117 
7.15248 14.1201 79.1504 7.78874 12.1148 80.1825 46.5144 14.0681 79.0561 
50.4211 14.2256 78.782 40.6063 14.6063 79.0593 43.6277 14.2341 79.2267 
8.02738 16.1513 80.1737 9.35668 17.6957 79.7312 20.1385 7.13768 80.3483 
9.06177 10.3174 79.8734 38.0274 12.178 80.4541 40.5958 12.0813 80.0304 
42.6424 12.5213 79.6592 43.0876 13.4526 79.592 31.8299 13.8789 79.9447 
37.7238 13.6574 79.8866 14.1228 17.6287 79.6813 11.025 17.7967 80.2896 
14.6228 8.0938 81.4414 23.1218 8.26835 81.5812 28.9781 10.0334 82.09 
11.0194 9.7091 81.6784 31.8544 10.5168 81.5717 34.225 11.895 81.4916 
35.0831 11.9363 81.381 8.6236 12.2022 82.9418 8.02663 13.746 82.3403 
28.9696 12.6388 82.0004 31.0374 11.8111 82.4961 31.7495 13.1435 80.9368 
9.07883 15.8319 81.9854 17.2364 8.08543 82.2547 23.2407 8.94986 82.4262 
11.4722 10.3413 83.6955 23.1756 10.0371 83.642 30.3259 11.332 82.636 
8.79175 12.3365 83.2513 23.2797 11.9491 83.7422 26.1258 11.6694 83.2792 
11.1517 15.6092 82.6132 17.3916 9.17734 83.6832 28.7307 10.546 82.581 
28.8911 11.5691 82.8521 9.07127 13.6408 83.7079 19.9251 13.1721 83.0451 
10.8666 14.6864 83.4444 17.3906 10.2522 84.6035 20.1579 10.1668 84.2008 
12.0744 11.3261 85.6081 13.8418 10.5017 84.5637 21.9691 10.7938 84.239 
14.2818 11.7911 84.8581 11.5073 12.7523 84.7439 22.0743 11.2285 84.2012 
9.5124 12.7689 84.0201 9.48609 13.315 83.9673 
POLYGONS 2311 6930
OFFSETS vtktypeint64
0 3 6 9 12 15 18 21 24 
27 30 33 36 39 42 45 48 51 
54 57 60 63 66 69 72 75 78 
81 84 87 90 93 96 99 102 105 
108 111 114 117 120 123 126 129 132 
135 138 141 144 147 150 153 156 159 
162 165 168 171 174 177 180 183 186 
189 192 195 198 201 204 207 210 213 
216 219 222 225 228 231 234 237 240 
243 246 249 252 255 258 261 264 267 
270 273 276 279 282 285 288 291 294 
297 300 303 306 309 312 315 318 321 
324 327 330 333 336 339 342 345 348 
351 354 357 360 363 366 369 372 375 
378 381 384 387 390 393 396 399 402 
405 408 411 414 417 420 423 426 429 
432 435 438 441 444 447 450 453 456 
459 462 465 468 471 474 477 480 483 
486 489 492 495 498 501 504 507 510 
513 516 519 522 525 528 531 534 537 
540 543 546 549 552 555 558 561 564 
567 570 573 576 579 582 585 588 591 
594 597 600 603 606 609 612 615 618 
621 624 627 630 633 636 639 642 645 
648 651 654 657 660 663 666 669 672 
675 678 681 684 687 690 693 696 699 
702 705 708 711 714 717 720 723 726 
729 732 735 738 741 744 747 750 753 
756 759 762 765 768 771 774 777 780 
783 786 789 792 795 798 801 804 807 
810 813 816 819 822 825 828 831 834 
837 840 843 846 849 852 855 858 861 
864 867 870 873 876 879 882 885 888 
891 894 897 900 903 906 909 912 915 
918 921 924 927 930 933 936 939 942 
945 948 951 954 957 960 963 966 969 
972 975 978 981 984 987 990 993 996 
999 1002 1005 1008 1011 1014 1017 1020 1023 
1026 1029 1032 1035 1038 1041 1044 1047 1050 
1053 1056 1059 1062 1065 1068 1071 1074 1077 
1080 1083 1086 1089 1092 1095 1098 1101 1104 
1107 1110 1113 1116 1119 1122 1125 1128 1131 
1134 1137 1140 1143 1146 1149 1152 1155 1158 
1161 1164 1167 1170 1173 1176 1179 1182 1185 
1188 1191 1194 1197 1200 1203 1206 1209 1212 
1215 1218 1221 1224 1227 1230 1233 1236 1239 
1242 1245 1248 1251 1254 1257 1260 1263 1266 
1269 1272 1275 1278 1281 1284 1287 1290 1293 
1296 1299 1302 1305 1308 1311 1314 1317 1320 
1323 1326 1329 1332 1335 1338 1341 1344 1347 
1350 1353 1356 1359 1362 1365 1368 1371 1374 
1377 1380 1383 1386 1389 1392 1395 1398 1401 
1404 1407 1410 1413 1416 1419 1422 1425 1428 
1431 1434 1437 1440 1443 1446 1449 1452 1455 
1458 1461 1464 1467 1470 1473 1476 1479 1482 
1485 1488 1491 1494 1497 1500 1503 1506 1509 
1512 1515 1518 1521 1524 1527 1530 1533 1536 
1539 1542 1545 1548 1551 1554 1557 1560 1563 
1566 1569 1572 1575 1578 1581 1584 1587 1590 
1593 1596 1599 1602 1605 1608 1611 1614 1617 
1620 1623 1626 1629 1632 1635 1638 1641 1644 
1647 1650 1653 1656 1659 1662 1665 1668 1671 
1674 1677 1680 1683 1686 1689 1692 1695 1698 
1701 1704 1707 1710 1713 1716 1719 1722 1725 
1728 1731 1734 1737 1740 1743 1746 1749 1752 
1755 1758 1761 1764 1767 1770 1773 1776 1779 
1782 1785 1788 1791 1794 1797 1800 1803 1806 
1809 1812 1815 1818 1821 1824 1827 1830 1833 
1836 1839 1842 1845 1848 1851 1854 1857 1860 
1863 1866 1869 1872 1875 1878 1881 1884 1887 
1890 1893 1896 1899 1902 1905 1908 1911 1914 
1917 1920 1923 1926 1929 1932 1935 1938 1941 
1944 1947 1950 1953 1956 1959 1962 1965 1968 
1971 1974 1977 1980 1983 1986 1989 1992 1995 
1998 2001 2004 2007 2010 2013 2016 2019 2022 
2025 2028 2031 2034 2037 2040 2043 2046 2049 
2052 2055 2058 2061 2064 2067 2070 2073 2076 
2079 2082 2085 2088 2091 2094 2097 2100 2103 
2106 2109 2112 2115 2118 2121 2124 2127 2130 
2133 2136 2139 2142 2145 2148 2151 2154 2157 
2160 2163 2166 2169 2172 2175 2178 2181 2184 
2187 2190 2193 2196 2199 2202 2205 2208 2211 
2214 2217 2220 2223 2226 2229 2232 2235 2238 
2241 2244 2247 2250 2253 2256 2259 2262 2265 
2268 2271 2274 2277 2280 2283 2286 2289 2292 
2295 2298 2301 2304 2307 2310 2313 2316 2319 
2322 2325 2328 2331 2334 2337 2340 2343 2346 
2349 2352 2355 2358 2361 2364 2367 2370 2373 
2376 2379 2382 2385 2388 2391 2394 2397 2400 
2403 2406 2409 2412 2415 2418 2421 2424 2427 
2430 2433 2436 2439 2442 2445 2448 2451 2454 
2457 2460 2463 2466 2469 2472 2475 2478 2481 
2484 2487 2490 2493 2496 2499 2502 2505 2508 
2511 2514 2517 2520 2523 2526 2529 2532 2535 
2538 2541 2544 2547 2550 2553 2556 2559 2562 
2565 2568 2571 2574 2577 2580 2583 2586 2589 
2592 2595 2598 2601 2604 2607 2610 2613 2616 
2619 2622 2625 2628 2631 2634 2637 2640 2643 
2646 2649 2652 2655 2658 2661 2664 2667 2670 
2673 2676 2679 2682 2685 2688 2691 2694 2697 
2700 2703 2706 2709 2712 2715 2718 2721 2724 
2727 2730 2733 2736 2739 2742 2745 2748 2751 
2754 2757 2760 2763 2766 2769 2772 2775 2778 
2781 2784 2787 2790 2793 2796 2799 2802 2805 
2808 2811 2814 2817 2820 2823 2826 2829 2832 
2835 2838 2841 2844 2847 2850 2853 2856 2859 
2862 2865 2868 2871 2874 2877 2880 2883 2886 
2889 2892 2895 2898 2901 2904 2907 2910 2913 
2916 2919 2922 2925 2928 2931 2934 2937 2940 
2943 2946 2949 2952 2955 2958 2961 2964 2967 
2970 2973 2976 2979 2982 2985 2988 2991 2994 
2997 3000 3003 3006 3009 3012 3015 3018 3021 
3024 3027 3030 3033 3036 3039 3042 3045 3048 
3051 3054 3057 3060 3063 3066 3069 3072 3075 
3078 3081 3084 3087 3090 3093 3096 3099 3102 
3105 3108 3111 3114 3117 3120 3123 3126 3129 
3132 3135 3138 3141 3144 3147 3150 3153 3156 
3159 3162 3165 3168 3171 3174 3177 3180 3183 
3186 3189 3192 3195 3198 3201 3204 3207 3210 
3213 3216 3219 3222 3225 3228 3231 3234 3237 
3240 3243 3246 3249 3252 3255 3258 3261 3264 
3267 3270 3273 3276 3279 3282 3285 3288 3291 
3294 3297 3300 3303 3306 3309 3312 3315 3318 
3321 3324 3327 3330 3333 3336 3339 3342 3345 
3348 3351 3354 3357 3360 3363 3366 3369 3372 
3375 3378 3381 3384 3387 3390 3393 3396 3399 
3402 3405 3408 3411 3414 3417 3420 3423 3426 
3429 3432 3435 3438 3441 3444 3447 3450 3453 
3456 3459 3462 3465 3468 3471 3474 3477 3480 
3483 3486 3489 3492 3495 3498 3501 3504 3507 
3510 3513 3516 3519 3522 3525 3528 3531 3534 
3537 3540 3543 3546 3549 3552 3555 3558 3561 
3564 3567 3570 3573 3576 3579 3582 3585 3588 
3591 3594 3597 3600 3603 3606 3609 3612 3615 
3618 3621 3624 3627 3630 3633 3636 3639 3642 
3645 3648 3651 3654 3657 3660 3663 3666 3669 
3672 3675 3678 3681 3684 3687 3690 3693 3696 
3699 3702 3705 3708 3711 3714 3717 3720 3723 
3726 3729 3732 3735 3738 3741 3744 3747 3750 
3753 3756 3759 3762 3765 3768 3771 3774 3777 
3780 3783 3786 3789 3792 3795 3798 3801 3804 
3807 3810 3813 3816 3819 3822 3825 3828 3831 
3834 3837 3840 3843 3846 3849 3852 3855 3858 
3861 3864 3867 3870 3873 3876 3879 3882 3885 
3888 3891 3894 3897 3900 3903 3906 3909 3912 
3915 3918 3921 3924 3927 3930 3933 3936 3939 
3942 3945 3948 3951 3954 3957 3960 3963 3966 
3969 3972 3975 3978 3981 3984 3987 3990 3993 
3996 3999 4002 4005 4008 4011 4014 4017 4020 
4023 4026 4029 4032 4035 4038 4041 4044 4047 
4050 4053 4056 4059 4062 4065 4068 4071 4074 
4077 4080 4083 4086 4089 4092 4095 4098 4101 
4104 4107 4110 4113 4116 4119 4122 4125 4128 
4131 4134 4137 4140 4143 4146 4149 4152 4155 
4158 4161 4164 4167 4170 4173 4176 4179 4182 
4185 4188 4191 4194 4197 4200 4203 4206 4209 
4212 4215 4218 4221 4224 4227 4230 4233 4236 
4239 4242 4245 4248 4251 4254 4257 4260 4263 
4266 4269 4272 4275 4278 4281 4284 4287 4290 
4293 4296 4299 4302 4305 4308 4311 4314 4317 
4320 4323 4326 4329 4332 4335 4338 4341 4344 
4347 4350 4353 4356 4359 4362 4365 4368 4371 
4374 4377 4380 4383 4386 4389 4392 4395 4398 
4401 4404 4407 4410 4413 4416 4419 4422 4425 
4428 4431 4434 4437 4440 4443 4446 4449 4452 
4455 4458 4461 4464 4467 4470 4473 4476 4479 
4482 4485 4488 4491 4494 4497 4500 4503 4506 
4509 4512 4515 4518 4521 4524 4527 4530 4533 
4536 4539 4542 4545 4548 4551 4554 4557 4560 
4563 4566 4569 4572 4575 4578 4581 4584 4587 
4590 4593 4596 4599 4602 4605 4608 4611 4614 
4617 4620 4623 4626 4629 4632 4635 4638 4641 
4644 4647 4650 4653 4656 4659 4662 4665 4668 
4671 4674 4677 4680 4683 4686 4689 4692 4695 
4698 4701 4704 4707 4710 4713 4716 4719 4722 
4725 4728 4731 4734 4737 4740 4743 4746 4749 
4752 4755 4758 4761 4764 4767 4770 4773 4776 
4779 4782 4785 4788 4791 4794 4797 4800 4803 
4806 4809 4812 4815 4818 4821 4824 4827 4830 
4833 4836 4839 4842 4845 4848 4851 4854 4857 
4860 4863 4866 4869 4872 4875 4878 4881 4884 
4887 4890 4893 4896 4899 4902 4905 4908 4911 
4914 4917 4920 4923 4926 4929 4932 4935 4938 
4941 4944 4947 4950 4953 4956 4959 4962 4965 
4968 4971 4974 4977 4980 4983 4986 4989 4992 
4995 4998 5001 5004 5007 5010 5013 5016 5019 
5022 5025 5028 5031 5034 5037 5040 5043 5046 
5049 5052 5055 5058 5061 5064 5067 5070 5073 
5076 5079 5082 5085 5088 5091 5094 5097 5100 
5103 5106 5109 5112 5115 5118 5121 5124 5127 
5130 5133 5136 5139 5142 5145 5148 5151 5154 
5157 5160 5163 5166 5169 5172 5175 5178 5181 
5184 5187 5190 5193 5196 5199 5202 5205 5208 
5211 5214 5217 5220 5223 5226 5229 5232 5235 
5238 5241 5244 5247 5250 5253 5256 5259 5262 
5265 5268 5271 5274 5277 5280 5283 5286 5289 
5292 5295 5298 5301 5304 5307 5310 5313 5316 
5319 5322 5325 5328 5331 5334 5337 5340 5343 
5346 5349 5352 5355 5358 5361 5364 5367 5370 
5373 5376 5379 5382 5385 5388 5391 5394 5397 
5400 5403 5406 5409 5412 5415 5418 5421 5424 
5427 5430 5433 5436 5439 5442 5445 5448 5451 
5454 5457 5460 5463 5466 5469 5472 5475 5478 
5481 5484 5487 5490 5493 5496 5499 5502 5505 
5508 5511 5514 5517 5520 5523 5526 5529 5532 
5535 5538 5541 5544 5547 5550 5553 5556 5559 
5562 5565 5568 5571 5574 5577 5580 5583 5586 
5589 5592 5595 5598 5601 5604 5607 5610 5613 
5616 5619 5622 5625 5628 5631 5634 5637 5640 
5643 5646 5649 5652 5655 5658 5661 5664 5667 
5670 5673 5676 5679 5682 5685 5688 5691 5694 
5697 5700 5703 5706 5709 5712 5715 5718 5721 
5724 5727 5730 5733 5736 5739 5742 5745 5748 
5751 5754 5757 5760 5763 5766 5769 5772 5775 
5778 5781 5784 5787 5790 5793 5796 5799 5802 
5805 5808 5811 5814 5817 5820 5823 5826 5829 
5832 5835 5838 5841 5844 5847 5850 5853 5856 
5859 5862 5865 5868 5871 5874 5877 5880 5883 
5886 5889 5892 5895 5898 5901 5904 5907 5910 
5913 5916 5919 5922 5925 5928 5931 5934 5937 
5940 5943 5946 5949 5952 5955 5958 5961 5964 
5967 5970 5973 5976 5979 5982 5985 5988 5991 
5994 5997 6000 6003 6006 6009 6012 6015 6018 
6021 6024 6027 6030 6033 6036 6039 6042 6045 
6048 6051 6054 6057 6060 6063 6066 6069 6072 
6075 6078 6081 6084 6087 6090 6093 6096 6099 
6102 6105 6108 6111 6114 6117 6120 6123 6126 
6129 6132 6135 6138 6141 6144 6147 6150 6153 
6156 6159 6162 6165 6168 6171 6174 6177 6180 
6183 6186 6189 6192 6195 6198 6201 6204 6207 
6210 6213 6216 6219 6222 6225 6228 6231 6234 
6237 6240 6243 6246 6249 6252 6255 6258 6261 
6264 6267 6270 6273 6276 6279 6282 6285 6288 
6291 6294 6297 6300 6303 6306 6309 6312 6315 
6318 6321 6324 6327 6330 6333 6336 6339 6342 
6345 6348 6351 6354 6357 6360 6363 6366 6369 
6372 6375 6378 6381 6384 6387 6390 6393 6396 
6399 6402 6405 6408 6411 6414 6417 6420 6423 
6426 6429 6432 6435 6438 6441 6444 6447 6450 
6453 6456 6459 6462 6465 6468 6471 6474 6477 
6480 6483 6486 6489 6492 6495 6498 6501 6504 
6507 6510 6513 6516 6519 6522 6525 6528 6531 
6534 6537 6540 6543 6546 6549 6552 6555 6558 
6561 6564 6567 6570 6573 6576 6579 6582 6585 
6588 6591 6594 6597 6600 6603 6606 6609 6612 
6615 6618 6621 6624 6627 6630 6633 6636 6639 
6642 6645 6648 6651 6654 6657 6660 6663 6666 
6669 6672 6675 6678 6681 6684 6687 6690 6693 
6696 6699 6702 6705 6708 6711 6714 6717 6720 
6723 6726 6729 6732 6735 6738 6741 6744 6747 
6750 6753 6756 6759 6762 6765 6768 6771 6774 
6777 6780 6783 6786 6789 6792 6795 6798 6801 
6804 6807 6810 6813 6816 6819 6822 6825 6828 
6831 6834 6837 6840 6843 6846 6849 6852 6855 
6858 6861 6864 6867 6870 6873 6876 6879 6882 
6885 6888 6891 6894 6897 6900 6903 6906 6909 
6912 6915 6918 6921 6924 6927 6930 
CONNECTIVITY vtktypeint64
2 0 3 3 0 1 4 3 6 
6 3 5 6 7 8 4 6 8 
9 10 24 10 9 0 0 9 11 
38 10 2 2 10 0 40 38 2 
11 12 0 40 2 4 8 40 4 
40 8 14 13 40 14 4 2 3 
5 1 15 3 1 5 14 8 16 
16 8 7 6 5 17 6 18 7 
17 18 6 16 7 18 19 16 18 
22 21 20 23 22 20 24 21 22 
10 38 24 24 22 42 11 24 42 
11 9 24 26 25 40 13 26 40 
1 0 12 1 12 27 27 12 11 
14 28 13 28 26 13 1 27 29 
29 15 1 14 16 28 28 16 19 
5 15 30 30 31 5 5 31 17 
17 30 32 17 31 30 17 32 18 
32 34 18 51 19 18 34 32 33 
51 18 34 39 36 35 66 39 35 
20 36 39 21 36 20 37 36 21 
21 24 37 39 42 20 43 40 25 
23 20 42 23 42 22 43 25 44 
44 25 26 44 26 45 46 57 11 
57 27 11 45 26 47 47 26 28 
47 28 48 58 15 29 28 19 48 
30 15 50 32 30 50 50 33 32 
51 49 19 50 34 33 34 50 52 
51 34 52 84 24 85 24 38 86 
85 24 86 35 53 54 36 53 35 
24 84 37 35 54 55 37 84 36 
56 40 43 41 56 43 42 69 79 
46 11 79 11 42 79 27 57 58 
27 58 29 48 19 59 19 49 59 
49 51 59 61 51 52 60 51 61 
63 53 62 62 53 36 40 86 38 
56 86 40 53 63 54 55 63 54 
55 66 35 41 67 56 67 65 56 
68 65 67 39 66 42 67 41 68 
41 43 68 43 44 68 44 45 68 
45 70 68 46 79 57 47 70 45 
15 58 71 71 50 15 72 50 71 
59 51 82 52 50 72 81 52 72 
81 61 52 60 61 51 74 62 73 
73 62 84 84 62 36 75 77 64 
63 76 64 76 75 64 62 76 63 
56 65 88 64 77 54 63 64 54 
66 55 54 66 78 42 69 42 78 
57 79 80 48 114 47 71 133 72 
82 51 61 61 81 83 92 86 56 
93 92 56 75 76 73 62 73 76 
87 56 88 88 108 87 65 89 88 
54 77 112 68 111 65 89 65 111 
79 69 78 71 58 133 48 59 82 
48 82 114 61 83 102 82 61 102 
83 81 90 83 90 91 94 93 56 
87 94 56 108 95 94 87 108 94 
96 97 98 96 98 75 73 96 75 
75 98 99 75 99 77 77 99 112 
88 89 111 66 54 112 111 68 114 
66 112 78 80 79 100 57 80 100 
100 58 57 113 58 100 58 113 133 
82 102 114 133 81 72 101 81 133 
81 101 90 90 101 91 91 83 90 
92 93 103 118 85 86 92 118 86 
104 103 93 95 105 94 106 97 107 
107 97 119 119 97 96 73 119 96 
98 107 128 98 97 107 107 106 128 
98 128 99 109 112 99 109 110 112 
78 112 132 68 70 114 70 47 114 
115 101 133 102 83 91 101 115 116 
91 101 116 117 102 91 84 137 157 
85 137 84 92 194 118 194 92 103 
84 157 73 94 103 93 105 122 94 
119 106 107 108 88 130 109 99 128 
111 130 88 100 79 113 147 114 102 
91 116 117 120 187 73 157 120 73 
94 121 103 122 121 94 73 187 119 
123 122 124 124 122 105 105 95 124 
128 127 126 106 127 128 119 127 106 
95 108 124 129 109 128 109 144 110 
110 144 131 112 110 131 112 131 132 
114 173 111 113 79 133 114 146 134 
135 115 133 147 146 114 102 117 147 
116 115 135 116 135 136 117 116 136 
118 137 85 120 138 139 139 187 120 
157 139 120 121 158 103 121 123 140 
121 122 123 142 141 125 119 162 127 
166 126 143 128 126 129 144 109 129 
134 145 114 174 135 133 147 117 148 
137 118 186 157 138 139 139 138 187 
150 158 121 121 140 150 140 151 150 
142 153 141 141 152 125 125 153 142 
125 152 153 126 153 152 127 153 126 
162 153 127 143 126 152 126 166 129 
108 130 124 78 132 169 169 170 78 
145 134 146 174 136 135 136 154 117 
155 148 149 149 148 117 149 117 154 
118 193 186 194 193 118 156 157 137 
150 159 158 158 159 160 138 157 187 
151 159 150 161 159 151 140 161 151 
140 123 161 119 187 162 162 141 153 
165 141 164 165 152 141 166 143 152 
165 166 152 206 124 167 124 130 167 
144 129 168 130 111 167 78 170 172 
170 171 172 78 172 210 79 78 210 
79 210 133 114 145 173 147 148 185 
174 154 136 155 185 148 154 174 175 
149 154 175 155 149 176 185 155 176 
175 176 149 226 157 156 137 226 156 
194 158 177 160 177 158 158 194 103 
163 179 180 164 163 180 163 164 178 
178 164 141 162 178 141 161 124 229 
123 124 161 165 164 204 188 181 166 
167 111 173 173 145 235 184 175 174 
185 175 184 176 175 185 160 159 177 
162 179 178 178 179 163 164 180 204 
229 124 206 165 188 166 206 167 182 
129 166 168 144 168 249 249 131 144 
169 132 305 167 173 189 171 169 305 
169 171 170 133 210 183 173 190 189 
190 173 235 211 133 183 185 184 191 
192 185 191 137 186 237 238 186 193 
193 194 239 195 242 196 242 194 177 
196 242 177 197 196 177 195 196 197 
187 198 162 199 162 198 201 202 200 
162 200 202 200 203 201 202 201 179 
162 202 179 229 159 161 179 203 180 
179 201 203 203 204 180 165 204 205 
207 188 165 188 207 208 208 181 188 
208 166 181 168 166 208 132 131 305 
172 171 305 172 305 210 211 183 210 
189 190 209 145 146 235 266 147 185 
213 184 174 212 266 185 191 184 213 
214 192 213 192 191 213 185 192 214 
185 214 212 237 186 238 238 193 215 
215 193 216 225 239 194 243 242 195 
157 226 187 217 197 177 198 199 218 
187 218 198 162 199 200 219 220 203 
200 219 203 165 205 207 211 210 222 
307 213 174 213 223 214 259 226 240 
236 240 226 237 236 137 216 238 215 
215 239 216 225 194 242 137 236 226 
215 193 239 243 195 227 195 217 228 
195 228 227 195 197 217 217 177 261 
218 272 198 198 272 199 177 159 261 
204 203 220 205 204 221 230 206 231 
230 229 206 205 221 265 265 207 205 
206 182 230 182 167 232 167 233 232 
233 167 189 233 189 234 189 209 234 
222 210 211 210 305 211 234 209 190 
146 147 235 235 147 266 223 213 307 
212 214 224 212 224 266 214 223 224 
239 225 241 267 226 259 187 226 269 
244 243 228 244 228 273 243 227 228 
187 271 218 269 271 187 272 200 199 
245 261 159 262 245 159 219 246 220 
262 159 229 221 247 248 221 204 247 
221 248 265 314 208 207 208 314 168 
131 249 358 232 233 278 233 234 250 
306 234 190 266 224 252 223 251 224 
253 236 254 253 240 236 255 254 236 
237 238 254 255 237 254 254 238 256 
256 238 257 255 236 237 258 238 216 
241 225 260 242 260 225 243 260 242 
270 260 243 243 244 293 217 273 228 
218 271 272 200 272 219 219 274 246 
246 277 220 204 220 277 204 277 247 
248 247 264 278 233 303 250 234 306 
306 190 235 253 267 259 238 258 256 
240 253 259 216 288 258 239 288 216 
269 226 283 267 283 226 268 260 270 
273 217 261 272 320 274 272 274 219 
274 275 276 276 246 274 246 276 277 
247 277 300 263 264 247 265 248 314 
248 264 314 230 182 347 207 265 314 
182 232 302 168 314 249 232 278 302 
233 306 303 303 306 304 233 250 306 
306 235 359 307 251 223 251 307 308 
252 224 279 251 308 279 224 251 279 
267 282 280 267 280 281 283 267 281 
267 253 282 253 254 284 258 285 256 
258 286 285 241 289 239 260 289 241 
260 287 289 260 268 287 268 290 287 
290 268 270 290 270 291 311 269 325 
270 292 291 311 271 269 243 292 270 
243 293 292 294 272 271 295 275 274 
261 245 332 275 295 296 275 296 276 
296 297 276 276 297 277 298 277 297 
299 277 298 299 298 300 299 300 277 
247 300 301 301 263 247 229 230 347 
301 264 263 264 301 314 347 182 302 
389 133 211 133 307 174 360 235 266 
252 279 309 325 269 310 281 310 269 
283 281 269 285 258 288 290 291 292 
271 342 294 294 342 272 295 320 312 
320 295 274 332 245 262 332 262 229 
301 300 336 302 278 303 131 358 386 
131 386 305 279 308 309 282 351 280 
282 253 351 315 325 316 254 256 373 
256 285 373 325 315 311 239 327 288 
289 327 239 290 317 287 317 290 318 
326 271 315 311 315 271 290 292 318 
318 292 319 319 292 293 244 273 293 
376 312 320 273 261 332 312 346 295 
346 321 295 321 296 295 296 321 313 
296 321 297 298 297 333 332 229 335 
298 333 334 336 300 334 300 298 334 
229 347 335 302 303 337 306 359 304 
211 305 389 266 252 322 308 307 370 
308 370 323 309 308 323 322 252 309 
323 322 309 324 316 325 324 326 315 
324 315 316 289 287 327 317 353 328 
353 317 318 353 318 319 342 271 329 
326 329 271 330 319 293 342 377 272 
293 273 332 297 321 355 338 303 304 
359 338 304 359 235 360 326 340 341 
341 329 326 317 328 287 319 330 353 
353 330 343 272 377 320 312 376 331 
312 331 346 344 345 346 344 331 345 
331 344 346 297 355 333 301 336 400 
314 301 400 389 307 133 323 370 339 
322 323 339 324 350 326 324 325 350 
281 348 310 280 348 281 253 413 351 
253 284 413 352 340 349 329 340 352 
341 340 329 285 288 373 329 352 342 
328 353 287 377 342 352 330 293 343 
320 377 376 354 346 345 321 346 382 
321 382 355 333 355 356 334 333 356 
336 334 357 334 356 357 336 357 400 
347 302 401 303 338 337 370 307 389 
371 322 339 370 371 339 325 310 348 
280 351 455 348 280 455 455 351 413 
361 349 363 340 363 349 352 361 362 
349 361 352 327 456 288 353 343 365 
343 293 365 365 293 419 293 332 438 
331 376 345 345 366 367 354 345 367 
346 354 382 355 382 368 369 355 368 
302 385 401 322 430 266 350 412 326 
362 361 372 340 326 363 254 373 284 
362 375 374 362 374 352 456 327 364 
327 287 364 352 374 377 374 392 377 
354 367 382 384 369 368 355 369 411 
356 355 411 302 337 385 403 386 358 
338 359 388 266 430 360 430 322 371 
325 412 350 348 412 325 375 362 372 
363 432 361 361 432 372 392 374 375 
288 456 373 287 353 393 393 353 365 
376 378 379 379 380 366 379 366 376 
376 366 345 366 380 367 438 332 425 
383 368 382 369 384 411 356 411 357 
335 347 401 249 314 479 249 479 358 
338 387 337 338 388 387 391 430 371 
370 390 391 370 391 371 432 363 326 
378 377 394 376 377 378 378 410 379 
396 395 397 381 379 396 396 397 381 
380 379 381 380 381 397 367 380 397 
424 367 397 368 383 398 368 398 399 
368 399 384 401 427 335 387 404 405 
387 388 404 388 359 493 406 390 370 
390 406 407 407 391 390 455 454 348 
326 412 432 373 413 284 392 408 377 
410 409 395 410 395 396 379 410 396 
367 424 382 441 382 424 382 398 383 
411 384 399 332 335 427 357 411 492 
357 492 400 401 385 402 385 337 405 
337 387 405 404 493 405 404 388 493 
305 386 503 389 305 503 360 506 359 
389 503 465 430 391 407 375 372 469 
413 373 456 414 392 375 375 415 414 
375 469 415 456 364 486 393 417 287 
418 408 416 392 414 408 414 416 408 
419 393 365 418 421 377 408 418 377 
377 421 394 436 419 293 421 423 394 
410 422 409 420 422 410 410 421 420 
394 423 410 378 394 410 422 395 409 
422 439 395 395 439 440 450 395 440 
395 450 397 441 426 382 382 426 398 
398 426 477 398 477 399 411 399 428 
492 411 428 603 314 400 403 358 464 
403 464 386 466 360 430 370 429 406 
407 406 431 406 429 431 407 431 430 
433 414 415 418 416 434 447 418 434 
417 393 419 418 447 421 419 436 435 
436 293 437 423 421 410 399 491 428 
360 466 442 467 429 370 429 467 431 
444 430 431 444 431 443 348 453 412 
445 432 483 432 412 483 455 413 495 
372 445 469 445 372 432 287 487 364 
414 433 416 417 446 287 446 417 419 
419 435 446 447 448 421 421 460 420 
422 420 449 437 293 438 422 449 439 
439 449 440 397 450 424 425 332 490 
332 427 490 399 477 491 428 491 463 
314 603 479 405 493 502 359 480 493 
480 359 506 389 465 451 451 370 389 
506 360 442 466 430 452 431 467 443 
452 430 444 452 444 443 433 415 469 
416 497 434 433 469 416 446 457 287 
448 447 497 458 448 497 447 434 497 
459 446 435 459 457 446 448 458 460 
435 436 459 421 448 460 449 420 473 
438 511 437 449 473 461 440 449 461 
450 440 461 438 425 474 441 424 476 
476 424 462 426 441 477 427 401 501 
401 402 501 358 479 464 385 405 478 
451 465 370 468 443 467 468 452 443 
445 483 522 470 457 459 459 436 472 
511 438 474 462 424 450 475 476 462 
441 476 477 402 385 478 478 405 502 
466 481 442 370 589 467 482 468 467 
348 484 453 454 485 348 348 485 484 
454 455 485 522 469 445 364 509 486 
364 487 509 287 510 487 458 497 471 
488 457 472 458 471 524 457 459 472 
460 458 524 436 516 472 460 524 420 
436 437 516 489 461 473 461 489 450 
450 489 462 498 462 489 462 498 475 
476 475 477 490 427 520 427 501 520 
402 478 501 464 503 386 465 535 370 
535 589 370 452 481 466 467 589 482 
452 468 494 468 482 494 484 578 453 
485 578 484 485 455 578 456 496 413 
496 456 486 569 496 486 287 457 510 
548 474 514 474 425 514 490 514 425 
490 520 532 463 491 499 463 499 428 
428 499 500 500 492 428 504 465 503 
465 504 505 534 535 465 452 507 481 
452 494 507 494 482 508 497 416 469 
524 525 420 525 473 420 512 513 489 
489 513 498 504 503 505 505 534 465 
589 541 482 494 508 507 455 495 578 
413 569 495 413 496 569 488 544 457 
544 488 472 515 544 472 515 472 516 
518 525 517 473 525 518 437 511 516 
473 518 489 518 517 519 518 519 512 
489 518 512 512 519 513 475 498 550 
475 550 477 531 514 490 531 490 532 
478 502 563 502 493 552 493 480 552 
442 481 506 507 540 481 507 508 521 
507 521 540 508 482 521 483 412 553 
578 611 453 469 522 592 487 510 638 
457 543 510 457 544 543 523 544 515 
516 511 581 548 511 474 527 528 526 
526 528 519 517 526 519 528 529 519 
530 519 529 513 519 530 513 549 498 
491 477 551 491 551 538 491 538 499 
533 499 538 500 499 533 400 492 626 
478 602 501 480 506 552 539 535 534 
482 541 521 509 487 638 523 515 516 
526 517 525 528 527 537 528 537 530 
529 528 530 549 513 530 626 603 400 
478 563 602 479 585 464 539 534 535 
540 521 541 483 576 522 483 553 576 
412 609 553 412 453 609 495 612 578 
638 486 509 497 593 542 593 497 469 
510 697 638 510 543 697 497 542 471 
556 544 523 471 555 595 524 471 595 
556 523 516 524 545 525 546 526 545 
546 536 526 536 527 526 525 545 526 
527 536 537 530 537 547 549 530 547 
549 550 498 477 561 551 500 533 625 
492 500 648 500 625 648 602 520 501 
552 563 502 506 632 552 564 505 503 
506 565 632 534 505 564 535 534 564 
506 481 565 540 575 481 568 575 540 
568 540 541 495 569 612 471 542 555 
524 571 545 545 571 546 557 547 537 
558 547 557 559 547 558 560 559 558 
549 547 559 549 559 560 548 514 705 
549 560 550 514 531 705 705 531 645 
477 550 561 532 645 531 551 561 562 
562 561 551 492 648 626 535 566 589 
541 567 568 522 576 592 593 469 592 
570 554 555 570 542 554 554 542 593 
542 570 555 595 571 524 572 536 546 
536 557 537 557 536 572 573 558 557 
520 602 661 552 586 563 481 575 565 
564 566 535 541 589 567 553 577 576 
553 609 577 554 593 579 486 659 569 
555 554 580 554 579 580 486 638 659 
543 614 697 555 580 595 543 615 614 
544 615 543 615 544 556 571 596 546 
572 546 582 557 572 582 573 557 582 
511 548 581 558 573 574 558 574 560 
599 560 574 548 705 600 550 560 623 
550 623 561 538 551 601 533 538 601 
479 603 583 479 583 584 585 479 584 
464 585 628 503 464 631 503 691 564 
575 632 565 587 566 564 566 587 588 
589 566 588 575 568 633 590 567 589 
590 568 567 577 576 591 577 592 576 
636 580 579 594 615 556 556 516 594 
546 596 597 546 597 582 548 620 581 
598 574 573 532 520 661 533 646 625 
650 585 584 585 627 628 631 464 664 
588 587 589 632 575 633 606 590 589 
577 609 591 591 592 577 578 612 611 
612 569 725 571 595 596 594 516 607 
582 608 642 582 642 573 598 599 574 
620 548 600 623 560 599 533 601 646 
647 648 625 603 626 662 603 604 583 
603 663 604 583 604 663 584 583 663 
584 663 650 585 650 627 552 632 586 
586 632 711 587 605 589 605 606 589 
633 568 590 606 633 590 592 610 593 
592 778 610 592 591 778 593 613 579 
595 580 637 637 580 636 607 615 594 
596 616 617 595 616 596 516 671 607 
597 617 618 597 596 617 671 516 581 
582 597 608 597 618 608 598 643 619 
642 598 573 643 598 642 598 621 599 
598 619 621 599 621 622 551 561 624 
532 661 645 551 624 601 663 603 662 
586 790 563 629 628 630 628 629 464 
464 629 664 653 503 631 503 653 691 
564 691 654 587 564 605 606 605 655 
606 655 634 634 633 606 610 635 593 
593 723 613 612 724 658 569 659 715 
615 639 614 615 607 639 618 617 640 
618 641 608 671 581 705 608 641 642 
599 622 660 623 599 660 624 561 681 
649 662 626 664 630 628 630 664 629 
664 652 631 632 633 791 610 778 635 
611 658 453 453 658 665 612 658 611 
593 635 723 725 724 612 636 579 613 
614 639 697 595 637 616 640 641 618 
581 620 705 619 644 621 619 643 644 
622 621 644 681 561 623 601 624 646 
625 646 742 625 742 647 648 649 626 
628 627 651 627 650 651 664 628 651 
655 657 634 656 633 634 657 656 634 
453 665 609 569 715 725 639 667 697 
607 668 639 668 667 639 670 617 616 
607 671 668 670 669 640 617 670 640 
672 640 669 673 641 672 672 641 640 
642 673 674 673 642 641 642 674 643 
676 644 675 644 643 675 705 620 600 
677 622 676 622 644 676 622 677 678 
660 622 678 660 678 623 623 678 679 
623 679 680 680 681 623 661 602 772 
647 742 682 648 682 683 648 647 682 
648 683 684 563 789 602 649 648 685 
662 649 663 649 686 663 563 790 789 
663 686 650 650 687 651 710 664 651 
664 688 652 631 652 689 711 748 586 
653 631 689 690 691 653 692 654 691 
692 564 654 693 564 692 751 564 693 
751 605 564 655 605 713 694 633 656 
713 657 655 695 657 713 657 695 694 
657 694 656 658 818 665 659 696 715 
666 696 659 666 659 696 659 638 696 
638 756 696 667 668 698 698 668 731 
616 699 670 670 699 669 669 699 700 
674 675 643 702 676 703 675 703 676 
677 704 678 678 706 679 679 707 680 
680 740 681 624 741 646 709 684 683 
685 648 684 685 686 649 744 710 687 
687 710 651 688 664 710 748 835 586 
689 652 688 690 746 691 712 692 691 
749 693 692 635 778 723 609 803 591 
591 803 842 609 665 803 714 636 613 
756 715 696 638 807 756 638 697 807 
667 698 697 716 616 637 616 716 699 
668 671 731 669 700 717 672 669 717 
717 701 673 717 673 672 673 701 674 
701 718 674 674 718 675 718 719 675 
719 703 675 676 702 704 677 676 704 
678 704 706 679 706 739 739 707 679 
707 740 680 681 740 708 624 681 741 
681 708 741 646 741 742 743 682 742 
743 709 682 709 683 682 762 686 685 
745 688 744 688 710 744 835 790 586 
689 688 720 690 653 689 746 690 689 
691 746 721 712 691 721 692 712 722 
722 749 692 749 751 693 633 817 791 
613 843 714 613 723 843 714 755 636 
636 728 637 755 728 636 727 726 715 
637 728 716 699 716 729 697 730 807 
698 730 697 699 729 700 700 732 733 
729 732 700 700 732 717 717 734 701 
735 719 736 719 718 736 703 735 702 
719 735 703 702 735 737 738 704 702 
706 704 738 706 785 739 772 705 645 
645 661 772 772 602 774 602 789 774 
687 650 686 720 688 775 689 720 746 
747 712 746 711 632 748 746 712 721 
632 791 748 712 747 722 749 750 751 
752 713 605 694 817 633 713 752 753 
695 713 753 714 843 754 665 894 803 
728 779 716 727 715 756 698 731 730 
732 757 733 734 717 732 734 732 758 
758 732 733 701 734 718 734 759 718 
736 759 735 718 759 736 702 737 738 
706 738 785 761 707 739 708 771 741 
773 743 742 709 875 684 685 684 875 
762 685 875 762 876 686 687 686 814 
688 745 775 815 746 775 746 720 775 
815 747 746 747 749 722 751 750 763 
764 605 751 764 752 605 817 694 753 
694 695 753 591 842 778 665 818 894 
658 724 818 779 728 755 714 754 755 
766 716 779 727 725 715 766 729 716 
768 767 731 731 767 730 731 671 768 
733 757 769 729 757 732 758 733 769 
758 769 734 769 783 734 783 735 759 
783 759 734 735 760 737 737 770 738 
738 770 785 785 761 739 740 707 761 
740 771 708 741 786 742 773 875 743 
709 743 875 744 814 745 799 815 775 
749 776 750 776 777 750 777 763 750 
751 763 764 753 765 817 753 752 765 
754 843 804 754 804 755 766 779 805 
724 725 806 730 780 807 730 767 780 
781 767 768 766 809 729 671 781 768 
769 757 782 782 757 729 782 783 769 
735 783 797 735 797 760 760 784 737 
737 784 770 740 761 771 772 813 705 
813 832 705 787 773 742 787 788 773 
774 789 772 814 775 745 749 747 815 
777 776 763 764 801 793 752 764 793 
794 752 793 752 794 795 795 765 752 
806 818 724 767 781 780 805 809 766 
829 671 705 760 797 784 785 798 761 
875 773 787 686 876 814 687 814 744 
775 814 799 815 799 833 776 815 763 
749 815 776 748 791 855 764 763 800 
800 792 764 792 801 764 802 794 793 
765 795 817 848 806 725 725 865 848 
725 727 865 756 895 727 780 808 807 
781 796 780 780 796 808 781 671 796 
824 796 671 809 782 729 671 869 824 
810 811 782 783 782 811 783 811 797 
784 812 770 770 812 785 830 785 812 
830 798 785 786 873 742 873 787 742 
789 813 772 854 789 790 834 815 833 
748 855 909 800 816 792 792 816 801 
817 795 839 839 795 802 802 795 794 
723 778 843 779 819 805 755 819 779 
821 820 809 821 805 820 822 807 808 
808 823 822 808 796 823 805 821 809 
822 825 807 810 782 826 850 782 809 
826 782 850 797 827 784 812 903 830 
798 830 831 831 761 798 870 829 705 
761 831 771 831 904 771 787 874 875 
748 908 835 763 815 856 856 800 763 
885 800 856 816 800 885 836 816 885 
801 816 836 837 791 817 817 839 837 
801 838 840 793 801 840 840 802 793 
841 802 840 802 841 839 805 819 820 
824 822 823 796 824 823 844 825 822 
850 845 826 824 869 867 846 810 826 
810 846 811 811 846 797 846 827 797 
784 827 828 832 870 705 741 771 904 
833 799 853 853 834 833 748 909 908 
791 837 858 836 838 801 840 838 841 
839 847 837 863 755 804 778 936 843 
819 755 863 806 848 818 922 865 727 
922 727 895 824 825 822 849 825 824 
807 895 756 825 844 807 825 849 844 
824 867 849 826 845 846 845 827 846 
851 828 827 784 828 851 812 784 928 
812 928 903 831 830 852 832 878 870 
852 904 831 741 904 786 877 814 876 
813 789 880 789 854 880 854 790 835 
834 881 815 815 881 907 815 907 856 
838 836 885 857 791 858 860 838 885 
860 859 838 861 858 837 841 838 859 
859 860 841 860 862 841 861 837 847 
862 847 841 839 841 847 778 842 892 
804 950 863 843 936 804 804 936 950 
803 917 915 803 894 917 820 864 809 
819 864 820 866 807 844 809 868 850 
807 898 895 845 850 940 850 868 940 
869 671 902 845 944 827 829 902 671 
827 944 851 851 927 784 927 928 784 
830 872 852 874 1018 875 874 787 873 
876 762 875 832 879 878 946 814 877 
813 879 832 930 880 854 835 930 854 
882 856 883 791 890 855 856 883 885 
856 882 883 858 886 857 858 861 886 
861 862 887 847 862 861 936 778 892 
915 892 803 803 892 842 849 899 844 
844 899 866 864 868 809 849 867 899 
902 829 926 944 888 851 927 888 944 
888 927 851 904 852 872 871 870 878 
930 813 880 834 853 929 929 881 834 
856 907 933 856 933 883 890 791 884 
857 884 791 857 886 884 861 887 886 
885 891 860 862 891 887 862 860 891 
863 893 819 818 918 894 920 864 893 
819 893 864 865 994 818 865 818 848 
866 896 897 896 866 899 864 920 921 
868 864 921 807 897 898 897 807 866 
900 899 867 921 940 868 867 869 900 
900 869 901 901 869 902 940 944 845 
829 960 926 829 870 960 960 870 889 
903 872 830 870 871 889 904 985 786 
905 871 878 985 873 786 874 873 985 
878 906 905 878 879 906 990 906 813 
906 879 813 813 930 990 929 965 881 
931 930 908 908 930 835 907 881 933 
910 909 855 935 910 855 855 890 935 
885 883 911 883 912 911 911 913 885 
913 911 912 884 913 890 913 914 885 
886 913 884 914 886 885 914 913 886 
886 887 891 885 886 891 914 887 886 
916 893 863 950 916 863 894 979 917 
818 994 919 865 922 996 897 896 923 
899 900 896 898 924 895 925 897 923 
961 960 889 872 903 928 889 871 905 
946 877 1019 799 814 853 906 990 905 
933 881 965 908 969 967 909 932 908 
910 932 909 933 934 883 912 883 934 
894 918 979 818 919 918 920 937 921 
996 995 865 895 953 922 953 895 924 
923 896 925 896 900 925 924 898 938 
898 897 938 938 897 925 900 939 925 
939 941 925 939 900 941 941 938 925 
941 900 942 900 901 942 901 902 942 
942 902 943 943 902 926 876 875 1124 
889 905 945 853 814 946 905 990 945 
931 947 930 908 932 969 910 932 948 
972 933 970 933 972 934 934 949 912 
935 949 934 890 949 935 949 913 912 
890 913 912 949 890 912 1050 936 892 
892 1071 1050 919 980 918 919 994 951 
865 952 994 995 952 865 921 937 954 
920 954 937 953 996 922 921 956 940 
956 921 954 924 957 953 957 955 953 
957 958 955 924 958 957 938 958 924 
956 944 940 981 938 941 941 943 981 
942 943 941 926 959 943 1080 927 944 
960 959 926 876 1019 877 961 889 945 
1019 964 963 904 872 962 985 904 962 
946 1019 963 964 946 963 946 963 853 
991 990 930 947 966 930 931 966 947 
931 908 966 908 967 966 968 933 1005 
992 933 968 933 992 970 971 969 932 
932 910 974 910 973 974 932 974 971 
935 973 910 975 934 972 934 975 935 
973 935 975 976 916 950 950 936 976 
915 917 979 978 915 979 916 1011 893 
950 977 976 980 993 918 919 951 980 
920 1074 954 956 1053 944 938 981 958 
1053 1080 944 943 959 981 927 1080 1017 
959 982 981 960 983 959 928 984 986 
872 928 986 1124 875 1018 876 1124 1116 
853 963 964 1024 945 987 990 989 987 
990 987 945 1004 965 988 965 929 988 
1033 1030 930 965 1005 933 1008 969 971 
970 974 972 973 972 974 973 975 972 
916 976 1011 977 976 936 936 1050 1068 
892 1012 1071 1013 1012 915 915 1012 892 
1013 915 978 976 977 1011 979 918 993 
996 1081 995 955 958 981 955 981 953 
982 959 997 959 983 997 997 1016 981 
982 997 981 960 961 983 927 1017 928 
983 961 999 1000 985 1145 874 985 1000 
1057 874 1000 1018 874 1057 872 986 1001 
1001 985 962 964 1019 1082 961 945 1002 
999 961 1002 962 872 1001 945 1024 1002 
1063 929 853 988 929 1063 988 1063 1003 
1003 1022 988 1004 988 1022 991 930 1030 
1004 1005 965 930 966 1006 1006 966 967 
992 968 1007 967 969 1008 1006 967 1008 
1009 992 1007 1010 992 1009 992 1010 970 
974 1010 971 1010 1008 971 974 970 1010 
1073 920 893 1073 893 1011 1073 1074 920 
980 1077 993 980 1052 1077 951 1052 980 
952 995 1081 954 1014 956 952 1055 994 
953 1087 996 1016 1015 981 997 998 1016 
998 997 983 998 983 999 1017 984 928 
1017 1020 984 876 1116 1019 986 984 1001 
1021 985 1001 853 964 1082 1002 1025 1042 
1024 1025 1002 1022 1003 1063 1023 1003 1022 
987 1025 1024 987 989 1025 989 1026 1025 
990 991 1028 1029 1028 991 1030 1029 991 
1031 1030 1033 1032 1004 1066 1005 1004 1032 
1033 930 1034 1035 1005 1032 1034 930 1037 
1035 1036 1005 1037 930 1006 1036 1007 968 
1005 1036 968 1037 1007 1036 1037 1006 1007 
1008 1009 1006 1006 1009 1007 1008 1010 1009 
1013 1039 1038 978 1039 1013 979 993 1077 
951 994 1055 1074 1014 954 956 1014 1053 
1081 1054 952 1081 996 1056 953 981 1088 
1088 1087 953 1015 1040 981 1085 1020 1017 
1082 1086 853 998 999 1042 998 1041 1016 
1042 1041 998 999 1002 1042 1021 984 1020 
1001 984 1021 1042 1025 1062 1064 1044 1043 
1064 1004 1022 1043 1004 1064 1062 1027 1044 
1027 1043 1044 1025 1027 1062 1027 1004 1043 
1025 1026 1027 1026 1045 1027 1046 1045 1026 
989 990 1047 1026 989 1047 990 1046 1047 
1047 1046 1026 1027 1048 1004 1045 1048 1027 
1029 1045 1046 1048 1045 1029 990 1028 1029 
1046 990 1029 1066 1004 1048 1034 1037 1035 
1032 1034 1035 1037 1036 1035 1069 1011 977 
936 1109 977 977 1109 1069 1070 1109 936 
936 1068 1070 1012 1013 1072 1072 1013 1039 
1051 1014 1074 1052 951 1055 1051 1053 1014 
1055 952 1054 1056 996 1087 981 1040 1059 
1080 1085 1017 1115 1018 1057 1124 1018 1115 
1019 1116 1105 1106 1019 1105 1103 1019 1106 
1058 1019 1103 1104 1019 1058 1059 1088 981 
1040 1015 1060 1015 1016 1061 1060 1015 1061 
1061 1016 1062 1016 1041 1062 985 1021 1117 
1062 1041 1042 1063 853 1084 1092 1022 1063 
1090 1022 1092 1022 1090 1064 1044 1064 1061 
1062 1044 1061 1048 1029 1065 1065 1049 1048 
1030 1049 1029 1029 1049 1065 1048 1049 1066 
1030 1031 1049 1049 1031 1067 1066 1067 1031 
1031 1033 1032 1066 1031 1032 1033 1034 1032 
1071 1012 1072 978 1111 1039 1075 1111 978 
978 979 1075 1076 1075 979 979 1077 1076 
1078 1104 1052 1052 1055 1078 1055 1054 1079 
1079 1054 1081 1082 1019 1104 1086 1082 1083 
1087 1084 1056 1085 1118 1020 1059 1089 1088 
1040 1090 1059 1040 1060 1091 1060 1061 1091 
1118 1021 1020 1118 1117 1021 1084 853 1086 
1040 1093 1090 1091 1093 1040 1090 1093 1091 
1064 1090 1091 1061 1064 1091 1049 1067 1066 
1011 1119 1073 1068 1095 1094 1050 1095 1068 
1072 1039 1111 1072 1098 1097 1111 1098 1072 
1076 1099 1075 1075 1076 1100 1076 1100 1099 
1077 1100 1076 1051 1101 1053 1102 1101 1051 
1077 1052 1104 1077 1104 1103 1101 1080 1053 
1104 1078 1082 1078 1055 1083 1055 1079 1083 
1058 1103 1104 1082 1078 1083 1080 1107 1085 
1081 1056 1084 1107 1108 1085 1079 1086 1083 
1086 1079 1084 1084 1079 1081 1088 1089 1092 
1089 1059 1090 1092 1089 1090 1087 1063 1084 
1092 1063 1087 1088 1092 1087 1011 1069 1119 
1070 1068 1095 1119 1096 1073 1071 1072 1123 
1123 1072 1098 1096 1074 1073 1110 1074 1096 
1071 1123 1050 1111 1075 1112 1075 1099 1112 
1110 1102 1051 1110 1051 1074 1099 1100 1112 
1112 1100 1113 1113 1100 1114 1100 1077 1114 
1077 1106 1114 1103 1106 1077 1106 1105 1114 
1107 1080 1101 1139 1057 1000 1145 985 1117 
1118 1085 1108 1069 1109 1132 1120 1070 1095 
1119 1122 1096 1123 1121 1050 1125 1098 1111 
1110 1126 1102 1125 1124 1098 1102 1127 1101 
1057 1129 1130 1128 1129 1057 1130 1129 1115 
1115 1129 1124 1124 1111 1125 1139 1128 1057 
1130 1115 1057 1116 1124 1125 1111 1116 1125 
1105 1116 1111 1112 1105 1111 1114 1105 1112 
1113 1114 1112 1127 1107 1101 1127 1131 1107 
1107 1131 1108 1132 1119 1069 1109 1070 1120 
1095 1050 1121 1142 1095 1121 1120 1135 1133 
1095 1135 1120 1142 1135 1095 1096 1122 1110 
1123 1136 1121 1123 1098 1129 1129 1098 1124 
1126 1110 1122 1123 1129 1136 1102 1126 1127 
1138 1139 1000 1131 1140 1108 1118 1108 1140 
1117 1118 1140 1132 1150 1119 1109 1141 1132 
1109 1120 1135 1119 1134 1122 1150 1134 1119 
1109 1148 1141 1135 1148 1109 1143 1142 1121 
1121 1136 1143 1134 1126 1122 1137 1126 1134 
1137 1144 1127 1126 1137 1127 1143 1128 1139 
1128 1143 1129 1138 1000 1145 1152 1140 1146 
1131 1127 1144 1117 1140 1152 1145 1117 1152 
1150 1132 1141 1147 1150 1141 1150 1149 1134 
1151 1148 1135 1139 1138 1135 1139 1135 1142 
1139 1142 1143 1149 1137 1134 1145 1154 1138 
1152 1153 1149 1154 1145 1152 1136 1129 1143 
1146 1153 1152 1146 1131 1144 1140 1131 1146 
1147 1141 1148 1152 1150 1147 1151 1154 1148 
1154 1151 1135 1154 1135 1138 1155 1137 1149 
1155 1156 1144 1137 1155 1144 1149 1153 1155 
1153 1156 1155 1144 1156 1153 1146 1144 1153 
1150 1152 1149 1148 1154 1147 1154 1152 1147 

