# vtk DataFile Version 5.1
vtk output
ASCII
DATASET POLYDATA
POINTS 1114 float
71.7925 28.9926 1.06293 69.4025 31.6585 0.936115 69.2861 23.3677 1.97136 
74.4043 23.1098 1.70934 76.2781 23.6972 1.85414 74.047 26.1738 1.31619 
62.1485 29.2766 1.96753 74.2747 31.781 1.28915 59.4998 34.5164 1.94841 
76.8527 34.5159 1.99843 62.1198 37.1385 1.48991 76.7748 37.2474 2.16058 
66.6591 40.3585 1.3881 69.2874 45.3821 2.06597 69.2643 20.6892 2.90758 
71.9624 20.4634 3.03171 73.9463 20.8279 3.14633 80.0139 23.6364 3.55219 
78.259 28.9652 2.22504 79.6026 29.1456 2.99483 78.9055 35.2844 2.99701 
78.5167 37.5558 3.19965 77.9291 37.4654 2.74375 77.7701 40.2398 2.92658 
78.3333 38.8284 3.52926 56.8729 42.7733 2.88577 74.5544 44.7371 2.27339 
76.323 44.8642 2.8884 75.4563 45.6756 2.82343 64.3398 48.2771 2.77414 
72.1654 48.5235 2.9111 73.5956 47.8923 3.49322 69.5286 51.1422 3.29901 
64.2482 20.4609 3.68666 71.771 18.4705 4.72925 74.4656 19.9708 4.54816 
77.9763 22.1119 3.67131 79.2856 22.2089 4.57075 82.2793 24.0011 4.62204 
82.0974 26.1292 4.65554 81.4146 28.7548 4.85024 80.562 28.798 3.78666 
80.3411 32.168 4.45563 79.713 34.659 4.56116 52.2173 37.2379 3.76086 
78.0716 39.6776 4.48561 77.1284 42.5379 4.46509 75.7979 45.1234 4.48205 
73.8787 48.0765 4.5978 71.982 51.0837 3.55261 59.3524 51.114 3.96304 
72.4257 51.2682 4.33095 69.6362 54.451 4.58791 62.241 17.5984 4.91767 
64.4775 17.8845 4.64207 68.3564 17.7593 4.92975 71.9028 17.981 5.96973 
49.6849 29.085 5.00704 49.7386 48.105 5.2812 71.0872 53.0091 4.84531 
69.012 55.4223 5.23758 59.7279 14.9461 6.34458 64.6623 15.7953 5.93174 
64.2804 16.0212 5.7249 54.5167 18.0801 6.18419 73.5905 18.7076 6.24819 
74.8955 19.6798 5.8644 78.6908 21.556 6.16497 82.549 23.9414 5.3769 
49.6124 23.5709 6.25458 82.2096 26.3384 6.21496 44.7163 31.7814 6.31654 
80.5883 31.225 5.82248 80.1709 32.0597 6.34619 71.6585 51.5041 6.26526 
70.3167 54.494 5.96044 54.4947 56.4443 6.04853 69.3902 55.9666 6.12257 
67.9196 57.0031 5.59464 67.141 59.2185 6.21123 68.6338 57.5194 6.31373 
64.0394 14.552 7.59028 66.2392 15.1871 7.60314 52.011 15.2932 7.51979 
73.9876 18.7153 7.67528 49.7749 20.9567 6.80551 47.3558 23.7243 6.90142 
42.5704 31.8637 7.12488 42.0702 31.7279 7.36023 70.0292 53.7651 7.54347 
68.5154 58.6101 7.42254 61.947 61.6876 6.79878 66.1245 61.3552 6.84732 
67.3238 61.6639 7.52138 64.8167 62.3409 6.99986 58.6838 12.7774 7.9488 
54.5469 61.8223 7.84214 64.4953 64.565 8.06498 66.4529 63.5755 8.15886 
66.7291 63.8663 9.05067 52.1671 10.8934 9.48826 54.6678 11.5738 8.57689 
56.4742 11.0971 9.46223 66.7464 15.1466 8.85108 81.0912 25.9322 8.91682 
37.1537 37.2223 8.84741 36.957 45.6509 8.88446 39.5194 51.048 8.64433 
42.224 56.4289 8.9466 68.2117 58.9034 8.75301 68.0114 59.3508 9.13243 
67.4375 61.9653 9.03019 65.6108 64.7482 8.62445 60.0074 67.5918 9.32514 
54.2835 10.2876 10.5132 56.8266 10.8803 10.6012 59.6237 12.0158 10.3697 
61.7541 12.898 10.6452 79.1379 28.9356 10.6982 34.9697 39.9896 9.55463 
39.4651 56.5817 10.1445 66.7622 61.9974 10.352 49.6961 9.57884 10.6702 
47.7079 9.96978 10.8558 44.7741 12.695 10.9299 57.6082 11.12 10.9594 
79.7791 26.5663 11.109 73.0425 42.1922 10.0338 32.4332 42.7095 10.8457 
34.9011 50.8894 10.8584 65.8572 64.3875 10.8709 65.2367 65.6294 11.0073 
62.1978 70.0809 10.9174 62.6696 70.5242 11.7143 47.2627 8.99876 11.6855 
49.3437 8.14059 12.3693 44.7572 9.70649 12.2915 39.4687 17.8934 11.6881 
76.9743 20.5005 12.2518 34.8461 23.5689 12.2584 32.3756 29.0369 12.24 
29.9457 37.2488 12.2927 74.075 37.1835 12.1589 29.9547 45.6235 12.4282 
65.6369 59.4491 12.2021 39.8395 62.001 11.8822 65.899 61.7828 11.5598 
65.2539 61.9615 12.4616 65.2501 59.2498 12.8046 64.5452 66.8898 11.8179 
52.0123 70.199 11.9879 63.5449 69.4321 12.409 61.3862 72.2343 12.5704 
44.6785 7.62199 13.9801 44.4653 8.88426 12.9475 47.0988 7.45949 13.7038 
49.9891 7.80481 13.2338 78.6778 23.2805 14.0642 74.522 34.6478 13.8403 
27.534 37.2565 13.8639 67.4114 51.1465 13.7386 62.8812 71.118 13.6262 
61.7465 72.9347 13.6549 59.889 73.4445 12.9028 42.4199 8.32919 14.2739 
42.2271 9.37344 13.709 77.1762 20.8103 15.3469 63.9571 67.3163 13.5023 
59.7907 75.1574 13.8954 61.1367 74.9411 15.1855 47.3372 6.89241 14.9694 
41.7684 7.51666 15.2796 49.5451 7.3388 15.2641 77.8299 21.6888 15.0004 
78.4218 23.3367 14.9896 77.7672 26.1384 15.3953 27.3438 31.736 15.1019 
26.821 37.1402 14.3696 25.211 37.2782 15.5374 25.1223 39.9865 15.4167 
25.1128 42.7106 15.4056 69.218 45.4206 15.2037 29.5945 53.8302 14.7283 
65.0824 56.1006 14.9197 39.9466 69.8781 15.6064 41.7692 70.4929 15.0585 
62.7498 70.4976 15.0884 59.7659 76.2551 14.8937 39.9144 6.92121 16.4841 
39.9414 7.88101 15.8134 37.0512 9.62166 16.2948 56.6976 10.4526 16.7737 
34.6669 12.5143 16.4922 77.1239 20.8617 16.8524 77.8102 23.2531 17.3555 
77.3523 25.6583 16.824 25.726 32.026 16.2353 25.0321 31.7869 16.8072 
27.6286 56.285 16.9906 29.8809 59.1518 16.7066 42.5006 72.3912 15.9248 
59.2377 77.7684 15.9005 60.513 76.748 16.6311 61.0215 75.7168 16.6016 
59.6615 78.424 16.7177 42.5187 5.63389 17.4138 77.7351 23.2805 17.404 
28.185 58.6536 17.7276 32.7082 64.3569 17.2405 57.4889 78.6968 16.4252 
60.0621 78.9013 18.3906 59.8012 11.7882 18.1561 76.9556 20.895 18.3086 
77.5004 23.7249 17.9767 22.4077 47.9279 18.3524 24.3927 51.1546 17.5541 
22.9388 50.7735 18.7047 39.5827 73.0254 17.9954 60.9404 75.2123 18.0485 
44.3563 76.0446 17.7285 49.5178 78.545 17.9119 57.2788 80.9498 18.289 
58.8036 81.1061 18.7947 39.7969 4.14245 19.7551 37.7776 5.30721 18.7932 
44.3174 5.0593 19.633 30.071 12.7009 19.9441 77.1872 23.2667 19.7449 
22.8326 26.4091 20.0938 22.2402 51.0249 19.4652 61.7055 64.5852 19.6773 
44.9769 77.714 18.8938 44.6355 78.3658 19.6743 60.1137 78.882 19.5039 
59.2038 81.3234 19.5698 36.8828 3.47217 21.3618 41.9007 3.87809 21.3024 
35.2726 5.20489 20.0978 34.7829 6.03722 19.7459 20.4647 34.5682 20.1594 
60.4207 75.6841 19.6322 57.5896 82.8048 19.9146 58.4658 82.9136 20.2499 
58.8713 83.296 21.4789 34.5932 4.09721 21.7588 44.6165 4.83996 20.9983 
24.6049 20.6156 20.8442 19.543 45.8067 20.9687 22.4097 55.5527 21.1269 
59.6953 78.9291 21.1198 59.4499 81.0365 20.8712 49.5527 81.624 20.6399 
57.6141 83.4745 20.7051 37.2077 3.14437 22.0795 54.8761 9.0227 22.7281 
58.9868 10.8274 22.8435 76.3834 23.6472 22.4459 69.3943 40.0253 22.7819 
67.9722 43.1618 22.998 64.9462 51.1488 22.8854 60.8694 64.4492 22.5198 
44.5695 81.2256 22.5743 54.8724 84.6003 22.7243 57.4591 84.6042 22.8574 
58.9367 83.4099 22.7684 36.8779 2.63396 24.0052 34.8086 3.46565 22.5221 
32.728 4.74226 22.5514 17.6701 39.98 22.8223 42.4821 80.5959 23.1819 
59.291 81.6384 22.3233 34.544 2.81087 24.0552 35.1865 2.90518 23.4765 
38.8094 2.83979 24.23 72.3479 32.0056 24.3807 69.1169 39.9034 24.2275 
19.4409 54.0156 23.7095 63.8406 53.471 24.1851 61.8227 59.1136 24.2511 
22.7224 61.7578 24.4566 30.2457 72.4993 24.6439 37.3838 78.1692 24.3931 
42.0917 81.2258 24.0856 40.1014 80.5303 24.7457 58.682 83.6434 23.9156 
54.3911 84.9592 23.2934 54.6056 86.0126 24.4534 57.783 84.727 23.8189 
56.7793 85.7102 24.6077 36.697 2.46721 25.4842 38.9409 2.79819 25.7623 
30.078 3.81991 25.9201 47.7104 5.82305 25.8019 27.3721 6.9785 25.7012 
22.4341 15.3002 25.6824 75.1643 19.9626 25.8577 76.0432 22.9373 25.5525 
16.7901 31.5969 25.1725 71.1906 34.2839 25.6795 22.0832 62.1267 25.3823 
27.3163 70.1792 25.6586 36.9399 78.7697 25.3061 58.1104 84.7236 25.3547 
49.6651 85.9564 25.4415 56.8908 86.7112 26.0242 65.3622 48.5949 25.9136 
20.802 61.4618 26.4164 35.0176 78.0439 26.0175 58.1229 84.9862 27.2273 
54.8341 89.2928 26.5023 55.8145 88.444 26.51 42.4011 3.83511 27.2691 
25.4211 6.78136 27.6083 19.7254 17.9227 26.9649 74.0701 19.1175 27.406 
17.9073 20.9394 27.5484 75.1015 20.0784 27.3929 75.7908 21.3982 27.2994 
60.8416 61.6305 27.2179 58.4687 81.1398 27.3976 58.3225 83.6207 27.1299 
44.2437 84.5668 26.6138 45.1332 85.836 27.5393 56.1042 88.7816 27.3792 
55.251 90.6928 27.1718 30.7472 2.72696 27.3216 29.9035 2.27242 28.6182 
75.55 20.8924 27.9188 75.3765 23.5572 27.9736 15.4417 53.5794 28.9826 
39.8326 83.4273 28.5405 41.7612 84.6378 28.6733 44.5696 86.6844 29.0163 
48.1099 88.0514 27.92 51.7624 89.8297 28.5298 15.7473 23.7193 29.2244 
13.4147 34.6148 29.2598 13.543 45.307 29.2929 29.7053 75.7418 28.6246 
56.945 86.0956 28.7594 55.8498 88.7054 28.3003 54.654 89.6911 28.6496 
52.4332 89.6863 30.0742 54.338 88.5521 30.0408 50.2447 90.0364 30.2715 
29.7903 1.44259 30.3695 32.3539 1.49653 30.5536 22.5917 7.24052 30.3605 
17.0186 59.4173 29.8847 35.2154 81.86 30.472 37.5417 83.1266 30.3955 
42.3528 85.9873 30.4295 44.2996 87.2036 30.2254 47.4398 89.0924 30.5513 
30.2388 0.936436 31.3666 51.8163 7.73697 31.8117 54.8819 8.9237 31.7757 
15.7052 17.9347 31.9176 75.1064 20.8161 31.7943 13.1654 26.4107 32.1078 
69.5017 37.3256 31.7912 11.7262 37.6187 31.4431 65.1104 48.4962 31.768 
64.2065 50.8721 31.7913 18.0667 64.3398 32.1077 59.9389 64.7197 31.7912 
44.0719 87.371 31.6429 47.259 88.9172 31.5313 27.0795 1.29777 32.1408 
53.9758 8.57651 31.8151 11.232 37.3298 32.3757 57.5924 78.232 31.4856 
53.3267 87.9546 31.4763 51.6043 89.4941 31.6511 49.6886 89.5272 32.091 
24.9233 1.72842 33.2036 29.9518 0.57635 33.1073 31.7109 0.823445 32.9374 
22.9254 4.12955 32.9024 42.4372 3.71891 33.2856 69.0554 15.72 33.3034 
71.618 31.7159 33.2941 10.6041 37.2006 33.4888 69.4969 37.3216 33.2905 
17.513 64.6558 33.2442 58.6528 72.8633 33.1626 57.8059 75.5657 33.1735 
29.6755 79.2313 33.4669 37.7674 83.7189 33.4275 40.1199 84.494 33.1693 
44.7238 87.3037 33.3556 45.4054 87.9127 32.497 51.1818 88.7339 32.8512 
49.9786 89.1861 32.9466 27.1166 0.466576 34.6876 17.7768 9.97416 34.9068 
12.949 20.9054 34.9502 75.1783 20.5944 34.7099 75.2762 23.3059 34.9918 
71.6484 31.7273 34.8026 62.3684 56.5597 34.7639 20.186 69.9753 34.8853 
59.2103 70.2268 34.9705 56.0318 77.862 34.2905 32.1626 81.9966 34.8209 
33.3573 82.9879 35.1606 34.653 83.5792 35.2619 37.101 83.4793 34.6974 
39.7951 83.6584 34.9301 51.5694 86.2193 35.0209 44.6565 86.5076 34.5602 
47.1056 87.2593 34.8032 30.4405 80.7448 36.2847 54.4394 80.9995 34.8511 
50.0166 87.907 34.6016 22.5009 1.57077 36.1539 15.5212 12.8072 36.501 
73.8404 19.0527 36.1837 75.6423 21.6065 36.7547 75.7622 22.7939 37.0549 
9.4179 40.0445 35.8861 68.7086 39.755 36.3396 58.2523 72.2247 35.8364 
25.7824 77.5779 36.8195 54.9749 78.2279 36.0576 27.3492 78.8658 36.4456 
32.6985 82.292 36.3416 34.5132 83.3714 35.6845 49.4811 86.0936 36.2632 
22.3908 0.971872 37.4921 25.1929 0.384688 37.5159 17.7087 7.19686 37.8719 
15.0259 12.557 37.7575 75.1917 20.273 37.8488 8.23213 39.9476 38.0752 
8.87293 39.9012 36.9055 14.8974 64.7435 37.6716 25.6617 78.189 37.9897 
29.6873 80.3002 37.6172 32.0692 80.6241 38.0201 34.2316 81.3986 37.5302 
51.6122 83.5288 38.0964 15.9607 10.2954 38.2143 24.1866 76.5227 37.9736 
27.4038 79.3808 39.4158 42.2031 81.4931 38.3976 19.7257 1.63304 39.6455 
49.7831 6.6328 39.276 62.2348 11.9014 39.3364 68.9412 15.6535 39.2755 
7.68883 34.4991 39.2859 60.3637 65.1118 39.4887 59.3893 67.417 39.4193 
56.3618 72.6887 39.3714 25.5806 78.5083 39.269 53.9204 78.1256 39.2435 
34.74 80.2821 38.3639 34.8507 78.5364 39.6499 47.2616 83.5542 39.1304 
49.4348 83.7779 39.3026 19.8585 1.01536 41.0605 22.2963 0.438204 40.4785 
18.6574 2.14016 40.5092 17.4778 4.34953 40.7971 18.9459 3.82314 38.6109 
74.9121 20.1386 40.8758 76.607 21.6176 40.9223 76.506 22.978 40.8492 
14.9798 67.4959 40.7544 22.3304 75.9275 40.9096 25.126 78.076 40.9946 
27.0157 78.7345 40.9992 52.1393 81.4091 40.9994 27.5801 0.5049 40.8901 
16.6643 6.7257 40.413 13.1612 64.9288 40.9836 22.7832 76.3254 42.2231 
29.7 78.2979 40.8058 37.2187 75.9562 41.4054 19.8736 0.822738 42.2425 
18.1514 2.02732 41.9571 12.6983 12.6252 42.3403 76.2266 21.5344 42.0637 
76.6345 22.5995 41.5257 6.10258 34.5964 42.6798 20.7001 74.9509 42.596 
24.3061 76.791 42.5389 25.4431 77.6631 41.9236 26.846 77.7064 41.9214 
44.5214 78.3429 42.3987 47.2229 80.9305 42.2043 50.0887 81.3136 43.3057 
20.1671 0.520137 43.7077 18.225 1.41063 42.8881 46.9104 4.98176 43.8698 
15.3164 6.92507 43.6134 52.0488 7.15604 43.8311 12.1919 12.3704 43.5897 
10.4734 15.4737 43.9615 75.037 25.7908 44.0689 68.6709 42.5199 43.9572 
17.8665 72.6489 43.9683 19.2576 73.8579 43.8353 32.124 73.3877 42.9584 
54.9344 73.0093 43.91 22.5748 75.5333 43.8625 51.9187 80.1132 44.4093 
49.7375 80.9624 43.708 13.1213 10.1234 44.0612 75.4444 24.7444 44.0681 
47.679 80.3288 43.0473 49.0437 5.77714 45.3594 10.892 12.9381 45.6557 
11.378 13.184 44.3981 74.6222 21.1504 45.4964 75.5248 23.4816 45.8538 
75.6938 23.4123 45.6673 5.91693 26.2812 45.5772 4.04824 37.2506 45.7602 
5.87618 53.8039 45.4448 7.82437 59.2558 45.3175 63.5761 58.5174 45.2164 
32.2049 70.0489 45.1782 17.8125 72.8176 45.5828 40.1722 72.3491 44.7548 
19.5485 73.5667 45.6762 22.7034 74.7082 44.6431 20.6875 74.4612 44.5426 
52.5092 79.0931 45.253 51.3356 79.9118 45.5977 17.1819 1.3538 47.1071 
15.4372 4.0844 46.7713 55.1184 8.65584 46.9048 75.4874 23.5806 46.9498 
2.89032 36.7961 47.489 25.2474 69.5677 46.7175 22.6199 73.5093 45.5333 
17.6673 72.4865 46.8207 53.6718 75.3407 46.9801 53.2551 76.2843 47.4774 
51.7605 79.6419 46.288 5.98148 23.7809 47.0163 71.2393 37.0771 46.9616 
29.9258 67.5655 47.1174 19.9669 72.6084 46.9136 17.264 0.909131 48.4303 
19.7343 0.346486 48.3724 15.5316 1.93242 48.5872 15.9305 2.71561 47.1561 
37.1011 2.47273 48.3086 6.87422 20.2462 47.5288 74.1426 21.4561 48.2323 
75.2874 23.2076 48.719 75.6129 24.331 48.4065 4.33277 26.6035 48.8195 
4.67782 29.4984 48.4277 4.55698 31.244 48.4353 3.56667 39.9503 48.465 
4.12279 42.4601 48.4046 4.15036 45.4497 48.2409 4.47435 53.6257 48.4671 
64.9449 56.2574 47.8967 6.77379 59.5673 48.2482 7.84554 61.7588 48.5777 
39.7094 67.4426 48.4593 15.2266 70.5496 48.1734 16.8208 71.1291 48.8645 
54.0818 73.1087 49.0478 49.9886 75.6625 48.5687 52.2908 76.0967 48.9935 
50.5871 77.7212 47.5637 51.5911 78.6126 47.1491 17.2644 0.607403 49.9296 
27.4585 1.37726 49.8645 13.2402 4.03658 49.9382 8.05743 15.4996 49.9403 
5.99197 20.8602 49.8284 75.735 24.1302 49.9186 4.28339 26.3284 49.5771 
75.3611 26.6132 49.6323 2.13013 34.5779 49.7475 1.99743 37.0516 50.3159 
3.94095 45.5457 49.5561 67.4128 51.2103 49.9721 66.6793 53.3662 49.966 
61.7006 59.3139 49.8638 9.64491 64.9504 49.7652 34.9751 65.4647 49.0717 
15.4825 70.68 49.3295 15.2173 1.52515 49.8836 5.57318 22.9004 51.3891 
4.2871 29.0468 49.5501 3.97112 29.3484 50.1984 72.8981 34.0473 50.1875 
4.0122 45.3537 48.9776 8.85227 63.8178 50.2497 25.1776 64.8682 50.228 
13.4222 69.1607 50.1343 17.3164 69.9868 49.9457 51.9341 75.0922 49.6883 
52.2942 74.6386 50.1274 15.063 1.1822 51.5524 17.7176 0.495652 51.5888 
19.7045 0.411391 51.3416 13.7152 2.50033 50.9891 66.5046 15.7886 51.2682 
67.7944 16.8285 51.6 69.3491 18.0122 51.3717 6.10988 19.0114 51.8003 
75.5502 24.1573 51.3277 75.8191 25.564 51.2076 3.60049 28.3542 51.619 
3.70194 40.2979 51.2163 10.8863 67.163 51.7406 47.2575 67.7319 51.6631 
54.215 71.1678 51.4274 15.5339 69.8285 51.1083 50.089 72.5219 50.8262 
52.1609 72.5706 51.5553 17.2818 0.639698 52.8031 15.35 0.998474 52.1379 
13.3164 2.42826 52.9628 64.682 14.8649 52.9698 76.1066 26.0469 53.0194 
3.00767 29.5074 52.9501 2.55885 31.614 53.0778 2.58311 34.4753 53.0872 
2.08751 37.3513 54.3617 3.82652 40.2256 52.8868 3.2202 50.3794 52.8234 
66.2472 53.1545 52.6111 5.93127 58.6884 52.745 8.02746 62.1648 53.0183 
10.7622 67.1971 53.1565 56.1813 67.2459 53.0856 12.1473 68.2722 53.7915 
53.9767 70.8304 52.3978 52.2205 70.4877 53.7428 52.2857 71.6244 52.4684 
75.7784 24.6598 52.8153 5.65509 58.4685 53.9463 13.3037 2.22361 54.2385 
51.8133 7.6535 54.304 74.9693 23.6073 54.1502 2.62699 31.6799 54.3637 
2.90353 35.177 54.3726 1.92009 37.1459 55.0489 8.0135 61.6732 54.3121 
58.9372 61.9628 54.4506 44.5902 62.0202 54.5643 17.8726 64.0896 54.2138 
10.8079 67.3115 54.5464 56.1469 66.9177 54.2819 12.259 67.8082 54.6904 
55.0179 67.8007 55.1063 52.0023 67.7179 55.1894 52.3337 70.1147 54.1433 
54.0598 69.4245 54.1358 42.2433 4.29449 55.8783 9.60875 9.94103 55.6144 
9.11379 11.5623 55.8576 7.30836 14.6073 56.2269 70.1877 19.8777 56.1259 
3.19074 34.99 56.0111 2.31812 37.0553 55.786 3.7046 39.1864 56.1184 
71.8777 42.7723 55.8285 3.9972 46.1794 56.1149 70.0882 46.3704 56.0319 
67.4062 50.1649 55.4662 49.7888 64.4212 55.5879 57.1064 64.8404 56.0184 
9.28748 65.0074 56.5507 14.6568 66.0964 55.0653 10.9573 67.1511 55.6512 
11.9007 67.4465 55.6992 54.5972 67.6225 55.5871 55.9002 66.6459 55.6086 
14.5414 1.30919 57.4842 7.57531 14.5629 57.5118 5.44278 20.8471 56.0862 
75.7162 24.7544 55.6873 2.84308 31.4911 55.8752 3.1099 56.3389 55.8592 
29.9991 57.0766 56.5837 32.334 56.9557 56.4843 34.7336 57.043 56.5808 
24.9418 59.0007 55.7249 52.5043 66.8952 55.8001 12.8791 1.90795 57.0756 
29.9648 1.4899 57.3711 10.2201 4.51626 57.943 9.71357 7.0661 57.3402 
9.7983 9.82904 57.2656 9.36167 12.4564 57.5496 6.82079 17.6629 57.8702 
6.03003 19.0207 57.4816 5.56307 20.8479 57.6085 5.0701 23.4591 57.7649 
74.8491 24.0619 56.9163 76.6611 26.0694 57.4093 3.18005 31.8231 57.519 
3.54188 34.5407 57.4831 3.18158 37.0601 57.3755 3.87222 46.6029 57.4615 
1.9032 53.2071 57.8683 3.23037 57.1301 57.4979 25.0762 56.8191 57.794 
39.6835 56.7544 57.7379 42.4005 58.4743 56.6584 6.92829 59.7962 57.1797 
8.30935 61.3818 57.9767 15.4805 61.8376 57.3953 56.5192 65.4556 56.803 
8.82553 63.6006 57.3332 9.59396 64.9427 58.5608 10.7307 65.9582 57.0359 
54.7384 65.6559 58.1773 12.4764 2.16635 59.0823 14.7564 1.36997 58.8081 
9.67039 4.88291 59.2852 9.3814 6.4036 59.3321 10.6008 12.375 58.3813 
68.4614 19.0411 58.5687 5.58553 23.6582 59.0971 4.84101 26.1953 59.3514 
76.8293 26.2787 58.4801 3.89256 34.258 58.2441 3.62584 37.0972 58.429 
4.56488 43.2357 58.8467 73.521 41.9948 59.0284 72.4907 43.4907 59.0425 
2.98663 48.6363 59.1377 1.71834 51.126 59.3692 1.90111 52.6972 58.9907 
3.01077 56.3113 58.8122 44.7473 56.7572 58.9788 4.1576 58.3343 59.1157 
8.47723 61.4254 58.9206 8.87695 63.7512 59.0053 56.2506 64.7267 59.7658 
9.17364 64.3131 60.4393 55.5449 64.8477 59.8858 11.4035 3.08477 58.6363 
10.5979 10.1248 58.5165 10.3577 14.4497 58.606 7.55639 18.5137 58.9116 
3.85097 31.439 58.7621 4.51657 34.0049 59.078 4.27922 37.0517 59.5071 
4.49413 40.412 59.2411 4.61392 45.5624 59.1881 71.3363 45.2286 59.0417 
70.2395 46.2739 58.9818 5.53928 58.547 60.2913 7.21355 59.7652 58.9976 
49.4651 59.2627 59.0762 13.1511 62.0142 59.0235 11.9486 63.9293 58.4653 
9.12565 64.2775 60.9713 14.5227 2.17284 60.4628 17.5168 1.80466 60.7238 
19.993 1.53808 60.6178 24.9659 1.60822 60.5298 32.6271 1.75737 60.6355 
9.6964 5.32617 59.885 11.9583 4.2637 60.2443 39.9095 3.80114 60.4102 
9.8184 5.85572 59.9157 11.1965 6.74701 60.1804 15.1588 9.83841 60.2492 
70.9249 21.7993 60.1077 7.66158 24.081 59.8136 5.92102 24.6859 59.8344 
73.8669 24.0522 60.2811 5.67799 25.9307 60.0471 17.8281 26.1452 59.4601 
76.6791 26.2983 60.3868 20.1668 29.0232 59.5641 77.4346 28.7058 60.558 
5.67449 34.1785 59.7018 10.2531 34.4549 59.5804 12.6735 34.755 59.4913 
20.1217 34.5547 59.8087 5.18346 37.1035 60.0544 12.6203 34.6419 59.4455 
12.6479 37.3352 59.884 72.4908 43.5574 60.3445 5.54776 46.3266 60.1302 
71.3681 44.7401 60.1399 5.12853 47.4271 60.3057 3.23083 49.1679 60.213 
2.17339 50.5245 60.738 37.2977 54.7027 59.508 3.79983 56.0616 60.0279 
4.57314 56.3196 60.5804 17.9117 56.7748 60.7233 19.9798 55.676 60.6756 
7.94759 59.7413 60.3929 8.80799 61.3499 60.0232 12.1927 61.0281 60.6081 
9.79764 62.5323 61.3474 54.7192 62.2359 60.813 56.7876 62.8149 60.7304 
55.6627 64.3002 60.5104 8.92883 63.7507 60.234 56.1829 64.5067 60.8222 
27.4603 1.7873 61.7796 42.2453 4.51179 61.8782 15.2495 4.22971 61.2461 
66.5701 18.5179 61.8248 68.0351 19.4745 60.8739 77.6434 28.4231 61.2209 
27.321 34.4554 60.9672 5.44644 39.9245 60.2541 7.33286 39.9249 60.624 
75.712 39.798 62.086 75.1534 40.372 61.6154 22.447 42.6577 60.9163 
7.60674 45.449 60.5376 68.8869 45.477 62.1356 15.0591 48.1652 60.4988 
17.4155 48.052 60.6634 66.6626 48.0085 61.7866 4.07759 51.1274 61.0907 
29.6032 52.6343 61.5989 24.8047 53.0245 61.7932 4.52671 54.0122 60.9211 
19.1713 54.099 61.5762 17.4571 55.5727 61.4696 12.8148 58.5834 61.9065 
52.0352 58.4936 61.3114 59.3652 59.266 61.9819 10.3463 59.6804 61.9432 
9.99745 61.5118 61.2082 56.8503 61.5815 61.6727 17.7187 2.53782 61.3815 
22.0488 2.20598 62.0969 17.6173 4.15894 61.7777 30.2801 17.696 61.8303 
29.9902 20.7918 61.47 32.7299 26.5418 61.8444 76.7269 26.6121 62.0165 
77.963 28.9633 62.2134 22.3095 51.4709 62.2015 32.264 52.7219 61.7672 
17.6814 54.1367 61.5486 27.358 51.3645 62.2887 21.8214 53.5021 61.9629 
10.4466 57.0177 62.2531 12.6721 56.3822 62.3081 15.2794 56.5803 62.072 
8.20478 58.4467 61.7014 9.07176 63.4469 61.417 29.881 2.28111 63.2163 
32.4845 2.61636 63.6639 24.7578 2.81376 62.779 34.2361 2.6416 63.2829 
23.1483 4.03222 62.9018 37.469 3.4514 63.6561 49.4056 7.70309 63.4119 
27.5433 9.78223 63.0159 77.6942 27.8549 63.4801 78.3922 29.2227 63.5743 
76.6174 37.6051 63.2403 77.5057 40.5065 63.6423 78.5455 40.1234 64.3269 
74.55 41.6723 63.6491 27.1314 48.684 62.4468 29.9795 48.4467 63.1088 
27.6584 48.2375 62.5017 66.3036 47.8421 63.2664 29.9618 50.3597 62.887 
34.7544 50.9515 63.679 52.2229 56.2422 63.1679 59.4329 58.8871 63.3118 
57.3498 59.2828 64.0301 32.7446 4.13512 65.0231 35.0069 3.17206 64.1122 
34.5235 3.75159 64.9805 32.2338 12.6958 63.7485 64.3679 17.7527 64.8148 
77.8088 27.9404 64.9219 79.0401 29.5711 65.5633 77.336 34.9664 64.6981 
77.5063 36.9634 65.2783 79.4133 40.2139 65.1445 71.818 42.8507 64.9398 
36.7229 50.447 64.2819 42.1437 51.3049 65.1038 59.6671 58.0598 65.8517 
42.1722 21.3436 65.2629 42.2874 26.2853 64.7941 39.8569 37.2637 64.5796 
39.6317 50.5584 65.133 49.6395 53.5477 64.8246 56.4577 56.9714 65.6372 
57.1894 58.5215 64.7882 57.985 57.8384 65.9447 35.4098 5.18017 66.1645 
37.2861 4.72185 66.1759 40.1275 5.09977 66.7112 42.5605 5.4574 66.6811 
34.9219 6.91267 66.224 47.1592 6.9176 66.5902 51.7834 9.79022 66.804 
69.7669 22.8201 66.6067 77.5342 27.9639 66.5607 79.324 29.6266 67.4764 
78.2251 34.5684 66.8177 80.8369 39.7352 67.415 42.289 42.7557 66.1428 
39.2551 48.3827 65.9448 66.0025 47.3346 66.1423 44.6642 50.6904 66.509 
59.5398 58.0893 66.306 59.5252 57.9391 66.2008 36.9057 6.67604 67.0577 
44.6474 6.93537 68.2254 48.6847 8.07788 68.3385 50.1507 9.10331 67.9589 
46.3089 20.5902 66.9577 66.6804 21.0819 67.8751 79.1814 29.3812 67.7854 
79.1157 36.9527 68.2503 81.3715 39.5995 68.1947 69.6239 43.1787 68.0297 
42.1313 48.403 66.6984 44.4191 48.6954 67.2382 44.8088 48.3607 67.3369 
39.96 49.7423 65.7449 49.3127 52.0155 66.9602 49.5781 50.96 68.2677 
62.6455 54.1609 67.913 61.1911 56.1737 67.5865 40.5509 7.02888 67.747 
41.6069 6.73306 67.8968 44.5195 12.7229 68.2724 77.262 28.0579 68.0939 
49.6433 31.7669 67.8002 79.6233 31.1475 67.9199 49.6007 39.981 67.8969 
47.0629 48.8078 68.0054 47.3101 50.4274 67.575 59.5978 56.7782 67.8596 
46.8493 8.12075 69.0392 44.8601 9.67653 69.0832 47.9957 10.3496 69.9987 
48.5319 8.43667 68.8133 49.3519 9.96831 69.8083 44.9307 11.755 68.7912 
54.4901 11.9498 69.6201 47.3284 11.876 69.6765 50.0233 17.5167 69.1732 
65.0286 20.0054 69.4376 51.9863 20.836 69.5939 52.2344 29.008 69.0497 
75.9388 27.5006 69.1827 51.7339 31.7994 68.6823 52.2791 31.7388 68.9209 
79.8455 30.8187 68.6569 79.4263 34.883 69.9506 54.331 34.6362 69.5404 
54.5254 37.2418 69.4043 79.7028 37.0485 69.5867 80.7897 38.3931 69.5578 
81.8158 39.237 69.5054 79.3737 39.1865 69.8463 49.6906 48.388 68.9308 
52.041 50.8588 69.5934 63.2871 52.9475 69.6265 56.4805 53.3986 69.6786 
59.9676 55.8915 69.7016 61.2251 55.8312 69.1778 49.4452 12.6543 70.1942 
49.9155 12.3289 70.3263 56.8312 13.3909 70.9202 51.8883 14.401 70.8022 
59.2244 14.9667 71.3088 54.3427 21.0381 70.682 54.0266 20.916 70.4861 
79.2629 29.8064 70.7819 80.043 31.506 70.9471 79.7068 37.6977 70.7604 
77.3184 39.4335 70.5785 71.1367 41.52 70.6329 66.5113 45.7514 71.0381 
51.8048 48.788 69.6995 65.1237 47.6815 71.232 63.7281 51.3942 70.9891 
54.3761 51.3248 70.1492 57.0263 51.4986 71.3276 57.2842 52.8386 70.9002 
63.1981 53.0206 71.2869 60.1189 55.5886 70.186 62.058 54.7822 72.044 
61.3785 55.3664 70.633 51.532 12.1169 70.6242 57.2388 37.0711 70.4051 
59.3557 37.6519 71.098 59.3336 39.8824 71.0099 79.0762 38.6119 70.6477 
71.6894 40.7704 72.5834 56.6021 13.7418 71.9322 56.8708 14.5907 72.9549 
54.7901 15.0361 72.2608 59.6082 15.8954 72.7071 61.6768 17.5362 72.5491 
57.0202 17.9447 72.9806 63.9473 19.4407 72.985 56.5239 23.6359 71.6929 
78.9675 29.9266 72.2752 79.9893 31.2717 71.8413 80.1887 34.2412 72.647 
79.2915 37.3046 72.2692 62.0038 37.4357 72.3887 62.1321 43.0101 72.4662 
66.4572 44.9004 72.7643 64.5096 45.8699 72.7173 64.044 47.9095 72.4732 
59.3918 51.2723 72.5504 63.4384 51.209 72.3063 60.1689 53.4716 72.3402 
61.8989 54.2469 72.6038 63.1611 52.6809 72.08 57.0258 15.4807 73.1162 
60.5905 17.157 73.0687 62.6398 19.3494 74.2717 64.4962 20.0444 74.4266 
79.9027 31.1389 73.0526 80.2987 35.1456 74.0905 79.3649 36.7023 74.0526 
71.5945 40.4001 74.4659 63.4597 43.6973 73.0283 69.3983 41.8933 74.2168 
67.0997 44.2486 73.5943 67.0928 43.7706 74.3417 62.455 48.3923 72.7271 
62.3093 51.1839 73.2719 59.6984 18.4494 73.8709 59.9601 20.7064 73.964 
61.6419 20.2341 74.5801 63.4325 19.4176 73.8704 80.4883 34.0316 74.0534 
64.274 37.1072 73.9182 63.6814 37.4004 73.4552 64.5934 43.1942 73.5739 
64.3492 20.6947 75.7368 61.9991 20.7553 74.8575 61.4332 23.5699 74.6879 
62.1471 23.1143 75.2411 67.4661 22.4342 75.7583 62.2973 26.1387 74.8082 
64.8861 31.4572 74.9984 80.6823 32.7746 75.7961 80.9714 34.7102 75.6781 
67.1783 37.6046 75.7562 67.3957 39.9918 75.5327 71.5552 40.2015 75.3039 
67.2615 42.4572 74.9225 69.0225 41.5575 74.9424 68.7739 40.9898 75.5239 
68.9332 23.9814 77.2917 64.8576 23.499 76.6341 82.069 34.4824 78.6475 
69.7676 39.0976 76.5798 71.1438 39.4364 76.6332 66.5206 23.2754 77.075 
70.3653 24.8112 77.253 69.1276 37.7557 76.8599 71.3743 37.9218 78.3846 
73.912 38.8563 77.2976 69.2809 24.7241 78.286 67.5908 24.8685 77.8692 
69.5397 25.6478 79.3856 71.7184 26.1354 78.7341 69.1073 29.0868 78.6677 
79.8 31.3797 78.3405 80.7929 32.3663 78.5132 82.1512 34.4762 78.7069 
76.8099 37.5757 78.4944 72.8255 38.6565 77.879 69.6389 26.2749 79.5579 
72.5063 27.5111 80.5143 74.8986 29.0403 80.2122 79.4885 36.3072 79.9566 
74.0346 37.3918 80.3345 76.4213 37.4815 79.9214 71.5723 28.0605 80.4556 
74.1859 29.5063 81.4999 72.3054 31.2346 80.7317 71.9592 35.0311 80.0745 
72.092 37.0307 79.502 73.1075 28.1317 81.1072 79.224 31.2682 81.5031 
81.5482 34.431 81.1484 74.745 36.7241 81.4078 76.2487 37.1434 81.7242 
74.9642 30.2178 82.4695 76.1561 30.1887 82.7597 74.7773 31.5201 83.1935 
77.5975 30.3612 81.6187 79.5083 31.9748 84.1261 80.7779 33.9828 82.7839 
75.203 34.1684 83.0454 76.0251 36.8132 81.9769 79.5865 34.8151 83.9577 
77.244 30.9809 84.7034 76.2544 34.8552 83.5703 78.1754 36.1017 82.3514 
76.4653 31.1048 85.1139 79.7363 32.6178 85.1336 79.8227 34.2298 85.0227 
77.0389 34.0608 84.6016 
POLYGONS 2241 6720
OFFSETS vtktypeint64
0 3 6 9 12 15 18 21 24 
27 30 33 36 39 42 45 48 51 
54 57 60 63 66 69 72 75 78 
81 84 87 90 93 96 99 102 105 
108 111 114 117 120 123 126 129 132 
135 138 141 144 147 150 153 156 159 
162 165 168 171 174 177 180 183 186 
189 192 195 198 201 204 207 210 213 
216 219 222 225 228 231 234 237 240 
243 246 249 252 255 258 261 264 267 
270 273 276 279 282 285 288 291 294 
297 300 303 306 309 312 315 318 321 
324 327 330 333 336 339 342 345 348 
351 354 357 360 363 366 369 372 375 
378 381 384 387 390 393 396 399 402 
405 408 411 414 417 420 423 426 429 
432 435 438 441 444 447 450 453 456 
459 462 465 468 471 474 477 480 483 
486 489 492 495 498 501 504 507 510 
513 516 519 522 525 528 531 534 537 
540 543 546 549 552 555 558 561 564 
567 570 573 576 579 582 585 588 591 
594 597 600 603 606 609 612 615 618 
621 624 627 630 633 636 639 642 645 
648 651 654 657 660 663 666 669 672 
675 678 681 684 687 690 693 696 699 
702 705 708 711 714 717 720 723 726 
729 732 735 738 741 744 747 750 753 
756 759 762 765 768 771 774 777 780 
783 786 789 792 795 798 801 804 807 
810 813 816 819 822 825 828 831 834 
837 840 843 846 849 852 855 858 861 
864 867 870 873 876 879 882 885 888 
891 894 897 900 903 906 909 912 915 
918 921 924 927 930 933 936 939 942 
945 948 951 954 957 960 963 966 969 
972 975 978 981 984 987 990 993 996 
999 1002 1005 1008 1011 1014 1017 1020 1023 
1026 1029 1032 1035 1038 1041 1044 1047 1050 
1053 1056 1059 1062 1065 1068 1071 1074 1077 
1080 1083 1086 1089 1092 1095 1098 1101 1104 
1107 1110 1113 1116 1119 1122 1125 1128 1131 
1134 1137 1140 1143 1146 1149 1152 1155 1158 
1161 1164 1167 1170 1173 1176 1179 1182 1185 
1188 1191 1194 1197 1200 1203 1206 1209 1212 
1215 1218 1221 1224 1227 1230 1233 1236 1239 
1242 1245 1248 1251 1254 1257 1260 1263 1266 
1269 1272 1275 1278 1281 1284 1287 1290 1293 
1296 1299 1302 1305 1308 1311 1314 1317 1320 
1323 1326 1329 1332 1335 1338 1341 1344 1347 
1350 1353 1356 1359 1362 1365 1368 1371 1374 
1377 1380 1383 1386 1389 1392 1395 1398 1401 
1404 1407 1410 1413 1416 1419 1422 1425 1428 
1431 1434 1437 1440 1443 1446 1449 1452 1455 
1458 1461 1464 1467 1470 1473 1476 1479 1482 
1485 1488 1491 1494 1497 1500 1503 1506 1509 
1512 1515 1518 1521 1524 1527 1530 1533 1536 
1539 1542 1545 1548 1551 1554 1557 1560 1563 
1566 1569 1572 1575 1578 1581 1584 1587 1590 
1593 1596 1599 1602 1605 1608 1611 1614 1617 
1620 1623 1626 1629 1632 1635 1638 1641 1644 
1647 1650 1653 1656 1659 1662 1665 1668 1671 
1674 1677 1680 1683 1686 1689 1692 1695 1698 
1701 1704 1707 1710 1713 1716 1719 1722 1725 
1728 1731 1734 1737 1740 1743 1746 1749 1752 
1755 1758 1761 1764 1767 1770 1773 1776 1779 
1782 1785 1788 1791 1794 1797 1800 1803 1806 
1809 1812 1815 1818 1821 1824 1827 1830 1833 
1836 1839 1842 1845 1848 1851 1854 1857 1860 
1863 1866 1869 1872 1875 1878 1881 1884 1887 
1890 1893 1896 1899 1902 1905 1908 1911 1914 
1917 1920 1923 1926 1929 1932 1935 1938 1941 
1944 1947 1950 1953 1956 1959 1962 1965 1968 
1971 1974 1977 1980 1983 1986 1989 1992 1995 
1998 2001 2004 2007 2010 2013 2016 2019 2022 
2025 2028 2031 2034 2037 2040 2043 2046 2049 
2052 2055 2058 2061 2064 2067 2070 2073 2076 
2079 2082 2085 2088 2091 2094 2097 2100 2103 
2106 2109 2112 2115 2118 2121 2124 2127 2130 
2133 2136 2139 2142 2145 2148 2151 2154 2157 
2160 2163 2166 2169 2172 2175 2178 2181 2184 
2187 2190 2193 2196 2199 2202 2205 2208 2211 
2214 2217 2220 2223 2226 2229 2232 2235 2238 
2241 2244 2247 2250 2253 2256 2259 2262 2265 
2268 2271 2274 2277 2280 2283 2286 2289 2292 
2295 2298 2301 2304 2307 2310 2313 2316 2319 
2322 2325 2328 2331 2334 2337 2340 2343 2346 
2349 2352 2355 2358 2361 2364 2367 2370 2373 
2376 2379 2382 2385 2388 2391 2394 2397 2400 
2403 2406 2409 2412 2415 2418 2421 2424 2427 
2430 2433 2436 2439 2442 2445 2448 2451 2454 
2457 2460 2463 2466 2469 2472 2475 2478 2481 
2484 2487 2490 2493 2496 2499 2502 2505 2508 
2511 2514 2517 2520 2523 2526 2529 2532 2535 
2538 2541 2544 2547 2550 2553 2556 2559 2562 
2565 2568 2571 2574 2577 2580 2583 2586 2589 
2592 2595 2598 2601 2604 2607 2610 2613 2616 
2619 2622 2625 2628 2631 2634 2637 2640 2643 
2646 2649 2652 2655 2658 2661 2664 2667 2670 
2673 2676 2679 2682 2685 2688 2691 2694 2697 
2700 2703 2706 2709 2712 2715 2718 2721 2724 
2727 2730 2733 2736 2739 2742 2745 2748 2751 
2754 2757 2760 2763 2766 2769 2772 2775 2778 
2781 2784 2787 2790 2793 2796 2799 2802 2805 
2808 2811 2814 2817 2820 2823 2826 2829 2832 
2835 2838 2841 2844 2847 2850 2853 2856 2859 
2862 2865 2868 2871 2874 2877 2880 2883 2886 
2889 2892 2895 2898 2901 2904 2907 2910 2913 
2916 2919 2922 2925 2928 2931 2934 2937 2940 
2943 2946 2949 2952 2955 2958 2961 2964 2967 
2970 2973 2976 2979 2982 2985 2988 2991 2994 
2997 3000 3003 3006 3009 3012 3015 3018 3021 
3024 3027 3030 3033 3036 3039 3042 3045 3048 
3051 3054 3057 3060 3063 3066 3069 3072 3075 
3078 3081 3084 3087 3090 3093 3096 3099 3102 
3105 3108 3111 3114 3117 3120 3123 3126 3129 
3132 3135 3138 3141 3144 3147 3150 3153 3156 
3159 3162 3165 3168 3171 3174 3177 3180 3183 
3186 3189 3192 3195 3198 3201 3204 3207 3210 
3213 3216 3219 3222 3225 3228 3231 3234 3237 
3240 3243 3246 3249 3252 3255 3258 3261 3264 
3267 3270 3273 3276 3279 3282 3285 3288 3291 
3294 3297 3300 3303 3306 3309 3312 3315 3318 
3321 3324 3327 3330 3333 3336 3339 3342 3345 
3348 3351 3354 3357 3360 3363 3366 3369 3372 
3375 3378 3381 3384 3387 3390 3393 3396 3399 
3402 3405 3408 3411 3414 3417 3420 3423 3426 
3429 3432 3435 3438 3441 3444 3447 3450 3453 
3456 3459 3462 3465 3468 3471 3474 3477 3480 
3483 3486 3489 3492 3495 3498 3501 3504 3507 
3510 3513 3516 3519 3522 3525 3528 3531 3534 
3537 3540 3543 3546 3549 3552 3555 3558 3561 
3564 3567 3570 3573 3576 3579 3582 3585 3588 
3591 3594 3597 3600 3603 3606 3609 3612 3615 
3618 3621 3624 3627 3630 3633 3636 3639 3642 
3645 3648 3651 3654 3657 3660 3663 3666 3669 
3672 3675 3678 3681 3684 3687 3690 3693 3696 
3699 3702 3705 3708 3711 3714 3717 3720 3723 
3726 3729 3732 3735 3738 3741 3744 3747 3750 
3753 3756 3759 3762 3765 3768 3771 3774 3777 
3780 3783 3786 3789 3792 3795 3798 3801 3804 
3807 3810 3813 3816 3819 3822 3825 3828 3831 
3834 3837 3840 3843 3846 3849 3852 3855 3858 
3861 3864 3867 3870 3873 3876 3879 3882 3885 
3888 3891 3894 3897 3900 3903 3906 3909 3912 
3915 3918 3921 3924 3927 3930 3933 3936 3939 
3942 3945 3948 3951 3954 3957 3960 3963 3966 
3969 3972 3975 3978 3981 3984 3987 3990 3993 
3996 3999 4002 4005 4008 4011 4014 4017 4020 
4023 4026 4029 4032 4035 4038 4041 4044 4047 
4050 4053 4056 4059 4062 4065 4068 4071 4074 
4077 4080 4083 4086 4089 4092 4095 4098 4101 
4104 4107 4110 4113 4116 4119 4122 4125 4128 
4131 4134 4137 4140 4143 4146 4149 4152 4155 
4158 4161 4164 4167 4170 4173 4176 4179 4182 
4185 4188 4191 4194 4197 4200 4203 4206 4209 
4212 4215 4218 4221 4224 4227 4230 4233 4236 
4239 4242 4245 4248 4251 4254 4257 4260 4263 
4266 4269 4272 4275 4278 4281 4284 4287 4290 
4293 4296 4299 4302 4305 4308 4311 4314 4317 
4320 4323 4326 4329 4332 4335 4338 4341 4344 
4347 4350 4353 4356 4359 4362 4365 4368 4371 
4374 4377 4380 4383 4386 4389 4392 4395 4398 
4401 4404 4407 4410 4413 4416 4419 4422 4425 
4428 4431 4434 4437 4440 4443 4446 4449 4452 
4455 4458 4461 4464 4467 4470 4473 4476 4479 
4482 4485 4488 4491 4494 4497 4500 4503 4506 
4509 4512 4515 4518 4521 4524 4527 4530 4533 
4536 4539 4542 4545 4548 4551 4554 4557 4560 
4563 4566 4569 4572 4575 4578 4581 4584 4587 
4590 4593 4596 4599 4602 4605 4608 4611 4614 
4617 4620 4623 4626 4629 4632 4635 4638 4641 
4644 4647 4650 4653 4656 4659 4662 4665 4668 
4671 4674 4677 4680 4683 4686 4689 4692 4695 
4698 4701 4704 4707 4710 4713 4716 4719 4722 
4725 4728 4731 4734 4737 4740 4743 4746 4749 
4752 4755 4758 4761 4764 4767 4770 4773 4776 
4779 4782 4785 4788 4791 4794 4797 4800 4803 
4806 4809 4812 4815 4818 4821 4824 4827 4830 
4833 4836 4839 4842 4845 4848 4851 4854 4857 
4860 4863 4866 4869 4872 4875 4878 4881 4884 
4887 4890 4893 4896 4899 4902 4905 4908 4911 
4914 4917 4920 4923 4926 4929 4932 4935 4938 
4941 4944 4947 4950 4953 4956 4959 4962 4965 
4968 4971 4974 4977 4980 4983 4986 4989 4992 
4995 4998 5001 5004 5007 5010 5013 5016 5019 
5022 5025 5028 5031 5034 5037 5040 5043 5046 
5049 5052 5055 5058 5061 5064 5067 5070 5073 
5076 5079 5082 5085 5088 5091 5094 5097 5100 
5103 5106 5109 5112 5115 5118 5121 5124 5127 
5130 5133 5136 5139 5142 5145 5148 5151 5154 
5157 5160 5163 5166 5169 5172 5175 5178 5181 
5184 5187 5190 5193 5196 5199 5202 5205 5208 
5211 5214 5217 5220 5223 5226 5229 5232 5235 
5238 5241 5244 5247 5250 5253 5256 5259 5262 
5265 5268 5271 5274 5277 5280 5283 5286 5289 
5292 5295 5298 5301 5304 5307 5310 5313 5316 
5319 5322 5325 5328 5331 5334 5337 5340 5343 
5346 5349 5352 5355 5358 5361 5364 5367 5370 
5373 5376 5379 5382 5385 5388 5391 5394 5397 
5400 5403 5406 5409 5412 5415 5418 5421 5424 
5427 5430 5433 5436 5439 5442 5445 5448 5451 
5454 5457 5460 5463 5466 5469 5472 5475 5478 
5481 5484 5487 5490 5493 5496 5499 5502 5505 
5508 5511 5514 5517 5520 5523 5526 5529 5532 
5535 5538 5541 5544 5547 5550 5553 5556 5559 
5562 5565 5568 5571 5574 5577 5580 5583 5586 
5589 5592 5595 5598 5601 5604 5607 5610 5613 
5616 5619 5622 5625 5628 5631 5634 5637 5640 
5643 5646 5649 5652 5655 5658 5661 5664 5667 
5670 5673 5676 5679 5682 5685 5688 5691 5694 
5697 5700 5703 5706 5709 5712 5715 5718 5721 
5724 5727 5730 5733 5736 5739 5742 5745 5748 
5751 5754 5757 5760 5763 5766 5769 5772 5775 
5778 5781 5784 5787 5790 5793 5796 5799 5802 
5805 5808 5811 5814 5817 5820 5823 5826 5829 
5832 5835 5838 5841 5844 5847 5850 5853 5856 
5859 5862 5865 5868 5871 5874 5877 5880 5883 
5886 5889 5892 5895 5898 5901 5904 5907 5910 
5913 5916 5919 5922 5925 5928 5931 5934 5937 
5940 5943 5946 5949 5952 5955 5958 5961 5964 
5967 5970 5973 5976 5979 5982 5985 5988 5991 
5994 5997 6000 6003 6006 6009 6012 6015 6018 
6021 6024 6027 6030 6033 6036 6039 6042 6045 
6048 6051 6054 6057 6060 6063 6066 6069 6072 
6075 6078 6081 6084 6087 6090 6093 6096 6099 
6102 6105 6108 6111 6114 6117 6120 6123 6126 
6129 6132 6135 6138 6141 6144 6147 6150 6153 
6156 6159 6162 6165 6168 6171 6174 6177 6180 
6183 6186 6189 6192 6195 6198 6201 6204 6207 
6210 6213 6216 6219 6222 6225 6228 6231 6234 
6237 6240 6243 6246 6249 6252 6255 6258 6261 
6264 6267 6270 6273 6276 6279 6282 6285 6288 
6291 6294 6297 6300 6303 6306 6309 6312 6315 
6318 6321 6324 6327 6330 6333 6336 6339 6342 
6345 6348 6351 6354 6357 6360 6363 6366 6369 
6372 6375 6378 6381 6384 6387 6390 6393 6396 
6399 6402 6405 6408 6411 6414 6417 6420 6423 
6426 6429 6432 6435 6438 6441 6444 6447 6450 
6453 6456 6459 6462 6465 6468 6471 6474 6477 
6480 6483 6486 6489 6492 6495 6498 6501 6504 
6507 6510 6513 6516 6519 6522 6525 6528 6531 
6534 6537 6540 6543 6546 6549 6552 6555 6558 
6561 6564 6567 6570 6573 6576 6579 6582 6585 
6588 6591 6594 6597 6600 6603 6606 6609 6612 
6615 6618 6621 6624 6627 6630 6633 6636 6639 
6642 6645 6648 6651 6654 6657 6660 6663 6666 
6669 6672 6675 6678 6681 6684 6687 6690 6693 
6696 6699 6702 6705 6708 6711 6714 6717 6720 

CONNECTIVITY vtktypeint64
3 2 5 4 3 5 0 2 6 
5 2 0 18 5 0 4 5 18 
18 0 7 1 6 8 0 6 1 
0 1 7 1 8 10 7 1 10 
11 9 7 7 10 12 26 7 12 
26 11 7 26 12 13 16 15 3 
14 55 2 15 14 2 3 15 2 
4 16 3 4 17 16 17 4 18 
19 17 18 6 57 8 19 18 7 
9 20 7 20 19 7 20 9 21 
21 9 11 10 8 44 21 11 22 
22 11 23 24 21 22 23 24 22 
27 11 26 23 11 27 10 44 25 
12 10 25 12 25 13 27 26 28 
26 13 28 13 25 29 30 13 29 
28 13 30 28 30 31 30 29 32 
34 15 35 16 35 15 16 36 37 
55 33 2 36 16 17 17 37 36 
17 38 37 6 2 64 39 38 17 
19 40 41 6 64 57 42 40 19 
8 57 44 20 42 19 44 57 71 
43 42 20 43 20 21 45 43 21 
23 45 24 25 44 58 27 45 23 
46 45 27 46 27 47 27 28 47 
28 48 47 28 31 48 29 25 50 
50 32 29 30 32 49 31 30 49 
51 48 31 49 51 31 60 32 50 
52 32 60 49 32 52 51 49 52 
53 61 33 33 61 64 54 53 33 
55 54 33 15 55 14 34 55 15 
34 35 65 33 64 2 41 17 19 
39 17 41 41 40 39 71 87 44 
87 58 44 45 21 24 25 58 50 
52 59 51 60 50 91 78 60 91 
61 101 64 62 61 53 54 62 53 
63 62 54 62 63 55 55 63 54 
34 56 55 34 65 56 35 66 65 
35 67 66 16 67 35 37 67 16 
64 85 69 38 68 37 69 86 57 
64 69 57 68 38 39 39 40 70 
42 72 40 72 70 40 73 72 42 
42 43 73 45 142 43 47 74 46 
48 74 47 48 51 74 58 76 50 
75 74 59 59 74 51 75 60 77 
75 52 60 59 52 75 77 60 78 
78 91 79 91 50 76 80 78 79 
77 78 80 81 61 62 81 62 82 
82 62 55 101 83 64 85 64 124 
138 65 66 66 67 138 69 86 85 
39 70 68 87 71 57 87 88 71 
73 118 72 127 142 45 58 87 107 
75 89 74 80 90 77 79 90 80 
96 91 76 79 91 92 92 91 94 
93 79 92 93 90 79 100 83 101 
95 101 61 61 81 95 83 124 64 
65 84 56 84 65 138 85 124 69 
69 124 86 37 68 67 86 140 57 
57 88 87 118 70 72 43 118 73 
107 87 106 127 45 46 75 77 89 
89 77 90 107 108 58 58 108 76 
108 96 76 94 93 92 93 94 97 
97 96 113 91 96 97 94 91 97 
93 97 98 99 98 97 102 101 95 
95 117 116 95 81 117 82 103 81 
103 82 55 55 56 103 104 68 70 
70 118 104 57 140 88 88 140 141 
158 118 142 118 43 142 88 141 105 
88 105 87 87 105 119 87 119 106 
74 127 46 89 160 74 109 89 90 
109 90 110 110 90 93 111 110 93 
93 98 111 111 98 99 112 99 97 
112 97 113 101 114 100 101 102 114 
102 95 115 100 124 83 124 137 86 
86 137 139 86 139 140 118 126 104 
119 128 106 106 129 107 127 160 181 
127 74 160 107 120 108 111 144 110 
121 144 111 96 150 113 102 115 114 
100 122 124 122 123 124 95 125 115 
95 116 125 81 103 117 67 68 138 
126 68 104 141 128 105 105 128 119 
128 143 129 128 129 106 107 129 199 
183 160 89 89 109 183 183 109 144 
109 110 144 108 145 96 99 130 121 
99 121 111 145 150 96 99 112 130 
130 112 131 132 113 150 113 132 112 
151 112 132 123 122 135 123 135 134 
100 114 122 122 114 135 123 134 136 
115 125 114 123 136 124 129 143 199 
107 199 120 120 199 108 145 108 199 
146 147 148 144 146 148 144 121 146 
147 121 146 121 130 146 130 230 146 
131 149 230 112 149 131 112 151 149 
132 133 151 132 150 163 152 132 163 
133 132 152 155 135 156 136 153 154 
155 153 134 134 153 136 135 155 134 
135 114 156 136 165 124 157 138 68 
126 157 68 143 141 159 128 141 143 
143 182 199 148 183 144 146 230 147 
130 131 230 151 133 161 187 163 150 
162 161 152 161 133 152 162 152 163 
164 165 153 153 165 154 136 154 165 
190 124 165 166 84 138 159 140 176 
141 140 159 127 158 142 199 208 145 
230 149 167 149 151 167 150 145 185 
168 162 163 187 168 163 168 169 162 
164 153 171 155 170 153 156 172 155 
155 172 170 172 156 114 171 190 165 
164 171 165 116 211 125 116 117 211 
124 190 137 255 117 103 255 103 56 
84 212 56 84 166 212 138 173 166 
173 138 157 174 173 157 140 139 246 
175 174 126 126 174 157 126 118 175 
228 176 140 178 159 177 159 177 178 
179 159 178 159 179 143 143 179 180 
143 180 215 215 182 143 145 208 184 
148 147 230 184 185 145 161 186 151 
200 150 185 161 162 186 162 169 186 
150 219 187 168 187 169 188 171 205 
171 153 205 170 225 153 188 189 171 
188 190 189 171 189 190 114 125 254 
125 211 191 190 192 137 137 192 139 
212 255 56 139 192 246 166 173 174 
174 175 194 158 274 118 196 197 176 
159 176 197 159 197 177 197 178 177 
127 181 158 167 218 230 186 218 167 
167 151 186 185 200 184 150 200 219 
219 209 187 209 201 187 202 187 201 
202 203 187 203 169 187 204 202 201 
225 170 172 188 224 190 125 191 254 
212 166 193 166 174 193 206 193 194 
193 174 194 194 195 206 175 195 194 
175 118 195 228 197 176 257 158 181 
215 180 214 199 182 198 207 199 198 
208 199 279 184 217 185 185 217 200 
169 218 186 218 169 203 209 219 220 
209 204 201 188 205 223 153 225 205 
238 190 224 190 226 192 193 206 212 
212 206 213 206 195 213 140 246 228 
197 239 178 216 215 214 183 278 277 
198 215 248 198 182 215 183 148 278 
208 280 184 200 217 219 203 202 218 
218 202 210 202 204 210 251 221 209 
209 221 204 221 222 204 222 210 204 
223 205 236 236 205 225 223 224 188 
190 238 226 212 213 227 274 227 213 
274 213 195 118 274 195 197 228 239 
216 229 248 215 229 216 215 216 248 
183 277 160 198 248 199 219 231 232 
220 219 231 209 220 251 210 222 233 
241 234 221 221 234 222 235 224 223 
224 237 238 238 267 226 254 191 211 
178 268 179 239 268 178 179 247 180 
268 247 179 180 247 214 214 229 216 
259 181 160 277 259 160 218 240 230 
208 279 280 184 280 217 218 210 240 
240 210 233 232 231 219 220 231 232 
222 234 233 251 241 221 241 251 262 
234 241 242 234 242 243 223 273 235 
273 223 236 235 244 224 244 237 224 
225 245 236 238 244 267 237 244 238 
225 292 245 225 172 292 114 292 172 
114 254 292 297 239 228 257 181 258 
214 276 229 247 276 214 248 229 276 
248 279 199 230 278 148 219 217 307 
233 249 240 220 261 251 220 232 261 
233 234 249 234 250 249 262 252 241 
250 234 243 242 241 252 242 252 243 
235 273 253 293 226 267 255 254 211 
226 294 192 295 255 212 212 227 256 
274 256 227 268 239 297 181 259 305 
240 260 230 232 219 261 243 252 263 
264 243 263 253 265 266 253 266 244 
253 244 235 244 266 267 211 117 255 
181 305 258 240 249 319 219 307 281 
219 269 261 270 319 250 250 319 249 
250 243 270 270 243 264 252 262 263 
272 266 265 272 265 271 273 265 253 
271 267 266 272 271 266 267 291 293 
254 356 292 292 356 355 254 255 356 
246 192 294 315 228 246 212 256 296 
256 274 296 298 274 158 158 257 298 
257 275 360 258 275 257 329 276 247 
248 276 306 279 248 306 278 230 318 
230 260 318 279 300 280 280 307 217 
319 386 240 283 219 281 219 283 282 
219 282 269 269 283 282 261 269 282 
284 270 264 285 262 286 285 263 262 
263 287 284 263 284 264 263 285 286 
288 263 286 287 263 288 325 271 289 
265 289 271 291 267 325 271 325 267 
236 245 311 293 294 226 347 294 293 
380 255 295 246 313 315 247 268 337 
277 363 259 348 276 329 363 277 278 
299 279 306 283 281 301 251 282 331 
251 261 282 270 284 302 262 251 303 
287 288 304 302 284 287 304 302 287 
273 290 265 265 290 289 236 311 273 
273 311 290 293 312 347 313 246 294 
335 228 315 297 336 268 257 360 298 
305 259 363 279 306 299 299 300 279 
307 280 338 307 301 281 281 307 301 
303 251 333 286 304 288 302 304 308 
262 303 286 286 303 309 304 286 309 
304 309 310 291 325 293 245 292 311 
255 448 356 295 314 380 295 316 314 
295 317 316 212 317 295 317 212 296 
328 317 296 296 274 328 328 274 381 
274 298 381 258 305 362 306 276 348 
299 348 300 299 306 348 386 260 240 
283 330 282 282 330 331 270 302 319 
319 302 320 321 251 331 308 320 302 
251 321 322 333 251 322 303 333 324 
303 324 309 308 304 323 309 324 310 
310 324 323 310 323 304 326 325 346 
326 293 325 347 395 313 347 313 294 
316 327 314 359 297 228 361 268 336 
337 268 361 400 363 278 318 260 365 
307 349 301 283 301 330 321 331 322 
321 322 332 333 322 332 324 333 334 
325 289 346 290 311 289 368 293 326 
293 378 312 327 316 317 317 328 327 
335 359 228 278 318 400 338 280 300 
386 319 371 307 338 349 371 319 320 
330 301 350 332 322 331 308 339 320 
340 341 339 340 339 323 323 339 308 
341 334 342 342 343 341 334 333 344 
340 324 341 340 323 324 334 344 342 
341 324 334 346 345 326 326 345 368 
311 379 289 311 292 379 312 378 347 
255 380 448 380 314 358 396 315 313 
358 314 327 315 396 335 327 328 358 
358 328 398 328 399 398 336 297 359 
247 337 519 348 364 300 338 300 401 
349 338 387 330 350 389 330 389 331 
331 351 332 332 351 352 333 332 352 
341 343 339 333 352 353 344 333 353 
345 346 354 293 368 378 379 292 447 
395 357 313 357 396 313 258 383 275 
329 247 519 350 301 349 351 331 389 
320 339 413 352 351 366 353 352 367 
345 354 368 354 346 377 289 377 346 
375 378 368 292 355 447 356 369 355 
399 328 381 275 383 360 305 363 362 
348 329 364 260 402 365 260 385 402 
401 300 364 260 386 385 338 401 387 
320 413 371 349 405 350 351 389 366 
352 366 391 352 391 367 342 373 372 
343 342 372 339 343 372 344 353 374 
353 367 374 373 342 374 374 342 344 
354 376 368 354 377 376 378 395 347 
369 356 355 355 356 447 359 335 396 
336 450 361 450 382 361 298 360 383 
370 361 382 337 361 519 364 329 519 
400 318 365 371 403 386 413 403 371 
349 387 405 350 405 388 350 388 389 
389 390 366 366 390 391 391 390 367 
373 392 409 373 409 372 409 339 372 
367 393 374 374 392 373 374 393 392 
375 368 394 368 376 394 375 415 378 
357 395 416 417 380 358 399 381 298 
421 383 258 258 362 421 361 420 519 
519 384 364 402 385 422 387 412 404 
387 404 405 388 405 406 388 406 407 
413 339 409 377 394 376 289 379 377 
358 397 417 358 398 397 298 383 399 
382 420 361 436 384 519 364 384 401 
453 422 385 385 386 453 401 443 387 
413 424 403 389 388 408 388 407 408 
408 445 389 445 390 389 410 411 390 
390 411 367 414 409 392 411 414 367 
367 414 393 392 393 414 375 430 415 
394 430 375 448 447 356 396 357 416 
449 380 417 397 398 418 418 398 419 
399 383 421 420 558 519 362 500 421 
363 500 362 401 436 468 384 436 401 
365 402 452 443 401 469 386 403 453 
423 387 443 387 423 425 387 425 412 
426 404 412 405 404 426 406 405 427 
390 445 410 428 411 410 428 459 409 
459 441 409 441 413 409 414 411 428 
409 414 428 415 430 429 415 429 446 
415 446 378 447 494 379 395 378 431 
416 442 432 416 395 442 433 397 418 
399 419 398 420 382 450 434 420 450 
435 420 434 400 365 451 365 452 451 
453 504 402 453 402 422 425 423 437 
455 403 424 412 425 438 413 455 424 
440 426 439 440 445 407 407 445 408 
413 441 472 440 427 426 427 405 426 
407 427 440 407 406 427 445 428 410 
429 461 446 377 379 549 378 463 431 
432 442 416 380 449 448 417 397 433 
419 466 418 359 450 336 434 558 420 
519 475 436 443 437 423 425 437 444 
426 412 439 412 438 439 429 430 461 
394 549 430 394 377 549 532 447 448 
395 431 495 442 395 495 481 432 495 
432 442 495 416 432 481 416 481 396 
396 481 498 418 466 433 419 467 466 
450 359 484 421 542 399 519 558 559 
402 504 452 401 468 469 403 455 453 
454 437 443 454 444 437 438 425 444 
440 439 456 456 457 440 440 457 445 
457 478 445 413 472 455 438 444 439 
478 428 445 478 458 428 458 459 428 
460 446 461 462 463 446 446 463 464 
446 464 378 464 463 378 499 467 419 
484 359 517 419 399 499 363 400 521 
475 519 520 469 468 501 443 469 454 
454 470 444 456 439 457 458 478 490 
430 473 461 549 473 430 460 462 446 
463 474 431 474 495 431 496 447 532 
417 433 465 433 466 465 593 399 542 
363 521 561 563 475 520 468 436 475 
504 453 455 454 469 470 477 503 439 
439 478 457 503 478 439 444 470 471 
477 444 471 439 444 477 472 441 459 
461 473 460 460 473 479 462 479 480 
462 460 479 463 462 480 463 495 474 
514 417 465 466 482 514 466 514 465 
482 466 467 483 482 467 359 396 517 
483 467 499 450 558 434 542 421 500 
400 451 521 469 485 476 470 469 486 
469 476 486 487 470 486 503 477 488 
488 477 471 488 471 470 455 472 528 
490 491 458 459 458 491 491 472 459 
479 492 493 479 473 492 479 493 480 
480 493 463 379 494 549 481 495 497 
417 514 449 396 541 517 499 399 593 
502 469 501 469 502 485 524 478 503 
486 488 487 478 524 489 488 470 487 
489 490 478 528 472 506 490 507 491 
531 463 493 495 463 531 447 511 494 
511 447 496 497 508 481 495 508 497 
481 497 498 509 483 499 517 556 484 
452 504 451 485 502 527 503 488 526 
476 485 505 485 527 505 526 486 505 
505 486 476 488 486 526 504 455 528 
489 510 490 489 507 510 507 490 510 
506 472 491 507 506 491 492 546 493 
492 473 546 605 448 449 513 512 498 
513 498 512 498 497 512 607 605 449 
514 607 449 482 515 514 483 515 482 
483 509 515 515 509 516 516 509 499 
518 450 484 558 450 518 585 521 451 
475 563 586 522 503 535 524 503 522 
524 522 587 502 501 525 501 523 525 
502 525 527 527 526 505 507 489 529 
507 529 506 529 528 506 493 546 530 
497 508 512 515 516 514 515 516 533 
533 516 499 553 533 499 518 484 534 
475 597 468 535 526 536 503 526 535 
526 527 525 536 526 525 524 568 489 
504 528 539 529 489 568 540 539 528 
493 530 531 508 495 531 496 532 511 
498 512 575 498 575 550 498 550 396 
516 533 514 499 593 553 484 580 534 
518 557 558 534 557 518 500 363 583 
363 561 583 475 586 597 597 501 468 
522 543 587 522 535 543 523 501 537 
544 596 536 535 536 596 544 525 537 
537 525 523 536 525 544 504 539 538 
538 539 540 528 529 540 530 546 545 
530 545 547 530 548 531 547 548 530 
548 547 531 512 508 574 574 508 531 
396 550 576 514 551 607 541 396 576 
514 533 551 552 533 553 517 541 554 
555 517 554 517 555 556 593 542 666 
500 666 542 560 562 519 562 520 519 
521 585 561 563 520 562 585 451 648 
504 648 451 586 613 597 565 501 597 
564 524 587 501 565 537 565 566 537 
598 544 566 598 596 544 537 566 544 
568 524 599 504 538 567 568 570 529 
571 569 539 569 538 539 540 571 539 
545 572 547 546 603 545 545 603 572 
531 547 574 511 658 494 541 576 590 
533 552 551 541 590 554 553 593 579 
554 578 555 556 625 580 580 484 556 
534 581 557 558 612 582 559 558 582 
584 583 561 588 565 597 524 564 614 
588 566 565 567 538 569 569 571 568 
571 570 568 529 570 571 529 571 540 
547 572 589 546 473 603 473 690 573 
549 690 473 547 589 574 494 658 549 
532 448 642 552 577 551 553 577 552 
554 590 578 553 579 577 578 591 555 
591 592 556 556 592 625 591 556 555 
581 534 580 612 558 557 594 559 582 
582 629 559 559 629 519 519 629 560 
586 563 595 543 535 596 588 598 566 
599 614 617 524 614 599 599 600 569 
569 600 567 599 569 568 572 602 589 
589 602 601 572 603 602 574 589 604 
604 589 601 606 605 607 576 550 608 
577 610 609 577 579 610 592 591 578 
592 578 611 579 593 610 611 592 591 
611 625 592 557 581 612 666 500 669 
500 583 669 585 584 561 563 562 631 
586 595 672 672 613 586 587 649 614 
614 564 587 596 598 616 504 615 648 
588 597 616 598 588 616 615 504 567 
567 600 615 618 600 599 599 600 618 
619 601 602 601 620 604 473 573 763 
604 621 574 642 658 511 532 642 511 
550 575 608 607 622 605 607 605 606 
576 680 590 609 610 623 578 624 611 
593 623 610 580 626 581 581 627 612 
582 667 629 629 705 560 562 560 631 
631 632 563 633 613 672 596 616 650 
635 597 613 614 637 617 617 637 638 
638 618 617 637 618 638 618 638 615 
615 600 618 618 599 617 620 601 619 
602 603 619 473 763 603 604 620 621 
448 605 622 576 608 680 551 662 607 
577 643 551 643 577 609 609 639 643 
639 609 623 624 578 590 611 624 625 
626 580 625 581 626 627 593 666 730 
627 628 612 582 612 667 583 584 630 
584 585 630 560 705 683 543 596 687 
563 632 595 649 670 614 633 635 613 
648 615 634 634 615 636 616 597 635 
636 615 638 637 636 638 603 763 762 
620 678 641 621 620 641 621 641 574 
574 692 512 512 660 575 448 622 642 
662 622 607 551 643 662 625 644 626 
644 645 626 627 626 645 645 646 627 
627 646 628 669 668 666 560 683 631 
632 640 647 632 631 640 687 684 543 
543 684 587 685 587 684 649 587 685 
632 647 595 651 633 672 648 652 671 
634 652 648 650 616 673 635 633 653 
633 651 653 634 654 652 655 656 614 
657 654 636 636 654 634 614 656 637 
619 678 620 762 619 603 641 689 691 
574 641 691 690 859 764 549 658 859 
692 574 691 692 659 512 661 608 575 
696 608 661 700 623 779 624 725 644 
625 624 644 663 664 645 664 646 645 
646 665 628 646 664 665 628 729 612 
705 629 667 669 583 630 631 683 640 
647 672 595 652 676 677 653 651 674 
673 616 653 652 654 676 653 674 675 
616 635 653 657 636 656 636 637 656 
641 678 689 549 859 690 658 767 859 
512 659 660 660 661 575 695 696 661 
723 622 662 608 696 680 643 681 662 
639 681 643 681 639 623 700 681 623 
725 682 644 623 593 779 644 682 663 
645 644 663 628 665 729 612 729 667 
669 753 668 685 686 649 683 706 640 
640 710 647 687 650 712 687 596 650 
709 756 649 712 650 673 674 651 672 
675 758 673 614 670 688 652 677 671 
675 673 653 614 688 655 676 654 688 
654 655 688 654 656 655 657 656 654 
619 761 678 619 762 761 573 807 763 
573 690 807 659 693 660 693 694 660 
661 660 679 622 723 810 679 695 661 
696 697 680 680 697 590 697 698 590 
681 771 662 699 771 681 590 698 624 
624 698 725 725 701 682 779 593 884 
682 701 702 663 682 702 702 703 663 
703 664 663 703 665 664 729 704 667 
668 752 666 753 752 668 667 704 732 
667 732 705 705 732 733 630 585 669 
683 705 706 707 825 687 684 687 825 
686 793 649 793 708 649 708 709 649 
640 706 737 640 737 710 672 711 714 
711 672 647 670 649 717 671 713 648 
715 672 714 670 717 688 715 674 672 
716 674 715 677 717 713 677 713 671 
716 675 674 758 675 716 688 717 676 
677 676 717 678 719 689 689 719 718 
678 761 719 689 718 691 691 720 692 
692 720 721 693 692 721 659 692 693 
694 679 660 700 699 681 726 700 779 
702 727 728 703 702 728 593 730 884 
665 703 728 666 752 731 734 705 733 
705 735 706 669 585 832 735 737 706 
712 707 687 709 708 736 648 832 585 
710 711 647 714 711 739 757 673 758 
712 673 757 648 713 740 714 739 715 
739 741 715 713 717 742 742 740 713 
758 716 715 691 718 743 743 720 691 
767 658 860 642 860 658 721 744 693 
744 722 693 693 722 694 679 694 745 
694 722 745 745 695 679 622 810 642 
745 746 695 746 745 776 722 776 745 
696 695 697 697 695 698 695 724 698 
724 725 698 700 726 699 701 725 747 
701 747 727 701 727 702 748 702 727 
728 727 748 665 728 750 665 750 729 
666 731 730 729 751 704 734 735 705 
684 825 685 685 793 686 797 707 712 
709 874 756 736 874 709 737 754 755 
737 755 710 755 711 710 738 711 755 
831 649 756 711 738 739 741 757 758 
649 742 717 739 759 741 758 715 741 
719 760 718 719 761 760 690 764 807 
718 720 743 718 766 720 766 765 720 
808 767 860 720 765 721 769 721 768 
769 744 721 776 744 770 642 810 881 
744 776 722 723 662 810 746 724 695 
746 772 724 776 772 746 772 773 724 
699 774 771 724 773 725 773 772 775 
776 775 772 699 777 774 726 777 699 
776 781 775 778 781 776 841 778 776 
726 779 777 778 783 781 747 748 727 
775 780 747 780 748 747 781 780 775 
783 782 781 813 783 778 782 785 781 
783 786 782 728 748 749 781 786 780 
786 784 780 785 786 781 782 786 785 
728 749 750 814 729 750 731 787 730 
814 751 729 788 751 814 731 752 789 
731 789 787 789 752 753 732 790 791 
732 751 790 732 704 751 753 669 823 
792 733 791 733 732 791 733 792 734 
832 823 669 734 792 794 794 735 734 
848 826 707 707 826 825 793 685 873 
736 708 793 735 794 795 707 797 848 
795 737 735 797 712 796 796 712 851 
755 754 798 798 738 755 799 738 798 
851 712 800 712 757 800 800 757 801 
742 802 804 649 802 742 738 799 739 
799 805 739 757 741 759 801 757 759 
803 648 740 806 803 740 739 805 759 
804 740 742 804 806 740 766 718 760 
766 760 809 766 769 765 769 768 765 
809 769 766 768 721 765 809 770 769 
744 769 770 839 776 770 840 776 839 
662 811 810 771 811 662 840 841 776 
771 774 811 773 775 725 777 779 812 
747 725 775 841 813 778 780 749 748 
749 780 784 784 814 749 749 814 750 
815 814 784 786 815 784 786 783 818 
813 818 783 730 817 816 815 819 814 
786 819 815 788 814 819 786 821 819 
818 822 786 822 821 786 820 789 753 
790 751 788 819 790 788 821 790 819 
753 823 820 790 824 791 824 792 791 
821 827 790 827 824 790 824 794 792 
795 827 852 828 848 797 795 754 737 
851 800 830 799 798 801 798 833 801 
833 834 801 834 833 800 830 800 833 
831 876 649 876 802 649 832 648 803 
800 801 834 803 802 835 803 804 802 
799 801 805 801 759 805 806 804 803 
761 762 836 837 836 762 763 837 762 
763 807 837 807 764 854 761 838 760 
838 809 760 836 838 761 859 857 764 
838 836 837 838 770 809 770 838 903 
811 922 810 774 842 906 777 842 774 
842 777 812 779 884 812 884 730 864 
730 816 864 911 818 813 844 822 818 
868 844 818 869 868 818 822 844 821 
794 824 827 821 850 827 846 850 821 
844 828 821 828 846 821 826 847 825 
872 825 847 685 825 845 873 685 845 
850 849 827 795 794 827 827 849 852 
846 851 850 796 829 846 828 796 846 
797 796 828 852 754 795 829 796 851 
756 874 831 754 852 798 798 852 833 
832 803 835 801 834 853 759 834 801 
853 759 801 834 759 853 807 856 837 
807 854 856 764 857 855 837 858 838 
858 837 856 858 903 838 808 860 904 
861 770 903 880 770 861 880 839 770 
840 839 891 840 891 841 811 774 922 
812 862 842 863 862 812 843 863 812 
841 893 813 863 812 884 911 813 893 
816 817 865 730 817 867 787 887 867 
787 867 730 820 887 789 789 887 787 
869 818 911 869 870 868 871 820 823 
844 868 826 826 868 847 869 872 868 
872 847 868 823 832 871 872 873 845 
828 844 848 826 848 844 845 825 872 
793 873 888 888 894 793 793 894 736 
851 846 829 895 874 736 849 833 852 
850 830 849 830 833 849 851 830 850 
876 831 874 934 832 875 802 876 835 
835 876 875 835 875 832 854 764 855 
856 854 858 857 877 855 877 858 854 
855 877 854 857 879 878 857 859 879 
767 808 859 808 904 902 880 861 903 
860 642 905 880 891 839 922 774 906 
862 883 882 883 862 863 939 841 892 
893 841 939 884 864 885 864 816 865 
817 867 865 866 865 886 911 888 869 
889 736 894 876 890 875 857 879 877 
903 858 877 808 902 859 642 951 905 
937 880 903 937 891 880 891 892 841 
865 886 864 864 886 885 871 913 820 
888 873 869 869 873 872 914 736 889 
871 832 934 896 897 874 897 876 874 
896 898 897 890 934 875 897 890 876 
900 899 879 859 900 879 859 901 900 
859 902 901 879 903 877 903 879 899 
860 905 920 810 922 881 921 892 891 
957 906 842 862 957 842 938 957 862 
907 862 882 882 908 907 883 908 882 
863 940 883 883 940 908 863 884 940 
939 911 893 940 884 909 909 884 885 
886 910 885 886 865 910 985 867 887 
985 887 926 926 887 820 927 912 911 
912 888 911 820 913 926 912 894 888 
914 943 736 933 871 934 896 915 898 
915 934 890 916 915 890 897 916 890 
897 915 916 897 898 915 917 903 899 
917 899 900 901 917 900 904 919 918 
904 860 919 937 903 935 937 921 891 
922 954 881 938 862 907 909 885 924 
865 867 985 865 985 910 927 911 941 
927 930 912 889 930 927 912 930 894 
889 894 930 927 928 914 927 914 889 
943 932 931 943 931 736 895 736 931 
931 932 895 874 971 896 917 901 935 
901 902 935 935 902 936 902 904 918 
936 902 918 903 917 935 936 946 935 
920 919 860 935 946 937 881 978 642 
881 1007 978 1007 881 954 956 921 955 
956 892 921 956 939 892 907 923 938 
908 923 907 923 908 940 911 939 962 
962 963 911 963 941 911 885 910 924 
924 925 965 924 910 925 927 941 929 
942 929 941 927 929 928 929 914 928 
942 914 929 942 943 914 874 895 932 
969 874 932 896 944 915 944 934 915 
919 945 918 918 946 936 947 948 949 
947 945 948 919 948 945 948 919 920 
920 949 948 920 905 949 946 950 937 
905 951 949 937 950 952 953 937 952 
642 978 951 921 937 955 955 937 953 
956 955 1010 938 923 957 923 981 957 
956 958 939 956 959 958 940 960 923 
923 960 981 959 939 958 940 909 960 
962 939 958 959 962 958 960 909 961 
964 961 924 961 909 924 964 924 965 
925 966 965 910 985 967 985 984 967 
925 910 966 910 967 966 990 941 1000 
968 942 941 968 932 942 932 943 942 
913 871 988 988 871 989 969 990 874 
871 933 989 989 933 970 874 990 971 
971 972 896 896 972 944 970 933 934 
973 970 934 934 944 973 944 972 973 
946 918 945 945 947 946 947 952 946 
952 950 946 949 951 997 953 952 974 
953 974 975 951 978 976 955 953 979 
980 955 979 980 1010 955 922 906 954 
959 956 962 998 963 962 961 964 983 
941 963 998 1000 941 998 986 985 926 
990 987 941 926 988 986 913 988 926 
941 987 968 968 987 932 932 987 969 
990 991 971 991 992 971 970 993 989 
972 971 1022 1022 994 972 995 970 973 
996 995 973 947 949 952 974 952 949 
975 974 949 997 975 949 997 951 1003 
976 1003 951 997 977 975 975 977 953 
979 1010 980 962 956 1040 981 1084 957 
982 981 960 982 960 961 1044 998 962 
964 965 983 999 1000 998 983 967 1001 
965 966 983 983 966 967 967 984 1001 
987 990 969 970 995 993 992 1022 971 
1022 995 994 996 994 995 996 972 994 
973 972 996 1003 1004 997 1004 977 997 
1004 1003 976 1004 1005 977 976 978 1004 
953 977 1005 1007 1006 978 1008 953 1005 
1009 1007 954 1008 979 953 1008 1010 979 
906 1051 954 1010 1040 956 981 1011 1084 
982 1012 981 981 1012 1011 982 961 1012 
961 983 1013 1013 983 1014 1044 999 998 
1045 999 1015 1001 984 1014 1014 983 1001 
1000 999 1045 985 1071 984 985 1002 1071 
1045 1016 1000 986 1017 1002 986 1002 985 
1037 990 1000 986 988 1018 1020 991 990 
1037 1020 990 988 989 1019 1019 989 1021 
993 995 1023 993 1023 1024 993 1024 989 
989 1024 1021 1022 1023 995 995 1023 996 
1006 1004 978 1004 1008 1005 1008 1004 1025 
1007 1026 1006 1009 954 1028 1010 1008 1040 
1068 906 957 1040 1052 962 1012 1029 1011 
1012 961 1013 999 1044 1015 1014 1030 1013 
1030 1014 1031 1016 1045 1033 1046 1033 1045 
1002 1035 1036 1017 1035 1002 1017 986 1018 
1016 1037 1000 1018 1037 1016 1019 1037 1018 
1018 988 1019 1038 1020 1037 1019 1021 1037 
1021 1038 1037 991 1020 992 1022 992 1020 
1022 1020 1038 1021 1024 1023 1004 1006 1025 
1006 1039 1025 1039 1008 1025 1006 1026 1039 
1026 1007 1039 1027 1039 1007 1007 1009 1027 
1039 1040 1008 1039 1041 1040 1041 1039 1027 
1009 1042 1027 1009 1028 1042 954 1051 1028 
1068 1051 906 1052 1053 962 962 1053 1044 
1013 1043 1012 1012 1043 1029 1013 1030 1043 
1015 1044 1045 1046 1045 1044 1032 1071 1002 
1033 1046 1016 1032 1002 1034 1002 1036 1034 
1016 1033 1018 1046 1018 1033 1017 1018 1046 
1036 1017 1046 1036 1035 1017 1038 1023 1022 
1038 1021 1023 1027 1047 1041 1027 1042 1047 
1047 1048 1041 1042 1028 1047 1028 1051 1047 
1041 1049 1040 1050 1049 1048 1049 1041 1048 
1040 1049 1052 1050 1052 1049 1062 1051 1068 
1053 1052 1076 1084 1083 957 1029 1077 1011 
1077 1029 1054 1029 1043 1054 1054 1043 1055 
1043 1030 1055 1055 1030 1031 1031 1014 1080 
1057 1044 1056 1057 1046 1044 1058 1071 1032 
1036 1046 1057 1036 1057 1059 1034 1060 1061 
1061 1032 1034 1050 1048 1047 1063 1050 1047 
1076 1052 1063 1052 1050 1063 1057 1065 1061 
1056 1065 1057 1071 1080 984 984 1080 1014 
1032 1061 1058 1061 1060 1057 1060 1059 1057 
1060 1034 1059 1034 1036 1059 1047 1051 1067 
1067 1063 1047 1067 1051 1062 1076 1063 1067 
957 1075 1068 1075 957 1083 1011 1077 1084 
1064 1077 1054 1054 1055 1064 1069 1044 1053 
1056 1044 1069 1064 1055 1031 1064 1031 1080 
1065 1056 1069 1070 1066 1069 1066 1065 1069 
1058 1066 1071 1058 1061 1066 1066 1061 1065 
1072 1062 1068 1074 1072 1068 1067 1073 1076 
1068 1075 1074 1078 1077 1064 1071 1081 1080 
1066 1081 1071 1066 1070 1081 1062 1072 1067 
1072 1074 1073 1067 1072 1073 1073 1074 1076 
1076 1074 1082 1094 1084 1077 1078 1064 1079 
1053 1091 1069 1069 1091 1070 1064 1080 1085 
1080 1081 1087 1081 1086 1087 1074 1075 1082 
1075 1083 1082 1076 1082 1088 1076 1090 1053 
1076 1088 1090 1094 1077 1078 1090 1091 1053 
1085 1079 1064 1091 1092 1070 1080 1087 1085 
1070 1092 1086 1081 1070 1086 1082 1083 1088 
1083 1093 1088 1089 1093 1084 1084 1093 1083 
1089 1088 1093 1089 1090 1088 1090 1100 1091 
1078 1079 1095 1078 1095 1094 1104 1091 1100 
1092 1091 1086 1086 1091 1104 1109 1095 1085 
1095 1079 1085 1096 1086 1104 1085 1087 1109 
1087 1086 1097 1086 1096 1097 1089 1100 1090 
1089 1098 1100 1094 1101 1084 1102 1101 1094 
1094 1095 1102 1104 1105 1096 1095 1109 1106 
1097 1096 1105 1097 1109 1087 1084 1099 1089 
1089 1099 1098 1084 1107 1099 1101 1107 1084 
1101 1102 1107 1102 1095 1103 1104 1100 1108 
1104 1108 1105 1105 1106 1109 1108 1106 1105 
1095 1106 1103 1109 1097 1105 1098 1099 1107 
1100 1098 1107 1110 1100 1107 1099 1110 1107 
1107 1111 1110 1102 1111 1107 1111 1102 1103 
1112 1111 1103 1113 1108 1110 1110 1108 1100 
1112 1108 1113 1112 1103 1106 1112 1106 1108 
1113 1110 1112 1112 1110 1111 
