# vtk DataFile Version 5.1
vtk output
ASCII
DATASET POLYDATA
POINTS 1153 float
18.4317 8.6796 1.50868 18.8547 10.8762 1.23777 20.4651 10.6709 0.921626 
20.857 6.45417 1.87824 18.9303 6.83496 1.91209 23.7854 9.19662 2.10306 
16.5551 16.12 2.35906 18.3483 15.8437 1.79465 18.2493 18.1352 2.20305 
18.561 4.12069 3.5622 22.0333 3.51163 3.45562 17.7039 6.24463 3.12468 
23.3774 4.45914 3.16202 24.3393 6.13853 2.97488 16.9677 7.40058 3.31755 
15.8219 9.3268 3.54976 26.6311 6.64352 3.42926 26.7361 8.88543 3.0026 
14.917 11.0804 3.81811 29.4296 13.5628 2.8163 16.9054 17.8057 2.39997 
15.6323 18.1378 2.72018 13.4309 18.29 3.52059 12.9997 22.918 3.39383 
13.6455 27.536 3.51232 15.8793 29.8955 2.83299 18.5095 29.8801 2.53513 
32.0963 29.9262 2.72197 15.5401 32.0596 2.8519 26.617 32.1788 2.42797 
13.4597 34.7093 3.1072 24.3942 1.92238 3.93636 24.2837 1.39703 4.61133 
18.2622 3.51182 4.52095 19.0223 3.05799 4.8748 26.5952 2.90606 4.10528 
12.6629 10.9408 5.00323 39.9319 29.8443 3.98712 26.6455 39.1492 3.38993 
13.8754 43.7055 3.86013 18.5532 44.032 3.29843 26.7581 46.1122 3.47871 
13.5276 48.6071 4.72272 14.2438 48.2847 4.13808 15.5552 49.0601 3.83775 
28.9261 48.6317 3.86077 16.6692 50.9938 4.01247 15.8167 52.7389 4.44527 
16.5497 52.7606 4.23766 18.0604 52.9967 4.14638 17.8243 52.9335 4.1122 
25.6762 1.1613 4.81396 30.5744 1.29882 5.21842 30.9927 1.55845 5.21661 
14.067 9.58053 5.00808 11.185 13.4494 5.52266 37.5255 13.4585 4.38823 
10.9792 15.9551 5.48961 10.8661 18.2824 5.40738 42.909 18.1843 4.93673 
10.9098 25.261 5.33058 42.7564 25.0668 4.52774 12.511 29.6939 4.31135 
11.0152 34.3659 5.08576 11.3143 39.0759 5.23933 34.8069 48.8517 5.07375 
29.5389 50.962 4.35526 31.7548 51.2355 5.00125 13.7108 50.2992 5.12968 
21.3921 53.5083 4.60547 26.7493 53.4425 5.02898 24.5231 53.6723 4.97801 
28.5357 53.2358 5.21662 18.5873 55.5491 4.85184 31.436 0.83205 6.42579 
33.9061 1.33161 6.45233 34.3137 2.56934 5.7935 34.8462 3.78399 5.61213 
17.1631 4.97037 5.55313 15.5445 6.68558 7.27234 11.8056 11.245 5.71069 
10.4109 11.0405 7.19756 9.77091 13.5003 6.94435 9.89612 16.0284 6.69736 
48.232 22.8839 6.34263 39.9503 46.5747 5.56697 37.3527 48.5592 5.42011 
38.1598 49.4087 6.11378 37.2239 50.3659 6.77789 31.2029 52.341 5.61111 
31.6041 52.7391 6.50815 29.5459 53.7421 6.40176 13.5002 55.1996 6.714 
26.7283 55.2569 6.78673 24.3689 56.2694 6.47036 18.7702 57.7846 5.57846 
20.9896 58.3104 5.87647 23.6662 57.0848 6.80949 15.8471 58.213 6.35502 
21.6793 59.1159 6.61038 21.1097 59.5535 6.76119 29.3332 0.805631 6.76799 
37.7112 2.39628 7.02085 17.1207 4.07091 7.08952 40.0891 3.87685 7.08109 
14.7979 8.12898 6.10663 13.3505 9.0623 6.58624 9.98554 20.5959 6.89755 
9.95225 22.8356 6.9059 9.76674 27.4047 6.69828 48.1835 39.2941 7.03992 
45.4025 46.4416 7.05095 43.1125 48.402 6.88321 12.392 50.8706 6.50953 
11.4664 50.6698 7.56893 16.3872 60.0473 6.87924 18.4561 60.72 6.827 
34.8962 1.21488 8.25189 37.5023 1.74458 8.07959 39.6594 2.68762 7.62784 
40.6591 2.31556 8.66038 43.7431 3.54961 8.26056 42.1961 2.75278 8.70071 
16.1339 3.87082 9.49628 15.1953 6.63925 8.48146 13.7176 8.47548 8.21071 
10.067 10.9636 8.02779 9.3101 13.0309 7.82841 8.85577 13.5612 8.63186 
9.53658 18.3947 8.4138 8.9007 25.5146 8.68021 53.6516 27.5978 7.94666 
8.10564 32.0813 8.52521 50.5274 43.7838 8.60853 44.5538 48.7988 8.15708 
47.978 48.0062 8.74637 10.6904 50.7989 8.62792 42.9569 49.2601 8.123 
13.2233 58.2071 8.31991 23.9141 57.5365 8.26475 14.2562 60.1355 8.42054 
15.2151 60.7214 8.11068 21.477 60.3046 8.1352 17.2207 62.623 8.68773 
18.1815 62.6647 8.54501 20.5825 61.3844 8.32117 18.1513 2.70956 9.97239 
8.97156 12.3066 9.14592 50.6842 13.6818 8.81249 55.9862 20.6535 9.02839 
51.0045 46.6753 9.1121 50.8059 48.2051 10.107 15.4646 3.44819 11.3077 
16.7838 3.1097 10.0723 44.8809 3.17548 10.688 49.0324 4.98394 10.7246 
48.1535 6.13989 9.64788 50.7367 6.07041 10.473 13.2491 9.53834 10.8516 
10.0533 10.8397 9.94317 53.3541 9.02283 10.5145 8.8933 11.9389 10.0796 
53.1695 13.816 9.51077 53.6169 13.5091 9.70588 58.6096 18.33 10.6285 
6.72214 30.1692 10.5051 58.9005 29.8944 10.0259 56.1034 46.4361 10.3172 
53.2333 47.7478 10.3215 45.5916 49.2015 9.96774 11.0062 57.4049 10.4094 
13.6565 60.5294 9.39494 16.4553 62.5678 9.40772 18.8001 63.0841 10.3536 
15.1943 3.72313 12.0314 45.8059 3.49653 11.7989 51.4121 5.02729 11.7371 
52.0788 5.61996 11.2224 54.1077 6.14502 11.8058 53.1276 7.13111 10.814 
10.396 9.60657 11.6696 13.3924 9.61382 11.9529 56.3913 8.52009 11.9113 
12.4802 10.0725 11.1276 7.97714 13.0659 11.9563 6.29345 29.8655 11.2738 
6.45768 30.1676 11.0552 8.15178 46.152 12.0704 55.8616 47.6326 10.7236 
56.204 48.41 11.746 58.9383 47.9306 11.916 53.5208 48.5746 11.6488 
9.66354 55.9478 11.5396 23.8543 58.0981 11.8539 20.5886 62.3485 11.8923 
15.8493 63.1827 11.7201 56.0445 7.40229 12.25 59.0828 15.8373 11.3167 
62.1393 47.8051 12.718 45.5718 49.4602 11.7835 48.1704 49.0497 11.8226 
14.8981 3.62293 13.6932 50.6562 4.8947 13.3517 56.2474 6.79238 13.2725 
58.0924 7.53646 13.6298 13.6974 8.88173 13.5935 58.8076 7.98594 13.4155 
58.5303 9.31905 12.4993 9.59065 10.457 13.2427 8.71282 11.405 13.6231 
62.2825 10.7314 13.4506 9.35379 18.1696 13.2721 9.09003 20.78 13.8116 
8.37829 22.9973 13.7056 5.77754 27.5287 13.8147 67.0109 34.651 12.9542 
6.90777 36.7329 13.2213 64.1621 48.5979 13.5067 58.8405 48.9106 13.4579 
37.6639 51.6596 13.4062 7.73722 53.3837 13.7568 8.48391 55.4454 13.4426 
10.8729 59.992 13.7143 23.0317 59.279 13.7946 13.3985 62.5917 13.6127 
18.6535 64.0813 13.6319 14.3889 6.75327 13.8743 61.7372 9.44252 13.9079 
61.9194 9.06483 14.8736 63.4922 10.8635 14.048 64.2103 13.5904 13.8398 
68.9597 30.1083 14.7447 69.4549 34.568 13.904 69.5318 36.8173 13.6857 
67.1451 48.9069 14.0921 67.5972 49.5471 14.6985 14.7673 3.34452 14.9269 
15.8497 2.71633 15.3052 14.006 4.02549 15.7039 48.0039 4.7437 15.1851 
59.257 8.0051 15.0835 12.759 8.65879 15.478 11.7232 9.47091 15.2336 
64.3534 10.7077 15.023 63.5072 10.0533 15.3424 8.68667 11.9846 15.0461 
8.41579 13.5334 15.3135 66.7793 13.4725 15.4 69.2648 20.646 15.784 
5.02197 27.677 15.3503 69.5605 27.5665 15.2962 69.2833 47.9551 14.5412 
45.2821 50.07 15.4661 64.312 49.7373 15.2462 69.4892 50.134 15.6829 
6.95097 53.0125 15.3207 20.9915 62.9117 15.061 12.8827 62.7916 15.1885 
16.1143 64.5747 15.5961 20.0047 63.5719 14.0906 18.9493 64.6617 15.2736 
14.3701 3.01571 17.343 23.8882 3.31478 17.1571 45.1782 4.72301 17.1028 
11.5924 9.50777 16.816 9.8756 11.2205 17.5583 64.7358 10.9607 16.8741 
66.1245 12.1215 15.7432 66.1378 11.7935 16.6372 68.5642 14.6014 16.0851 
69.1432 16.2619 15.9771 8.61273 16.1193 17.0614 4.582 27.3391 16.9938 
4.38704 29.4338 16.781 4.36649 32.3412 16.7939 74.4706 36.9417 16.045 
74.4659 41.0592 15.7566 75.9519 43.7332 15.9064 77.3693 43.315 16.3124 
76.4394 42.7222 16.1 77.2193 43.8168 16.4816 75.7376 46.1696 16.5338 
72.6964 48.9545 15.6685 74.8736 48.5024 16.7839 67.1104 50.354 16.6024 
73.2367 51.7062 17.2666 26.4713 57.5184 17.079 12.558 62.9599 16.8663 
14.2661 63.7475 15.5725 16.4947 65.5579 17.5861 12.8355 7.3798 17.03 
8.76282 13.3822 17.2454 71.8346 16.0614 17.5073 72.058 17.9127 17.1263 
77.5186 41.5611 17.0823 5.79955 48.3402 17.0159 45.3471 50.4454 17.0937 
47.9865 50.0263 17.1895 50.6925 49.7461 17.2359 74.3293 50.956 17.4225 
7.56022 55.6107 16.9622 13.1077 3.85961 18.2498 11.7092 9.20625 18.3374 
66.5095 12.1434 18.253 9.19554 12.4279 17.8912 69.6418 13.8951 18.4871 
8.82068 13.7195 18.6991 72.3877 15.9319 18.6481 73.2828 17.7024 17.9913 
5.08469 25.2224 18.6987 77.2993 29.9092 18.7307 77.6044 32.219 18.6801 
3.99 36.9743 18.6459 77.17 36.9858 17.7604 79.9426 41.0626 19.1245 
78.631 43.7991 18.5782 4.94612 43.8708 18.5972 5.22366 48.6005 18.8547 
74.647 52.0919 18.654 72.9975 52.2268 18.6093 29.6639 56.1397 18.5231 
28.5582 56.4332 17.3768 23.3794 60.1396 18.6698 20.4923 65.495 18.7437 
18.9695 68.2928 20.0064 74.03 17.9963 18.6478 75.3951 20.2311 19.1539 
3.76841 34.5503 19.1692 80.1765 37.4189 19.0132 80.2425 39.2681 18.9265 
74.4323 52.6223 19.301 18.9369 68.3718 20.4566 14.0077 2.90916 20.6712 
13.0914 3.62451 19.62 15.3545 2.62359 20.2931 32.0081 3.44138 20.541 
40.0795 4.13708 20.4372 11.1754 9.33325 20.5364 67.0856 13.0227 20.2798 
72.2858 15.9592 20.1634 74.9653 18.0838 20.0987 76.6782 19.8889 20.3242 
83.2282 37.4949 20.6548 83.0854 38.4978 20.5646 3.59517 41.4424 20.599 
80.5335 41.8313 20.1448 79.9348 43.2603 20.461 77.039 47.8615 21.0167 
66.9837 50.6828 20.3679 23.9468 60.0554 20.4179 17.1344 67.3626 20.6847 
20.2611 66.7706 20.4297 15.2398 2.90548 21.5696 75.0434 18.3493 21.6024 
77.7566 20.4612 22.0268 78.4642 21.8998 21.4228 84.0257 36.8415 21.9501 
83.7552 39.0424 21.7631 3.67794 43.515 21.3156 3.36904 43.6992 22.3454 
78.0884 46.6457 22.0601 75.5163 53.4843 22.3393 12.8096 64.6742 22.142 
14.3513 2.99746 21.7462 13.2269 3.72676 22.0651 6.97741 17.975 21.8796 
76.4084 19.329 21.7204 79.7376 22.778 22.3748 80.3849 24.9775 22.0951 
3.69676 44.1258 21.581 77.4608 48.3176 22.2021 20.4304 66.677 22.1684 
18.811 68.167 21.3912 13.1865 4.02539 23.3508 15.2611 3.63877 23.9562 
11.2586 6.64876 24.1102 6.62428 17.8555 23.5068 77.7371 20.5536 23.2694 
80.0907 22.8834 23.3974 82.3745 25.6224 23.8045 4.14809 27.4322 23.6401 
82.3834 27.6365 22.891 2.96868 34.6125 23.8755 85.7047 36.6926 24.1642 
84.4968 37.7474 22.6234 56.137 50.672 23.8214 69.6272 51.4848 23.6277 
26.2772 59.5092 23.9716 16.1188 67.1181 23.3135 18.6385 67.7238 23.2486 
29.3111 4.00243 23.8479 7.3179 15.741 23.6706 67.5243 15.0137 24.1613 
84.0108 27.4699 24.1662 83.812 26.1413 25.0181 84.4535 27.662 24.5459 
84.6497 27.2472 25.0442 84.6648 38.8135 23.6239 3.49768 45.8806 23.9396 
77.7905 50.8659 23.6616 22.3337 62.6649 23.4439 20.4479 66.6205 23.967 
13.0662 4.35792 25.4477 34.6763 4.37647 25.4838 10.9755 6.28061 25.7207 
72.1808 18.3606 25.4569 80.1369 22.9672 25.2824 82.6298 25.1915 25.453 
3.83417 27.344 25.193 84.9613 30.1474 24.7677 85.8831 30.2672 25.6793 
86.2144 31.7082 25.541 86.2651 34.4897 24.7983 83.4975 41.7225 25.3698 
80.4226 46.4703 25.2358 42.7571 53.2424 25.4635 47.9456 52.2711 25.7765 
77.7787 53.7358 25.246 23.4009 62.2417 25.6388 16.1092 67.6352 25.3691 
86.7468 29.1227 27.553 88.1853 36.5821 27.2811 74.8881 53.3718 27.1943 
20.6445 66.6083 27.2992 15.8627 68.4207 27.2678 11.6458 5.25679 27.0017 
18.583 4.38413 27.1877 21.2659 4.44773 27.1855 3.23319 27.6976 27.372 
85.5851 27.7421 27.5018 89.0643 32.3547 27.6898 83.4028 45.7135 27.3333 
80.8658 48.5704 26.8874 80.571 50.7623 27.7128 56.1988 51.4723 26.9822 
79.1486 52.0459 26.1977 79.2508 52.7693 27.1578 77.6967 53.6373 25.5367 
13.5561 66.9609 27.2059 18.5244 67.7295 27.2786 85.8255 44.2588 29.3054 
79.5859 52.8069 28.8281 24.3405 62.4907 28.8591 13.4547 67.4385 28.7814 
16.1462 68.6998 28.1412 85.7558 27.9048 28.686 88.5822 29.4346 28.698 
91.4275 30.1201 29.3586 91.3561 32.343 29.3306 80.633 51.435 28.6044 
78.0271 53.5372 28.8325 12.9231 4.56679 30.4413 9.61888 5.90498 31.1103 
9.09487 7.76825 29.6272 86.4852 28.4765 30.1497 1.89397 32.1277 30.4246 
91.4306 33.8306 30.6347 91.5097 32.3286 30.3716 90.2416 36.3454 30.642 
86.516 44.4384 30.5471 84.0258 48.9026 30.5429 84.6684 48.5106 30.9838 
3.83343 50.4724 30.7849 82.6794 50.3873 30.8106 79.3228 53.1103 29.389 
10.9382 65.0142 30.5701 11.7459 66.1047 30.8469 21.3319 66.7454 30.4553 
13.0604 67.5116 30.4791 18.2266 68.8855 30.801 12.6244 4.65157 31.8306 
86.2574 28.5372 30.8439 89.178 29.7836 30.4795 90.1367 30.2325 30.3123 
90.4516 32.1565 32.2362 10.6767 5.07219 32.2636 23.9379 4.5707 32.2791 
9.64905 5.66443 32.1779 8.03475 8.8875 32.2061 55.8676 10.664 32.2195 
4.24811 18.1297 32.4893 3.80075 20.1194 31.8437 3.573 20.8371 32.4328 
75.0677 22.6472 32.3634 91.0199 34.3851 31.9087 89.6546 39.486 32.39 
89.1641 41.6069 32.9894 87.9186 43.3384 32.545 85.9305 46.5143 32.297 
84.7824 48.9281 32.5223 83.6548 50.0752 32.4935 84.2623 49.3934 32.0492 
79.7747 53.1039 32.1904 66.875 53.1228 32.2917 50.9163 53.9247 32.0441 
21.4382 67.3058 32.1967 18.8164 69.1722 32.3244 15.9924 70.0047 32.8842 
9.41624 5.73212 33.8354 6.95877 11.6561 34.0278 1.87806 27.5066 33.9845 
88.3552 30.6126 33.8486 90.7798 32.8987 34.3294 90.2176 36.7323 33.8479 
89.9112 38.9263 33.7799 1.67056 41.5649 33.9014 89.1237 41.6929 34.1063 
87.7227 43.4128 33.7847 86.8659 44 34.2451 83.0405 50.325 33.8143 
80.0352 52.7368 33.9484 77.2464 54.0902 34.611 13.9454 69.1065 33.937 
20.1059 68.5945 32.6416 20.5634 68.6381 33.6786 16.198 70.4082 33.64 
8.46811 6.82761 34.2396 89.4062 40.3603 34.2448 84.644 48.7782 33.6328 
81.2835 51.6091 34.166 51.0078 54.3796 33.6196 53.5959 53.9341 33.7499 
75.1066 54.2996 34.2769 37.4417 6.17921 35.7502 4.52787 15.907 35.6715 
87.8853 30.7867 35.8963 89.4252 32.1044 35.8086 89.2227 37.2069 35.8909 
84.9214 45.7882 34.9581 83.4746 48.3087 35.132 84.1146 49.0172 34.187 
3.28983 50.5633 35.736 80.3451 50.8607 35.8087 77.1773 53.753 35.8953 
71.7956 54.3252 35.4049 75.4253 54.1136 35.849 7.56452 60.2704 35.6533 
34.1288 58.7114 34.4401 15.029 70.2556 35.4653 16.4031 70.8128 35.1948 
16.8902 70.6993 34.7485 90.5191 32.9947 34.8728 89.3729 34.4413 36.1288 
88.2826 40.9934 35.3859 85.9437 41.8083 36.1196 83.4909 44.0847 36.252 
79.6629 52.3826 35.0042 72.3238 54.2709 35.9218 17.8078 70.7785 35.8819 
9.37303 5.87563 37.4139 53.2749 11.0279 37.2624 79.6991 26.3891 37.3462 
82.4755 28.293 37.4977 85.2365 29.9244 37.741 87.18 30.7788 36.7246 
88.2252 34.0559 37.2472 87.9043 36.7523 36.8387 86.052 39.3456 36.8436 
77.5496 50.8616 36.9517 74.5289 53.2228 37.0645 67.5923 54.7011 37.2741 
69.0683 54.4925 37.4805 72.3377 53.6297 37.4295 12.3229 67.8472 37.3286 
14.8967 70.3995 37.2743 17.9359 70.9698 37.5482 77.8514 25.5482 39.3527 
81.673 28.4447 38.3112 87.7629 32.1057 37.4553 80.4382 39.2774 37.9649 
82.9717 39.1951 37.3927 72.6304 51.673 38.1788 69.8965 53.9696 38.058 
20.9094 69.1625 38.9515 45.5537 8.50605 39.1726 79.8761 27.5675 39.2268 
82.7795 29.9285 38.6603 80.9884 29.9119 39.2898 84.6022 30.4785 38.2622 
85.5242 32.0584 38.2297 72.1589 48.4568 38.8186 71.2775 52.5255 38.3888 
64.5073 55.3029 39.3223 67.2773 54.8437 39.0433 19.5159 70.3039 38.6454 
16.1107 71.2537 38.9453 18.3792 71.0445 38.7376 10.7624 5.34357 40.4755 
39.8697 7.4836 40.6122 5.14171 13.5586 40.7605 3.06503 20.7602 40.7554 
77.6353 25.933 41.0211 78.6199 26.5385 39.7879 79.824 29.8425 39.7367 
72.102 39.1175 40.403 1.69946 43.9539 40.7878 66.6631 53.4489 40.2672 
67.3053 53.8017 39.8765 61.6195 55.6387 40.6672 5.74104 57.4883 40.7673 
29.6224 62.6691 40.6216 11.2484 66.5429 40.7469 24.0301 66.7393 40.7996 
16.1099 71.4722 40.654 18.2825 71.7003 40.5211 64.1865 17.6339 40.9034 
66.9275 20.1517 42.4313 77.789 27.373 40.9661 66.7615 48.4416 40.8702 
9.97277 5.64252 42.54 12.5144 5.25559 42.5567 5.13846 13.4243 42.5411 
72.1463 22.9672 43.2697 75.078 25.0595 42.729 1.23865 36.9215 42.5003 
66.7687 41.4717 42.2756 63.3318 53.7207 41.8453 61.6341 55.3886 42.2227 
56.0566 57.0609 42.861 59.2884 56.268 42.897 45.4419 58.05 42.3991 
18.5326 73.0971 42.7094 9.73834 5.86393 44.2357 34.6466 6.83371 44.1473 
66.7323 20.4885 44.1052 8.50568 6.88435 44.0706 70.5538 22.3116 44.3227 
71.9743 23.2594 44.2898 72.7179 24.8934 44.0953 69.1995 32.0169 43.5208 
66.8375 34.5249 44.1121 59.6344 55.6498 43.7142 55.8734 57.5355 44.7274 
42.7816 59.0813 44.402 16.0011 71.9015 44.6104 20.8828 72.3066 44.237 
18.2371 72.8765 42.6005 18.7024 72.972 43.7078 8.81606 6.83943 45.7374 
6.97743 11.0534 46.0236 51.2135 12.7416 46.1153 69.7891 22.9247 45.8762 
2.79365 23.0173 45.8365 69.2449 24.9952 46.2105 1.49126 32.0315 45.6725 
1.40644 34.6933 45.8585 61.0472 43.6687 45.1124 32.1578 63.0788 45.6683 
15.8516 71.6889 45.6578 21.5403 72.4481 45.6416 18.9797 73.4314 46.3723 
23.994 5.57786 45.9607 66.4447 21.3004 47.2998 70.9644 23.1297 45.4227 
56.1219 57.4214 45.6289 20.5379 73.0977 46.0169 10.4613 5.91871 48.2224 
21.2678 5.75173 47.6824 8.81905 7.34698 47.3262 42.5882 9.50679 47.4626 
45.9167 10.6345 47.9101 67.5446 22.7659 47.7424 2.27963 25.0961 47.5217 
64.1168 29.8502 47.4562 1.83688 34.5341 47.7127 1.78903 41.453 47.4891 
55.8513 53.1013 47.2359 55.8285 55.9343 46.9045 55.0768 57.6543 47.0745 
54.0183 58.1526 47.3801 34.4956 63.0073 47.6345 26.5231 67.612 47.4615 
13.8376 68.9503 47.4633 16.3751 71.8732 47.4099 23.0778 71.9287 47.5263 
20.977 73.5607 47.4739 64.2481 20.9193 49.1943 19.2293 73.7831 49.1071 
21.1779 74.3284 49.0292 10.5077 6.07076 48.4997 15.9534 5.92172 49.2135 
9.139 7.4782 49.0299 45.4993 10.8959 49.3246 5.07994 15.4967 49.3563 
64.6816 22.7829 49.6889 2.70656 25.3623 49.2036 1.95221 39.3605 49.4605 
56.3352 39.2521 49.2609 54.3852 53.2796 48.5511 53.5519 53.1586 49.3605 
5.25034 54.8403 49.1805 45.0213 60.6423 48.9628 48.6376 60.5562 49.4297 
50.8496 59.8308 49.252 9.93372 62.82 49.4015 34.97 63.3566 48.8902 
37.4444 62.7234 49.1549 22.8427 73.3379 49.647 10.3849 6.79939 50.9432 
5.21969 15.6098 50.6113 61.7654 20.1607 51.9619 51.0317 58.2512 50.7821 
45.5505 61.3126 50.3572 48.7148 61.3188 51.3074 45.3179 61.7626 51.2289 
26.5534 69.5402 50.9098 8.78568 8.40545 51.0567 58.4983 32.0223 50.554 
53.2874 43.8075 50.7857 50.3631 59.8274 50.7837 48.0305 61.4157 51.5177 
23.155 73.7805 51.2982 10.5754 7.0902 53.2201 26.5038 6.7832 52.6874 
61.689 22.7311 52.5556 52.7033 41.3177 51.9462 3.11173 43.5152 52.4863 
4.78482 51.3421 52.9984 48.7078 60.525 52.6249 45.4786 62.3615 53.0072 
47.2722 61.9676 53.1521 34.598 65.0439 52.5614 21.1978 74.9551 52.4411 
20.9559 75.1161 54.1751 9.77612 8.09184 54.4751 29.0657 7.39709 54.3641 
8.86026 9.0974 54.2926 45.7169 12.8439 54.58 59.9097 20.4407 55.0031 
56.4926 27.793 54.714 3.49828 36.8533 54.0366 46.0946 60.5823 54.9899 
45.5787 62.2192 54.2439 47.2261 62.009 53.6339 43.8885 63.4058 54.2033 
24.0454 74.6317 54.1313 21.8885 75.4617 54.811 23.0035 75.4474 54.7572 
12.5188 7.67239 55.9664 23.944 7.35169 55.8623 37.086 9.7062 55.9684 
3.76302 36.8617 54.7913 4.14262 36.8947 56.2959 45.3179 62.1826 55.36 
43.1099 64.4332 56.1647 19.363 73.8131 55.7604 58.9874 20.534 56.0034 
58.5867 22.7532 55.8261 53.0592 32.0132 55.7103 47.5418 48.2667 56.2228 
44.1494 64.0955 56.4725 40.1678 65.5223 56.549 23.9943 76.012 56.5221 
23.9457 7.79046 57.4272 10.1915 8.99181 57.792 12.54 8.36472 58.1243 
8.76662 11.0333 57.9121 56.1095 18.8023 57.7867 58.1426 20.7686 57.024 
4.95406 22.8707 57.8051 55.7554 25.0033 57.4398 4.61781 43.9619 57.9287 
45.9085 48.6231 58.1312 47.0169 48.1997 56.8597 44.9589 55.3884 57.3726 
44.2888 62.6514 57.1359 43.0949 64.2641 57.2756 40.5467 65.6737 57.54 
37.9485 66.7492 57.7896 32.193 69.1598 57.8568 22.2214 76.0133 57.8519 
24.4899 76.5257 58.78 23.9515 7.98166 58.0554 57.1072 20.3744 58.1309 
43.7001 62.6786 57.7942 39.3322 66.31 58.0838 10.5641 9.43739 59.2844 
13.0387 8.78358 59.5906 32.0349 8.89795 59.4675 37.142 10.3879 59.9813 
55.4441 18.9523 59.034 4.96034 25.2149 59.5091 50.3986 32.035 59.2072 
48.7284 34.8067 59.8575 4.89744 36.8986 59.6677 6.11865 48.2789 59.0106 
8.11952 55.3388 59.373 43.8428 55.6544 58.6591 43.1513 55.6025 59.5928 
42.2369 62.7524 59.3874 41.7952 64.4278 59.0866 40.8569 65.2803 59.5294 
38.0741 67.5889 59.4958 39.3592 66.5909 59.7232 34.2628 69.2191 59.6312 
18.602 71.7316 59.4477 21.9465 75.5939 59.126 24.0086 76.6186 59.3591 
25.8661 76.1328 59.4493 12.887 9.33145 61.1407 10.4132 10.6918 61.3622 
37.3783 10.8984 61.3468 50.4588 29.7261 60.9663 49.7344 31.7046 60.5097 
5.20893 34.5416 61.1541 5.43259 36.8469 61.0463 6.64967 48.7345 59.9754 
7.2233 48.5978 61.4099 24.0075 76.369 60.6897 47.5222 14.9574 60.8553 
5.88717 22.9859 61.3211 5.0992 29.8927 61.3444 5.03871 32.2195 61.3138 
5.69542 41.6312 60.9661 6.89377 46.292 61.5197 8.07316 53.4982 61.2476 
40.0748 65.3324 61.3905 39.3737 66.6963 60.922 37.3353 68.9201 61.2461 
32.1776 71.6741 61.2076 21.3658 74.2597 61.2305 29.2304 74.1221 61.1049 
22.1841 75.2357 60.674 26.7776 76.6771 61.2113 13.0228 9.77927 62.6923 
37.4176 11.3886 62.7216 10.7424 11.1704 62.8256 8.27439 15.6333 62.6842 
52.8987 18.4321 63.0451 5.86382 27.6035 62.4236 8.17844 50.816 62.8527 
39.203 67.0777 62.6192 37.9029 69.1071 62.4407 28.4037 75.5209 61.8624 
26.6861 76.5738 62.5757 12.52 10.1278 63.3172 53.8486 20.2494 63.0227 
40.8021 55.6428 63.2911 38.7159 68.0833 62.8592 28.8233 75.8692 63.0894 
13.7038 10.0602 64.1661 12.8883 10.488 64.8226 15.9069 9.98248 64.2649 
9.85204 13.7991 64.8711 40.1743 13.2946 64.6565 52.6295 18.9397 64.8131 
7.65137 22.9341 64.7534 7.45615 27.5538 64.8239 6.65091 27.5304 63.6556 
43.3968 41.587 64.6849 8.55008 48.5103 64.4203 38.6778 67.7016 64.1584 
37.8052 69.6245 64.5323 36.5702 70.6663 63.5104 20.8769 71.9848 64.6713 
35.5906 72.1667 64.4505 36.6766 71.3338 64.9314 26.3663 76.2949 64.1636 
28.8188 76.2896 64.0397 31.0917 75.6901 64.9146 51.5776 18.2473 65.7204 
40.1339 50.901 66.507 11.2595 55.2434 65.7556 13.4019 11.1953 67.7004 
15.1125 10.5578 66.3023 11.4415 12.0534 65.8404 8.84925 18.4461 65.7295 
52.3402 20.2149 65.5739 51.5484 20.5771 66.7016 46.3063 30.4527 66.9075 
43.1523 39.1779 66.213 40.5605 48.6898 66.6249 39.8674 53.0822 66.104 
39.2051 57.6728 65.9251 13.6023 59.8106 66.1923 15.3794 62.7346 66.5024 
16.2324 64.571 66.0905 38.1595 67.4075 66.2691 37.6228 69.3672 66.3974 
19.1259 69.0257 65.984 36.629 72.034 66.6087 29.5705 76.7456 66.3236 
29.5278 11.4427 67.9162 43.0971 36.8377 67.931 42.4998 39.1327 67.8519 
12.9948 55.5432 68.1005 15.9439 62.4222 67.9202 35.7314 74.8432 67.9254 
27.378 75.7733 67.2814 29.4022 76.6728 67.737 32.3951 77.2001 67.8488 
13.1189 11.1312 67.2775 26.6427 11.1479 67.9936 50.6766 20.2309 68.2683 
50.4702 22.7806 67.7643 43.6756 34.9357 68.41 8.88422 39.1035 67.37 
13.5426 57.651 67.7194 14.1922 59.6137 67.283 34.599 76.4938 68.3893 
13.6415 12.2594 69.8357 15.3144 11.7811 69.8309 11.2839 15.7489 69.0271 
48.5231 18.6851 70.2994 46.1917 27.7487 69.6995 43.2356 34.6463 69.6606 
11.1256 46.0301 69.2577 13.7456 55.2891 69.2831 19.2067 66.6543 69.2371 
36.3098 74.0213 69.5623 26.6689 74.0233 69.6112 35.0809 76.8947 70.2055 
32.5279 77.5088 70.4101 15.8414 12.2794 71.0095 35.0038 77.4166 72.9812 
13.1769 13.2916 70.7608 48.6697 20.4757 71.945 12.7376 25.1765 71.6792 
43.3782 32.4461 71.5371 10.8998 32.2456 71.1134 40.9553 39.5036 71.6612 
19.0357 64.5064 71.0292 36.2567 67.1885 71.2121 36.2442 74.5587 71.4757 
36.0569 75.2607 71.3266 32.2929 77.2547 70.9903 15.5134 12.7781 71.9181 
18.6051 12.5182 71.7449 37.268 16.1963 72.9345 47.4385 20.5933 73.004 
47.4715 22.512 72.856 38.0807 50.7424 72.9519 35.6965 67.1009 73.2587 
36.0798 67.1021 71.6945 24.222 69.4906 72.9089 35.8098 69.1499 72.8817 
35.0836 77.4501 73.2792 16.1449 13.5991 73.4471 13.8479 15.7911 72.7219 
43.1286 31.9793 72.9767 39.464 43.734 72.9165 39.0901 46.0129 72.8616 
35.9366 71.6547 73.2156 35.971 72.2127 73.3246 35.8872 74.3152 73.3017 
18.0911 13.5066 74.5027 16.5134 14.082 74.4446 29.2814 14.3458 74.4056 
46.074 20.3734 74.4994 46.5673 22.7543 75.9862 46.793 22.628 74.7017 
40.1359 39.3959 74.5463 39.1217 43.7655 74.7828 38.8404 46.0028 74.7138 
37.5274 52.8093 74.387 35.6763 62.2958 74.8879 35.4791 66.7888 74.4034 
35.2966 74.7349 75.4725 32.078 74.4671 74.7287 35.0197 76.8598 73.6885 
17.8601 14.1642 75.6424 16.3721 15.7575 75.8417 29.6179 14.7894 75.2636 
29.3934 15.4302 76.6814 45.3037 20.9958 76.5937 46.2621 22.7572 76.4604 
45.4175 25.4101 76.4166 14.202 30.0762 75.8398 39.259 41.9217 76.7918 
38.7302 46.5398 76.0956 18.0943 53.3116 76.7839 35.4252 62.2038 76.7577 
35.1433 64.3128 76.9987 24.7358 66.9092 76.0673 35.3009 69.9664 77.0943 
26.8542 69.1056 76.1721 31.9705 72.3515 77.1221 32.5573 73.3697 76.4378 
34.7613 74.0592 76.3772 17.8931 15.0993 76.7633 14.9891 39.2881 77.0553 
36.4868 59.5642 77.6923 20.8481 15.4772 78.5703 35.1114 16.9441 77.0053 
16.3843 22.9729 77.8209 45.5941 22.3797 78.0768 45.1951 25.0306 78.0639 
43.0013 29.4307 77.8262 37.4926 50.5086 77.7594 21.6991 59.8729 77.7572 
36.0784 60.6217 77.9821 35.5406 62.0749 77.6156 35.2615 64.3922 78.1798 
35.0941 69.7588 78.465 32.2723 71.4957 78.1908 34.535 71.1746 78.7657 
34.1393 72.8139 77.5902 43.1971 21.1512 79.8247 18.0512 22.8361 80.2185 
17.131 23.0871 78.9711 44.9228 24.6847 79.6145 39.2694 41.1658 79.6349 
23.1139 60.6116 78.8741 36.7968 59.6627 80.0102 23.83 60.192 79.9398 
34.6961 70.0978 80.258 44.8479 22.8269 79.9708 42.2691 31.9002 79.5338 
32.2329 69.5457 79.9182 21.289 16.5047 81.2281 19.9598 17.1164 80.5028 
23.5953 16.6499 81.5763 43.8115 22.5194 81.5156 43.8724 22.0368 80.5683 
44.4159 23.1185 80.9713 44.147 24.7029 81.2428 43.586 25.2482 82.295 
18.4453 36.8798 81.6417 39.432 39.7599 81.1359 18.9164 43.7858 81.2235 
38.9906 48.1336 81.6837 37.7712 52.7439 81.6909 21.9623 55.1543 80.9408 
29.1939 64.8909 81.6844 34.5807 68.1008 81.3948 32.8624 68.885 80.8998 
34.2033 69.2452 80.7815 23.5955 17.2554 82.9445 26.3981 17.8018 83.5324 
42.5836 23.0317 83.3772 21.2721 46.1671 83.2199 34.7803 65.4531 83.4104 
32.1628 65.6338 83.2448 21.6314 17.7464 82.9026 23.6061 17.5781 83.5139 
20.7093 25.1409 83.7655 43.3407 24.7142 83.1157 43.0075 27.5211 83.0834 
39.9351 39.2428 83.4765 37.9116 53.5011 83.5064 26.7943 60.0033 83.0427 
34.0152 66.2305 83.1098 26.0375 18.58 84.8443 28.7927 19.1703 84.924 
40.5978 22.2257 83.742 42.8669 24.6427 84.7388 20.4914 34.6103 84.0427 
42.2548 34.8898 84.824 39.8126 41.417 84.8235 22.0885 46.0135 84.0313 
26.389 55.6026 85.2071 35.1624 63.2445 85.6205 34.648 64.526 84.7316 
24.0211 18.4707 84.6558 23.9041 20.2123 85.4247 43.0744 27.1288 85.3033 
23.5993 46.2351 85.3334 32.7951 64.4828 84.3455 26.5383 20.3806 86.5205 
24.3957 22.6248 86.4502 40.5066 23.5808 86.3413 41.6447 23.9221 85.8321 
42.5973 25.0529 86.0419 43.0171 27.0183 86.7936 23.8049 29.891 86.8127 
40.4124 41.289 86.7322 39.7361 46.1493 86.5518 38.2225 57.9582 86.5075 
37.1159 60.2407 86.7223 32.5664 60.1619 87.1264 32.7621 62.0939 86.0746 
34.8569 62.31 86.521 42.9621 29.7527 86.8573 39.5475 53.1427 88.5354 
38.836 56.9862 88.1412 38.0961 57.9533 88.4543 27.5566 21.4334 87.6625 
28.8355 21.271 87.9568 26.7127 22.6751 88.0872 42.6934 27.5906 88.7757 
42.9819 29.327 88.4609 40.5429 43.9032 88.1954 40.194 46.2059 88.2052 
29.1398 50.8818 88.6021 39.007 55.7242 88.5009 31.6179 55.5991 88.5597 
35.0503 58.5151 88.6448 36.858 59.2962 87.9451 35.0273 60.0279 87.8835 
31.8513 23.19 89.9395 42.1918 39.2858 89.7428 39.6346 52.9565 89.9872 
39.015 54.964 89.725 29.9224 24.7877 90.7934 40.3765 25.593 89.8576 
41.3964 26.058 89.3783 42.2757 27.6535 90.2569 40.8058 46.9848 89.8415 
39.9479 51.0271 90.3679 37.8598 55.5428 90.4706 37.3198 56.7015 89.7804 
32.1937 25.2504 92.0304 34.5762 25.153 91.9915 42.2633 27.9917 91.8032 
43.2356 29.8044 92.1265 32.0009 43.8423 91.71 42.2689 44.3299 91.8524 
40.7959 48.6641 91.5243 41.3463 47.4805 91.6748 39.5076 51.1722 91.6066 
37.84 53.0348 91.4843 37.7747 54.3626 90.9345 42.071 46.7496 93.7688 
40.3766 48.5796 93.3789 39.0059 52.087 91.4382 34.3698 25.8194 92.6421 
32.5787 27.3046 92.9189 40.5406 27.7623 93.6471 41.8452 28.0488 92.961 
43.1388 29.8308 93.7935 32.4027 36.8303 92.7731 42.7345 41.5824 93.7743 
37.4062 46.5167 93.7825 37.6062 48.9442 93.0734 38.0932 50.0402 92.6379 
39.1373 49.6904 92.8716 34.072 27.0318 93.4803 38.0187 28.3198 94.7855 
34.3359 29.8287 94.1071 40.2372 28.4057 94.8704 43.5654 32.0849 95.1423 
43.5633 33.9799 96.2804 42.7635 39.2392 95.7531 38.9989 47.3242 94.043 
35.3381 29.2949 94.5263 37.3605 29.553 95.4038 40.504 29.3425 96.0826 
42.6949 29.8711 95.3706 42.7109 36.9685 95.4258 37.3451 39.1982 95.1522 
42.1811 42.9443 95.4008 40.1167 41.741 95.8048 40.8152 46.1668 94.9699 
41.8069 46.4622 94.5688 43.2148 32.1447 97.895 41.1166 32.1136 97.2283 
43.0161 34.4253 97.0813 40.4969 36.1729 96.4378 42.3766 39.0354 96.1872 
41.1094 41.5434 96.0871 40.6585 30.4902 96.7459 42.4987 30.9473 97.0626 
41.8848 37.0601 96.176 
POLYGONS 2325 6972
OFFSETS vtktypeint64
0 3 6 9 12 15 18 21 24 
27 30 33 36 39 42 45 48 51 
54 57 60 63 66 69 72 75 78 
81 84 87 90 93 96 99 102 105 
108 111 114 117 120 123 126 129 132 
135 138 141 144 147 150 153 156 159 
162 165 168 171 174 177 180 183 186 
189 192 195 198 201 204 207 210 213 
216 219 222 225 228 231 234 237 240 
243 246 249 252 255 258 261 264 267 
270 273 276 279 282 285 288 291 294 
297 300 303 306 309 312 315 318 321 
324 327 330 333 336 339 342 345 348 
351 354 357 360 363 366 369 372 375 
378 381 384 387 390 393 396 399 402 
405 408 411 414 417 420 423 426 429 
432 435 438 441 444 447 450 453 456 
459 462 465 468 471 474 477 480 483 
486 489 492 495 498 501 504 507 510 
513 516 519 522 525 528 531 534 537 
540 543 546 549 552 555 558 561 564 
567 570 573 576 579 582 585 588 591 
594 597 600 603 606 609 612 615 618 
621 624 627 630 633 636 639 642 645 
648 651 654 657 660 663 666 669 672 
675 678 681 684 687 690 693 696 699 
702 705 708 711 714 717 720 723 726 
729 732 735 738 741 744 747 750 753 
756 759 762 765 768 771 774 777 780 
783 786 789 792 795 798 801 804 807 
810 813 816 819 822 825 828 831 834 
837 840 843 846 849 852 855 858 861 
864 867 870 873 876 879 882 885 888 
891 894 897 900 903 906 909 912 915 
918 921 924 927 930 933 936 939 942 
945 948 951 954 957 960 963 966 969 
972 975 978 981 984 987 990 993 996 
999 1002 1005 1008 1011 1014 1017 1020 1023 
1026 1029 1032 1035 1038 1041 1044 1047 1050 
1053 1056 1059 1062 1065 1068 1071 1074 1077 
1080 1083 1086 1089 1092 1095 1098 1101 1104 
1107 1110 1113 1116 1119 1122 1125 1128 1131 
1134 1137 1140 1143 1146 1149 1152 1155 1158 
1161 1164 1167 1170 1173 1176 1179 1182 1185 
1188 1191 1194 1197 1200 1203 1206 1209 1212 
1215 1218 1221 1224 1227 1230 1233 1236 1239 
1242 1245 1248 1251 1254 1257 1260 1263 1266 
1269 1272 1275 1278 1281 1284 1287 1290 1293 
1296 1299 1302 1305 1308 1311 1314 1317 1320 
1323 1326 1329 1332 1335 1338 1341 1344 1347 
1350 1353 1356 1359 1362 1365 1368 1371 1374 
1377 1380 1383 1386 1389 1392 1395 1398 1401 
1404 1407 1410 1413 1416 1419 1422 1425 1428 
1431 1434 1437 1440 1443 1446 1449 1452 1455 
1458 1461 1464 1467 1470 1473 1476 1479 1482 
1485 1488 1491 1494 1497 1500 1503 1506 1509 
1512 1515 1518 1521 1524 1527 1530 1533 1536 
1539 1542 1545 1548 1551 1554 1557 1560 1563 
1566 1569 1572 1575 1578 1581 1584 1587 1590 
1593 1596 1599 1602 1605 1608 1611 1614 1617 
1620 1623 1626 1629 1632 1635 1638 1641 1644 
1647 1650 1653 1656 1659 1662 1665 1668 1671 
1674 1677 1680 1683 1686 1689 1692 1695 1698 
1701 1704 1707 1710 1713 1716 1719 1722 1725 
1728 1731 1734 1737 1740 1743 1746 1749 1752 
1755 1758 1761 1764 1767 1770 1773 1776 1779 
1782 1785 1788 1791 1794 1797 1800 1803 1806 
1809 1812 1815 1818 1821 1824 1827 1830 1833 
1836 1839 1842 1845 1848 1851 1854 1857 1860 
1863 1866 1869 1872 1875 1878 1881 1884 1887 
1890 1893 1896 1899 1902 1905 1908 1911 1914 
1917 1920 1923 1926 1929 1932 1935 1938 1941 
1944 1947 1950 1953 1956 1959 1962 1965 1968 
1971 1974 1977 1980 1983 1986 1989 1992 1995 
1998 2001 2004 2007 2010 2013 2016 2019 2022 
2025 2028 2031 2034 2037 2040 2043 2046 2049 
2052 2055 2058 2061 2064 2067 2070 2073 2076 
2079 2082 2085 2088 2091 2094 2097 2100 2103 
2106 2109 2112 2115 2118 2121 2124 2127 2130 
2133 2136 2139 2142 2145 2148 2151 2154 2157 
2160 2163 2166 2169 2172 2175 2178 2181 2184 
2187 2190 2193 2196 2199 2202 2205 2208 2211 
2214 2217 2220 2223 2226 2229 2232 2235 2238 
2241 2244 2247 2250 2253 2256 2259 2262 2265 
2268 2271 2274 2277 2280 2283 2286 2289 2292 
2295 2298 2301 2304 2307 2310 2313 2316 2319 
2322 2325 2328 2331 2334 2337 2340 2343 2346 
2349 2352 2355 2358 2361 2364 2367 2370 2373 
2376 2379 2382 2385 2388 2391 2394 2397 2400 
2403 2406 2409 2412 2415 2418 2421 2424 2427 
2430 2433 2436 2439 2442 2445 2448 2451 2454 
2457 2460 2463 2466 2469 2472 2475 2478 2481 
2484 2487 2490 2493 2496 2499 2502 2505 2508 
2511 2514 2517 2520 2523 2526 2529 2532 2535 
2538 2541 2544 2547 2550 2553 2556 2559 2562 
2565 2568 2571 2574 2577 2580 2583 2586 2589 
2592 2595 2598 2601 2604 2607 2610 2613 2616 
2619 2622 2625 2628 2631 2634 2637 2640 2643 
2646 2649 2652 2655 2658 2661 2664 2667 2670 
2673 2676 2679 2682 2685 2688 2691 2694 2697 
2700 2703 2706 2709 2712 2715 2718 2721 2724 
2727 2730 2733 2736 2739 2742 2745 2748 2751 
2754 2757 2760 2763 2766 2769 2772 2775 2778 
2781 2784 2787 2790 2793 2796 2799 2802 2805 
2808 2811 2814 2817 2820 2823 2826 2829 2832 
2835 2838 2841 2844 2847 2850 2853 2856 2859 
2862 2865 2868 2871 2874 2877 2880 2883 2886 
2889 2892 2895 2898 2901 2904 2907 2910 2913 
2916 2919 2922 2925 2928 2931 2934 2937 2940 
2943 2946 2949 2952 2955 2958 2961 2964 2967 
2970 2973 2976 2979 2982 2985 2988 2991 2994 
2997 3000 3003 3006 3009 3012 3015 3018 3021 
3024 3027 3030 3033 3036 3039 3042 3045 3048 
3051 3054 3057 3060 3063 3066 3069 3072 3075 
3078 3081 3084 3087 3090 3093 3096 3099 3102 
3105 3108 3111 3114 3117 3120 3123 3126 3129 
3132 3135 3138 3141 3144 3147 3150 3153 3156 
3159 3162 3165 3168 3171 3174 3177 3180 3183 
3186 3189 3192 3195 3198 3201 3204 3207 3210 
3213 3216 3219 3222 3225 3228 3231 3234 3237 
3240 3243 3246 3249 3252 3255 3258 3261 3264 
3267 3270 3273 3276 3279 3282 3285 3288 3291 
3294 3297 3300 3303 3306 3309 3312 3315 3318 
3321 3324 3327 3330 3333 3336 3339 3342 3345 
3348 3351 3354 3357 3360 3363 3366 3369 3372 
3375 3378 3381 3384 3387 3390 3393 3396 3399 
3402 3405 3408 3411 3414 3417 3420 3423 3426 
3429 3432 3435 3438 3441 3444 3447 3450 3453 
3456 3459 3462 3465 3468 3471 3474 3477 3480 
3483 3486 3489 3492 3495 3498 3501 3504 3507 
3510 3513 3516 3519 3522 3525 3528 3531 3534 
3537 3540 3543 3546 3549 3552 3555 3558 3561 
3564 3567 3570 3573 3576 3579 3582 3585 3588 
3591 3594 3597 3600 3603 3606 3609 3612 3615 
3618 3621 3624 3627 3630 3633 3636 3639 3642 
3645 3648 3651 3654 3657 3660 3663 3666 3669 
3672 3675 3678 3681 3684 3687 3690 3693 3696 
3699 3702 3705 3708 3711 3714 3717 3720 3723 
3726 3729 3732 3735 3738 3741 3744 3747 3750 
3753 3756 3759 3762 3765 3768 3771 3774 3777 
3780 3783 3786 3789 3792 3795 3798 3801 3804 
3807 3810 3813 3816 3819 3822 3825 3828 3831 
3834 3837 3840 3843 3846 3849 3852 3855 3858 
3861 3864 3867 3870 3873 3876 3879 3882 3885 
3888 3891 3894 3897 3900 3903 3906 3909 3912 
3915 3918 3921 3924 3927 3930 3933 3936 3939 
3942 3945 3948 3951 3954 3957 3960 3963 3966 
3969 3972 3975 3978 3981 3984 3987 3990 3993 
3996 3999 4002 4005 4008 4011 4014 4017 4020 
4023 4026 4029 4032 4035 4038 4041 4044 4047 
4050 4053 4056 4059 4062 4065 4068 4071 4074 
4077 4080 4083 4086 4089 4092 4095 4098 4101 
4104 4107 4110 4113 4116 4119 4122 4125 4128 
4131 4134 4137 4140 4143 4146 4149 4152 4155 
4158 4161 4164 4167 4170 4173 4176 4179 4182 
4185 4188 4191 4194 4197 4200 4203 4206 4209 
4212 4215 4218 4221 4224 4227 4230 4233 4236 
4239 4242 4245 4248 4251 4254 4257 4260 4263 
4266 4269 4272 4275 4278 4281 4284 4287 4290 
4293 4296 4299 4302 4305 4308 4311 4314 4317 
4320 4323 4326 4329 4332 4335 4338 4341 4344 
4347 4350 4353 4356 4359 4362 4365 4368 4371 
4374 4377 4380 4383 4386 4389 4392 4395 4398 
4401 4404 4407 4410 4413 4416 4419 4422 4425 
4428 4431 4434 4437 4440 4443 4446 4449 4452 
4455 4458 4461 4464 4467 4470 4473 4476 4479 
4482 4485 4488 4491 4494 4497 4500 4503 4506 
4509 4512 4515 4518 4521 4524 4527 4530 4533 
4536 4539 4542 4545 4548 4551 4554 4557 4560 
4563 4566 4569 4572 4575 4578 4581 4584 4587 
4590 4593 4596 4599 4602 4605 4608 4611 4614 
4617 4620 4623 4626 4629 4632 4635 4638 4641 
4644 4647 4650 4653 4656 4659 4662 4665 4668 
4671 4674 4677 4680 4683 4686 4689 4692 4695 
4698 4701 4704 4707 4710 4713 4716 4719 4722 
4725 4728 4731 4734 4737 4740 4743 4746 4749 
4752 4755 4758 4761 4764 4767 4770 4773 4776 
4779 4782 4785 4788 4791 4794 4797 4800 4803 
4806 4809 4812 4815 4818 4821 4824 4827 4830 
4833 4836 4839 4842 4845 4848 4851 4854 4857 
4860 4863 4866 4869 4872 4875 4878 4881 4884 
4887 4890 4893 4896 4899 4902 4905 4908 4911 
4914 4917 4920 4923 4926 4929 4932 4935 4938 
4941 4944 4947 4950 4953 4956 4959 4962 4965 
4968 4971 4974 4977 4980 4983 4986 4989 4992 
4995 4998 5001 5004 5007 5010 5013 5016 5019 
5022 5025 5028 5031 5034 5037 5040 5043 5046 
5049 5052 5055 5058 5061 5064 5067 5070 5073 
5076 5079 5082 5085 5088 5091 5094 5097 5100 
5103 5106 5109 5112 5115 5118 5121 5124 5127 
5130 5133 5136 5139 5142 5145 5148 5151 5154 
5157 5160 5163 5166 5169 5172 5175 5178 5181 
5184 5187 5190 5193 5196 5199 5202 5205 5208 
5211 5214 5217 5220 5223 5226 5229 5232 5235 
5238 5241 5244 5247 5250 5253 5256 5259 5262 
5265 5268 5271 5274 5277 5280 5283 5286 5289 
5292 5295 5298 5301 5304 5307 5310 5313 5316 
5319 5322 5325 5328 5331 5334 5337 5340 5343 
5346 5349 5352 5355 5358 5361 5364 5367 5370 
5373 5376 5379 5382 5385 5388 5391 5394 5397 
5400 5403 5406 5409 5412 5415 5418 5421 5424 
5427 5430 5433 5436 5439 5442 5445 5448 5451 
5454 5457 5460 5463 5466 5469 5472 5475 5478 
5481 5484 5487 5490 5493 5496 5499 5502 5505 
5508 5511 5514 5517 5520 5523 5526 5529 5532 
5535 5538 5541 5544 5547 5550 5553 5556 5559 
5562 5565 5568 5571 5574 5577 5580 5583 5586 
5589 5592 5595 5598 5601 5604 5607 5610 5613 
5616 5619 5622 5625 5628 5631 5634 5637 5640 
5643 5646 5649 5652 5655 5658 5661 5664 5667 
5670 5673 5676 5679 5682 5685 5688 5691 5694 
5697 5700 5703 5706 5709 5712 5715 5718 5721 
5724 5727 5730 5733 5736 5739 5742 5745 5748 
5751 5754 5757 5760 5763 5766 5769 5772 5775 
5778 5781 5784 5787 5790 5793 5796 5799 5802 
5805 5808 5811 5814 5817 5820 5823 5826 5829 
5832 5835 5838 5841 5844 5847 5850 5853 5856 
5859 5862 5865 5868 5871 5874 5877 5880 5883 
5886 5889 5892 5895 5898 5901 5904 5907 5910 
5913 5916 5919 5922 5925 5928 5931 5934 5937 
5940 5943 5946 5949 5952 5955 5958 5961 5964 
5967 5970 5973 5976 5979 5982 5985 5988 5991 
5994 5997 6000 6003 6006 6009 6012 6015 6018 
6021 6024 6027 6030 6033 6036 6039 6042 6045 
6048 6051 6054 6057 6060 6063 6066 6069 6072 
6075 6078 6081 6084 6087 6090 6093 6096 6099 
6102 6105 6108 6111 6114 6117 6120 6123 6126 
6129 6132 6135 6138 6141 6144 6147 6150 6153 
6156 6159 6162 6165 6168 6171 6174 6177 6180 
6183 6186 6189 6192 6195 6198 6201 6204 6207 
6210 6213 6216 6219 6222 6225 6228 6231 6234 
6237 6240 6243 6246 6249 6252 6255 6258 6261 
6264 6267 6270 6273 6276 6279 6282 6285 6288 
6291 6294 6297 6300 6303 6306 6309 6312 6315 
6318 6321 6324 6327 6330 6333 6336 6339 6342 
6345 6348 6351 6354 6357 6360 6363 6366 6369 
6372 6375 6378 6381 6384 6387 6390 6393 6396 
6399 6402 6405 6408 6411 6414 6417 6420 6423 
6426 6429 6432 6435 6438 6441 6444 6447 6450 
6453 6456 6459 6462 6465 6468 6471 6474 6477 
6480 6483 6486 6489 6492 6495 6498 6501 6504 
6507 6510 6513 6516 6519 6522 6525 6528 6531 
6534 6537 6540 6543 6546 6549 6552 6555 6558 
6561 6564 6567 6570 6573 6576 6579 6582 6585 
6588 6591 6594 6597 6600 6603 6606 6609 6612 
6615 6618 6621 6624 6627 6630 6633 6636 6639 
6642 6645 6648 6651 6654 6657 6660 6663 6666 
6669 6672 6675 6678 6681 6684 6687 6690 6693 
6696 6699 6702 6705 6708 6711 6714 6717 6720 
6723 6726 6729 6732 6735 6738 6741 6744 6747 
6750 6753 6756 6759 6762 6765 6768 6771 6774 
6777 6780 6783 6786 6789 6792 6795 6798 6801 
6804 6807 6810 6813 6816 6819 6822 6825 6828 
6831 6834 6837 6840 6843 6846 6849 6852 6855 
6858 6861 6864 6867 6870 6873 6876 6879 6882 
6885 6888 6891 6894 6897 6900 6903 6906 6909 
6912 6915 6918 6921 6924 6927 6930 6933 6936 
6939 6942 6945 6948 6951 6954 6957 6960 6963 
6966 6969 6972 
CONNECTIVITY vtktypeint64
2 0 1 3 4 2 2 4 0 
2 1 7 5 2 26 18 6 7 
6 8 7 9 3 10 11 4 9 
3 9 4 12 10 13 13 10 3 
11 14 4 13 3 5 5 3 2 
13 5 16 14 15 0 4 14 0 
17 16 5 0 15 18 0 18 1 
18 7 1 26 19 5 17 5 19 
20 6 21 6 20 8 20 21 8 
8 2 7 8 20 21 21 22 23 
8 21 26 26 21 23 2 8 26 
27 19 26 24 26 23 27 26 29 
37 19 27 26 24 25 26 25 28 
28 30 26 29 26 38 33 9 34 
10 32 34 10 31 32 34 9 10 
12 31 10 35 31 12 35 12 16 
16 12 13 16 17 13 19 16 17 
56 16 19 6 57 21 21 57 22 
56 19 37 25 24 62 25 62 28 
62 30 28 26 30 38 30 39 38 
39 30 64 29 38 41 40 38 39 
41 38 40 29 41 45 67 27 45 
45 27 29 40 39 43 40 43 44 
41 40 44 45 41 71 50 48 47 
49 48 50 31 51 32 31 35 51 
52 51 35 52 35 16 14 11 33 
11 9 33 36 18 54 18 15 54 
18 36 55 18 55 6 6 55 57 
57 58 22 37 61 56 59 56 61 
22 58 60 22 60 23 59 61 84 
24 23 109 23 60 109 24 109 62 
132 62 109 30 62 132 132 63 30 
37 27 85 30 63 64 85 27 86 
65 27 67 86 27 65 43 39 42 
43 42 44 44 46 41 46 71 41 
67 45 66 46 42 68 46 44 42 
47 46 68 71 46 49 69 71 49 
66 45 70 48 46 47 49 46 48 
69 49 50 45 71 70 70 72 66 
72 67 66 50 47 73 69 50 73 
74 53 75 75 53 76 34 146 33 
34 32 146 52 56 53 16 56 52 
76 53 77 77 53 56 33 78 14 
80 81 55 55 36 80 121 56 59 
57 55 82 83 57 82 61 37 85 
85 110 61 87 85 86 86 65 88 
87 86 88 68 92 47 88 65 67 
67 72 89 67 89 90 88 67 90 
89 72 90 90 72 91 70 71 93 
91 70 93 72 70 91 93 71 94 
73 47 95 95 47 98 69 73 95 
96 69 95 71 69 96 97 94 71 
96 97 71 99 97 96 51 52 101 
52 53 101 74 101 53 146 103 33 
77 75 76 102 75 77 56 102 77 
56 104 102 33 103 78 78 103 14 
103 79 14 104 56 121 106 105 79 
14 79 105 105 106 54 105 54 15 
14 105 15 106 81 80 106 80 36 
54 106 36 82 55 81 57 83 58 
83 129 58 129 107 58 58 107 60 
107 108 60 110 84 61 110 85 112 
112 111 110 112 85 87 134 111 112 
113 42 39 114 113 39 42 113 68 
113 92 68 98 92 138 47 92 98 
95 98 116 116 98 115 95 100 96 
99 96 100 100 95 116 75 117 74 
102 117 75 102 118 117 102 119 118 
118 119 120 119 102 104 120 119 104 
122 120 104 121 122 104 79 123 124 
123 79 103 124 125 79 79 125 106 
106 125 81 81 125 126 148 121 59 
126 82 81 128 83 82 148 59 84 
149 84 131 130 109 60 132 109 130 
110 131 84 132 64 63 150 133 110 
150 110 111 150 111 134 135 150 134 
39 136 114 112 87 137 87 88 137 
137 134 112 113 114 136 113 114 92 
92 114 136 139 94 97 139 93 94 
93 139 286 115 138 140 98 138 115 
97 99 139 141 115 140 142 99 100 
143 115 141 116 143 144 116 115 143 
116 144 145 116 145 100 100 145 142 
123 103 146 121 148 156 126 128 127 
147 128 126 126 127 82 127 128 82 
84 149 148 108 213 130 108 130 60 
131 166 149 166 131 110 64 132 187 
151 150 135 91 93 286 99 142 139 
141 140 143 74 335 101 74 117 335 
152 153 146 32 262 146 51 262 32 
122 154 120 121 154 122 153 152 123 
146 153 123 155 154 121 123 152 124 
155 121 156 148 157 156 124 158 125 
160 157 148 159 126 158 158 126 125 
148 163 160 161 126 159 147 161 128 
128 161 184 126 161 147 163 148 162 
163 162 148 184 83 128 149 163 148 
197 163 149 83 211 129 197 149 164 
129 211 107 211 212 107 107 212 108 
212 213 108 164 149 166 130 165 132 
185 165 130 133 166 110 39 64 187 
168 133 150 168 150 151 134 169 135 
88 219 137 169 134 137 88 90 219 
92 136 192 90 91 286 92 192 170 
92 170 138 193 286 139 138 170 222 
138 222 171 138 171 140 142 193 139 
194 193 142 142 145 194 140 171 143 
143 171 172 144 143 172 172 173 144 
194 145 144 173 194 144 152 153 174 
155 157 176 157 177 176 157 155 156 
178 176 177 178 177 157 178 157 179 
179 157 160 160 163 182 158 183 159 
130 213 185 165 185 186 215 166 133 
187 132 216 198 133 167 133 168 167 
167 168 188 190 198 167 190 167 188 
168 151 191 188 168 189 189 168 191 
190 188 189 172 171 224 172 224 195 
173 172 195 176 175 155 155 175 154 
174 226 124 152 174 124 178 179 160 
196 178 182 182 178 160 124 226 158 
226 181 158 181 180 159 161 180 184 
159 180 161 181 159 183 158 181 183 
83 184 211 166 230 197 164 166 197 
165 185 273 132 165 273 216 132 273 
135 169 199 200 135 199 151 135 298 
135 200 298 191 151 298 39 220 136 
187 220 39 169 137 199 137 219 199 
199 169 200 221 136 220 221 192 136 
320 90 286 224 171 222 174 153 201 
201 153 237 153 146 237 101 262 51 
335 262 101 154 263 120 176 239 175 
226 174 201 176 178 202 178 196 203 
203 196 182 204 203 206 206 203 182 
226 205 181 206 182 207 180 205 208 
181 205 180 180 208 209 184 180 209 
163 207 182 230 210 163 163 197 230 
185 213 214 273 185 214 215 133 234 
234 133 198 217 234 198 190 189 218 
190 218 198 199 219 252 199 252 200 
221 222 192 222 170 192 223 286 193 
194 259 193 225 173 258 173 195 258 
173 225 259 259 194 173 154 175 263 
202 239 176 227 206 207 228 227 210 
228 210 229 227 207 163 210 227 163 
210 227 229 230 229 210 166 250 230 
215 250 166 311 231 215 232 311 215 
232 215 233 233 215 234 234 251 233 
189 191 298 234 253 235 193 259 223 
236 237 238 236 201 237 117 118 335 
201 236 238 146 334 237 262 334 146 
120 336 118 120 263 336 201 238 226 
226 238 241 226 241 205 204 240 203 
240 204 206 206 227 240 227 228 240 
208 242 245 205 242 208 205 241 242 
229 243 244 229 244 228 209 208 245 
184 209 246 209 245 246 243 229 230 
230 247 243 246 211 184 211 246 271 
269 247 230 248 269 230 309 214 213 
214 309 249 273 214 249 231 250 215 
216 273 274 275 311 232 233 275 232 
275 233 276 276 233 251 276 251 282 
187 295 220 200 252 297 200 297 298 
218 189 298 217 198 253 198 218 253 
234 217 253 235 251 234 295 255 220 
254 235 253 251 235 254 221 220 300 
300 220 255 224 222 257 223 259 256 
195 224 258 224 257 258 225 258 260 
259 225 260 237 261 238 237 334 261 
118 336 335 242 264 245 243 244 228 
243 267 266 267 247 268 243 247 267 
268 247 292 269 292 247 248 270 269 
248 230 250 248 250 310 249 309 272 
231 310 250 311 310 231 327 216 274 
277 278 279 276 277 279 279 278 280 
278 277 280 277 276 282 277 282 281 
280 277 281 283 281 282 282 251 254 
282 254 285 219 90 320 258 257 288 
256 259 260 260 258 289 238 261 301 
175 239 263 238 301 241 301 290 241 
245 264 265 290 264 241 264 242 241 
228 244 240 244 266 240 244 243 266 
245 265 291 267 268 266 245 291 246 
291 271 246 292 269 270 248 293 270 
272 273 249 216 327 312 216 312 187 
276 294 275 294 276 279 294 279 280 
297 252 296 283 282 285 299 283 285 
252 219 296 296 252 297 253 284 254 
322 286 223 322 223 256 257 222 287 
288 257 287 288 287 289 288 289 258 
260 324 256 324 260 289 302 290 301 
239 202 263 178 203 479 203 240 479 
264 302 265 302 264 290 268 303 266 
291 265 304 304 306 291 268 292 305 
307 305 292 292 270 293 307 292 308 
292 293 308 212 211 365 325 308 293 
248 325 293 212 365 213 273 272 380 
275 313 311 187 312 344 315 294 280 
314 294 315 347 280 281 281 283 347 
295 317 255 296 416 297 284 253 348 
299 318 283 254 348 319 285 254 319 
285 318 299 255 317 300 319 318 285 
321 320 286 289 287 362 324 323 256 
479 202 178 266 303 240 268 305 303 
291 306 271 308 325 307 271 365 211 
325 248 326 213 365 309 310 355 248 
273 380 274 328 313 275 328 275 329 
294 314 275 314 329 275 316 187 344 
280 347 315 187 317 295 254 284 348 
318 319 330 320 321 286 322 256 349 
256 323 349 261 332 333 301 261 333 
261 334 332 301 333 302 333 337 302 
479 263 202 302 337 265 303 479 240 
265 337 304 337 391 304 391 306 304 
305 338 303 306 391 271 307 339 305 
340 307 325 340 325 326 341 340 326 
355 341 326 248 355 326 274 380 327 
328 311 313 342 311 328 342 328 343 
343 328 329 329 314 345 345 343 329 
315 346 314 346 345 314 187 316 398 
187 398 317 218 298 385 219 415 296 
296 415 416 300 362 221 286 387 320 
387 286 322 387 322 349 287 222 362 
323 331 351 324 331 323 289 350 331 
324 289 331 338 305 392 340 339 307 
355 354 341 311 342 356 345 357 343 
316 358 359 315 347 360 347 318 399 
347 283 318 361 330 319 349 323 400 
332 363 364 333 332 364 352 363 334 
334 363 332 334 426 352 334 427 426 
262 427 334 335 390 262 262 390 427 
333 364 337 338 392 303 303 392 479 
339 405 305 305 405 392 271 391 365 
339 340 405 340 353 405 340 366 353 
340 341 366 341 354 366 367 355 368 
309 380 272 355 310 368 380 382 327 
312 327 382 382 344 312 342 343 357 
342 357 356 344 359 358 344 358 316 
357 345 346 369 316 359 316 369 398 
398 369 359 315 360 414 414 346 315 
360 347 370 347 399 370 297 385 298 
253 218 385 348 253 385 319 348 386 
399 330 361 318 330 399 386 361 319 
362 222 221 323 371 400 388 289 362 
388 350 289 323 351 371 350 388 372 
331 350 372 371 351 331 372 371 331 
363 352 364 352 374 364 335 336 403 
337 364 375 376 365 391 353 366 405 
367 354 355 367 377 354 368 379 378 
368 378 367 381 379 368 368 310 381 
381 310 356 310 311 356 384 383 356 
356 357 384 357 346 413 413 346 414 
386 422 361 399 361 417 537 219 320 
371 401 400 372 388 389 364 374 373 
352 426 374 373 375 364 376 391 365 
309 365 391 354 377 366 366 377 405 
367 378 377 379 381 393 395 394 393 
395 393 396 411 381 356 383 411 356 
383 384 397 384 357 397 397 357 413 
370 399 360 434 348 385 415 219 537 
349 400 418 387 349 418 401 371 372 
389 401 372 374 402 373 373 402 404 
375 373 404 375 404 337 337 404 391 
378 406 377 406 378 379 309 408 380 
379 394 407 393 394 379 380 408 428 
395 396 394 393 381 409 393 409 395 
395 409 396 396 409 410 428 382 380 
409 381 411 412 411 383 398 462 317 
414 399 435 414 360 399 432 414 435 
462 300 317 297 416 385 399 417 435 
361 422 417 400 401 418 388 362 419 
362 438 419 389 388 419 389 419 439 
405 377 483 406 379 407 408 309 428 
407 394 396 409 411 410 383 421 412 
430 412 421 440 397 413 300 462 362 
401 389 439 404 402 425 390 476 427 
390 335 476 336 263 403 392 405 479 
309 482 428 407 394 429 429 394 396 
429 396 410 410 420 429 430 420 411 
420 410 411 411 412 430 383 397 485 
383 485 421 440 413 414 440 414 431 
414 432 431 432 435 433 493 386 348 
433 435 436 385 416 494 386 493 422 
435 417 437 437 436 435 417 422 437 
537 320 387 442 387 418 418 401 442 
442 401 423 401 439 423 419 438 424 
424 439 419 402 451 425 402 374 451 
452 404 425 309 391 482 382 428 455 
344 505 359 359 505 398 431 459 440 
398 505 462 348 434 493 441 433 436 
442 423 467 424 438 443 423 439 467 
424 444 439 425 451 475 335 403 476 
475 452 425 479 403 263 404 480 391 
377 406 551 407 551 406 407 552 551 
407 429 445 552 407 445 445 429 420 
445 420 446 430 446 420 447 446 448 
448 446 430 455 505 382 382 505 344 
485 397 440 431 432 459 432 433 449 
449 463 432 385 494 434 449 433 441 
437 422 450 441 436 437 450 441 437 
536 362 462 465 438 362 443 438 465 
424 443 444 439 444 469 426 610 374 
427 610 426 427 476 610 453 404 452 
404 453 478 478 499 404 404 499 480 
483 479 405 446 454 445 448 430 456 
448 456 457 430 458 456 430 421 458 
432 460 461 459 432 461 432 463 460 
464 449 441 362 536 465 443 465 466 
469 467 439 443 468 444 444 468 497 
497 469 444 475 451 470 445 454 552 
454 446 472 471 454 472 446 447 473 
472 446 473 457 472 473 447 448 473 
448 457 473 458 421 485 485 440 487 
487 440 459 531 462 505 441 450 464 
442 467 602 466 465 468 443 466 468 
451 374 470 452 475 477 452 477 453 
453 477 478 481 480 482 481 391 480 
391 481 482 377 551 483 482 500 428 
428 500 455 472 501 454 501 472 474 
474 472 457 457 484 474 457 456 484 
456 458 484 485 487 486 459 461 488 
488 461 489 461 460 489 460 463 490 
460 490 491 460 491 489 449 464 492 
463 449 492 463 492 490 434 598 493 
434 494 521 434 521 598 422 493 522 
422 522 450 464 450 492 465 536 563 
602 467 495 465 563 468 496 495 469 
495 467 469 497 468 512 469 497 496 
470 498 475 454 501 554 502 501 474 
474 484 502 503 502 484 484 458 503 
458 485 503 486 507 506 486 487 507 
508 507 487 487 488 508 487 459 488 
490 489 491 450 522 511 495 496 513 
513 514 495 515 540 497 540 496 497 
513 496 540 514 513 540 477 498 516 
498 477 475 403 523 476 403 574 523 
403 479 574 478 477 516 480 499 524 
481 480 482 454 554 552 504 503 485 
485 517 504 485 486 517 517 486 506 
508 488 518 488 489 518 489 509 518 
490 509 489 490 492 509 492 519 509 
519 492 510 521 494 520 534 493 561 
522 493 534 492 450 511 511 510 492 
520 494 521 416 415 537 531 536 462 
602 495 514 468 563 512 497 512 515 
498 470 549 625 516 498 625 498 549 
574 588 523 516 625 478 479 550 574 
605 479 483 590 500 482 501 525 554 
526 501 502 502 503 542 542 503 527 
455 595 505 504 517 503 517 527 503 
529 528 508 529 508 530 508 518 530 
529 530 509 518 509 530 519 532 509 
560 561 493 522 534 535 511 522 533 
522 535 533 494 416 620 416 537 620 
387 600 537 600 387 442 600 442 602 
515 512 538 548 514 540 539 515 538 
539 540 515 480 524 482 525 501 526 
541 526 502 542 526 541 502 542 541 
517 506 543 527 517 543 543 508 544 
543 507 508 506 507 543 558 545 508 
528 558 508 528 529 558 529 509 532 
546 533 532 510 546 532 519 510 532 
582 560 493 511 533 546 510 511 546 
534 547 535 521 494 620 512 563 538 
548 540 539 610 476 651 470 610 549 
610 470 374 476 523 623 478 625 499 
589 524 499 479 605 550 524 590 482 
551 566 483 644 500 590 553 552 554 
555 526 542 527 555 542 556 555 527 
556 527 557 569 557 544 543 544 527 
527 544 557 508 545 544 544 545 569 
545 558 569 505 595 531 529 532 558 
533 559 558 532 533 558 533 535 559 
582 493 598 547 534 562 534 561 562 
547 562 535 536 531 599 537 633 620 
536 599 563 538 563 564 573 602 514 
573 514 548 565 573 548 564 585 538 
585 539 538 548 539 565 565 539 585 
552 567 551 568 553 554 554 525 568 
525 526 568 553 568 579 568 555 579 
555 556 579 526 555 568 570 576 556 
594 570 569 557 570 556 557 569 570 
531 595 599 571 558 562 558 559 562 
572 562 561 559 535 562 633 537 600 
623 651 476 566 613 483 551 575 566 
575 551 567 576 567 552 576 577 567 
577 575 567 576 552 553 553 578 576 
578 579 576 553 579 578 576 594 577 
579 556 576 570 594 576 594 569 558 
558 571 580 571 562 580 562 581 580 
581 562 572 583 560 582 560 583 561 
583 572 561 565 584 573 586 584 565 
565 585 586 587 549 610 605 640 550 
590 524 589 606 605 483 613 606 483 
591 613 566 566 592 591 566 575 592 
593 575 577 455 500 614 577 594 593 
455 614 595 594 558 580 580 608 615 
580 581 608 596 608 581 596 581 597 
583 596 597 581 583 597 598 521 619 
572 583 581 563 601 564 584 586 573 
585 603 604 586 585 604 589 499 625 
607 591 592 592 575 607 575 593 607 
593 594 607 630 594 615 594 580 615 
616 608 596 596 617 616 582 598 617 
583 582 617 596 583 617 573 635 602 
585 564 603 573 586 604 604 635 573 
549 609 625 587 609 549 587 610 609 
623 523 659 588 659 523 639 589 625 
550 809 574 809 550 640 639 611 589 
683 589 611 683 590 589 606 612 624 
606 613 612 607 613 591 500 644 614 
614 665 595 619 521 618 617 598 619 
521 620 618 599 601 563 635 671 602 
603 621 604 635 604 621 609 622 625 
623 659 651 628 613 607 607 630 629 
607 594 630 616 617 608 633 600 670 
609 610 622 606 624 605 644 590 642 
624 612 626 626 612 627 628 627 612 
613 628 612 607 663 628 608 646 615 
631 666 617 631 617 619 618 632 619 
670 600 647 599 694 601 603 564 634 
621 603 634 621 634 636 636 637 621 
637 636 621 636 635 621 651 657 610 
622 638 625 588 574 659 624 652 605 
626 641 624 643 628 663 607 629 663 
663 629 630 614 644 645 608 617 666 
632 631 619 671 635 649 636 634 650 
636 637 635 635 637 650 610 657 679 
624 641 652 653 641 626 627 653 626 
653 627 628 642 662 644 653 643 641 
653 628 643 630 707 663 630 615 707 
614 686 665 646 707 615 665 599 595 
665 716 599 608 666 646 631 667 666 
631 632 654 667 631 654 618 669 632 
669 654 632 633 692 620 620 692 618 
600 602 647 602 671 647 634 564 648 
674 671 649 634 648 650 637 636 650 
649 635 650 649 650 655 610 656 622 
610 679 656 638 622 656 638 658 625 
656 658 638 574 660 659 639 625 683 
574 809 660 590 683 642 605 676 640 
676 605 652 661 652 641 643 661 641 
661 643 663 644 664 645 664 614 645 
707 646 687 666 708 646 668 667 654 
692 669 618 692 633 691 654 669 668 
672 564 601 564 672 648 650 648 673 
674 649 675 655 650 675 675 649 655 
625 658 683 639 683 611 661 663 684 
687 646 708 717 690 599 667 668 669 
668 654 669 601 694 672 672 673 648 
650 677 675 657 651 713 659 713 651 
656 679 658 679 681 658 682 659 660 
683 658 681 660 809 682 683 685 642 
652 661 676 642 685 662 685 644 662 
730 664 644 614 664 686 689 708 666 
599 716 717 688 689 666 688 666 689 
666 667 689 694 599 690 693 669 692 
691 633 696 633 670 695 696 633 695 
695 670 647 695 670 696 650 673 677 
697 674 675 697 675 678 675 677 678 
679 657 680 680 698 679 681 679 706 
683 681 699 659 682 740 699 759 683 
683 759 685 684 676 661 663 714 684 
669 701 667 692 703 693 691 702 704 
703 691 704 692 691 703 695 647 721 
674 705 671 673 722 677 678 677 722 
698 706 679 706 699 681 757 809 640 
700 757 640 676 700 640 676 684 700 
664 730 686 686 716 665 689 667 701 
669 693 701 701 693 709 703 709 693 
691 734 704 703 704 710 734 691 696 
695 721 696 647 671 721 673 672 722 
674 697 711 722 711 678 711 697 678 
713 739 657 725 713 659 698 726 706 
698 712 726 726 699 706 714 700 684 
687 715 707 708 715 687 749 708 689 
786 694 690 703 718 709 710 704 720 
704 719 720 704 734 719 671 705 769 
674 711 735 711 722 735 659 778 725 
682 727 740 714 663 707 748 707 715 
715 708 749 701 709 718 718 710 720 
718 703 710 738 712 698 726 712 724 
680 738 698 725 739 713 778 659 740 
682 809 727 700 728 757 700 714 728 
759 781 685 685 781 644 716 686 730 
762 749 689 717 786 690 762 689 701 
733 731 718 732 731 733 720 733 718 
732 719 734 732 720 719 732 733 720 
696 751 734 696 721 751 786 672 694 
769 721 671 705 674 735 722 745 723 
722 723 736 735 722 723 735 723 737 
737 723 736 728 714 707 729 707 748 
748 715 782 741 742 730 718 764 701 
731 764 718 731 732 743 744 734 751 
769 705 821 724 712 754 754 712 738 
724 756 726 724 754 756 726 756 699 
728 746 757 747 746 707 707 746 728 
747 707 760 707 729 760 644 781 730 
730 781 811 730 742 741 742 813 716 
730 742 716 716 813 761 749 783 715 
716 761 717 762 701 764 734 750 732 
744 750 734 732 750 743 795 672 786 
723 745 770 737 752 735 723 770 736 
736 752 737 770 752 736 739 753 657 
738 755 754 747 758 746 760 758 747 
729 748 760 742 784 813 749 762 763 
731 765 787 731 787 764 743 765 731 
743 744 750 766 744 751 672 745 722 
795 745 672 705 735 752 771 705 752 
770 771 752 755 738 680 680 657 772 
753 772 657 772 753 739 772 753 739 
699 827 759 780 809 757 758 773 746 
746 773 757 758 760 773 748 782 802 
749 849 783 762 849 749 774 787 765 
743 750 774 765 743 774 774 750 766 
751 721 775 751 775 767 767 766 751 
750 744 766 775 721 768 777 776 754 
755 777 754 755 680 777 739 892 772 
739 725 892 740 779 778 754 776 756 
756 827 699 757 836 780 773 836 757 
760 836 773 748 802 760 811 812 730 
812 804 730 730 804 742 804 784 742 
715 783 782 717 761 785 830 717 785 
830 786 717 762 787 788 762 764 787 
787 764 788 862 874 786 789 787 774 
774 766 789 789 766 790 786 874 795 
767 791 766 766 791 790 795 874 876 
792 793 768 793 775 768 767 775 791 
791 775 793 721 794 768 792 768 794 
721 769 794 792 794 818 769 821 819 
745 795 796 770 745 796 796 771 770 
797 771 796 705 771 798 797 798 771 
777 799 776 776 800 756 779 740 801 
827 846 759 802 782 803 782 783 869 
804 805 784 805 813 784 807 785 806 
785 806 830 830 806 807 800 776 799 
680 799 777 779 801 778 800 827 756 
727 844 740 809 844 727 809 828 860 
780 828 809 780 836 828 759 846 810 
759 810 781 760 802 894 829 811 781 
803 782 802 782 869 802 805 804 784 
761 814 785 814 806 785 807 806 814 
830 815 786 791 816 789 790 791 789 
793 817 816 791 793 816 792 818 817 
792 817 793 794 769 819 795 820 822 
798 823 705 705 823 821 795 822 796 
822 820 808 822 808 796 796 808 797 
797 808 798 823 798 808 799 824 800 
680 842 799 799 842 824 680 892 842 
772 892 680 825 801 740 800 843 827 
800 826 843 813 805 814 814 761 813 
787 873 788 787 789 873 817 831 816 
832 817 818 854 820 795 821 823 833 
834 833 823 824 835 800 800 835 826 
824 826 835 778 801 825 740 844 825 
846 829 781 810 846 781 894 836 760 
786 815 862 837 788 873 816 873 789 
876 879 795 831 817 832 838 831 832 
818 794 832 795 879 854 794 819 832 
854 808 820 821 833 839 808 834 823 
839 833 834 824 840 841 842 840 824 
892 725 882 841 826 824 778 882 725 
828 845 860 836 845 828 847 848 829 
829 847 811 811 847 812 812 896 804 
804 896 805 906 850 814 849 762 871 
807 850 830 837 872 788 838 851 831 
838 832 851 832 852 851 819 853 832 
832 853 852 856 819 855 853 819 856 
852 853 856 857 834 808 821 839 858 
859 821 858 819 821 859 834 857 858 
858 839 834 840 842 841 866 846 827 
869 894 802 783 918 869 870 783 849 
814 850 807 850 815 830 762 788 861 
897 874 862 855 819 887 842 864 841 
841 864 863 842 892 864 841 863 865 
826 841 865 826 865 843 825 844 778 
827 843 866 867 868 860 845 867 860 
845 836 867 894 868 867 836 894 867 
805 896 814 783 870 883 896 906 814 
906 815 850 871 762 861 788 872 861 
875 876 874 873 816 922 816 831 922 
922 831 877 831 851 877 852 878 877 
851 852 877 852 856 878 878 856 880 
855 887 880 856 855 880 899 887 819 
808 888 857 858 881 859 881 890 859 
819 859 890 819 890 899 858 857 881 
857 888 881 892 901 864 902 843 865 
809 860 903 847 846 866 829 846 847 
847 919 812 870 884 883 871 941 849 
885 862 815 885 897 862 886 875 874 
875 876 886 854 910 808 881 889 890 
901 891 864 864 891 863 863 891 865 
865 891 902 778 844 882 844 809 903 
902 866 843 860 868 893 903 860 893 
868 894 893 894 869 904 812 919 896 
783 883 895 884 870 883 870 849 884 
861 872 931 873 931 837 837 931 872 
897 898 874 897 886 874 886 876 875 
879 921 908 876 921 879 877 878 922 
808 910 888 888 889 881 892 927 901 
892 982 927 891 900 902 900 915 902 
882 844 947 928 844 903 916 903 893 
916 893 894 869 918 904 783 905 918 
895 905 783 883 905 895 941 884 849 
906 885 815 885 897 907 886 921 876 
873 922 955 878 880 909 879 910 854 
880 887 909 888 910 889 887 899 911 
887 911 909 890 889 912 899 890 912 
891 901 900 927 913 901 915 938 902 
861 931 871 907 897 885 907 886 897 
909 922 878 911 899 912 901 915 900 
913 915 901 938 917 902 902 917 866 
866 917 847 916 894 930 904 930 894 
905 883 951 884 951 883 884 920 951 
920 884 941 896 980 906 970 885 906 
885 970 907 970 989 907 907 989 886 
931 873 954 909 935 922 879 934 910 
914 924 923 909 911 914 923 909 914 
889 925 912 911 912 914 912 925 914 
915 913 926 913 927 926 930 929 916 
930 904 966 917 919 847 905 1018 918 
989 921 886 922 932 933 922 935 933 
925 936 914 927 937 926 937 938 915 
937 915 926 903 983 928 948 983 903 
903 929 948 929 903 916 917 967 919 
904 987 966 904 918 987 987 918 939 
939 918 1018 951 1018 905 980 919 967 
919 980 896 941 940 920 941 871 931 
954 873 955 933 932 955 922 933 955 
908 973 934 908 934 879 933 935 932 
935 909 942 910 975 958 943 942 909 
943 909 923 910 958 889 923 944 943 
889 958 925 923 914 944 944 914 936 
937 927 946 946 927 945 982 945 927 
937 961 938 946 961 937 947 982 892 
882 947 892 947 844 983 961 917 938 
984 917 961 929 930 950 930 949 950 
930 966 949 920 940 952 940 953 952 
940 952 941 941 953 940 969 953 941 
970 906 1019 941 931 969 955 932 956 
932 935 956 934 975 910 935 942 974 
943 957 942 957 974 942 943 944 957 
944 936 957 957 936 959 925 958 936 
958 959 936 929 950 948 980 1019 906 
958 957 959 946 945 960 946 960 961 
945 982 960 947 962 982 963 962 947 
947 983 962 983 963 962 844 928 983 
948 964 983 948 949 964 949 948 950 
966 965 949 998 917 984 998 967 917 
951 920 968 952 968 920 953 969 952 
931 988 969 931 954 988 954 955 981 
955 956 971 971 956 972 908 921 973 
934 1023 975 934 973 1023 956 935 974 
958 976 977 975 976 958 974 957 978 
958 978 957 958 977 978 957 978 959 
979 961 960 982 962 963 964 997 983 
964 985 997 964 949 965 939 1007 987 
1081 968 952 1003 954 981 955 971 981 
976 978 977 1010 979 982 982 979 960 
982 963 1028 979 984 961 979 1010 984 
965 985 964 985 965 986 965 966 986 
966 987 986 1007 939 1018 952 969 1081 
1019 1022 970 988 954 1021 1021 954 1003 
989 970 1022 971 990 981 971 991 990 
972 992 971 971 992 991 992 972 956 
974 993 956 993 974 995 975 994 976 
978 995 996 978 976 995 976 994 995 
974 978 995 983 1043 963 997 1043 983 
999 984 998 987 1000 986 951 968 1001 
968 1081 1001 1020 1081 969 969 988 1020 
1022 1019 1030 1004 1002 989 981 991 1003 
990 991 981 989 1002 921 921 1002 1004 
921 1023 973 1024 992 956 993 1005 956 
1005 1024 956 975 1008 994 1005 993 995 
985 1006 997 985 986 1006 986 1000 1006 
1000 987 1015 980 967 1046 1017 980 1046 
1019 980 1017 951 1001 1018 1002 1022 1004 
989 1022 1002 921 1040 1023 991 992 1003 
975 1023 1008 994 1008 1005 1005 995 994 
982 1009 1010 982 1011 1009 1011 982 1028 
1010 1033 984 1009 1033 1010 963 1043 1028 
997 1013 1012 1006 1014 1013 1006 1013 997 
1014 1000 1015 1014 1006 1000 1015 987 1016 
998 1046 967 1001 1081 1018 1030 1056 1022 
921 1004 1040 1023 1025 1008 1024 1005 1026 
1008 1026 1005 1008 1025 1026 984 1033 998 
998 1033 1054 1013 1014 1012 997 1012 1029 
1012 1014 1015 1016 1012 1015 1007 1018 1047 
988 1021 1020 1022 1040 1004 1023 1032 1025 
1025 1024 1026 1011 1027 1009 1009 1027 1033 
1011 1034 1027 1028 1034 1011 1054 1035 998 
1043 997 1029 1016 1036 1029 1012 1016 1029 
987 1037 1016 1016 1037 1036 987 1007 1037 
1018 1038 1047 1038 1018 1048 1018 1081 1048 
1019 1017 1030 1021 1003 1039 1022 1050 1040 
1067 1003 1068 1003 992 1068 992 1031 1068 
1031 992 1024 1025 1041 1024 1025 1032 1041 
1027 1034 1033 1044 1060 1043 1043 1029 1044 
1045 1029 1036 1036 1037 1045 998 1035 1046 
1023 1040 1032 1031 1052 1051 1032 1031 1041 
1031 1024 1041 1042 1053 1028 1028 1053 1034 
1034 1053 1033 1043 1042 1028 1033 1053 1054 
1043 1060 1089 1044 1029 1060 1045 1037 1055 
1037 1007 1055 1056 1049 1017 1017 1049 1030 
1030 1049 1056 1081 1020 1066 1049 1056 1030 
1022 1056 1050 1031 1051 1068 1032 1040 1057 
1040 1052 1057 1031 1032 1057 1052 1031 1057 
1058 1054 1042 1054 1053 1042 1042 1043 1058 
1054 1059 1035 1029 1061 1060 1045 1061 1029 
1035 1059 1064 1063 1062 1055 1062 1045 1055 
1007 1063 1055 1064 1046 1035 1046 1056 1017 
1038 1065 1047 1081 1065 1048 1073 1039 1003 
1040 1069 1070 1040 1070 1051 1070 1071 1051 
1068 1051 1071 1052 1040 1051 1052 1051 1071 
1059 1054 1058 1045 1062 1061 1061 1062 1060 
1063 1007 1072 1038 1048 1065 1021 1039 1073 
1073 1003 1084 1003 1067 1084 1074 1067 1075 
1085 1069 1050 1069 1040 1050 1071 1070 1069 
1058 1043 1076 1077 1076 1043 1059 1058 1078 
1078 1076 1077 1078 1058 1076 1043 1089 1077 
1095 1094 1062 1062 1094 1060 1095 1062 1063 
1064 1059 1078 1079 1095 1063 1063 1072 1079 
1079 1072 1080 1072 1007 1080 1007 1047 1131 
1131 1047 1090 1064 1120 1046 1056 1046 1120 
1047 1065 1090 1081 1066 1082 1082 1066 1097 
1066 1020 1097 1056 1083 1050 1097 1020 1098 
1020 1021 1098 1098 1021 1073 1084 1067 1074 
1085 1086 1069 1075 1067 1087 1067 1068 1087 
1088 1069 1086 1071 1069 1088 1071 1088 1068 
1083 1056 1105 1098 1073 1091 1050 1083 1085 
1085 1083 1110 1073 1084 1091 1110 1086 1085 
1088 1086 1087 1075 1087 1086 1068 1088 1087 
1078 1077 1093 1127 1060 1094 1064 1078 1093 
1096 1094 1095 1096 1095 1079 1079 1080 1096 
1007 1104 1080 1007 1131 1104 1120 1105 1056 
1065 1121 1090 1081 1106 1065 1065 1106 1121 
1081 1082 1097 1097 1106 1081 1097 1098 1107 
1122 1110 1083 1091 1084 1092 1084 1099 1092 
1099 1100 1110 1075 1084 1074 1075 1099 1084 
1086 1110 1100 1075 1100 1099 1075 1086 1100 
1077 1089 1093 1101 1093 1089 1127 1102 1060 
1117 1127 1094 1096 1117 1094 1096 1103 1117 
1104 1103 1096 1080 1104 1096 1090 1121 1132 
1122 1083 1105 1097 1108 1106 1108 1097 1107 
1109 1107 1098 1111 1099 1110 1089 1060 1101 
1102 1101 1060 1093 1101 1116 1116 1128 1093 
1128 1064 1093 1128 1120 1064 1108 1107 1113 
1112 1108 1113 1098 1091 1109 1109 1091 1114 
1110 1114 1091 1091 1092 1099 1110 1091 1099 
1102 1115 1101 1115 1102 1127 1115 1116 1101 
1118 1117 1103 1103 1119 1118 1119 1103 1104 
1090 1138 1131 1132 1138 1090 1106 1108 1121 
1121 1108 1112 1123 1110 1122 1124 1110 1123 
1124 1123 1109 1123 1125 1109 1107 1109 1113 
1109 1110 1124 1109 1114 1110 1115 1102 1126 
1116 1115 1126 1115 1127 1126 1126 1128 1116 
1117 1129 1127 1135 1120 1128 1104 1131 1130 
1133 1113 1122 1113 1123 1122 1125 1123 1113 
1125 1113 1109 1135 1134 1127 1134 1126 1127 
1117 1118 1137 1129 1117 1137 1118 1119 1137 
1126 1134 1128 1129 1137 1136 1134 1135 1128 
1137 1119 1130 1119 1104 1130 1120 1135 1139 
1139 1105 1120 1132 1121 1140 1122 1105 1139 
1141 1122 1139 1141 1142 1122 1121 1112 1140 
1140 1112 1143 1122 1142 1133 1113 1133 1142 
1113 1142 1112 1142 1143 1112 1136 1135 1127 
1136 1127 1129 1145 1147 1135 1146 1144 1131 
1144 1130 1131 1135 1147 1139 1131 1138 1146 
1147 1149 1139 1141 1139 1149 1140 1141 1149 
1140 1142 1141 1140 1143 1142 1136 1150 1135 
1136 1137 1151 1150 1136 1151 1150 1145 1135 
1151 1137 1144 1144 1137 1130 1144 1150 1151 
1145 1150 1144 1144 1146 1145 1146 1147 1145 
1146 1152 1147 1146 1138 1152 1152 1149 1147 
1138 1132 1152 1152 1148 1149 1132 1148 1152 
1132 1140 1149 1148 1132 1149 
