# vtk DataFile Version 5.1
vtk output
ASCII
DATASET POLYDATA
POINTS 1006 float
54.8512 72.2008 1.63658 44.1 36.3269 1.86023 41.5685 39.1074 1.58369 
46.6534 39.162 1.85223 41.2215 41.9356 1.49725 41.2648 44.7568 1.52884 
46.9223 44.647 1.49349 38.7726 47.4724 2.16964 46.9992 47.4245 1.43149 
49.4839 47.4533 1.95727 47.0412 50.1722 1.37122 49.6143 52.9806 1.69537 
47.057 55.7132 1.38229 48.9455 55.9056 1.44916 51.7956 58.6419 1.94888 
46.6182 61.3844 1.65957 52.1222 61.3044 1.72219 49.4162 64.0886 1.39644 
51.8263 64.1941 1.42382 54.0844 64.1905 2.05009 51.9684 66.938 1.38198 
54.1295 66.9455 1.82888 52.1475 69.6348 1.52575 52.547 72.1257 1.68672 
55.0477 75.3646 2.17987 57.0298 78.974 3.13595 54.8625 78.0257 2.81319 
58.0859 81.8184 3.14678 41.4528 30.6986 2.86235 46.4883 33.5959 3.06401 
33.4431 36.3612 3.24605 49.2356 36.4202 3.55141 33.3645 44.7197 2.68966 
51.9532 44.7109 3.39292 51.6365 50.3123 2.7039 36.0332 53.0866 2.87056 
36.1997 52.9731 2.80552 38.8084 53.0034 2.50644 53.6454 61.5328 2.29672 
54.9278 61.2751 3.0141 56.8407 63.9078 3.80523 41.3729 66.9324 3.26971 
56.0126 72.9573 2.49376 56.5499 73.0433 2.96076 52.1034 75.1512 2.48314 
41.5974 25.0876 4.10626 38.8952 28.0807 3.59179 43.963 28.1353 3.72823 
52.5088 44.5666 3.71889 54.1325 47.5536 4.25956 28.2244 50.2446 3.70399 
58.6924 81.584 3.63192 58.9041 81.6449 3.79761 56.9985 83.6197 4.92585 
59.2829 82.836 5.10016 38.9835 22.4259 4.65474 46.6856 28.0454 4.71293 
28.0838 36.2902 4.18828 54.569 44.718 4.79941 25.6181 58.4959 5.19928 
28.1826 58.5833 4.759 28.2796 61.2775 5.22108 57.8361 69.3868 4.7008 
52.0313 83.0232 5.12885 55.0606 83.4152 4.77962 36.2522 19.5441 5.6092 
38.9997 16.8991 6.14827 41.5344 19.5624 5.69073 41.0676 20.0104 5.45185 
43.638 19.8066 6.23493 12.3275 41.9308 6.14288 54.9267 41.8222 5.52435 
57.285 47.4788 6.03249 57.3828 53.0241 5.87703 59.9384 64.1323 6.02581 
30.8553 69.6427 6.11222 59.656 69.9976 6.15392 39.0662 77.5479 6.01197 
41.2779 78.1748 5.63994 43.9993 80.8566 5.9359 49.4106 83.9948 6.11469 
54.049 84.3337 6.10339 57.2586 84.1221 5.97241 38.2316 11.6922 7.5474 
36.3093 13.9613 6.76492 33.7605 14.1249 7.13032 40.606 14.735 7.06947 
44.375 19.4022 6.67948 46.1701 20.1265 7.1998 28.2617 25.3772 6.53478 
9.30254 33.4794 7.28754 8.58863 36.2383 7.08466 12.339 36.3954 6.27299 
8.04517 36.245 7.67547 8.53411 39.0607 7.14135 8.65012 41.9148 6.99918 
7.69115 42.259 7.63707 9.35518 50.2678 7.0844 12.4176 52.9808 6.68081 
59.2524 53.085 7.07654 59.8758 53.0378 7.47225 31.0692 72.225 6.82691 
33.057 72.8929 6.34342 33.7394 74.9655 6.87164 62.4338 81.0771 7.49102 
60.3077 83.2597 6.91317 61.7808 82.5352 7.73669 46.5727 84.5678 7.04609 
57.4137 84.2926 7.0478 49.3678 85.5068 7.60624 52.1262 85.3359 7.65734 
34.3869 8.56666 7.97072 36.1266 8.67905 7.86065 33.6995 11.4683 7.68956 
48.8116 20.111 8.50079 10.2293 28.1005 8.63268 12.0267 28.309 7.88448 
14.9798 28.1526 7.78444 10.205 30.9885 7.59359 11.6224 30.6436 7.28605 
8.12165 34.6115 8.02627 7.395 38.9819 8.60853 6.98977 41.4496 8.525 
7.78778 44.7258 7.63036 6.6807 47.4554 8.79442 6.54445 50.2174 8.73867 
7.4934 53.3559 7.96013 62.9329 64.1069 8.32446 63.4578 81.519 8.42105 
62.3811 82.6613 8.7092 46.6801 85.3615 7.72994 54.6592 85.1824 8.45993 
32.7951 2.56424 9.15002 33.101 1.92036 9.94041 35.7482 3.56945 9.85071 
35.6431 4.03821 9.19669 33.4434 5.77707 8.43669 35.7778 4.88745 8.71063 
36.9803 4.73626 10.1285 38.6197 8.81283 8.77337 14.9464 25.2426 8.69034 
12.1932 25.9472 9.03026 14.5946 26.4827 8.3484 7.84924 34.0307 8.95477 
7.07666 55.86 8.58421 7.03585 59.6645 9.16651 9.38392 58.6297 8.24344 
6.87779 60.8842 9.85023 62.7468 61.3261 8.52648 12.2637 61.4549 8.50785 
62.8482 72.4754 8.4112 62.4514 82.8771 9.68702 41.1554 83.8981 8.21528 
41.9203 85.8783 9.05994 43.7376 85.8623 8.70204 45.8153 86.2043 9.11066 
49.7083 86.0716 8.66057 31.7363 1.77175 9.73916 31.9151 2.76313 9.30689 
30.5483 4.60465 9.94667 29.7024 8.48211 10.0252 39.479 8.1036 10.0936 
28.3309 10.1052 10.1657 41.7028 10.3623 10.0443 25.1915 13.6092 9.77677 
47.1499 14.0669 10.0488 22.8491 14.064 10.2168 49.6099 16.623 9.94586 
19.7118 16.4614 10.1646 52.2964 19.3381 10.2669 14.9934 19.5958 10.2186 
14.0042 21.5318 9.92889 12.5968 22.6065 10.1271 14.8323 22.5398 9.39992 
54.544 22.5356 10.3044 11.5715 25.2418 9.92716 10.7727 26.322 10.1167 
9.86798 27.6223 9.81662 57.5026 30.7148 9.72654 7.70849 33.5417 10.115 
62.4896 41.9455 10.2331 6.2581 44.62 10.1774 5.93552 50.1903 9.77556 
64.829 53.0822 10.679 6.01845 58.7608 10.1536 63.2042 58.5129 9.23118 
9.45582 64.2355 10.281 20.0751 69.931 9.62193 64.4458 72.443 9.70262 
65.1032 72.4649 10.2532 65.0318 75.2445 10.3201 64.2635 81.2923 9.70057 
63.7252 82.139 9.99494 41.2965 86.5317 9.95041 43.651 86.923 10.0582 
49.2498 86.3672 9.96672 33.1358 2.07758 11.2293 31.0149 2.87763 11.3647 
35.7944 3.51015 11.523 29.5147 5.00048 11.4526 28.9958 6.55098 11.6007 
29.5122 6.13941 10.7155 39.3836 7.6076 11.679 28.7675 9.09846 10.4888 
28.0866 8.70916 11.5496 41.1451 9.41734 11.3615 26.642 9.75511 11.8001 
24.857 11.0051 11.4235 42.1388 10.17 11.5007 44.0432 11.2592 11.2993 
22.917 12.1447 11.6446 20.2955 13.7688 11.2985 23.3531 12.7347 10.7425 
47.5954 13.6927 11.4664 20.8602 14.3551 10.6181 18.9162 15.4273 11.2627 
17.8195 16.3436 11.4396 50.1731 15.9323 11.1338 15.0683 18.1539 11.3375 
52.7865 17.9305 11.7333 16.2636 18.1705 10.538 54.8989 19.7793 11.5412 
12.1005 22.4819 11.3103 56.7637 22.7606 11.2375 56.9729 25.4073 10.7446 
57.1941 22.5252 11.6485 11.3229 24.4864 11.283 57.7583 24.4526 11.3395 
57.7337 27.8617 10.6094 9.10838 28.3101 11.4338 63.1143 41.7742 10.6711 
64.9018 42.0126 11.8963 5.59135 58.6156 11.4611 6.13852 61.5137 11.2167 
7.59405 62.9018 10.4213 6.9847 64.5233 11.5896 12.3521 69.6319 11.6587 
14.8632 69.8633 11.1404 22.7743 75.3969 11.2064 66.0003 78.6129 11.3318 
65.463 81.0176 11.3644 63.2805 82.6354 10.9219 36.1907 86.1563 11.7389 
38.6901 86.6472 11.3867 41.5103 87.2848 11.5978 43.8335 87.2912 11.1232 
31.0467 3.61416 12.5387 38.1604 6.15433 12.5718 29.2182 6.69833 12.707 
28.0335 8.72235 12.9991 20.4071 14.0004 12.3914 48.9723 14.7203 12.6324 
17.4294 16.8432 12.8755 55.1295 19.2446 12.7651 56.4709 20.3485 12.7231 
59.423 25.5716 11.9775 10.4316 25.8251 12.8048 6.2659 41.8394 11.3915 
67.8044 53.0119 12.7796 5.80887 61.7054 12.2184 8.52689 64.6191 10.7482 
7.55701 66.7592 11.9548 6.89118 67.5462 12.7398 68.5203 69.9168 12.7978 
66.9911 78.0578 12.3999 65.8507 81.2509 12.4933 44.0348 87.455 12.7353 
33.6449 3.00615 12.858 35.5451 3.66413 12.8956 30.2019 4.17037 12.3572 
26.2785 9.9536 13.1149 22.073 12.8481 12.7079 51.9321 17.0195 12.7903 
14.7472 19.3839 12.6913 12.2028 22.7143 12.5887 59.1863 23.2253 13.1001 
59.4046 23.0425 14.1571 11.2279 24.6224 12.7213 60.5899 25.271 12.994 
62.4514 27.9996 13.1799 65.5325 41.8376 12.4179 7.66194 69.5387 13.1179 
6.79776 69.7999 14.0215 9.07523 69.8589 12.5804 67.6791 78.2156 13.2107 
67.0893 79.7465 13.0797 67.4656 80.337 14.3438 30.6653 84.5459 12.6338 
64.1929 82.2765 13.2036 33.5589 86.2984 12.8032 51.8941 86.1734 12.8693 
35.3272 3.92145 13.7334 30.952 5.78386 14.2951 36.2384 5.02259 14.5355 
28.4489 8.7794 13.9959 25.3634 10.8965 14.0182 40.1119 9.33865 13.6699 
43.9138 11.7711 13.9359 50.156 15.9092 14.1889 56.6579 20.4622 14.0288 
60.4794 24.1979 14.189 63.4561 27.3721 14.2187 8.65622 28.0374 14.8092 
7.81929 30.3426 14.2691 64.3423 28.7434 14.3443 65.2685 30.685 14.3476 
68.2469 47.4394 13.7509 68.5506 52.962 13.4643 69.9073 53.0908 14.7916 
70.0998 64.1298 14.6146 6.0283 67.0072 14.0832 7.71647 72.4364 14.4678 
9.32479 72.6428 13.8386 69.8482 75.1037 14.8341 68.3977 78.7328 14.2565 
22.7653 80.9345 13.918 25.4348 84.169 14.2717 28.2748 85.553 14.1967 
56.8419 84.9242 14.2194 31.3043 86.4662 13.9075 49.3691 86.6183 14.227 
36.0653 87.4139 14.1546 41.2439 87.6599 13.9224 33.3503 5.58527 15.7143 
35.6571 5.60328 15.5724 38.572 9.12517 15.4799 24.848 13.416 16.3381 
51.7134 17.3243 15.4757 55.0118 19.4686 15.2859 15.77 20.4548 14.8258 
62.2907 25.6041 15.4696 10.1988 26.5095 15.5996 64.732 27.9706 15.5877 
8.25113 29.0862 14.3808 65.9517 29.8272 15.3675 66.4744 30.4877 15.36 
71.1268 58.8091 15.4366 70.8926 61.396 15.2161 70.9737 69.8412 15.4327 
6.88408 72.4112 15.432 70.8496 72.4403 15.4379 8.29483 74.8606 15.0846 
7.41148 74.7391 15.6866 9.21722 74.9896 14.7989 67.701 80.4545 15.5433 
22.755 84.2 15.4419 23.0964 83.3505 14.772 25.6193 85.6422 15.5512 
54.4052 85.5428 15.5547 31.1931 87.0489 15.1539 46.8226 87.1137 15.5927 
33.3285 87.4815 15.6125 38.7073 87.7176 15.4414 33.4705 7.25179 17.3171 
8.74364 27.8359 16.077 8.92762 27.9309 16.6486 8.16204 28.8976 15.5421 
65.2804 28.3454 16.8347 67.5122 30.7063 16.8232 68.7574 32.8977 16.8607 
5.78334 67.1439 15.2361 6.82207 75.3439 16.5822 7.28671 78.3831 16.9096 
7.91203 77.8981 16.2769 9.07577 78.4714 16.0854 70.277 78.3546 16.8496 
20.4132 83.3386 15.9262 21.6669 84.7814 16.6062 23.1227 85.397 16.7798 
23.3455 85.2896 16.4282 25.5164 86.0701 16.7596 35.3077 6.7055 16.6547 
33.7018 7.57262 17.7812 36.0079 7.99846 17.2178 49.5946 16.5138 17.1134 
17.8908 19.9822 16.7184 52.6861 18.6247 17.3575 60.6405 24.4028 17.0118 
12.3963 25.3661 16.8844 7.75493 30.697 17.077 69.9509 35.9438 16.7736 
70.6047 39.135 16.7726 6.31839 72.5694 17.0475 71.4514 72.586 16.237 
72.3436 72.3912 17.485 70.4196 78.7355 17.8141 8.13786 79.8832 17.1291 
9.38901 80.3258 16.9809 17.8656 82.9934 17.0217 33.3103 8.33098 18.3873 
31.3033 9.16843 17.7892 35.7032 8.76798 18.2385 38.6828 10.9108 18.2664 
41.9969 13.0098 18.8538 46.2757 14.896 17.9734 20.1498 19.0407 18.6239 
57.3789 22.3262 18.3656 62.1507 25.8331 17.9964 63.4117 27.0048 18.5614 
9.17067 28.7281 17.631 67.7133 30.8358 18.067 7.7293 31.1535 18.132 
69.7593 33.917 18.3645 5.97785 35.9993 18.1314 71.3185 35.8015 18.1912 
72.5577 39.3977 18.4424 4.82893 44.745 18.4098 6.29271 75.2987 18.1697 
72.4326 75.5997 18.3517 71.9842 76.9673 18.5028 7.41953 80.6031 18.2787 
69.6042 79.3647 18.298 8.9476 81.2825 18.2057 12.1792 81.9296 18.2644 
62.2367 82.8214 18.2262 20.8016 84.9546 18.6674 25.1841 86.2063 18.3515 
28.1337 86.6091 18.2628 33.3201 87.4145 18.4182 36.0148 87.6586 18.4623 
41.4393 87.6275 18.3914 38.6673 11.533 19.5904 43.9156 14.3969 19.5461 
46.0701 15.3099 19.105 25.3335 16.6739 19.8951 20.5308 19.4206 19.772 
10.8682 28.8115 19.4848 9.00597 30.7149 19.608 67.5548 30.8529 18.9873 
7.22199 32.7874 19.2192 71.4201 35.5214 19.3817 72.3346 37.0433 19.5368 
73.8849 41.4442 19.541 3.96954 53.0265 19.5716 4.65892 61.3397 19.7163 
6.37345 78.618 19.4759 72.3623 77.0491 19.9348 67.8273 80.3196 19.4795 
9.40536 81.9124 19.3824 12.0878 82.2962 19.1345 33.2051 9.32618 19.3174 
33.5201 10.2501 20.4607 33.4565 10.316 20.6425 41.5219 13.9369 21.1465 
22.371 18.5409 20.3234 23.4144 18.0563 20.3631 5.54456 37.1889 19.7782 
73.3999 39.136 19.8966 73.6821 38.9357 20.7469 4.84867 38.5383 20.9575 
5.79003 72.5975 20.887 73.945 75.5664 20.9546 7.2303 80.7828 20.8708 
9.90143 82.0983 19.7515 12.5024 82.512 19.7649 38.7482 87.5465 19.8118 
38.1847 12.0827 21.1744 46.8257 16.6702 21.1536 12.4094 28.1343 20.9653 
7.22112 33.8824 20.6543 69.8416 34.187 21.0816 72.3867 37.0121 20.8041 
75.1869 41.9613 21.0646 75.6831 44.3543 21.1789 75.9591 61.3932 20.8148 
6.20091 78.3226 21.0267 70.9284 78.4594 20.9984 9.35907 81.9115 20.9453 
15.0251 83.2899 20.9438 57.4352 84.1711 21.107 25.6144 85.9864 20.9621 
35.7267 11.7436 22.2556 39.1012 13.5194 22.7627 27.9683 16.7878 22.59 
46.5853 17.1165 22.2843 17.5555 24.5494 22.5745 14.0014 26.9475 21.6713 
65.5481 30.4336 22.5708 5.33617 37.3858 22.1696 72.3848 37.1674 21.9968 
73.7128 38.9164 22.4534 4.12019 41.7964 22.4795 75.6845 41.9794 22.2905 
76.6124 44.4437 22.3811 76.6735 47.101 22.0297 77.9705 58.6008 22.7556 
76.6387 61.4965 21.5074 77.91 61.3077 22.8215 75.2394 74.4846 22.4626 
6.2235 78.4697 22.4276 7.39383 80.8344 21.3964 44.4539 86.9576 22.3838 
33.3099 13.2142 23.5446 44.1289 16.7532 23.8476 46.3307 17.577 23.3542 
22.9151 20.083 23.636 62.4033 28.2111 23.66 8.88431 34.2534 23.4968 
6.35909 36.5425 23.2276 5.01716 38.1769 23.2238 75.9651 42.4443 23.7618 
3.91363 41.7937 23.7396 77.4218 45.046 23.6837 75.304 74.8282 23.8114 
73.9534 76.0419 23.6091 7.19629 79.9951 24.1761 9.02199 81.1069 23.9021 
36.0686 13.4922 24.2982 33.7109 14.2083 25.0338 38.502 14.6124 24.783 
78.4411 50.1473 23.9542 78.1595 69.8162 24.0232 77.6182 71.7871 24.0195 
78.2807 71.885 25.147 28.2987 85.8089 24.9718 41.59 16.5298 25.3662 
54.3745 22.9039 24.9112 14.7204 28.3641 25.0309 70.3688 36.4793 25.0389 
5.79873 38.068 25.0277 4.92464 39.3809 24.9755 3.89105 41.9095 24.9688 
74.5679 40.8383 24.8829 77.0864 44.123 24.7909 3.14927 47.4174 24.828 
78.6338 47.5839 25.1912 79.4055 50.4003 25.2817 79.2074 55.7628 24.3519 
79.0152 64.2032 24.5835 79.5139 67.4177 25.4629 76.6796 73.6372 25.147 
6.08755 78.4878 25.1653 70.4327 77.9598 25.0774 68.3172 79.0058 25.3467 
7.567 80.0304 24.916 17.6461 83.3784 25.0543 51.6684 85.1343 24.8765 
30.4126 86.1314 25.3642 35.7686 14.7522 26.0063 27.9622 19.3312 26.6933 
57.1686 25.3904 26.3853 10.277 34.0682 26.1565 79.8498 50.2567 26.1509 
81.0061 52.7102 26.7665 80.6872 64.1106 26.713 80.0536 64.0519 25.862 
79.4824 70.4044 26.0863 78.663 71.9395 26.4406 5.53162 77.3362 26.4017 
5.93008 78.6245 27.4121 70.2977 77.7075 26.369 7.29943 79.5605 26.2994 
64.967 80.3036 26.3215 17.585 83.075 26.4794 10.6116 34.357 27.2959 
6.95427 38.9341 27.8073 3.18375 44.1433 27.5249 2.93965 45.0457 27.2895 
76.3146 44.4746 27.6441 2.94952 45.1253 26.7605 77.4322 45.2154 26.3405 
77.2535 45.4918 27.4889 79.6047 49.251 27.4719 80.5296 50.7638 27.7581 
81.5359 52.7519 27.6913 82.1085 55.4749 27.8521 82.2276 58.0465 27.9523 
3.34781 64.2805 27.6253 80.2646 69.9882 27.4501 78.656 72.0927 27.6176 
76.6183 73.4184 27.7494 6.25381 79.0614 26.6846 30.4436 19.0449 28.2798 
28.2395 19.8351 27.7311 62.6641 30.6857 27.8931 9.47028 36.2048 27.9256 
78.4597 47.3904 27.8296 82.3636 55.6504 28.3973 82.5984 58.5558 28.5541 
2.93469 61.2459 27.9997 2.73022 61.2692 29.3154 3.03141 61.515 27.5716 
79.7182 71.0398 27.9616 5.51053 77.6202 28.0119 36.0863 17.2473 28.9243 
38.2739 17.6395 28.7585 15.0335 30.9039 29.111 2.21161 50.1018 29.4484 
80.7787 51.3134 29.0304 82.0317 53.4986 29.4858 82.6189 55.5019 28.9716 
83.1651 58.6478 29.412 83.1837 61.2907 29.5492 81.993 66.6738 29.6329 
80.6652 69.7495 29.408 79.1277 71.5844 29.0312 6.50896 79.0119 27.7699 
60.1659 81.4872 29.3364 52.102 84.1493 29.291 36.1384 85.9041 29.0696 
33.7576 19.1559 30.9611 36.0253 18.8735 31.1125 46.7753 22.3008 30.6478 
22.8885 25.2711 30.5248 3.74695 44.987 30.2145 2.00778 50.1674 30.7309 
79.2769 49.8616 30.3056 83.4694 64.0715 30.8466 80.789 69.521 30.1772 
79.5208 70.7058 30.8567 4.48785 75.4949 30.7178 25.4768 83.8327 30.5752 
30.9964 85.0986 30.2472 43.932 85.5329 30.3241 46.5137 22.8265 31.6686 
2.81295 47.4612 30.4416 84.1601 58.4087 31.589 84.5926 61.2125 32.085 
82.4789 66.4886 31.4757 4.30072 75.2075 32.1073 25.5324 83.58 31.8821 
44.2201 22.0675 32.1521 84.0639 64.0263 32.2343 3.00951 66.7495 32.0909 
70.8083 75.8775 32.0892 28.0511 84.1433 31.9988 41.3331 85.4364 31.6525 
34.118 20.2552 32.9069 30.7022 22.2871 33.3728 54.5895 28.0828 33.2179 
6.61659 44.2178 33.0621 1.54867 52.6816 33.4904 82.0848 55.5502 33.3122 
82.7838 56.2975 32.9933 84.3442 58.9629 33.0478 1.89016 58.5752 33.2657 
84.8643 60.729 33.2266 84.4443 63.7986 33.313 82.8322 66.0695 33.0842 
81.7557 67.3822 33.2433 3.37036 72.5349 33.0057 4.24345 75.1633 32.7764 
6.72595 77.3278 32.9523 17.5371 81.0514 33.3131 54.3414 82.7045 33.0101 
52.1415 27.72 34.7984 23.034 27.6595 34.7405 54.2998 28.58 34.2578 
10.6652 39.8791 34.0365 2.25685 50.6762 34.849 1.40164 53.3567 34.8892 
1.33207 55.4543 34.6632 83.7947 58.6633 34.5258 84.9234 61.1132 34.0342 
84.1289 64.1701 34.9533 3.39461 73.296 34.8585 70.4089 75.1453 34.5536 
11.9785 78.9534 34.881 14.8925 80.0823 34.5037 57.3881 81.1561 34.7028 
30.6457 84.0736 34.7905 36.0414 84.6233 34.8382 59.9087 33.5859 35.965 
78.2492 53.1636 35.8536 83.5576 59.3241 36.3049 81.0727 66.9637 35.712 
78.2302 69.557 35.843 38.4253 22.315 36.0078 62.7475 36.1463 36.1137 
61.661 34.6095 35.2709 2.39409 50.8405 35.5449 1.3817 53.097 36.0438 
4.73297 74.7108 35.6858 64.9081 77.4525 35.7426 17.6951 80.421 35.848 
33.8402 22.7923 37.15 38.6188 22.9312 37.0627 25.5744 27.5235 37.4032 
65.1421 39.1957 37.2823 12.7293 39.5058 37.0606 1.33881 53.3315 37.4944 
2.63754 51.6384 37.1033 0.917046 55.7008 37.4667 83.0847 59.4569 37.4962 
83.646 61.5362 37.8231 83.175 63.6445 37.1656 2.26791 69.7252 37.465 
10.0175 77.3233 36.9817 14.7603 79.0463 37.469 17.5911 79.9552 37.3723 
7.05927 47.4177 38.6881 1.65033 53.5962 38.2631 78.6638 55.9007 38.7788 
81.7243 59.0209 39.1637 83.0509 61.0904 38.8317 2.21967 69.6592 39.1489 
3.02135 71.6637 38.3205 3.79002 72.5901 38.6494 25.3379 81.5176 38.9334 
49.0801 82.4839 38.2992 41.3958 83.6186 38.6829 44.0054 83.3618 38.6004 
57.056 33.853 39.8572 1.49238 55.6875 39.8546 0.846765 58.4118 38.8343 
1.49815 67.1167 40.1113 33.8979 24.5936 40.4911 80.9501 63.7319 39.93 
2.23849 69.4323 40.0567 9.57455 75.43 40.1338 17.4015 78.6564 40.3223 
52.0376 81.0601 40.1374 25.3192 30.5236 41.5909 22.3199 32.8946 41.8275 
67.6983 44.8236 41.2913 4.50168 53.2752 41.0372 1.72529 56.3427 40.8606 
1.0594 58.4125 41.5457 0.594375 61.1756 41.4973 80.8371 61.2458 41.8339 
2.42708 69.6359 40.6191 3.45405 70.3352 41.8668 65.0592 75.0367 41.2766 
11.7826 76.2935 40.6338 12.0488 75.8089 41.706 59.7606 77.7041 41.2394 
23.1164 80.025 41.0368 36.1708 82.8314 41.1163 54.4646 33.8124 42.6018 
9.8285 47.6008 42.6399 78.9511 58.9554 43.2307 79.9682 61.0362 43.0583 
0.41039 64.3277 43.7085 1.07428 66.6969 43.4806 75.8229 66.9752 42.8005 
2.3768 68.7473 42.9423 33.3185 81.6973 43.1285 44.1798 81.5696 43.0958 
38.749 82.4859 42.3153 78.3655 59.0246 44.1323 79.6034 61.2491 43.6576 
78.4847 64.0141 42.8685 41.5156 81.9397 43.232 41.3783 28.0851 44.0802 
7.80976 50.8954 43.6518 79.8427 61.1404 43.2183 77.6718 63.6154 44.2482 
1.11501 66.7014 45.0739 70.5602 69.8266 44.1973 62.433 75.0651 43.9843 
17.2649 76.198 44.6926 20.3532 77.6991 43.9036 52.1921 78.802 44.5264 
28.3412 80.237 43.798 33.5847 27.863 45.5296 51.7952 33.8983 45.2637 
1.17596 61.4679 45.5579 77.6881 60.8622 45.6674 0.498683 64.2391 45.5315 
76.1779 63.7942 45.6555 1.16968 66.4791 46.3002 2.80779 68.3583 44.7973 
17.4752 75.6166 45.7 35.9122 28.2573 47.1022 76.8009 62.2723 46.1069 
1.25822 66.0917 46.9469 3.47005 67.7597 46.8731 10.0144 71.8687 46.3968 
36.1502 80.3165 46.5095 38.6397 80.3226 46.6889 1.08505 64.3325 47.3727 
46.8451 33.2747 48.374 49.0572 34.0927 47.8514 15.0436 44.7782 48.1219 
6.77811 55.6309 48.3329 75.5515 59.0804 48.0823 1.87583 64.2736 48.4685 
73.2866 64.0837 48.2825 1.74504 65.9716 47.6208 20.3291 75.0053 47.9999 
57.1348 74.9777 47.9819 54.7333 75.6 48.4123 33.1014 78.7199 48.3304 
41.7602 78.9433 48.3376 46.5808 33.7883 49.413 13.067 48.0216 49.1089 
9.56969 52.9539 49.6013 73.7739 58.5441 50.0414 74.9119 59.0813 48.8061 
73.9339 60.8959 49.918 2.39522 64.5114 48.9827 4.17707 66.2573 49.5872 
65.0802 69.5484 49.4063 59.9216 72.5223 49.5711 28.4519 77.1291 48.8541 
49.5287 75.9634 50.0724 22.6521 38.9022 51.0757 52.7053 38.1028 50.2628 
13.4795 48.3011 50.1695 72.7192 58.4612 51.772 4.95815 61.3155 51.1142 
70.6757 63.8622 50.8668 19.9752 73.2433 50.1547 54.8567 73.1359 51.4609 
32.822 32.4284 51.7053 51.3927 37.2535 50.2961 15.8369 45.4648 50.259 
14.7859 47.3421 51.0139 12.459 50.3594 50.7971 72.1232 56.7754 50.3798 
72.8678 61.4168 50.7546 4.35414 64.4085 50.8691 71.9011 62.0541 51.3129 
4.9393 65.9309 50.5401 6.43982 66.1551 51.3514 15.0128 69.861 52.327 
30.7329 75.761 51.3579 36.1198 77.3816 50.2569 33.5016 32.8574 52.7955 
27.8775 35.9243 52.5566 15.2425 47.7107 52.0217 67.5717 53.2929 52.0821 
70.9566 56.7913 52.7255 8.21617 56.6129 51.3466 72.5177 58.7776 52.2455 
5.99365 61.3734 52.5042 72.6085 60.4914 51.5944 5.08497 62.1238 51.7034 
6.56135 64.2047 53.1958 6.95426 65.9467 51.9038 8.64278 57.905 53.0396 
9.19081 58.2773 54.0051 70.8554 60.8332 53.2791 7.01483 61.5581 53.6748 
6.40498 64.2915 53.0279 9.92622 66.4718 53.1785 30.7096 73.0094 54.1528 
59.807 47.5709 54.9 62.5183 50.2806 54.9482 8.34699 61.9662 55.0711 
60.1549 67.3189 55.3294 33.4223 73.2012 54.3464 38.7221 33.5217 55.0103 
46.4189 36.8427 54.7225 22.6663 41.9571 55.0369 9.7753 59.0132 55.2184 
70.1383 58.3572 55.0162 7.95659 61.9447 54.7685 9.43125 63.9241 55.2013 
65.1843 64.1451 54.9654 44.04 72.5463 55.0377 52.2343 41.5853 56.5193 
17.426 50.1236 56.4718 67.9304 55.9623 56.4834 68.3281 58.3304 56.7372 
69.2464 58.1038 55.7735 10.0253 61.5021 56.3123 12.0617 64.0556 56.6169 
20.1009 67.4445 56.8249 27.9428 70.5436 55.8519 49.3984 69.986 56.6207 
33.5143 71.8423 55.6776 36.0988 35.5415 58.187 43.8101 36.8303 57.4561 
17.6963 50.6149 57.2277 67.7514 58.2778 57.2522 11.6966 61.5013 57.7175 
10.529 61.2646 56.6635 14.318 63.6405 57.9996 16.9862 52.5387 58.2051 
14.3618 56.4174 58.9116 66.0061 55.8818 59.0985 18.4396 50.8537 58.4437 
13.9592 58.5173 59.86 65.4872 58.3773 59.1662 13.0139 60.7749 58.8316 
62.663 61.4783 59.1622 59.9764 63.8599 58.8872 60.4563 62.113 60.0094 
20.106 64.5159 59.4885 57.3526 64.5864 59.4802 41.4913 37.0776 60.1175 
65.0493 56.2122 60.1797 64.6354 58.034 60.0316 15.014 58.2243 61.1286 
62.7836 58.9085 60.7923 14.8048 60.8017 60.2956 62.1848 60.9608 59.8147 
17.074 61.4676 60.9259 60.0609 61.5333 60.6462 33.4705 66.8688 60.335 
41.4242 67.7279 59.8715 62.2534 53.5 61.6613 17.7275 55.4965 61.9287 
63.6324 56.0508 61.3866 16.1149 56.7832 61.1021 19.4378 53.6166 62.9697 
15.5215 58.7407 61.494 16.6774 58.9827 62.1215 54.4515 63.6982 61.2127 
36.1557 66.338 61.0197 38.9534 37.5339 62.6267 33.4028 39.6956 63.0349 
21.1215 50.9451 62.4848 61.7965 54.1697 62.781 61.6327 55.4796 63.1452 
19.0846 54.8873 63.5912 18.2512 56.3176 62.986 60.9207 55.9869 63.4883 
17.6842 58.7099 62.6437 19.9355 60.1848 62.7894 19.6447 58.6891 63.6698 
28.3464 63.4684 62.2602 49.2147 63.609 62.4633 36.2948 38.9043 64.4417 
41.2023 38.5435 64.6654 57.3032 50.8819 65.1058 20.2942 53.492 64.0199 
59.7997 52.889 64.5964 19.6164 55.8321 64.6181 59.7701 55.6653 64.4264 
19.871 58.054 64.2214 57.3209 58.3436 64.0875 46.5816 42.0586 65.7711 
58.4687 51.7427 64.8271 58.8372 53.132 65.4759 21.0973 53.9333 65.441 
22.2074 53.3745 66.1457 57.4427 55.3379 65.8064 57.7169 52.6106 66.5592 
21.0797 55.5723 65.6228 36.1286 60.9236 65.2063 38.5326 39.4304 67.1535 
27.5992 47.4727 67.4559 25.1517 50.4871 67.9444 56.0582 51.1746 67.4905 
23.2362 53.4307 67.0273 56.7484 52.8281 67.3714 23.8552 55.1507 67.3072 
54.9222 55.4198 66.7943 25.2038 55.6638 67.573 46.6356 58.3306 66.7934 
38.9201 39.8182 68.2393 41.5904 39.8447 68.2712 28.433 47.7049 68.7274 
52.3556 47.6802 68.9362 25.6397 50.5482 68.535 54.7756 50.2702 68.9549 
54.9001 52.7836 68.534 25.7419 52.7893 68.7832 27.8726 55.0682 68.4606 
44.04 55.8572 68.607 40.8013 40.1834 69.6199 43.4836 41.2064 70.0742 
33.4313 44.5523 70.2173 48.9969 45.4329 70.1226 52.3862 48.1804 70.006 
29.2635 48.1539 69.9206 27.1979 49.2331 68.883 54.1806 50.2387 69.8355 
53.5883 52.0496 69.3867 24.4124 53.8896 67.8373 28.2167 52.4802 69.7781 
50.1171 46.5242 70.3496 27.8535 50.6474 69.879 49.2907 52.9255 69.7061 
53.5666 50.5705 70.0783 30.5096 52.7337 70.2327 39.522 41.2739 72.2427 
41.5325 40.8318 71.5574 43.9045 41.7944 71.283 33.4197 45.4092 71.3395 
47.1145 44.418 71.5944 30.9217 47.9588 71.043 32.2995 47.0721 71.6196 
49.7033 47.3835 71.5244 51.6017 48.2153 70.6646 49.4711 49.9023 71.2605 
29.3727 50.3294 70.5805 30.8178 50.2073 71.2867 49.5045 50.7846 70.863 
35.9468 52.0657 71.2498 38.7499 52.8146 70.8897 41.2084 41.1423 72.9054 
39.4451 41.9113 72.9999 43.5945 42.1209 73.1255 36.3699 44.7437 72.6204 
47.8029 45.256 71.9038 32.9803 47.9759 72.1608 33.6846 49.6163 72.1969 
46.7435 49.7769 71.968 35.888 49.4651 72.4949 38.5651 49.8834 72.4608 
41.4323 50.6712 72.0141 43.8294 42.8841 74.4683 45.6491 44.4845 74.1263 
35.9732 47.5551 72.9517 46.7455 46.7401 73.0898 46.1449 47.2565 73.1063 
41.468 42.3882 74.0613 39.0906 42.8452 73.4337 39.2023 44.5427 73.8777 
44.8859 44.0709 74.5451 40.8904 44.6238 74.3231 38.6862 46.6387 73.4925 
44.1848 47.2753 73.4626 
POLYGONS 2019 6054
OFFSETS vtktypeint64
0 3 6 9 12 15 18 21 24 
27 30 33 36 39 42 45 48 51 
54 57 60 63 66 69 72 75 78 
81 84 87 90 93 96 99 102 105 
108 111 114 117 120 123 126 129 132 
135 138 141 144 147 150 153 156 159 
162 165 168 171 174 177 180 183 186 
189 192 195 198 201 204 207 210 213 
216 219 222 225 228 231 234 237 240 
243 246 249 252 255 258 261 264 267 
270 273 276 279 282 285 288 291 294 
297 300 303 306 309 312 315 318 321 
324 327 330 333 336 339 342 345 348 
351 354 357 360 363 366 369 372 375 
378 381 384 387 390 393 396 399 402 
405 408 411 414 417 420 423 426 429 
432 435 438 441 444 447 450 453 456 
459 462 465 468 471 474 477 480 483 
486 489 492 495 498 501 504 507 510 
513 516 519 522 525 528 531 534 537 
540 543 546 549 552 555 558 561 564 
567 570 573 576 579 582 585 588 591 
594 597 600 603 606 609 612 615 618 
621 624 627 630 633 636 639 642 645 
648 651 654 657 660 663 666 669 672 
675 678 681 684 687 690 693 696 699 
702 705 708 711 714 717 720 723 726 
729 732 735 738 741 744 747 750 753 
756 759 762 765 768 771 774 777 780 
783 786 789 792 795 798 801 804 807 
810 813 816 819 822 825 828 831 834 
837 840 843 846 849 852 855 858 861 
864 867 870 873 876 879 882 885 888 
891 894 897 900 903 906 909 912 915 
918 921 924 927 930 933 936 939 942 
945 948 951 954 957 960 963 966 969 
972 975 978 981 984 987 990 993 996 
999 1002 1005 1008 1011 1014 1017 1020 1023 
1026 1029 1032 1035 1038 1041 1044 1047 1050 
1053 1056 1059 1062 1065 1068 1071 1074 1077 
1080 1083 1086 1089 1092 1095 1098 1101 1104 
1107 1110 1113 1116 1119 1122 1125 1128 1131 
1134 1137 1140 1143 1146 1149 1152 1155 1158 
1161 1164 1167 1170 1173 1176 1179 1182 1185 
1188 1191 1194 1197 1200 1203 1206 1209 1212 
1215 1218 1221 1224 1227 1230 1233 1236 1239 
1242 1245 1248 1251 1254 1257 1260 1263 1266 
1269 1272 1275 1278 1281 1284 1287 1290 1293 
1296 1299 1302 1305 1308 1311 1314 1317 1320 
1323 1326 1329 1332 1335 1338 1341 1344 1347 
1350 1353 1356 1359 1362 1365 1368 1371 1374 
1377 1380 1383 1386 1389 1392 1395 1398 1401 
1404 1407 1410 1413 1416 1419 1422 1425 1428 
1431 1434 1437 1440 1443 1446 1449 1452 1455 
1458 1461 1464 1467 1470 1473 1476 1479 1482 
1485 1488 1491 1494 1497 1500 1503 1506 1509 
1512 1515 1518 1521 1524 1527 1530 1533 1536 
1539 1542 1545 1548 1551 1554 1557 1560 1563 
1566 1569 1572 1575 1578 1581 1584 1587 1590 
1593 1596 1599 1602 1605 1608 1611 1614 1617 
1620 1623 1626 1629 1632 1635 1638 1641 1644 
1647 1650 1653 1656 1659 1662 1665 1668 1671 
1674 1677 1680 1683 1686 1689 1692 1695 1698 
1701 1704 1707 1710 1713 1716 1719 1722 1725 
1728 1731 1734 1737 1740 1743 1746 1749 1752 
1755 1758 1761 1764 1767 1770 1773 1776 1779 
1782 1785 1788 1791 1794 1797 1800 1803 1806 
1809 1812 1815 1818 1821 1824 1827 1830 1833 
1836 1839 1842 1845 1848 1851 1854 1857 1860 
1863 1866 1869 1872 1875 1878 1881 1884 1887 
1890 1893 1896 1899 1902 1905 1908 1911 1914 
1917 1920 1923 1926 1929 1932 1935 1938 1941 
1944 1947 1950 1953 1956 1959 1962 1965 1968 
1971 1974 1977 1980 1983 1986 1989 1992 1995 
1998 2001 2004 2007 2010 2013 2016 2019 2022 
2025 2028 2031 2034 2037 2040 2043 2046 2049 
2052 2055 2058 2061 2064 2067 2070 2073 2076 
2079 2082 2085 2088 2091 2094 2097 2100 2103 
2106 2109 2112 2115 2118 2121 2124 2127 2130 
2133 2136 2139 2142 2145 2148 2151 2154 2157 
2160 2163 2166 2169 2172 2175 2178 2181 2184 
2187 2190 2193 2196 2199 2202 2205 2208 2211 
2214 2217 2220 2223 2226 2229 2232 2235 2238 
2241 2244 2247 2250 2253 2256 2259 2262 2265 
2268 2271 2274 2277 2280 2283 2286 2289 2292 
2295 2298 2301 2304 2307 2310 2313 2316 2319 
2322 2325 2328 2331 2334 2337 2340 2343 2346 
2349 2352 2355 2358 2361 2364 2367 2370 2373 
2376 2379 2382 2385 2388 2391 2394 2397 2400 
2403 2406 2409 2412 2415 2418 2421 2424 2427 
2430 2433 2436 2439 2442 2445 2448 2451 2454 
2457 2460 2463 2466 2469 2472 2475 2478 2481 
2484 2487 2490 2493 2496 2499 2502 2505 2508 
2511 2514 2517 2520 2523 2526 2529 2532 2535 
2538 2541 2544 2547 2550 2553 2556 2559 2562 
2565 2568 2571 2574 2577 2580 2583 2586 2589 
2592 2595 2598 2601 2604 2607 2610 2613 2616 
2619 2622 2625 2628 2631 2634 2637 2640 2643 
2646 2649 2652 2655 2658 2661 2664 2667 2670 
2673 2676 2679 2682 2685 2688 2691 2694 2697 
2700 2703 2706 2709 2712 2715 2718 2721 2724 
2727 2730 2733 2736 2739 2742 2745 2748 2751 
2754 2757 2760 2763 2766 2769 2772 2775 2778 
2781 2784 2787 2790 2793 2796 2799 2802 2805 
2808 2811 2814 2817 2820 2823 2826 2829 2832 
2835 2838 2841 2844 2847 2850 2853 2856 2859 
2862 2865 2868 2871 2874 2877 2880 2883 2886 
2889 2892 2895 2898 2901 2904 2907 2910 2913 
2916 2919 2922 2925 2928 2931 2934 2937 2940 
2943 2946 2949 2952 2955 2958 2961 2964 2967 
2970 2973 2976 2979 2982 2985 2988 2991 2994 
2997 3000 3003 3006 3009 3012 3015 3018 3021 
3024 3027 3030 3033 3036 3039 3042 3045 3048 
3051 3054 3057 3060 3063 3066 3069 3072 3075 
3078 3081 3084 3087 3090 3093 3096 3099 3102 
3105 3108 3111 3114 3117 3120 3123 3126 3129 
3132 3135 3138 3141 3144 3147 3150 3153 3156 
3159 3162 3165 3168 3171 3174 3177 3180 3183 
3186 3189 3192 3195 3198 3201 3204 3207 3210 
3213 3216 3219 3222 3225 3228 3231 3234 3237 
3240 3243 3246 3249 3252 3255 3258 3261 3264 
3267 3270 3273 3276 3279 3282 3285 3288 3291 
3294 3297 3300 3303 3306 3309 3312 3315 3318 
3321 3324 3327 3330 3333 3336 3339 3342 3345 
3348 3351 3354 3357 3360 3363 3366 3369 3372 
3375 3378 3381 3384 3387 3390 3393 3396 3399 
3402 3405 3408 3411 3414 3417 3420 3423 3426 
3429 3432 3435 3438 3441 3444 3447 3450 3453 
3456 3459 3462 3465 3468 3471 3474 3477 3480 
3483 3486 3489 3492 3495 3498 3501 3504 3507 
3510 3513 3516 3519 3522 3525 3528 3531 3534 
3537 3540 3543 3546 3549 3552 3555 3558 3561 
3564 3567 3570 3573 3576 3579 3582 3585 3588 
3591 3594 3597 3600 3603 3606 3609 3612 3615 
3618 3621 3624 3627 3630 3633 3636 3639 3642 
3645 3648 3651 3654 3657 3660 3663 3666 3669 
3672 3675 3678 3681 3684 3687 3690 3693 3696 
3699 3702 3705 3708 3711 3714 3717 3720 3723 
3726 3729 3732 3735 3738 3741 3744 3747 3750 
3753 3756 3759 3762 3765 3768 3771 3774 3777 
3780 3783 3786 3789 3792 3795 3798 3801 3804 
3807 3810 3813 3816 3819 3822 3825 3828 3831 
3834 3837 3840 3843 3846 3849 3852 3855 3858 
3861 3864 3867 3870 3873 3876 3879 3882 3885 
3888 3891 3894 3897 3900 3903 3906 3909 3912 
3915 3918 3921 3924 3927 3930 3933 3936 3939 
3942 3945 3948 3951 3954 3957 3960 3963 3966 
3969 3972 3975 3978 3981 3984 3987 3990 3993 
3996 3999 4002 4005 4008 4011 4014 4017 4020 
4023 4026 4029 4032 4035 4038 4041 4044 4047 
4050 4053 4056 4059 4062 4065 4068 4071 4074 
4077 4080 4083 4086 4089 4092 4095 4098 4101 
4104 4107 4110 4113 4116 4119 4122 4125 4128 
4131 4134 4137 4140 4143 4146 4149 4152 4155 
4158 4161 4164 4167 4170 4173 4176 4179 4182 
4185 4188 4191 4194 4197 4200 4203 4206 4209 
4212 4215 4218 4221 4224 4227 4230 4233 4236 
4239 4242 4245 4248 4251 4254 4257 4260 4263 
4266 4269 4272 4275 4278 4281 4284 4287 4290 
4293 4296 4299 4302 4305 4308 4311 4314 4317 
4320 4323 4326 4329 4332 4335 4338 4341 4344 
4347 4350 4353 4356 4359 4362 4365 4368 4371 
4374 4377 4380 4383 4386 4389 4392 4395 4398 
4401 4404 4407 4410 4413 4416 4419 4422 4425 
4428 4431 4434 4437 4440 4443 4446 4449 4452 
4455 4458 4461 4464 4467 4470 4473 4476 4479 
4482 4485 4488 4491 4494 4497 4500 4503 4506 
4509 4512 4515 4518 4521 4524 4527 4530 4533 
4536 4539 4542 4545 4548 4551 4554 4557 4560 
4563 4566 4569 4572 4575 4578 4581 4584 4587 
4590 4593 4596 4599 4602 4605 4608 4611 4614 
4617 4620 4623 4626 4629 4632 4635 4638 4641 
4644 4647 4650 4653 4656 4659 4662 4665 4668 
4671 4674 4677 4680 4683 4686 4689 4692 4695 
4698 4701 4704 4707 4710 4713 4716 4719 4722 
4725 4728 4731 4734 4737 4740 4743 4746 4749 
4752 4755 4758 4761 4764 4767 4770 4773 4776 
4779 4782 4785 4788 4791 4794 4797 4800 4803 
4806 4809 4812 4815 4818 4821 4824 4827 4830 
4833 4836 4839 4842 4845 4848 4851 4854 4857 
4860 4863 4866 4869 4872 4875 4878 4881 4884 
4887 4890 4893 4896 4899 4902 4905 4908 4911 
4914 4917 4920 4923 4926 4929 4932 4935 4938 
4941 4944 4947 4950 4953 4956 4959 4962 4965 
4968 4971 4974 4977 4980 4983 4986 4989 4992 
4995 4998 5001 5004 5007 5010 5013 5016 5019 
5022 5025 5028 5031 5034 5037 5040 5043 5046 
5049 5052 5055 5058 5061 5064 5067 5070 5073 
5076 5079 5082 5085 5088 5091 5094 5097 5100 
5103 5106 5109 5112 5115 5118 5121 5124 5127 
5130 5133 5136 5139 5142 5145 5148 5151 5154 
5157 5160 5163 5166 5169 5172 5175 5178 5181 
5184 5187 5190 5193 5196 5199 5202 5205 5208 
5211 5214 5217 5220 5223 5226 5229 5232 5235 
5238 5241 5244 5247 5250 5253 5256 5259 5262 
5265 5268 5271 5274 5277 5280 5283 5286 5289 
5292 5295 5298 5301 5304 5307 5310 5313 5316 
5319 5322 5325 5328 5331 5334 5337 5340 5343 
5346 5349 5352 5355 5358 5361 5364 5367 5370 
5373 5376 5379 5382 5385 5388 5391 5394 5397 
5400 5403 5406 5409 5412 5415 5418 5421 5424 
5427 5430 5433 5436 5439 5442 5445 5448 5451 
5454 5457 5460 5463 5466 5469 5472 5475 5478 
5481 5484 5487 5490 5493 5496 5499 5502 5505 
5508 5511 5514 5517 5520 5523 5526 5529 5532 
5535 5538 5541 5544 5547 5550 5553 5556 5559 
5562 5565 5568 5571 5574 5577 5580 5583 5586 
5589 5592 5595 5598 5601 5604 5607 5610 5613 
5616 5619 5622 5625 5628 5631 5634 5637 5640 
5643 5646 5649 5652 5655 5658 5661 5664 5667 
5670 5673 5676 5679 5682 5685 5688 5691 5694 
5697 5700 5703 5706 5709 5712 5715 5718 5721 
5724 5727 5730 5733 5736 5739 5742 5745 5748 
5751 5754 5757 5760 5763 5766 5769 5772 5775 
5778 5781 5784 5787 5790 5793 5796 5799 5802 
5805 5808 5811 5814 5817 5820 5823 5826 5829 
5832 5835 5838 5841 5844 5847 5850 5853 5856 
5859 5862 5865 5868 5871 5874 5877 5880 5883 
5886 5889 5892 5895 5898 5901 5904 5907 5910 
5913 5916 5919 5922 5925 5928 5931 5934 5937 
5940 5943 5946 5949 5952 5955 5958 5961 5964 
5967 5970 5973 5976 5979 5982 5985 5988 5991 
5994 5997 6000 6003 6006 6009 6012 6015 6018 
6021 6024 6027 6030 6033 6036 6039 6042 6045 
6048 6051 6054 
CONNECTIVITY vtktypeint64
3 1 2 3 2 6 6 2 4 
6 4 5 8 5 7 6 5 8 
9 6 8 9 8 34 34 8 10 
37 10 7 7 10 8 34 10 11 
12 10 15 11 10 13 13 10 12 
12 15 13 14 13 16 16 13 15 
16 15 18 18 15 17 16 18 19 
22 20 15 15 20 17 18 17 20 
19 18 21 21 18 20 0 21 22 
21 20 22 0 22 23 25 24 26 
28 30 1 1 30 2 3 31 1 
2 30 4 3 6 31 4 30 5 
5 30 32 33 6 9 5 32 7 
7 32 50 50 35 7 36 7 35 
37 7 36 37 36 35 37 35 15 
10 37 15 39 11 13 14 39 13 
16 39 14 39 16 38 19 38 16 
39 38 19 39 19 40 22 15 41 
22 41 78 43 62 0 42 43 0 
23 22 44 44 22 79 23 44 0 
0 44 24 42 0 24 24 43 42 
79 26 44 44 26 24 24 25 43 
45 46 47 47 46 28 56 47 29 
29 47 28 29 28 1 89 30 28 
29 1 31 30 57 32 32 57 50 
58 48 33 49 58 33 9 49 33 
34 49 9 49 34 11 35 50 15 
40 185 39 19 21 40 21 62 40 
21 0 62 78 79 22 63 64 79 
79 64 26 25 26 27 27 26 64 
27 54 51 52 51 54 46 55 89 
45 55 46 56 45 47 46 89 28 
30 89 57 6 71 31 71 33 58 
6 33 71 48 58 33 185 73 11 
185 11 39 59 60 50 15 50 41 
41 50 60 60 61 41 74 40 62 
78 41 77 43 25 150 150 25 27 
79 80 63 150 27 52 51 52 27 
27 64 53 54 27 53 67 66 65 
67 65 68 69 67 68 55 65 89 
45 65 55 68 65 45 45 69 68 
56 69 45 29 31 56 70 92 94 
57 92 70 57 70 50 58 72 71 
98 50 70 58 49 72 72 49 73 
49 11 73 50 98 59 60 59 61 
74 185 40 60 59 61 41 61 75 
74 62 76 76 43 150 62 43 76 
77 41 103 152 79 78 80 79 107 
63 81 64 54 53 82 64 81 53 
53 81 82 86 83 84 84 85 65 
86 84 66 66 84 65 87 66 69 
69 66 67 87 69 114 114 69 88 
88 69 56 56 114 88 119 90 57 
89 119 57 92 90 91 57 90 92 
92 91 94 96 95 94 70 94 95 
70 95 123 97 70 123 98 70 97 
126 98 97 72 73 99 99 100 72 
100 99 73 99 73 185 185 100 99 
61 59 149 149 187 61 75 61 187 
238 101 75 75 101 41 101 238 102 
102 238 103 102 103 101 101 103 41 
78 77 152 104 128 150 52 104 150 
79 152 154 107 79 154 52 54 105 
104 52 105 106 104 105 54 82 105 
82 108 105 107 109 80 110 81 63 
81 110 131 82 81 108 81 131 108 
63 80 109 110 63 109 112 111 83 
83 111 113 139 112 83 113 162 85 
83 113 85 83 85 84 66 87 86 
114 167 87 116 141 115 116 115 119 
119 115 118 117 116 119 89 117 119 
90 118 115 119 118 90 90 120 91 
120 93 91 94 91 93 178 31 71 
94 121 96 121 122 96 123 122 124 
96 122 123 95 96 123 71 72 178 
126 123 124 125 126 124 97 123 126 
126 144 98 98 144 146 59 98 149 
148 185 74 148 74 127 127 74 76 
104 106 129 104 129 128 129 106 105 
107 130 109 130 107 154 134 133 132 
134 132 135 135 132 137 137 132 136 
137 136 111 112 137 111 139 138 137 
112 139 137 160 162 111 111 162 113 
85 162 89 86 163 83 85 89 65 
169 167 114 114 56 169 140 141 142 
89 140 142 142 141 117 117 141 116 
140 142 117 89 142 117 178 56 31 
115 143 90 120 90 143 120 143 93 
93 121 94 183 306 72 72 100 183 
100 185 183 146 144 145 98 146 149 
149 146 145 238 75 187 238 77 103 
152 77 242 128 129 151 152 153 154 
154 155 130 130 155 109 155 156 109 
109 156 110 132 133 157 132 157 158 
158 157 159 132 158 136 134 135 138 
135 137 138 158 159 136 136 160 111 
159 160 136 161 138 139 163 161 139 
163 139 83 207 164 162 162 164 89 
165 163 86 166 89 164 87 167 86 
167 165 86 220 170 171 171 170 173 
220 171 89 89 171 173 168 220 89 
171 172 173 89 173 140 174 56 224 
141 172 175 173 172 141 140 173 141 
115 176 177 175 176 141 176 115 141 
224 56 178 115 179 143 143 179 93 
121 257 122 180 178 72 122 257 124 
257 181 124 306 180 72 182 125 124 
182 126 125 182 144 126 144 182 145 
182 184 145 145 184 147 148 183 185 
186 145 147 149 145 186 148 127 183 
186 187 149 127 76 188 188 150 189 
76 150 188 189 127 188 188 150 190 
190 189 188 190 150 128 128 239 190 
191 239 128 77 238 242 128 151 192 
192 191 128 151 129 105 193 153 152 
110 290 131 153 193 154 193 194 154 
194 155 154 156 155 195 290 110 195 
195 110 156 133 196 157 196 197 157 
133 198 196 134 198 133 159 199 200 
197 199 159 197 159 157 134 138 198 
201 159 200 203 201 200 204 203 200 
159 201 160 160 201 203 138 161 202 
163 205 161 161 205 202 162 206 207 
162 203 204 206 162 204 160 203 162 
205 163 208 163 209 208 210 212 207 
163 165 209 165 213 209 211 214 210 
210 214 166 212 210 166 164 207 166 
207 212 166 215 216 211 211 216 168 
214 211 168 167 213 165 217 213 167 
166 214 168 89 166 168 219 217 167 
216 218 220 220 218 170 168 216 220 
169 221 219 222 170 218 222 171 170 
222 172 171 174 169 56 174 221 169 
172 222 175 223 174 224 223 224 225 
227 225 224 226 176 175 178 227 224 
115 177 229 179 115 303 178 180 230 
231 230 180 306 231 230 180 306 230 
182 232 184 184 232 233 233 147 184 
234 147 233 235 234 233 147 234 186 
186 236 187 237 187 236 191 240 239 
192 151 241 241 191 192 152 242 243 
152 243 193 108 131 318 105 108 318 
194 245 155 244 194 193 196 246 197 
200 248 204 270 207 206 271 210 207 
252 218 216 167 169 219 253 221 254 
174 225 221 225 254 221 174 223 225 
175 222 226 255 225 227 229 177 176 
255 227 228 227 178 228 115 229 303 
179 429 93 121 93 429 230 231 178 
231 280 178 336 258 183 233 232 259 
337 183 263 263 183 127 234 235 186 
186 235 260 262 261 235 260 235 236 
236 235 261 260 236 186 237 238 187 
238 237 236 127 189 263 263 189 190 
238 413 315 239 264 190 265 264 239 
240 265 239 240 191 241 288 240 241 
241 151 105 193 243 244 243 242 321 
245 194 244 155 245 266 267 246 196 
196 268 267 198 268 196 246 269 197 
197 269 199 198 138 268 199 269 200 
200 269 248 138 202 247 204 248 249 
204 249 206 206 249 270 205 296 202 
205 208 296 209 297 208 270 271 207 
211 210 271 209 213 297 211 271 250 
250 216 211 252 216 250 251 213 217 
219 272 217 328 272 219 219 253 328 
221 253 219 218 273 222 222 273 274 
222 274 277 225 278 254 278 275 254 
222 277 226 225 255 278 256 176 277 
176 226 277 176 256 229 278 255 228 
278 228 279 228 178 279 305 178 280 
231 306 280 306 183 258 336 183 337 
233 259 235 259 310 235 235 310 262 
261 262 236 282 281 262 236 262 283 
262 281 283 283 312 413 283 413 236 
236 413 238 190 264 284 284 265 285 
264 265 284 285 265 286 315 316 238 
238 316 317 238 317 287 241 414 288 
265 240 288 414 241 105 289 238 287 
238 289 242 289 287 319 242 289 321 
195 155 320 195 320 290 244 243 322 
245 244 266 244 322 266 292 246 323 
292 269 246 267 323 246 138 293 268 
268 293 291 138 247 293 269 292 248 
248 294 249 248 292 294 247 202 325 
295 270 294 294 270 249 202 296 325 
270 295 271 298 251 217 217 272 298 
252 329 218 218 329 273 253 254 328 
329 274 273 254 299 328 329 375 274 
254 276 299 275 276 254 276 275 278 
300 276 278 300 278 330 279 330 278 
301 330 279 229 302 303 304 301 279 
304 279 305 305 279 178 280 381 305 
257 406 181 181 406 124 307 306 258 
307 308 306 258 308 307 336 307 258 
308 307 336 182 434 232 434 259 232 
309 337 263 262 310 282 309 263 338 
283 281 282 283 282 312 312 282 311 
340 338 263 190 340 263 313 340 190 
314 285 286 284 285 314 288 414 265 
287 317 319 105 318 414 131 290 348 
348 318 131 155 350 320 155 266 350 
267 268 291 293 267 291 292 390 294 
293 325 324 247 325 293 296 208 325 
295 326 271 394 297 213 374 213 251 
298 374 251 272 328 327 274 378 277 
377 276 300 277 331 256 256 331 302 
229 256 302 304 332 301 302 333 303 
334 332 304 305 334 304 335 334 305 
303 429 179 359 335 305 359 305 381 
311 282 339 341 311 339 342 341 339 
312 311 343 343 311 341 312 343 413 
341 342 343 190 284 314 314 313 190 
315 345 346 315 346 316 346 345 316 
317 316 347 349 317 347 317 349 319 
320 350 536 319 349 289 289 349 351 
289 351 321 243 321 352 322 243 352 
267 293 324 323 267 324 353 292 323 
325 373 324 325 208 392 445 252 250 
445 250 271 213 374 394 327 374 272 
272 374 298 328 376 327 377 300 330 
277 378 331 354 302 331 354 331 355 
302 356 333 354 356 302 333 356 303 
357 332 334 303 356 379 303 379 429 
429 257 121 432 381 280 280 306 432 
124 406 182 406 433 182 433 434 182 
310 434 360 310 360 282 360 434 282 
363 342 361 343 342 364 364 342 363 
343 364 413 313 314 365 363 361 362 
388 315 413 314 344 365 314 286 344 
344 286 265 315 366 345 366 388 345 
367 345 388 345 347 316 345 367 368 
369 345 368 369 370 347 369 347 345 
349 347 417 290 320 536 290 536 348 
266 322 420 266 420 350 324 353 323 
371 353 324 292 372 390 353 372 292 
373 371 324 326 295 424 294 424 295 
326 445 271 329 395 375 252 395 329 
328 299 376 276 396 299 274 375 378 
378 355 331 332 357 301 355 356 354 
335 358 334 334 358 357 335 359 358 
380 402 359 359 381 380 259 434 310 
337 309 464 309 338 464 282 382 339 
338 383 384 338 340 383 383 340 384 
339 382 342 382 361 342 340 313 383 
362 364 363 364 362 386 387 364 386 
413 364 387 315 388 366 437 344 265 
437 265 414 318 469 414 367 388 368 
368 370 369 318 348 469 347 370 417 
321 351 419 321 419 352 322 352 420 
353 389 372 353 371 372 371 373 372 
389 390 372 372 391 389 373 391 372 
325 391 373 325 392 391 394 393 208 
394 208 297 394 422 393 374 457 394 
395 252 445 376 516 327 299 396 376 
377 496 276 377 397 496 330 397 377 
458 355 378 397 330 301 398 397 301 
399 355 458 301 357 398 356 355 379 
427 379 399 379 355 399 358 400 357 
427 401 379 401 429 379 358 359 400 
429 403 257 402 380 404 404 380 405 
405 380 381 405 431 404 405 381 432 
432 306 484 484 306 308 434 450 282 
382 450 361 450 407 361 384 383 408 
383 313 408 361 407 362 407 435 362 
408 365 385 408 313 365 408 385 409 
410 362 435 410 386 362 385 365 411 
411 365 344 387 386 412 412 386 410 
413 387 412 368 388 415 368 415 535 
535 370 368 416 370 535 370 416 417 
351 349 418 351 418 419 352 419 455 
352 455 420 391 392 471 392 421 471 
392 208 421 394 423 422 424 445 326 
445 425 395 425 375 395 475 378 375 
426 399 458 427 399 426 428 357 400 
359 428 400 428 359 402 404 430 402 
446 403 429 430 404 431 403 446 257 
481 406 257 464 308 336 450 382 282 
488 338 384 384 408 488 409 385 436 
435 452 410 411 437 466 344 437 411 
466 385 411 410 452 438 410 438 412 
439 412 438 413 412 439 413 468 415 
413 415 388 349 537 418 491 350 420 
440 389 391 389 440 390 390 442 294 
390 440 442 441 442 440 442 424 294 
208 393 443 422 443 393 423 394 422 
394 457 422 445 444 425 327 516 374 
375 425 475 276 496 396 475 458 378 
496 397 398 398 357 496 477 357 428 
541 401 427 541 429 401 446 449 257 
431 405 447 447 405 432 449 481 257 
463 462 432 484 463 432 336 337 464 
338 512 464 488 408 451 451 408 436 
408 409 436 385 466 436 438 453 454 
438 454 439 413 439 454 468 413 454 
416 535 470 470 417 416 349 417 537 
537 599 418 418 599 419 536 350 491 
471 442 391 391 442 440 421 456 471 
421 208 456 208 472 456 472 208 443 
396 516 376 540 396 496 426 541 427 
426 458 541 541 459 429 428 402 460 
459 446 429 402 479 460 430 479 402 
430 461 479 431 461 430 447 461 431 
461 447 448 447 432 448 432 462 448 
406 587 433 338 488 512 407 465 435 
435 465 452 438 452 467 467 453 438 
437 414 552 453 467 454 348 536 469 
424 442 473 457 374 474 495 444 445 
424 495 445 444 495 425 475 476 458 
476 517 458 518 428 460 459 498 446 
478 446 498 478 449 446 479 461 448 
480 479 448 482 480 462 480 448 462 
483 482 463 482 462 463 484 483 463 
524 406 481 587 406 524 433 631 434 
527 464 485 487 485 464 486 487 464 
486 464 487 528 487 486 464 528 486 
488 451 504 436 466 451 451 466 504 
465 489 452 489 490 452 533 466 437 
437 552 533 452 490 467 415 468 535 
417 470 514 417 514 537 456 472 471 
442 492 473 422 457 443 474 494 457 
474 516 494 374 516 474 476 475 517 
458 517 541 357 477 496 478 499 449 
498 499 478 483 500 482 484 308 510 
308 464 527 434 631 581 512 511 464 
529 464 511 504 503 488 450 489 407 
489 465 407 489 505 490 490 506 467 
442 471 492 492 471 507 471 472 509 
507 471 509 443 509 472 493 515 457 
457 515 443 457 494 493 494 474 493 
424 473 495 425 495 475 396 540 516 
497 459 541 428 518 477 459 497 498 
479 518 460 449 499 481 499 501 481 
480 500 479 482 500 480 483 523 500 
523 483 502 502 483 525 483 484 525 
525 484 510 581 567 434 528 464 529 
511 512 513 532 466 533 490 505 506 
467 506 454 469 552 414 536 597 469 
492 507 508 492 508 473 515 509 443 
539 495 473 518 574 477 497 541 575 
575 498 497 499 498 519 499 519 520 
499 520 501 520 521 501 500 558 522 
500 522 479 501 521 481 521 559 481 
523 558 500 559 524 481 525 523 502 
525 510 526 587 631 433 526 510 543 
510 308 543 527 543 308 566 527 485 
485 487 566 546 529 511 511 513 546 
513 512 488 530 513 488 530 488 503 
548 489 450 531 489 548 489 531 505 
505 531 534 505 534 506 454 506 553 
468 454 553 553 535 468 455 419 599 
420 455 599 491 420 613 508 584 473 
509 515 585 603 475 495 539 603 495 
517 586 541 477 574 496 555 519 498 
519 555 520 520 556 521 522 558 479 
525 526 562 562 526 542 542 526 543 
543 527 565 527 566 565 592 566 487 
487 528 544 544 592 487 544 528 545 
544 529 593 544 528 529 546 513 547 
570 503 504 450 610 548 504 466 570 
548 549 531 550 532 552 552 532 533 
534 531 551 531 549 551 506 534 553 
470 535 611 597 536 598 470 612 514 
612 537 514 420 599 626 420 626 613 
508 507 538 507 509 538 509 585 584 
509 584 538 572 539 473 541 554 575 
479 678 518 555 556 520 521 556 559 
559 556 557 560 558 523 523 525 560 
615 559 557 559 615 524 560 525 561 
524 615 587 563 542 543 565 564 543 
593 529 546 568 593 546 434 623 450 
547 570 569 547 530 570 513 530 547 
530 503 570 466 550 570 532 550 466 
548 571 549 551 553 534 469 597 552 
470 611 612 612 599 537 536 491 598 
508 538 584 539 572 573 584 572 473 
493 494 515 539 572 573 517 475 603 
541 575 554 541 586 554 555 498 575 
479 558 678 558 560 561 525 576 561 
525 562 576 542 563 562 563 543 564 
631 579 581 579 580 581 567 623 434 
546 547 569 546 569 582 546 582 568 
450 623 610 610 583 548 548 583 571 
551 549 571 551 571 553 584 628 572 
628 573 572 539 573 603 494 516 602 
603 586 517 586 575 554 518 678 574 
557 556 604 604 615 557 561 576 558 
606 576 562 563 606 562 588 606 563 
588 563 564 564 565 589 589 565 590 
565 577 590 565 566 590 591 590 566 
566 578 591 566 592 591 631 635 579 
635 580 579 581 579 567 544 593 592 
579 580 567 593 568 594 582 569 595 
594 568 582 595 594 582 570 595 569 
570 550 624 610 596 583 596 571 583 
596 553 571 612 611 625 584 600 628 
585 601 584 515 601 585 602 621 494 
516 540 645 588 564 589 589 590 616 
589 616 588 591 616 590 592 616 591 
617 616 592 607 617 592 593 607 592 
618 607 593 593 594 608 595 608 594 
609 608 595 609 595 570 550 552 656 
535 553 620 535 620 611 598 491 613 
584 601 600 602 614 621 602 516 614 
496 574 540 586 679 575 556 555 604 
615 605 587 587 605 631 644 597 598 
598 613 644 611 620 625 601 515 667 
621 743 515 494 621 515 614 602 621 
573 628 603 603 646 586 575 679 555 
555 630 604 615 604 605 616 633 588 
617 607 622 607 618 622 618 593 608 
608 609 666 623 640 610 570 656 609 
640 619 610 619 596 610 656 624 550 
553 596 657 673 552 597 553 657 643 
620 611 625 612 625 660 599 612 661 
599 661 626 601 627 600 675 628 627 
627 628 600 743 667 515 645 614 516 
540 629 645 574 668 662 604 649 605 
558 576 606 605 649 631 663 606 588 
633 632 588 634 633 616 634 617 636 
634 616 617 580 623 567 636 617 637 
617 622 637 637 622 638 639 638 618 
638 622 618 618 608 639 609 656 666 
641 619 640 656 570 624 596 619 642 
619 641 642 642 687 596 687 657 596 
657 658 643 659 673 597 659 597 644 
613 699 644 660 661 612 626 701 613 
613 701 699 601 675 627 667 675 601 
614 645 621 629 647 645 540 702 629 
574 662 540 648 630 555 631 650 635 
650 651 635 632 663 588 632 633 663 
704 635 651 652 633 634 636 653 634 
580 635 704 623 580 704 653 636 637 
637 638 654 640 655 641 655 672 641 
641 672 642 656 552 673 553 643 674 
553 674 620 661 700 626 626 700 701 
603 628 646 647 629 645 702 647 629 
555 679 648 630 690 604 649 650 631 
633 652 663 652 634 653 637 654 653 
654 638 665 665 638 639 686 640 623 
696 640 686 696 655 640 620 660 625 
644 699 711 706 677 628 677 646 628 
586 646 713 540 662 702 668 669 662 
574 678 668 604 744 649 604 690 744 
670 649 744 670 671 649 649 671 650 
558 606 663 650 671 651 652 664 663 
652 653 664 684 664 653 653 654 684 
665 608 666 639 608 665 697 655 696 
655 697 672 658 657 688 725 673 659 
643 658 674 659 644 711 667 676 675 
706 628 675 743 676 667 677 713 646 
702 645 647 690 648 679 648 690 630 
714 678 558 670 681 671 681 680 671 
744 681 670 651 671 680 682 651 680 
664 684 683 685 684 654 654 707 685 
654 665 707 722 656 673 642 672 687 
687 688 657 658 688 674 688 689 674 
674 689 751 674 698 620 620 698 660 
727 661 660 661 727 700 681 715 680 
744 715 681 715 691 680 651 682 704 
693 664 683 718 732 623 685 694 684 
686 695 696 672 709 687 711 725 659 
660 698 727 727 738 700 645 743 621 
678 702 668 663 692 558 682 680 704 
664 693 692 664 692 663 704 718 623 
683 694 693 684 694 683 685 707 694 
732 705 623 695 686 623 697 696 695 
656 722 666 673 725 722 688 710 689 
674 751 726 674 726 698 712 713 677 
668 702 662 713 679 586 679 713 690 
691 703 680 703 691 715 692 730 558 
704 680 718 718 680 703 693 730 692 
707 666 741 707 665 666 623 705 708 
708 695 623 695 708 697 697 767 672 
687 709 688 688 750 710 689 710 751 
700 738 742 742 737 700 701 700 737 
763 706 675 763 675 676 702 678 714 
715 716 703 703 716 718 719 693 694 
694 707 719 666 734 741 708 705 720 
721 708 720 708 721 697 697 721 767 
709 724 723 723 724 709 709 724 688 
698 726 753 727 698 736 698 753 736 
677 804 712 728 755 645 728 645 702 
690 729 744 716 717 718 719 731 730 
693 719 730 733 720 705 748 734 666 
720 735 721 672 767 709 688 724 750 
754 677 706 690 773 729 558 809 714 
715 744 716 731 740 730 731 707 740 
731 719 707 740 707 741 732 733 705 
720 733 735 777 734 748 762 750 724 
722 725 749 711 752 725 737 711 699 
699 701 737 768 727 736 727 768 738 
763 754 706 676 743 763 645 755 772 
558 730 809 739 775 730 717 756 718 
739 730 740 745 739 740 731 745 740 
718 756 732 740 741 745 741 746 745 
746 741 759 741 734 759 747 733 732 
735 733 747 721 735 767 722 748 666 
709 767 724 726 794 753 737 752 711 
725 752 781 769 738 768 742 738 769 
713 773 690 729 785 744 745 757 739 
756 758 732 758 760 732 760 747 732 
747 760 761 747 761 735 735 761 766 
735 766 767 722 792 748 724 767 762 
792 722 749 710 762 751 710 750 762 
725 780 749 726 751 794 795 752 737 
753 782 736 782 768 736 742 783 737 
645 772 743 744 774 716 730 775 809 
757 759 764 757 746 759 745 746 757 
758 765 760 759 734 777 760 766 761 
762 779 751 779 794 751 754 804 677 
772 771 743 773 785 729 785 786 744 
774 800 716 716 800 717 775 739 757 
717 800 756 756 770 758 764 759 777 
764 777 757 770 765 758 765 766 760 
793 792 749 781 780 725 782 753 794 
737 783 795 763 804 754 743 771 863 
712 796 713 712 819 796 713 796 773 
773 807 785 774 744 786 775 787 809 
770 756 776 778 765 770 766 765 791 
765 778 791 792 777 748 766 791 767 
752 795 781 768 782 817 742 769 783 
771 784 863 771 784 772 771 772 784 
796 844 773 844 806 773 806 807 773 
774 825 800 757 777 789 756 800 776 
800 790 776 778 770 776 790 778 776 
790 791 778 791 814 767 815 762 767 
762 802 779 803 793 780 793 749 780 
769 768 817 863 842 743 755 797 851 
728 797 755 702 714 851 785 798 786 
788 787 775 775 789 787 775 757 789 
802 858 779 858 794 779 780 781 803 
794 816 782 842 763 743 805 772 755 
755 851 805 728 851 797 702 851 728 
798 808 786 785 808 798 785 807 808 
786 823 774 825 774 823 787 799 809 
789 799 787 789 810 799 777 801 812 
810 777 812 810 789 777 811 790 800 
790 813 791 790 811 813 791 813 814 
793 840 792 782 816 817 817 850 769 
769 850 783 804 818 712 784 772 863 
819 844 796 805 851 772 806 844 807 
807 820 806 844 820 807 807 852 808 
807 820 852 809 821 714 822 821 809 
799 824 809 824 822 809 826 824 799 
825 827 800 799 810 826 826 810 832 
800 827 811 812 801 810 810 801 832 
828 811 827 813 811 814 814 811 828 
829 814 828 801 777 849 829 835 814 
835 767 814 792 840 777 767 835 815 
815 858 802 793 803 840 815 802 762 
794 858 859 781 795 803 816 841 817 
763 818 804 818 819 712 714 837 851 
714 838 837 714 821 838 786 830 823 
830 831 823 823 831 825 786 831 830 
846 822 824 824 826 832 827 825 828 
801 849 832 828 834 829 834 835 829 
840 803 880 794 859 816 859 836 816 
795 783 860 803 795 860 851 843 772 
808 852 786 833 825 831 824 832 846 
825 834 828 833 834 825 832 849 854 
848 835 834 858 815 835 803 860 880 
816 836 841 841 850 817 850 860 783 
863 881 842 772 843 863 820 844 852 
852 869 786 821 822 853 845 786 870 
786 845 831 845 847 833 831 845 833 
847 839 833 839 834 833 839 848 834 
849 840 877 849 777 840 841 836 850 
902 818 763 869 870 786 853 822 846 
854 853 846 845 870 875 855 854 846 
846 832 854 847 845 856 848 839 847 
854 849 876 848 847 856 857 835 848 
835 868 858 857 868 835 861 836 859 
836 861 850 763 862 902 842 881 862 
852 864 869 853 871 821 866 856 875 
856 845 875 867 856 866 865 854 876 
856 857 848 849 877 876 900 850 861 
891 850 900 860 850 891 862 763 842 
851 923 843 844 864 852 864 852 869 
838 821 871 853 854 865 865 876 874 
857 856 866 879 858 868 880 877 840 
859 858 912 902 819 818 819 902 844 
864 844 903 864 903 872 864 872 869 
865 871 853 870 873 875 871 865 874 
857 866 868 868 866 875 878 876 877 
861 859 912 863 843 881 916 837 838 
838 871 892 869 895 870 871 894 892 
871 882 894 874 883 882 874 882 871 
870 884 873 870 895 884 883 874 885 
873 886 875 885 876 887 874 876 885 
887 876 889 868 875 886 888 879 886 
879 868 886 876 877 889 880 860 899 
858 879 912 890 861 912 900 861 890 
914 902 862 862 881 901 843 915 881 
903 896 869 872 903 869 892 918 838 
896 893 869 869 893 895 894 882 885 
882 883 885 884 886 873 885 889 887 
879 888 910 922 889 880 889 877 880 
899 860 913 914 862 901 923 837 916 
895 897 884 895 893 897 898 897 893 
884 897 886 888 886 897 898 888 897 
887 889 885 910 912 879 922 880 899 
913 860 891 915 901 881 837 923 851 
918 916 838 892 904 918 904 892 894 
905 904 894 896 906 907 896 907 893 
893 907 898 909 898 907 908 905 885 
894 885 905 910 898 909 909 911 910 
910 888 898 885 889 922 913 941 899 
843 953 915 843 923 953 933 903 844 
903 917 896 896 919 906 896 917 919 
918 908 920 918 904 908 904 905 908 
906 919 907 919 921 907 921 911 907 
911 909 907 920 885 922 908 885 920 
910 921 912 899 941 922 921 910 911 
890 912 931 890 931 900 900 931 891 
891 941 913 844 902 933 933 934 903 
903 927 917 918 925 924 918 924 916 
917 927 926 920 922 928 921 950 912 
902 914 933 935 923 916 903 934 927 
924 929 916 929 924 925 918 920 925 
926 930 917 917 930 919 929 925 928 
925 920 928 919 930 921 938 921 930 
928 941 939 922 941 928 931 912 950 
901 932 914 915 932 901 933 914 968 
935 945 923 916 929 935 927 934 936 
926 927 930 930 927 938 948 937 939 
937 928 939 929 928 937 921 940 950 
940 921 938 915 942 932 942 914 932 
968 914 942 943 915 953 968 954 933 
933 973 944 933 944 946 935 947 945 
946 934 933 937 947 935 948 947 937 
935 929 937 934 949 936 927 936 938 
936 940 938 950 981 931 981 982 931 
931 982 891 982 993 891 891 951 941 
993 951 891 942 915 943 952 968 942 
943 952 942 923 963 955 923 945 963 
944 958 946 959 945 947 946 949 934 
960 959 948 948 959 947 960 948 965 
949 961 936 940 936 961 949 940 961 
940 949 950 941 965 939 948 939 965 
943 953 952 972 953 923 971 954 968 
972 923 955 933 954 973 945 956 963 
944 973 957 944 964 958 944 957 964 
956 945 959 958 964 946 964 962 946 
962 949 946 965 966 960 966 959 960 
950 949 962 967 950 962 950 967 981 
941 951 965 965 951 993 952 969 968 
953 969 952 953 970 969 970 953 972 
954 971 973 974 973 971 955 963 975 
976 963 956 976 956 966 956 959 966 
979 964 957 978 964 979 976 966 977 
979 967 964 967 962 964 967 979 981 
979 989 981 993 990 965 990 977 965 
980 965 977 966 965 977 968 983 984 
968 969 983 969 985 983 970 985 969 
984 971 968 984 986 971 970 987 985 
972 987 970 955 987 972 975 987 955 
963 976 975 973 979 957 973 988 979 
977 997 975 976 977 975 989 979 988 
981 989 991 992 982 991 982 981 991 
993 982 992 985 995 994 987 995 985 
971 986 988 988 986 996 995 987 997 
987 975 997 974 971 988 974 988 973 
996 991 988 991 989 988 996 1004 992 
992 1004 993 1004 1005 993 997 990 1005 
992 991 996 990 993 1005 977 990 997 
983 999 984 985 994 983 983 994 999 
984 999 1000 984 1001 986 984 1000 1001 
995 1002 994 1001 1004 986 1004 996 986 
1004 1001 1003 1002 1005 1003 1005 1004 1003 
998 997 1005 998 1005 995 995 1005 1002 
997 998 995 1000 999 1001 1001 999 1003 
994 1002 999 1002 1003 999 
