# vtk DataFile Version 5.1
vtk output
ASCII
DATASET POLYDATA
POINTS 989 float
40.4977 22.6081 1.29769 46.5462 25.1737 0.473451 49.6889 24.8664 0.619569 
40.1518 27.4264 0.670705 55.9308 35.0401 1.21284 37.2285 37.4602 1.18605 
39.6282 40.2291 0.728338 43.3095 40.2525 0.394886 52.7864 40.0808 0.875078 
40.4123 42.6092 0.908889 49.8074 42.8029 0.737612 46.5243 45.1702 1.04015 
46.0374 17.1711 1.63373 43.6299 14.1414 2.41291 46.1549 17.351 1.631 
46.8337 14.6819 1.93628 52.8935 17.2537 2.4552 40.2395 19.735 2.23543 
37.0142 22.3996 2.21479 56.0481 22.3392 2.11168 55.8591 40.0492 1.53867 
56.1628 40.1948 1.61884 59.1576 40.1182 2.30885 55.7897 42.5016 1.86981 
36.9818 45.0999 2.32933 37.3581 44.9731 2.12792 40.0606 45.0285 1.50807 
40.4664 47.7732 2.08603 43.2703 47.9222 1.73808 46.4981 12.0609 2.58437 
46.1282 11.0387 3.47951 42.8507 11.652 3.87515 49.8739 12.2232 2.81865 
49.934 11.6319 3.21622 43.9982 12.3541 2.93312 50.3869 14.4052 2.35396 
51.3722 13.1116 3.75876 52.8704 14.9727 3.79429 54.1243 16.5337 3.64735 
40.979 17.8456 2.76191 39.3682 16.891 4.25818 34.0743 22.3295 2.9638 
59.2909 22.1229 2.82484 30.8306 29.9887 2.65584 27.57 32.238 3.63237 
55.8748 47.5795 2.94856 49.6594 50.1969 2.58328 49.6011 52.5427 3.23621 
44.0877 10.7773 4.32501 46.8183 10.5813 4.12833 48.8202 10.9216 3.97283 
55.5924 17.6029 3.74579 59.2001 19.7122 3.83219 57.9959 18.3711 4.40281 
59.6239 19.0436 4.97127 61.5166 20.8232 4.38892 62.6403 22.2747 4.02435 
65.1391 25.0216 4.51578 27.4003 29.8572 3.71373 65.3601 35.0402 4.01541 
62.2125 45.1294 4.03145 49.7256 52.9175 3.35322 43.4461 55.0036 4.08687 
42.7997 9.91797 5.31527 46.0989 10.1937 5.39143 50.144 11.6818 5.02616 
51.7666 13.2061 5.47327 40.1772 11.8613 5.17317 30.8536 17.3813 5.62093 
58.5833 18.2859 5.36102 61.0637 19.8354 5.28128 26.7354 24.4984 5.14294 
64.0822 23.5681 4.40995 65.7518 24.6891 4.98417 68.6283 27.1124 5.59516 
24.3992 35.0621 5.09391 65.625 42.7384 4.75898 27.9681 44.8984 5.11341 
29.8144 47.9939 5.00223 27.8571 47.5833 5.77579 59.3343 50.4492 4.66518 
40.2547 55.4557 4.92331 52.938 55.874 4.90203 46.6332 57.0698 4.9023 
36.0183 5.19819 6.60142 33.8629 4.67652 6.67413 34.4154 6.64276 5.94099 
37.2011 6.09318 6.30737 40.3777 7.37497 6.54438 40.2921 8.30756 5.95981 
40.7309 9.58227 5.57503 43.9646 9.1619 6.43171 33.9908 15.0636 5.54602 
37.7658 14.9437 5.25808 51.902 13.3316 6.67874 55.2626 16.037 6.5725 
30.5938 17.1913 5.76134 27.4644 17.2078 6.36867 59.7674 18.7431 6.61975 
62.0726 20.1584 6.7486 65.4806 22.6534 6.65821 64.9056 22.9653 5.60225 
20.6498 22.1042 6.55432 68.0988 25.5673 5.8475 71.782 32.5144 6.53449 
27.7297 50.1286 6.92904 31.5654 4.71311 7.09431 46.7945 10.2151 6.78233 
27.2858 11.8722 6.93639 48.6333 10.9676 6.52336 24.9482 13.0719 7.13132 
24.2477 14.2288 6.93275 23.0978 14.1479 7.66394 22.0378 17.6423 7.12486 
18.6975 24.9014 6.99733 69.0536 25.1644 6.82533 68.8671 24.5221 7.70332 
72.3608 27.6826 7.10171 71.6102 40.0785 6.91895 30.8849 52.6277 6.94632 
30.4948 4.18528 7.72624 33.9089 3.38606 8.07257 36.7282 4.89897 7.90196 
27.7693 7.26614 8.05459 26.7819 9.20467 7.84007 46.4303 9.94187 8.21677 
24.5927 11.743 8.11788 22.6475 14.6246 7.90918 19.8783 19.4444 7.96982 
19.2739 20.1625 8.38463 17.5287 24.5395 7.86128 67.7305 23.7173 8.30124 
16.47 26.7919 8.16501 71.1435 25.8983 8.10177 73.1064 27.2424 8.20601 
74.1889 28.1807 8.27408 14.7556 30.4263 8.0915 74.9571 29.8458 8.13011 
14.5505 32.4292 7.96037 14.6711 33.8056 7.90814 15.2198 37.5474 8.13555 
74.7748 37.5565 8.27396 17.705 40.4901 7.8381 18.188 42.6395 8.14655 
27.5832 52.8277 7.92608 68.3927 52.6305 8.51909 62.1863 57.6799 8.41881 
52.7694 60.6499 7.74603 30.8033 2.59188 9.25562 31.6775 3.15368 8.39229 
33.3937 2.40724 9.59795 28.3581 3.73549 9.45721 46.4274 9.89486 9.46439 
20.2248 17.314 9.52132 17.6992 22.1475 9.39877 14.8975 27.9851 9.37019 
75.0658 28.2104 9.50776 13.752 30.152 9.20366 76.0062 29.5174 9.17182 
77.1937 30.2584 9.72213 12.9205 32.436 9.48087 77.7859 32.2852 9.51747 
13.2183 35.1175 9.05279 12.6133 35.2474 9.62229 12.8443 37.823 9.64389 
75.3809 37.7034 8.62181 15.4524 42.3868 9.12649 14.7548 42.6422 9.58292 
68.4466 55.3199 9.60055 33.9351 60.3484 9.55085 59.211 60.5664 9.17923 
30.8628 1.85668 10.7959 28.7095 3.15664 9.81431 28.6822 2.77979 10.5889 
17.4362 22.0117 10.8254 76.3845 29.0734 10.316 13.3004 30.679 9.77029 
77.9052 30.1117 10.6546 13.0495 30.7024 10.7366 77.7521 37.5104 9.96342 
12.7854 40.1283 10.1474 55.9315 62.7831 9.69482 43.4405 64.813 10.3959 
25.9023 7.38935 10.7972 12.3328 32.4702 10.8735 79.0924 31.9842 10.6885 
80.2186 33.415 11.3659 11.5343 35.649 11.1984 80.6819 35.0753 11.573 
15.0398 47.7 10.9439 17.2912 50.3143 10.5154 27.6397 60.3498 10.9622 
37.2549 65.2099 11.57 78.4335 30.1743 12.2861 80.4946 32.2824 12.1193 
81.7746 34.9863 12.4343 10.6585 37.2938 12.1725 10.582 39.7127 12.2026 
75.0123 52.8586 12.0898 71.6967 57.8127 12.3896 59.0651 65.2882 12.5219 
40.1296 65.9827 11.6414 52.9151 66.0558 11.651 34.0001 1.9496 13.7762 
78.3422 30.0761 13.1774 81.8053 32.7046 13.7023 10.1951 43.1995 12.9899 
14.6438 55.5263 13.0778 18.2136 60.3215 13.8425 68.6013 62.9196 13.7055 
59.322 65.9453 13.1876 26.9891 2.30172 15.1395 26.0101 4.45631 13.9857 
83.888 35.1019 14.2858 10.4445 37.0051 13.7792 9.13618 45.228 13.9847 
83.7253 45.1632 14.6852 9.17254 47.6751 14.1553 24.3676 63.0899 13.4275 
65.2765 65.0204 14.2792 30.6797 65.7243 13.2789 58.9257 67.4127 14.3708 
27.2315 2.15451 15.3194 30.6433 1.26388 15.089 25.8284 3.90562 15.1348 
23.6957 9.33631 15.0159 21.9335 12.5802 15.3171 83.1465 33.6031 15.4495 
84.5745 34.9316 15.2804 8.05315 45.0041 15.1206 7.9577 47.5913 15.2099 
81.2967 50.3204 14.9371 8.63105 52.3285 15.5965 72.0107 62.9219 15.2058 
27.6745 67.8537 15.3312 56.139 68.5295 14.5416 26.9061 1.74288 17.4349 
25.9719 2.98522 16.2545 85.4953 35.0649 16.6791 86.1087 35.7731 16.5485 
86.5897 37.7866 16.1076 86.5543 37.0952 16.2211 86.6298 40.2312 16.0493 
9.00124 40.2314 16.504 86.9215 42.817 16.4959 7.40454 45.8147 16.639 
85.4249 47.4245 16.3182 7.44901 49.9888 15.9176 12.1627 60.5734 16.518 
75.3404 60.7553 15.9348 27.0155 1.71572 17.6634 86.5019 35.7138 17.6834 
6.38288 48.0433 18.2316 86.8361 47.4292 17.3936 87.4194 47.7713 18.0107 
6.52048 50.0538 16.8901 52.9952 72.4389 17.0988 23.1405 9.12605 17.7501 
88.2482 39.3975 17.7169 5.42095 52.9845 18.1777 11.7653 62.8521 17.978 
15.0636 65.3887 18.0645 43.3854 75.0324 18.6527 31.2757 0.889826 19.3636 
27.3644 1.48155 19.4164 20.3538 14.2918 19.3423 19.7008 15.5489 19.5865 
18.734 17.5783 19.474 15.1928 24.9795 19.4458 12.8738 30.393 19.4123 
4.33836 52.9723 19.6713 4.59905 54.9192 19.3086 5.10536 57.529 19.7896 
18.0515 68.2406 19.0793 33.4395 1.03438 20.8384 24.6274 3.87404 20.8197 
46.5355 9.65282 20.8623 90.0563 38.416 21.0753 90.7341 39.7927 20.7556 
90.3388 42.5113 19.8387 5.25562 50.1826 20.537 4.00601 53.195 20.4028 
3.72978 55.4647 21.0064 4.55931 57.8247 20.4449 77.4042 64.9081 20.1745 
74.8089 68.251 20.6455 68.7218 70.9927 20.3116 30.8468 75.2558 20.9703 
55.9874 75.6229 20.7774 83.7992 59.8854 21.5434 80.7619 62.4896 21.3776 
21.6389 72.0848 21.0263 24.4742 73.0662 20.9573 33.7775 76.008 21.0925 
58.9999 75.1786 21.2054 25.131 2.76358 22.3174 24.3556 4.25128 22.1685 
22.1422 10.073 22.3142 44.2091 8.31128 22.3262 19.6033 15.4121 22.3058 
58.9214 17.6558 22.2674 69.139 23.9161 22.245 91.2765 39.8034 22.3604 
91.5888 45.2607 21.509 91.1429 50.1478 22.295 89.8484 52.8041 22.2443 
3.41516 57.1148 21.9214 3.20914 60.2349 22.8058 4.95502 62.3791 22.2419 
74.4787 70.3935 22.4129 18.4199 71.9643 22.4142 28.5515 75.5782 22.175 
33.5133 76.7158 21.9912 34.203 77.2386 22.4794 40.458 78.6566 22.449 
46.5514 78.2369 22.1156 22.1025 10.0697 23.696 20.1094 14.2241 23.6623 
89.8735 38.2815 23.6666 93.1948 42.4822 24.1225 89.7994 55.3117 23.6784 
3.22859 55.8066 23.5819 2.78761 57.6281 23.3863 5.52187 65.3434 23.5478 
12.0074 70.2511 23.8701 14.8452 71.2899 23.5226 71.7509 73.079 23.6215 
24.5187 74.7105 23.5484 27.6528 76.1216 23.8006 30.5744 76.7676 23.5803 
84.348 62.664 23.8911 84.8943 63.5025 25.0088 15.1858 72.1959 25.038 
18.221 72.9494 25.16 23.7464 74.5436 25.3484 30.7991 77.0551 25.1054 
34.0901 78.2416 25.2866 62.1446 77.7595 25.3484 37.4623 79.2355 24.8652 
93.7977 47.6597 25.098 85.9455 62.3445 25.2831 3.15496 65.4067 25.2666 
8.93798 69.9827 25.3192 27.7535 76.2467 25.1692 29.1397 76.805 25.2969 
43.4763 80.3958 24.9518 46.5498 80.5159 25.0826 52.7972 79.9877 25.1992 
55.8405 79.8834 25.6333 33.7378 1.27817 26.5151 25.3338 2.67567 26.4522 
23.536 6.83158 26.581 78.0768 29.8687 26.5148 87.8881 36.9726 26.4903 
93.1362 40.8764 26.5174 94.6332 44.6887 26.2959 3.51051 55.7208 26.3386 
90.5515 57.7905 26.5468 1.7762 60.5067 26.4913 2.04981 65.5209 26.7275 
84.8878 64.8865 26.5324 5.33462 68.7003 26.4802 81.1342 67.5522 26.3138 
8.56932 70.3895 26.4244 78.1118 70.5867 26.3394 11.9519 71.4635 26.4502 
14.1281 71.9751 26.7639 21.4316 73.2351 26.6336 72.0211 74.8094 26.032 
30.0615 76.7648 25.7429 31.8254 77.2086 26.1392 33.6734 77.6919 26.6763 
36.7218 78.7945 26.7019 40.1575 79.9705 26.4958 44.2141 80.8414 26.5866 
45.8719 81.0422 26.2398 49.6644 81.0793 26.4132 27.1241 1.54557 27.9701 
0.951916 64.952 28.2564 4.60476 68.9789 27.8615 6.39037 70.0362 28.0531 
8.59943 70.4899 28.0614 24.2737 73.8011 26.7564 27.2581 75.0193 26.5612 
30.5722 76.0546 26.8556 43.6179 80.4063 28.0042 58.9618 80.856 28.1416 
45.8888 81.263 27.9769 49.3087 81.588 28.0106 31.2794 0.881976 27.9375 
25.5868 2.54982 27.8035 94.562 42.4921 27.5956 95.5823 45.2005 28.5181 
27.6854 67.7665 28.0895 30.87 68.0271 28.2162 18.2872 70.8813 27.9216 
14.8434 70.9798 28.0175 21.4916 72.0319 27.424 74.4277 74.672 28.2689 
55.91 81.2913 28.1118 27.375 1.49718 29.3673 8.87765 42.6802 29.3318 
94.7703 42.3368 28.9846 95.8298 44.8259 29.1359 94.3622 55.4816 29.2751 
0.952313 64.9804 28.77 21.4129 65.6668 29.0817 3.29316 67.9522 29.5308 
18.2291 65.6807 29.4781 15.0346 67.9093 29.244 4.34468 68.9525 29.3702 
15.1715 69.6908 28.6231 11.9694 69.6939 28.9243 6.36503 69.9114 28.8116 
72.2871 76.2489 29.192 68.4803 77.8216 29.442 42.7208 78.4291 29.1105 
43.7846 79.834 28.7782 61.9361 80.8294 29.6895 46.7147 80.6305 29.1907 
50.7623 81.5087 29.8718 52.0584 81.5388 29.4786 55.8531 81.611 29.6831 
33.5119 1.22915 30.8973 27.0799 1.62856 30.8744 25.81 2.72052 30.5163 
74.7627 27.5848 30.7474 95.7008 43.2097 30.3819 96.8724 45.0512 30.8191 
2.76027 60.5429 30.9816 2.05345 62.8365 30.9983 89.9064 62.4817 30.9939 
24.5369 63.0768 29.8278 1.81442 65.2956 31.0606 2.8983 67.0887 30.8216 
5.336 68.2117 30.7074 74.7258 75.3227 30.5751 71.1886 77.4381 31.1366 
54.7932 81.4213 30.5023 59.0844 81.6521 30.7651 30.6129 60.3089 30.7517 
34.0244 62.7263 30.3539 15.1678 63.1705 31.2757 46.7583 73.0967 30.2553 
49.5641 78.5791 30.4763 51.5763 80.4071 30.6706 51.8026 80.8106 30.5537 
25.768 3.24471 31.873 49.7489 12.1502 32.1807 21.4607 12.3203 32.1548 
88.2584 36.5296 32.0124 96.7236 43.4216 32.2291 97.6913 44.9369 31.8612 
97.0901 52.9681 31.651 27.541 57.7283 32.0372 2.59228 63.2676 32.2268 
43.4898 65.2475 31.6567 3.10045 65.1529 32.6148 5.15498 65.8424 32.6166 
5.50577 67.3146 31.3578 49.7566 70.4025 31.9299 78.9253 73.3097 32.7831 
80.526 72.2926 32.7973 52.8897 75.5079 31.9943 74.8187 75.1553 32.1657 
72.503 76.9249 32.3753 71.5696 77.4222 32.3285 69.264 78.7772 31.944 
53.1114 79.8441 31.2861 55.6982 78.6553 32.6501 56.7728 80.6048 32.3569 
65.6308 81.4763 33.0377 68.0208 79.9105 32.4835 62.1528 81.7809 32.3089 
58.9308 81.3966 32.2523 27.2903 1.73858 33.6654 30.8133 1.24873 33.6626 
33.9712 1.87085 33.6285 25.8563 3.70954 33.4757 9.34372 42.8403 33.4921 
98.4669 44.6219 33.3012 98.656 45.7243 32.6362 99.8545 47.5713 33.7685 
33.3224 56.7903 32.9138 95.4978 56.5528 32.772 21.2707 57.6175 33.2703 
93.87 58.3475 33.2897 92.5205 59.5218 33.4645 43.4071 60.3569 33.7051 
91.7792 60.6057 33.5884 90.6587 63.0616 34.039 46.4918 62.918 33.6573 
88.3451 65.214 33.8302 4.93664 65.0716 33.1783 85.2329 68.814 33.7405 
86.4623 67.6654 33.7734 83.6051 69.6655 32.717 53.0509 70.2233 33.1944 
83.3769 70.0631 33.7131 81.4051 71.9666 33.645 80.8805 72.1146 33.4865 
79.4296 72.8594 33.6764 56.0796 75.4988 33.3514 69.3914 78.8012 33.6831 
68.4027 80.066 33.644 65.9221 81.6193 33.8873 24.7004 7.06495 34.8885 
46.2301 10.2591 34.9445 96.8503 42.6757 35.0073 94.4449 58.4001 34.8539 
92.4544 59.6483 34.712 3.9951 61.1479 33.9034 5.28478 62.8736 34.5232 
90.6826 62.7699 35.3608 87.435 65.4975 35.0273 72.389 74.0506 33.8523 
74.6299 73.6334 33.6745 72.085 75.5624 33.5872 69.2718 76.3833 34.3432 
71.2624 73.1551 34.1728 74.3518 74.6631 33.0663 60.2465 78.5932 34.8421 
62.509 81.84 33.9068 26.2335 3.82245 35.3323 98.3207 43.9558 34.5146 
99.5995 45.015 35.3045 100.311 50.4643 34.7753 37.1691 55.0658 34.6475 
5.20841 58.2663 35.1532 5.2893 61.1173 35.2799 91.7219 60.219 35.3586 
53.0971 67.6461 34.4207 84.9473 67.4711 34.8409 86.6248 67.0948 34.4591 
68.5598 70.4769 35.0188 68.6067 72.6127 34.7066 68.4752 75.5111 34.5891 
61.982 78.1589 35.2637 64.7498 80.9231 34.6458 62.3961 80.4174 34.9396 
27.785 2.1118 36.6064 16.8252 24.3101 36.592 87.1452 35.1269 36.513 
100.308 45.3297 36.6012 101.052 47.463 36.2077 7.35215 49.7722 36.6378 
101.345 50.2937 36.9648 100.117 52.6258 36.2849 5.82762 58.6643 36.1727 
95.8133 57.5335 36.5313 8.33433 58.2885 37.3675 92.4202 59.2047 36.0735 
94.0741 58.7031 36.4687 6.24104 59.7652 36.1241 81.1638 60.4075 36.2779 
87.8334 63.0056 35.9557 89.8227 62.5 35.8829 71.7783 65.5389 35.5612 
56.1991 67.6977 35.8834 59.2496 68.1037 36.9204 59.5585 70.2888 36.1441 
62.0552 75.5823 35.4052 71.1702 25.8859 37.7911 11.9265 37.5817 37.8211 
93.8981 39.882 37.7892 95.8873 41.381 37.9454 100.423 45.2566 37.4771 
101.453 47.8914 37.8134 27.672 50.653 36.9556 40.3446 52.5229 37.5328 
100.468 52.727 38.3287 6.57399 55.5126 37.6592 6.60825 57.2553 37.2993 
74.855 60.3698 36.4794 84.242 58.057 37.1383 90.6433 59.6327 36.7198 
92.0076 58.8209 36.7613 68.676 63.0417 36.8921 65.5425 65.5627 36.9 
62.2062 68.1281 36.9345 37.0088 50.4494 38.0966 101.643 50.3702 39.6822 
77.9668 55.8044 38.0554 81.1468 55.685 38.0725 72.3231 57.8691 37.8124 
87.3645 56.0928 38.1764 90.8723 58.0672 37.4922 95.8882 56.917 37.7006 
94.2669 57.7378 37.6686 56.5747 63.0087 38.3869 97.4925 42.5873 39.2504 
100.063 44.9411 39.1862 34.3871 48.1302 39.5272 20.9609 49.8686 38.7907 
7.6039 52.6644 39.7296 100.548 52.4491 40.0577 8.47826 54.7429 40.2723 
71.8739 55.0244 39.1946 98.7039 54.3642 38.6704 49.5659 55.4323 39.4676 
96.6535 55.3234 39.0438 56.2898 60.4801 39.7016 56.2388 62.4894 38.5327 
62.8087 21.5219 40.7398 16.0353 27.8257 40.4435 99.8883 45.146 40.1338 
8.91027 47.9915 40.8569 100.854 47.5741 40.8686 8.24185 50.4433 40.7194 
101.229 50.5312 41.4245 100.116 52.4606 40.7163 84.3273 52.4485 40.2289 
71.6922 52.7253 40.6035 71.9146 53.3045 40.1868 90.5889 52.7506 40.6444 
97.4432 53.2972 40.7223 8.89478 54.2256 40.365 10.6145 54.1826 40.1968 
94.1798 54.8984 39.5864 65.4929 55.4459 40.9025 58.8599 60.8002 40.1354 
27.7794 4.111 41.9163 85.082 33.5721 42.3451 9.50304 48.1897 42.4682 
8.87716 52.8959 41.3244 68.7127 53.0755 41.1861 61.8089 57.9728 40.9545 
28.9814 3.10494 41.4763 30.3691 2.59548 41.6713 91.0399 37.6143 41.7375 
93.5808 39.9848 41.9138 99.2102 45.787 41.8871 100.423 47.9546 42.1707 
17.891 47.8896 41.9876 9.14809 50.3604 42.3601 100.62 50.2286 42.4531 
11.9112 50.7139 42.7758 75.0835 49.8112 41.9703 33.3482 3.12806 43.3464 
28.0431 4.11759 43.5791 31.0255 2.94831 43.2828 25.8493 7.90977 43.2556 
46.8644 11.7446 43.5527 18.8535 22.6808 43.2994 15.8581 30.2543 43.2238 
13.9584 37.1513 43.8514 10.801 45.3511 43.9069 10.2262 47.3449 43.5857 
99.3749 48.1396 43.1607 14.4866 47.6272 44.4098 49.2139 49.8853 43.0244 
84.2649 47.9183 43.7332 10.2861 49.7164 43.3862 11.3134 50.107 43.4217 
97.3962 49.3649 43.5552 99.2782 49.7377 43.19 62.2679 52.7698 43.5027 
29.9731 3.52711 45.0385 27.9006 4.57766 44.8847 26.7922 6.37764 45.0152 
85.1966 33.9256 44.1751 87.01 35.5328 44.5864 88.3945 36.3547 43.8369 
12.1162 42.711 45.0347 93.6966 42.9734 45.0574 96.2477 45.7182 44.3614 
11.3157 48.1256 44.9506 47.2076 47.0458 44.381 97.212 47.6037 44.1803 
62.5942 50.8409 44.5119 15.6409 32.6783 44.6731 84.8694 34.1013 45.1564 
11.1967 46.1316 44.9851 94.2672 44.8421 45.4949 95.9693 47.297 44.4914 
11.52 48.1212 44.9243 14.2729 47.1465 45.0602 87.4748 47.4998 44.691 
93.9472 47.3484 44.9616 58.8111 52.5595 44.5482 27.978 4.33218 44.4779 
30.576 3.655 46.4924 46.6706 12.0434 46.3519 84.5121 34.6682 46.3828 
87.26 37.7758 46.13 12.57 43.0737 46.2562 24.1674 42.1401 45.9651 
36.8382 42.1144 45.7807 91.0396 42.364 46.9136 93.0405 43.4953 45.8859 
12.5784 45.2494 46.3928 43.2117 43.1275 46.7661 92.8407 45.0517 46.2008 
14.7195 45.2443 46.7457 46.4912 44.9888 46.1134 68.6219 45.4139 46.6166 
87.6764 45.2732 46.81 12.4421 47.3205 45.3337 87.5676 46.8375 45.3575 
90.1688 44.4295 47.3743 52.613 48.0417 46.7077 62.3786 47.9164 46.6008 
55.9207 50.1664 46.2213 30.2697 3.78492 47.1413 28.2004 5.04034 47.6145 
27.0911 6.60039 47.8804 78.0959 30.0204 47.9482 83.9183 34.8162 47.1265 
87.6853 40.1512 48.2504 27.6134 40.0039 47.6481 89.8172 42.456 47.8709 
14.7401 44.6045 47.3527 71.7287 44.4567 47.0288 89.8079 44.2211 47.4919 
65.3836 45.1248 47.6724 55.8909 47.8794 47.9388 55.7409 48.5147 47.3771 
81.2401 32.3967 47.7811 84.3203 37.5501 49.1593 15.7799 37.8338 49.2303 
14.4759 43.1215 48.6783 13.4372 44.0053 47.265 88.5759 43.0292 48.4584 
53.114 47.403 47.4908 28.6452 5.08542 48.8827 30.6605 4.53419 49.2 
33.9891 4.72535 49.1047 27.3973 6.65982 49.3119 24.7391 12.3795 49.0655 
22.2201 19.836 49.0055 21.1852 22.3181 49.2108 74.5438 28.1387 49.165 
77.799 30.2291 48.995 30.8558 39.1979 48.3644 87.3672 40.8811 49.0279 
85.1615 38.9149 49.5527 21.4309 40.3241 49.3117 15.0752 42.1407 49.3275 
84.5722 42.3126 49.3615 28.5076 5.76623 50.1429 33.6191 5.07877 50.4913 
37.3456 6.49768 50.6975 27.7897 6.58868 50.6615 21.6789 22.5284 50.3944 
75.3218 29.3395 50.8277 16.6351 38.1287 50.7584 16.353 37.7022 50.1269 
82.4097 37.0769 51.1531 83.4523 38.0682 50.6854 24.4813 38.047 50.9236 
37.0203 37.8858 50.791 84.5565 40.2863 50.5576 16.0916 40.132 50.3226 
17.0942 41.0626 50.2529 18.5242 41.0038 49.8868 84.3887 41.7012 49.8602 
53.4032 44.8656 50.2026 29.2243 5.78835 51.4357 28.088 6.91924 51.9603 
36.8337 6.44515 52.1432 47.087 13.8919 52.1998 62.6694 22.9258 52.1307 
17.9236 35.1004 52.1501 80.2227 35.9307 52.0904 17.9554 38.1033 52.1249 
53.2265 42.9903 52.267 30.3474 5.42728 51.7817 33.9804 5.47803 51.7387 
71.9938 27.2713 52.2427 81.9152 38.1688 52.0384 18.4767 39.1111 51.5439 
82.7216 38.2542 51.5012 83.0634 38.8419 51.2756 46.747 40.0899 51.8052 
68.5986 40.0571 51.9622 74.8504 39.8639 51.7666 78.5722 39.3495 52.3215 
81.4834 39.4771 51.8509 58.969 43.0939 52.3462 53.8518 44.1691 51.1829 
29.2221 6.15877 52.5896 29.5184 5.85565 52.414 37.1657 6.87487 53.4429 
23.3313 22.0059 53.8134 18.4501 35.17 53.5904 78.8562 35.3423 53.0054 
33.7384 35.3409 53.5173 18.9674 36.9389 53.5826 74.9958 38.8757 53.0071 
74.9155 38.1696 53.8956 78.5827 37.7925 53.462 49.6212 40.0295 53.3867 
30.6373 6.48756 55.0504 43.4297 12.1873 54.8129 77.5101 35.5365 54.3487 
27.9482 34.7655 54.5377 19.2605 36.332 54.3753 20.5784 36.6055 54.3789 
69.2082 26.6086 55.2495 19.1956 35.0172 55.1293 75.5367 34.5606 55.5414 
21.121 35.724 55.5152 77.2102 36.687 54.5109 75.2897 37.0669 55.073 
56.2826 41.7972 54.1496 30.3591 6.77616 55.5577 34.2717 6.98681 57.2362 
36.7152 7.27247 55.9757 20.6518 30.9093 56.6233 19.9178 32.5955 56.4121 
19.4884 33.5291 55.7071 74.223 34.9974 56.7261 20.3273 35.1011 56.1804 
65.4736 36.9733 56.0583 74.5365 36.977 55.3098 30.5478 7.60697 57.4727 
28.7246 9.48768 57.515 65.3296 25.2164 57.71 21.7493 30.1002 57.9903 
21.0515 32.8712 57.935 71.8575 32.589 57.8662 23.3596 34.1464 57.0713 
24.5949 33.1174 58.1033 73.2819 33.6103 56.9268 21.3774 34.2134 57.1269 
46.2972 35.4984 57.8991 72.3405 34.6705 57.7207 58.5822 36.9122 57.4961 
23.6993 27.1919 59.5151 23.9805 32.3951 59.0114 74.2138 35.1161 56.5964 
31.0241 8.00251 58.6264 33.9682 7.69685 58.7985 29.9257 9.11646 59.4404 
37.5731 9.00451 59.3105 28.7463 10.3212 58.5858 28.5858 11.2838 59.2018 
22.3536 30.6339 59.1447 68.7656 30.4862 59.4365 22.2567 31.919 58.9137 
30.7333 31.8141 58.5815 70.1536 32.6599 59.8218 71.3185 34.437 58.217 
68.8943 34.4667 59.1402 62.2745 35.1718 59.1212 52.8163 37.3969 58.9374 
30.2254 9.4291 60.6955 37.0754 9.15102 60.5114 28.8706 11.6955 60.441 
24.845 25.0413 60.2812 62.3997 24.4206 60.3788 23.5853 30.5508 60.3129 
22.7126 30.922 59.4975 27.5405 30.457 61.024 30.7723 30.4125 60.7334 
30.81 31.063 59.7488 24.3771 31.5446 59.7786 69.664 32.8448 60.0901 
58.8058 34.8848 60.3755 55.1626 36.5688 59.4696 30.8499 9.84369 61.7907 
59.2909 22.5966 62.0544 25.4783 25.5799 61.8594 24.744 27.9269 61.6414 
65.6013 30.2159 62.2201 26.9904 29.5266 62.1917 62.0748 33.8467 61.2708 
62.3778 33.3164 62.2374 65.8342 32.5193 62.1428 29.6999 11.6342 62.4257 
62.4538 27.6968 63.2342 25.0956 29.5758 61.4404 67.0119 31.4029 61.5213 
43.2906 14.9256 63.2235 59.2688 23.0348 62.9226 26.2619 25.2779 63.127 
26.6116 28.0335 63.4479 25.7066 27.3152 62.6532 65.0153 30.4919 62.9615 
63.0688 28.9133 63.6971 37.1069 29.3481 62.8016 64.1432 31.6356 63.7218 
62.4361 32.533 63.5757 52.841 35.2471 63.3663 30.76 11.989 64.823 
32.0798 10.7719 64.0939 33.9336 10.4622 64.347 37.5769 11.4132 65.0624 
27.2141 25.0537 64.7234 59.5225 24.9052 64.5553 27.892 27.348 64.7187 
63.0054 30.4603 64.6683 61.6964 31.7421 64.7622 33.7158 11.4948 66.4815 
52.8265 20.3131 66.3474 56.2805 21.9751 64.94 58.9469 31.8844 65.8885 
55.2516 34.0464 64.8582 30.0966 14.6039 66.3258 46.6168 17.0898 66.1701 
55.8001 22.1328 65.7507 28.5439 26.4834 65.7279 34.5163 26.7754 65.8914 
37.1667 26.9769 65.9826 59.3775 27.4677 66.4859 42.5254 28.6862 66.3771 
60.4013 30.3345 66.167 34.1227 11.9486 67.6277 56.0649 24.8398 67.6195 
29.5113 26.1146 66.4654 34.0252 25.3897 67.9524 33.9099 26.0629 66.8943 
40.1266 27.0086 67.3194 58.343 29.68 67.5486 50.0227 32.479 67.2433 
55.9566 32.0238 67.359 52.4694 32.6095 68.1054 33.2226 12.8667 69.3253 
31.037 14.6727 68.9333 29.3735 22.6238 68.4458 52.9805 32.0862 68.9215 
55.7229 30.0607 69.6817 32.2022 13.2024 68.7653 30.8869 23.9947 69.3417 
31.5675 14.7976 70.1541 30.3953 20.0084 70.6038 31.0082 22.4897 71.0547 
40.2931 25.5269 70.6535 52.7724 30.7838 71.5166 52.4296 31.3749 70.3956 
37.2977 13.8917 71.8402 31.8041 15.3036 71.2712 31.0847 19.8278 72.3258 
49.2151 20.1155 71.4652 31.4453 22.1518 71.7263 54.5179 27.8124 71.3937 
52.0675 29.9157 73.5545 46.8315 19.5966 73.3983 31.6768 19.7472 73.5338 
40.2029 24.9008 71.94 42.8339 25.9987 72.2558 53.6837 27.5138 72.4672 
49.5856 29.7925 74.7656 51.6834 29.6211 74.0671 31.8685 17.4684 73.5327 
49.3624 21.4579 72.9308 32.1853 21.2151 73.0972 33.2408 21.8109 73.2328 
44.0254 26.5547 72.7228 52.9597 27.9569 73.3611 47.1173 29.0692 72.8058 
36.8592 15.1461 74.4609 34.0444 15.514 74.1596 33.6172 17.6468 76.42 
40.0679 16.4642 75.0983 46.6477 20.1079 74.6948 33.395 20.199 75.1483 
49.1069 22.8549 74.3407 43.9917 25.2993 74.8663 52.3329 27.9401 74.0305 
46.9199 27.7676 74.8678 47.9164 28.8406 74.4506 50.1028 29.7767 74.7616 
34.0721 17.3658 76.5577 40.4328 17.1444 76.8489 47.467 21.4865 75.2499 
39.7376 21.8732 75.8989 44.4692 24.547 76.1731 50.1723 27.9131 75.7537 
51.6011 29.4376 74.1867 33.7734 19.1376 76.2612 46.1875 20.6146 75.7491 
46.5295 21.9084 76.3503 42.8113 23.2936 76.524 48.9181 25.5601 75.9478 
46.7382 25.0393 76.501 47.7194 27.2884 75.9268 49.0072 27.4241 76.0448 
37.7606 17.3601 77.9647 40.3134 17.6324 77.9343 34.7818 17.89 76.9522 
34.4683 18.8171 76.7558 42.0859 19.4892 78.1062 37.4566 19.0287 77.5926 
41.295 20.3394 78.0687 44.5755 21.5075 77.496 42.9823 21.6139 77.7985 
41.5242 21.6673 77.3539 45.2617 23.999 76.7437 
POLYGONS 1985 5952
OFFSETS vtktypeint64
0 3 6 9 12 15 18 21 24 
27 30 33 36 39 42 45 48 51 
54 57 60 63 66 69 72 75 78 
81 84 87 90 93 96 99 102 105 
108 111 114 117 120 123 126 129 132 
135 138 141 144 147 150 153 156 159 
162 165 168 171 174 177 180 183 186 
189 192 195 198 201 204 207 210 213 
216 219 222 225 228 231 234 237 240 
243 246 249 252 255 258 261 264 267 
270 273 276 279 282 285 288 291 294 
297 300 303 306 309 312 315 318 321 
324 327 330 333 336 339 342 345 348 
351 354 357 360 363 366 369 372 375 
378 381 384 387 390 393 396 399 402 
405 408 411 414 417 420 423 426 429 
432 435 438 441 444 447 450 453 456 
459 462 465 468 471 474 477 480 483 
486 489 492 495 498 501 504 507 510 
513 516 519 522 525 528 531 534 537 
540 543 546 549 552 555 558 561 564 
567 570 573 576 579 582 585 588 591 
594 597 600 603 606 609 612 615 618 
621 624 627 630 633 636 639 642 645 
648 651 654 657 660 663 666 669 672 
675 678 681 684 687 690 693 696 699 
702 705 708 711 714 717 720 723 726 
729 732 735 738 741 744 747 750 753 
756 759 762 765 768 771 774 777 780 
783 786 789 792 795 798 801 804 807 
810 813 816 819 822 825 828 831 834 
837 840 843 846 849 852 855 858 861 
864 867 870 873 876 879 882 885 888 
891 894 897 900 903 906 909 912 915 
918 921 924 927 930 933 936 939 942 
945 948 951 954 957 960 963 966 969 
972 975 978 981 984 987 990 993 996 
999 1002 1005 1008 1011 1014 1017 1020 1023 
1026 1029 1032 1035 1038 1041 1044 1047 1050 
1053 1056 1059 1062 1065 1068 1071 1074 1077 
1080 1083 1086 1089 1092 1095 1098 1101 1104 
1107 1110 1113 1116 1119 1122 1125 1128 1131 
1134 1137 1140 1143 1146 1149 1152 1155 1158 
1161 1164 1167 1170 1173 1176 1179 1182 1185 
1188 1191 1194 1197 1200 1203 1206 1209 1212 
1215 1218 1221 1224 1227 1230 1233 1236 1239 
1242 1245 1248 1251 1254 1257 1260 1263 1266 
1269 1272 1275 1278 1281 1284 1287 1290 1293 
1296 1299 1302 1305 1308 1311 1314 1317 1320 
1323 1326 1329 1332 1335 1338 1341 1344 1347 
1350 1353 1356 1359 1362 1365 1368 1371 1374 
1377 1380 1383 1386 1389 1392 1395 1398 1401 
1404 1407 1410 1413 1416 1419 1422 1425 1428 
1431 1434 1437 1440 1443 1446 1449 1452 1455 
1458 1461 1464 1467 1470 1473 1476 1479 1482 
1485 1488 1491 1494 1497 1500 1503 1506 1509 
1512 1515 1518 1521 1524 1527 1530 1533 1536 
1539 1542 1545 1548 1551 1554 1557 1560 1563 
1566 1569 1572 1575 1578 1581 1584 1587 1590 
1593 1596 1599 1602 1605 1608 1611 1614 1617 
1620 1623 1626 1629 1632 1635 1638 1641 1644 
1647 1650 1653 1656 1659 1662 1665 1668 1671 
1674 1677 1680 1683 1686 1689 1692 1695 1698 
1701 1704 1707 1710 1713 1716 1719 1722 1725 
1728 1731 1734 1737 1740 1743 1746 1749 1752 
1755 1758 1761 1764 1767 1770 1773 1776 1779 
1782 1785 1788 1791 1794 1797 1800 1803 1806 
1809 1812 1815 1818 1821 1824 1827 1830 1833 
1836 1839 1842 1845 1848 1851 1854 1857 1860 
1863 1866 1869 1872 1875 1878 1881 1884 1887 
1890 1893 1896 1899 1902 1905 1908 1911 1914 
1917 1920 1923 1926 1929 1932 1935 1938 1941 
1944 1947 1950 1953 1956 1959 1962 1965 1968 
1971 1974 1977 1980 1983 1986 1989 1992 1995 
1998 2001 2004 2007 2010 2013 2016 2019 2022 
2025 2028 2031 2034 2037 2040 2043 2046 2049 
2052 2055 2058 2061 2064 2067 2070 2073 2076 
2079 2082 2085 2088 2091 2094 2097 2100 2103 
2106 2109 2112 2115 2118 2121 2124 2127 2130 
2133 2136 2139 2142 2145 2148 2151 2154 2157 
2160 2163 2166 2169 2172 2175 2178 2181 2184 
2187 2190 2193 2196 2199 2202 2205 2208 2211 
2214 2217 2220 2223 2226 2229 2232 2235 2238 
2241 2244 2247 2250 2253 2256 2259 2262 2265 
2268 2271 2274 2277 2280 2283 2286 2289 2292 
2295 2298 2301 2304 2307 2310 2313 2316 2319 
2322 2325 2328 2331 2334 2337 2340 2343 2346 
2349 2352 2355 2358 2361 2364 2367 2370 2373 
2376 2379 2382 2385 2388 2391 2394 2397 2400 
2403 2406 2409 2412 2415 2418 2421 2424 2427 
2430 2433 2436 2439 2442 2445 2448 2451 2454 
2457 2460 2463 2466 2469 2472 2475 2478 2481 
2484 2487 2490 2493 2496 2499 2502 2505 2508 
2511 2514 2517 2520 2523 2526 2529 2532 2535 
2538 2541 2544 2547 2550 2553 2556 2559 2562 
2565 2568 2571 2574 2577 2580 2583 2586 2589 
2592 2595 2598 2601 2604 2607 2610 2613 2616 
2619 2622 2625 2628 2631 2634 2637 2640 2643 
2646 2649 2652 2655 2658 2661 2664 2667 2670 
2673 2676 2679 2682 2685 2688 2691 2694 2697 
2700 2703 2706 2709 2712 2715 2718 2721 2724 
2727 2730 2733 2736 2739 2742 2745 2748 2751 
2754 2757 2760 2763 2766 2769 2772 2775 2778 
2781 2784 2787 2790 2793 2796 2799 2802 2805 
2808 2811 2814 2817 2820 2823 2826 2829 2832 
2835 2838 2841 2844 2847 2850 2853 2856 2859 
2862 2865 2868 2871 2874 2877 2880 2883 2886 
2889 2892 2895 2898 2901 2904 2907 2910 2913 
2916 2919 2922 2925 2928 2931 2934 2937 2940 
2943 2946 2949 2952 2955 2958 2961 2964 2967 
2970 2973 2976 2979 2982 2985 2988 2991 2994 
2997 3000 3003 3006 3009 3012 3015 3018 3021 
3024 3027 3030 3033 3036 3039 3042 3045 3048 
3051 3054 3057 3060 3063 3066 3069 3072 3075 
3078 3081 3084 3087 3090 3093 3096 3099 3102 
3105 3108 3111 3114 3117 3120 3123 3126 3129 
3132 3135 3138 3141 3144 3147 3150 3153 3156 
3159 3162 3165 3168 3171 3174 3177 3180 3183 
3186 3189 3192 3195 3198 3201 3204 3207 3210 
3213 3216 3219 3222 3225 3228 3231 3234 3237 
3240 3243 3246 3249 3252 3255 3258 3261 3264 
3267 3270 3273 3276 3279 3282 3285 3288 3291 
3294 3297 3300 3303 3306 3309 3312 3315 3318 
3321 3324 3327 3330 3333 3336 3339 3342 3345 
3348 3351 3354 3357 3360 3363 3366 3369 3372 
3375 3378 3381 3384 3387 3390 3393 3396 3399 
3402 3405 3408 3411 3414 3417 3420 3423 3426 
3429 3432 3435 3438 3441 3444 3447 3450 3453 
3456 3459 3462 3465 3468 3471 3474 3477 3480 
3483 3486 3489 3492 3495 3498 3501 3504 3507 
3510 3513 3516 3519 3522 3525 3528 3531 3534 
3537 3540 3543 3546 3549 3552 3555 3558 3561 
3564 3567 3570 3573 3576 3579 3582 3585 3588 
3591 3594 3597 3600 3603 3606 3609 3612 3615 
3618 3621 3624 3627 3630 3633 3636 3639 3642 
3645 3648 3651 3654 3657 3660 3663 3666 3669 
3672 3675 3678 3681 3684 3687 3690 3693 3696 
3699 3702 3705 3708 3711 3714 3717 3720 3723 
3726 3729 3732 3735 3738 3741 3744 3747 3750 
3753 3756 3759 3762 3765 3768 3771 3774 3777 
3780 3783 3786 3789 3792 3795 3798 3801 3804 
3807 3810 3813 3816 3819 3822 3825 3828 3831 
3834 3837 3840 3843 3846 3849 3852 3855 3858 
3861 3864 3867 3870 3873 3876 3879 3882 3885 
3888 3891 3894 3897 3900 3903 3906 3909 3912 
3915 3918 3921 3924 3927 3930 3933 3936 3939 
3942 3945 3948 3951 3954 3957 3960 3963 3966 
3969 3972 3975 3978 3981 3984 3987 3990 3993 
3996 3999 4002 4005 4008 4011 4014 4017 4020 
4023 4026 4029 4032 4035 4038 4041 4044 4047 
4050 4053 4056 4059 4062 4065 4068 4071 4074 
4077 4080 4083 4086 4089 4092 4095 4098 4101 
4104 4107 4110 4113 4116 4119 4122 4125 4128 
4131 4134 4137 4140 4143 4146 4149 4152 4155 
4158 4161 4164 4167 4170 4173 4176 4179 4182 
4185 4188 4191 4194 4197 4200 4203 4206 4209 
4212 4215 4218 4221 4224 4227 4230 4233 4236 
4239 4242 4245 4248 4251 4254 4257 4260 4263 
4266 4269 4272 4275 4278 4281 4284 4287 4290 
4293 4296 4299 4302 4305 4308 4311 4314 4317 
4320 4323 4326 4329 4332 4335 4338 4341 4344 
4347 4350 4353 4356 4359 4362 4365 4368 4371 
4374 4377 4380 4383 4386 4389 4392 4395 4398 
4401 4404 4407 4410 4413 4416 4419 4422 4425 
4428 4431 4434 4437 4440 4443 4446 4449 4452 
4455 4458 4461 4464 4467 4470 4473 4476 4479 
4482 4485 4488 4491 4494 4497 4500 4503 4506 
4509 4512 4515 4518 4521 4524 4527 4530 4533 
4536 4539 4542 4545 4548 4551 4554 4557 4560 
4563 4566 4569 4572 4575 4578 4581 4584 4587 
4590 4593 4596 4599 4602 4605 4608 4611 4614 
4617 4620 4623 4626 4629 4632 4635 4638 4641 
4644 4647 4650 4653 4656 4659 4662 4665 4668 
4671 4674 4677 4680 4683 4686 4689 4692 4695 
4698 4701 4704 4707 4710 4713 4716 4719 4722 
4725 4728 4731 4734 4737 4740 4743 4746 4749 
4752 4755 4758 4761 4764 4767 4770 4773 4776 
4779 4782 4785 4788 4791 4794 4797 4800 4803 
4806 4809 4812 4815 4818 4821 4824 4827 4830 
4833 4836 4839 4842 4845 4848 4851 4854 4857 
4860 4863 4866 4869 4872 4875 4878 4881 4884 
4887 4890 4893 4896 4899 4902 4905 4908 4911 
4914 4917 4920 4923 4926 4929 4932 4935 4938 
4941 4944 4947 4950 4953 4956 4959 4962 4965 
4968 4971 4974 4977 4980 4983 4986 4989 4992 
4995 4998 5001 5004 5007 5010 5013 5016 5019 
5022 5025 5028 5031 5034 5037 5040 5043 5046 
5049 5052 5055 5058 5061 5064 5067 5070 5073 
5076 5079 5082 5085 5088 5091 5094 5097 5100 
5103 5106 5109 5112 5115 5118 5121 5124 5127 
5130 5133 5136 5139 5142 5145 5148 5151 5154 
5157 5160 5163 5166 5169 5172 5175 5178 5181 
5184 5187 5190 5193 5196 5199 5202 5205 5208 
5211 5214 5217 5220 5223 5226 5229 5232 5235 
5238 5241 5244 5247 5250 5253 5256 5259 5262 
5265 5268 5271 5274 5277 5280 5283 5286 5289 
5292 5295 5298 5301 5304 5307 5310 5313 5316 
5319 5322 5325 5328 5331 5334 5337 5340 5343 
5346 5349 5352 5355 5358 5361 5364 5367 5370 
5373 5376 5379 5382 5385 5388 5391 5394 5397 
5400 5403 5406 5409 5412 5415 5418 5421 5424 
5427 5430 5433 5436 5439 5442 5445 5448 5451 
5454 5457 5460 5463 5466 5469 5472 5475 5478 
5481 5484 5487 5490 5493 5496 5499 5502 5505 
5508 5511 5514 5517 5520 5523 5526 5529 5532 
5535 5538 5541 5544 5547 5550 5553 5556 5559 
5562 5565 5568 5571 5574 5577 5580 5583 5586 
5589 5592 5595 5598 5601 5604 5607 5610 5613 
5616 5619 5622 5625 5628 5631 5634 5637 5640 
5643 5646 5649 5652 5655 5658 5661 5664 5667 
5670 5673 5676 5679 5682 5685 5688 5691 5694 
5697 5700 5703 5706 5709 5712 5715 5718 5721 
5724 5727 5730 5733 5736 5739 5742 5745 5748 
5751 5754 5757 5760 5763 5766 5769 5772 5775 
5778 5781 5784 5787 5790 5793 5796 5799 5802 
5805 5808 5811 5814 5817 5820 5823 5826 5829 
5832 5835 5838 5841 5844 5847 5850 5853 5856 
5859 5862 5865 5868 5871 5874 5877 5880 5883 
5886 5889 5892 5895 5898 5901 5904 5907 5910 
5913 5916 5919 5922 5925 5928 5931 5934 5937 
5940 5943 5946 5949 5952 
CONNECTIVITY vtktypeint64
0 1 39 14 39 1 2 14 1 
1 0 3 1 3 6 2 1 4 
4 1 7 1 6 7 4 7 10 
8 4 10 7 6 9 10 7 11 
12 13 39 12 14 15 13 12 15 
12 39 14 12 14 35 2 35 14 
16 35 2 39 17 0 19 16 2 
0 18 3 3 43 5 5 43 44 
6 3 5 5 44 77 77 6 5 
20 4 8 22 4 21 22 21 20 
20 21 4 20 8 23 45 21 23 
23 21 20 9 24 25 26 9 25 
26 7 9 45 23 8 24 26 25 
7 26 27 28 7 27 11 7 28 
10 11 46 82 8 46 46 8 10 
29 30 31 29 32 33 30 29 33 
31 34 29 13 31 40 31 13 34 
29 34 13 15 29 13 32 29 15 
35 32 15 36 33 32 35 36 32 
37 36 35 40 39 13 35 15 12 
37 35 16 16 38 37 40 39 17 
51 42 52 0 17 18 16 19 51 
42 51 19 18 41 43 18 43 3 
42 19 4 4 19 2 4 56 42 
56 4 59 59 4 22 6 77 9 
77 24 9 45 22 21 24 27 26 
45 8 82 83 28 62 11 28 83 
47 11 83 46 11 47 31 30 48 
48 30 49 33 49 30 33 50 49 
37 38 51 38 16 51 51 52 53 
40 18 17 39 40 17 55 54 52 
55 52 56 56 52 42 58 41 71 
41 58 43 43 58 44 59 57 56 
59 22 76 60 76 22 24 119 27 
80 22 82 82 22 45 82 46 47 
119 81 27 28 27 62 62 27 81 
47 61 46 82 47 61 61 47 83 
31 48 63 49 64 48 48 64 63 
33 65 50 33 36 65 65 36 66 
40 31 67 36 37 66 95 37 51 
69 51 53 92 68 41 18 92 41 
18 40 92 52 69 53 69 52 54 
55 70 54 70 55 56 97 71 41 
56 57 72 58 71 44 59 74 57 
44 71 75 118 74 59 44 75 77 
76 118 59 79 78 77 77 78 24 
60 22 80 146 60 80 78 119 24 
86 84 85 87 84 86 88 87 89 
89 87 90 88 89 90 91 88 63 
63 88 90 87 86 93 50 64 49 
90 87 67 67 87 93 63 90 67 
63 67 31 68 92 86 93 86 92 
67 93 40 66 37 94 93 92 40 
98 69 54 68 97 41 100 56 101 
56 72 101 57 101 72 57 73 101 
100 101 73 103 100 73 103 57 74 
73 57 103 104 117 74 75 71 132 
118 104 74 145 118 76 105 78 79 
85 106 86 88 91 122 124 108 106 
91 63 107 64 107 63 107 64 50 
109 107 50 86 106 108 65 109 50 
110 97 108 109 65 66 94 109 66 
111 110 112 86 108 68 111 113 97 
96 97 68 96 108 97 68 108 96 
69 98 51 51 98 95 97 113 102 
70 99 54 54 99 98 99 70 56 
102 71 97 56 100 99 129 114 102 
100 103 115 102 114 71 71 114 132 
103 74 115 115 74 117 142 75 132 
77 75 143 76 60 145 60 146 145 
170 80 82 83 182 61 83 62 182 
82 61 147 106 85 121 120 106 121 
85 84 122 85 122 121 120 151 123 
87 122 84 106 120 123 87 88 122 
106 123 124 91 125 122 107 125 91 
124 126 108 126 110 108 110 126 112 
110 111 97 111 112 127 95 94 37 
127 113 111 127 128 113 95 98 94 
113 128 102 102 128 129 129 130 114 
115 131 100 115 116 131 115 133 116 
114 130 132 115 117 133 133 117 134 
135 134 117 135 117 137 132 136 138 
137 117 104 132 138 142 142 138 139 
137 104 141 141 104 118 142 139 140 
141 118 165 75 142 143 165 118 198 
79 77 105 77 144 105 78 105 119 
105 144 119 119 144 169 146 80 170 
82 147 181 61 182 202 147 61 202 
149 121 150 148 149 150 148 151 120 
149 148 120 121 149 120 121 122 150 
151 183 123 124 183 126 183 124 123 
125 152 122 125 107 109 448 125 109 
127 126 153 126 127 112 127 153 128 
128 153 129 98 99 94 129 154 130 
116 133 131 132 130 155 135 156 134 
157 136 155 132 155 136 137 156 135 
158 156 137 137 159 158 138 136 157 
138 157 160 161 159 137 139 138 162 
162 138 160 141 161 137 163 139 162 
186 161 141 164 139 163 140 139 164 
142 140 164 167 166 142 143 142 166 
167 143 166 143 144 77 168 145 146 
169 192 119 119 192 81 181 170 82 
81 192 62 171 148 150 172 148 173 
173 148 171 148 172 151 152 125 448 
448 109 94 174 154 129 100 131 301 
130 174 155 156 158 175 158 159 175 
176 178 160 176 160 157 161 177 159 
160 163 162 165 141 179 165 186 141 
165 179 186 164 180 142 180 167 142 
198 179 165 143 167 190 167 189 190 
143 190 144 168 118 145 144 220 169 
181 200 170 172 173 151 183 225 126 
126 225 153 100 301 99 130 154 174 
133 134 131 134 156 204 157 155 178 
204 156 175 177 204 175 157 178 176 
159 177 175 160 178 184 177 161 185 
160 184 163 185 161 186 184 187 163 
163 187 164 164 187 180 190 207 144 
168 199 118 144 207 191 144 191 220 
168 146 209 147 200 181 192 201 62 
62 201 182 202 200 147 257 225 183 
129 153 267 94 99 300 174 178 155 
193 204 177 194 193 185 193 177 185 
185 186 194 184 214 187 188 194 186 
195 194 188 187 214 196 188 179 195 
186 179 188 196 197 187 180 187 197 
167 180 206 206 180 197 231 195 179 
167 206 189 190 189 206 179 198 231 
198 118 199 249 198 199 191 207 218 
192 169 220 150 122 203 151 257 183 
122 152 276 99 301 300 193 194 204 
195 205 194 197 214 243 214 197 196 
199 168 209 219 146 170 220 191 234 
170 200 210 219 170 210 202 235 200 
150 203 171 151 173 211 211 173 171 
211 212 151 257 151 212 276 152 448 
226 153 225 129 267 174 131 134 301 
194 205 204 205 195 213 213 195 244 
243 229 197 197 229 206 244 195 216 
216 195 231 206 229 215 206 215 190 
215 217 190 247 190 217 190 232 207 
198 249 231 233 199 209 191 218 234 
192 220 262 200 221 210 235 221 200 
200 210 221 211 171 222 222 171 223 
171 203 223 257 212 224 268 178 174 
178 269 184 184 269 214 213 227 205 
213 228 227 217 215 229 230 217 229 
231 246 216 247 217 230 190 247 232 
207 248 208 208 218 207 209 146 219 
218 208 273 221 219 210 182 256 202 
219 221 235 201 192 262 182 262 256 
235 202 256 223 236 222 223 263 236 
223 203 263 222 236 237 224 222 237 
211 224 212 222 224 211 224 275 257 
153 226 267 301 134 204 204 205 301 
228 238 227 228 239 238 228 213 240 
241 239 228 240 241 228 240 213 242 
242 213 244 242 241 240 253 244 216 
230 229 245 207 232 259 248 207 259 
199 233 249 262 220 234 237 275 224 
269 401 214 238 239 251 239 241 251 
277 251 241 253 216 246 246 254 253 
230 245 247 245 255 247 259 232 255 
255 232 247 246 231 289 234 218 292 
201 262 182 288 235 256 236 263 250 
236 250 237 225 257 297 225 297 226 
226 265 267 205 227 301 214 401 243 
277 241 258 241 242 258 242 244 258 
229 243 245 270 255 252 255 245 252 
253 246 254 270 259 255 254 246 289 
231 249 284 248 260 261 248 261 208 
233 285 249 233 209 286 218 273 292 
235 294 219 288 294 235 250 264 237 
250 263 264 267 265 266 267 268 174 
301 227 238 238 251 301 258 244 278 
278 244 279 289 305 254 271 259 270 
271 272 259 259 272 248 260 248 283 
261 273 208 233 286 285 292 273 291 
219 286 209 256 262 315 275 297 257 
266 265 267 178 268 269 277 258 278 
279 253 303 244 253 279 356 252 245 
253 254 303 252 280 270 271 270 281 
248 272 283 231 284 289 249 285 284 
273 310 291 292 311 234 293 234 287 
262 234 314 234 293 314 203 274 263 
237 264 295 263 274 264 274 203 122 
295 275 237 265 299 267 243 356 245 
303 254 304 356 280 252 280 281 270 
304 254 305 281 282 271 305 289 320 
271 282 272 282 283 272 283 308 260 
289 284 290 364 284 285 273 261 325 
310 273 325 309 285 286 219 294 286 
287 234 311 314 315 262 264 377 295 
264 274 377 349 274 122 275 295 296 
275 296 351 122 276 298 275 351 297 
226 299 265 277 278 302 278 279 302 
280 356 281 282 281 321 306 282 321 
282 306 283 307 283 306 290 362 289 
330 289 362 284 362 290 311 329 287 
293 287 329 312 293 329 313 293 312 
293 312 314 315 347 256 288 256 347 
314 312 313 297 316 226 226 317 299 
300 448 94 353 301 251 318 251 277 
302 279 319 355 319 279 279 303 355 
339 355 303 339 303 304 306 321 322 
306 322 307 308 283 307 260 308 342 
308 323 342 260 324 261 325 261 324 
364 285 309 286 326 309 292 291 327 
337 286 294 327 311 292 311 327 328 
329 311 328 313 312 329 347 348 288 
288 348 294 294 348 337 314 313 338 
315 314 345 351 316 297 226 316 317 
301 353 352 353 251 318 318 277 302 
339 304 305 308 307 323 284 364 362 
342 323 361 324 260 342 332 310 325 
398 309 326 291 310 333 291 334 327 
329 335 313 338 313 336 347 315 376 
295 377 350 295 350 296 507 298 276 
507 276 448 299 317 541 299 541 267 
319 354 302 305 404 339 356 321 281 
305 320 357 321 356 322 320 330 331 
289 330 320 331 340 320 330 331 340 
307 341 323 362 360 330 331 330 360 
325 324 332 310 332 333 291 333 334 
368 326 286 328 327 334 328 334 343 
328 335 329 343 335 328 335 343 344 
313 335 336 314 338 373 373 345 314 
345 346 315 315 346 376 563 401 269 
356 243 401 404 305 357 356 358 322 
357 320 340 322 378 307 359 307 378 
307 359 341 323 341 361 342 361 363 
365 324 363 324 342 363 365 332 324 
366 332 365 332 366 333 334 333 367 
333 366 367 398 326 368 335 344 369 
344 343 369 335 370 336 338 372 373 
386 337 348 345 373 374 346 345 374 
346 374 375 376 346 375 421 347 376 
348 347 421 477 349 122 350 390 296 
122 298 477 448 300 603 353 318 302 
302 354 353 322 358 378 341 359 379 
341 379 361 380 363 361 363 380 381 
363 381 365 364 309 398 382 393 383 
382 334 367 343 334 382 383 343 382 
369 384 335 384 370 335 337 471 286 
415 286 471 369 343 383 384 369 383 
336 370 371 338 336 371 371 372 338 
418 337 386 375 374 385 375 385 387 
388 375 387 376 375 388 421 376 388 
274 349 389 350 377 390 274 389 377 
296 390 351 316 449 317 426 301 352 
354 450 353 450 354 391 354 319 391 
319 355 391 392 391 355 339 392 355 
358 405 378 340 331 360 379 359 378 
397 406 382 406 393 382 379 380 361 
365 381 396 366 365 396 395 366 396 
397 366 395 371 393 394 367 366 397 
382 367 397 364 398 362 384 383 393 
371 384 393 286 414 368 398 368 414 
414 286 415 371 370 384 416 372 371 
416 385 372 372 385 373 374 373 385 
421 399 348 399 386 348 349 423 389 
377 400 390 377 389 400 423 349 477 
506 351 390 506 316 351 267 541 268 
426 562 301 268 541 269 402 391 403 
391 392 403 392 339 403 403 339 481 
339 526 481 453 526 339 404 453 339 
356 429 358 405 358 429 405 379 378 
407 379 405 432 393 406 454 393 432 
394 393 454 379 407 410 411 412 409 
379 410 413 380 379 413 381 412 396 
412 411 396 409 396 411 408 395 409 
395 396 409 406 395 408 397 395 406 
371 394 441 443 371 441 380 413 381 
443 416 371 417 385 416 337 418 471 
385 419 387 388 387 419 388 419 420 
388 420 421 399 421 422 386 399 422 
424 390 400 400 389 424 424 425 390 
449 316 506 317 449 541 300 301 603 
391 402 450 427 402 403 427 403 428 
481 428 403 356 571 429 357 340 431 
405 429 430 431 340 360 406 485 432 
485 406 408 440 394 454 441 394 440 
434 407 405 412 442 409 408 409 442 
435 412 381 413 410 435 413 435 381 
461 362 398 398 414 436 419 416 443 
417 416 419 417 419 385 386 422 439 
422 438 439 418 386 439 476 389 423 
389 476 424 450 352 353 402 427 450 
404 484 453 357 431 490 430 433 405 
485 408 442 433 434 405 407 434 435 
443 441 456 407 435 410 456 460 443 
362 461 462 461 398 436 414 465 436 
437 465 414 443 444 419 437 414 415 
444 445 419 420 419 445 446 444 463 
446 445 444 415 471 472 421 420 445 
421 445 446 422 421 438 421 446 438 
425 424 447 425 447 390 269 541 563 
562 426 352 428 452 451 427 428 451 
452 428 481 356 401 545 356 545 594 
356 594 571 357 489 404 483 440 454 
441 440 483 429 455 430 489 357 490 
431 360 490 360 492 490 433 430 457 
430 455 457 441 527 456 442 412 458 
433 457 434 434 457 435 435 458 459 
457 458 435 412 435 458 492 360 495 
360 496 495 362 496 360 499 496 362 
444 443 460 499 362 462 464 461 436 
465 464 436 437 466 465 415 467 466 
437 415 466 468 446 463 470 463 469 
470 468 463 467 415 472 470 438 468 
438 446 468 418 473 471 439 438 474 
438 470 474 418 439 473 439 474 473 
424 476 475 424 475 447 447 478 390 
475 478 447 478 506 390 642 477 298 
301 562 603 450 427 564 427 451 508 
508 451 452 452 480 508 452 481 480 
482 480 481 526 482 481 526 453 547 
486 484 404 404 489 487 404 487 486 
528 511 429 432 485 454 527 441 483 
429 511 455 488 456 527 442 458 493 
460 456 491 493 458 457 494 495 496 
497 460 531 494 496 498 499 498 496 
444 460 463 463 460 497 499 462 500 
501 500 462 501 462 461 502 469 463 
503 467 472 503 466 467 504 503 472 
474 470 469 505 504 471 472 471 504 
423 477 476 475 506 478 401 563 479 
484 549 453 571 528 429 593 454 485 
549 484 486 549 486 509 487 510 486 
511 457 455 491 456 488 457 512 493 
442 493 512 490 492 514 491 531 460 
463 497 502 501 499 500 517 518 519 
519 515 517 516 520 515 520 517 515 
464 520 516 461 464 516 501 461 516 
464 465 517 464 517 520 561 521 502 
521 469 502 466 503 517 465 466 517 
474 469 521 473 474 522 473 522 471 
522 505 471 523 506 475 298 507 642 
450 622 352 427 565 564 565 427 508 
508 524 525 508 480 524 524 480 525 
525 480 482 549 547 453 483 454 568 
527 483 568 486 510 509 528 529 511 
487 489 510 510 489 530 511 512 457 
511 529 512 529 442 512 489 490 530 
530 490 513 513 490 514 573 554 501 
501 554 498 554 532 498 492 533 514 
495 533 492 573 501 557 501 519 557 
495 494 532 533 495 532 497 531 502 
494 498 532 498 499 501 560 561 502 
519 535 534 501 516 519 516 515 519 
536 534 535 538 534 536 519 518 535 
515 519 535 518 517 536 535 518 536 
518 503 536 503 538 536 518 517 503 
537 538 539 539 521 537 539 474 521 
503 504 538 522 474 539 504 505 538 
505 522 539 538 505 539 475 476 540 
523 621 506 643 541 449 622 562 352 
622 450 542 450 564 629 566 508 525 
525 482 543 543 482 544 544 482 546 
482 526 546 547 546 526 527 580 569 
454 593 568 568 580 527 571 548 528 
527 569 488 485 442 617 488 599 491 
550 617 442 510 530 551 509 510 552 
510 551 552 509 552 549 529 528 553 
528 548 553 442 529 553 555 556 513 
584 573 557 574 532 554 555 532 574 
555 514 532 513 514 555 558 531 491 
557 534 577 533 532 514 559 531 558 
557 519 534 502 531 560 560 531 559 
534 538 560 538 561 560 537 521 561 
538 537 561 540 523 475 541 604 563 
450 629 542 525 543 566 543 544 566 
567 566 544 546 567 544 608 594 545 
592 580 568 548 571 572 599 488 569 
573 582 554 584 582 573 574 585 555 
551 575 576 530 575 551 551 576 552 
550 553 548 442 553 550 556 555 575 
530 513 575 513 556 575 558 491 589 
557 577 584 578 579 559 577 534 578 
560 559 579 578 560 579 534 560 578 
540 476 628 628 476 477 540 621 523 
621 641 506 506 641 449 508 590 565 
479 646 401 590 508 566 646 545 401 
546 570 581 546 547 570 570 547 549 
598 570 549 583 554 582 574 554 583 
598 549 587 587 549 588 572 550 548 
576 575 586 552 576 586 588 552 586 
588 549 552 575 555 585 586 575 585 
559 558 589 448 642 507 541 643 604 
542 629 622 630 629 564 630 564 565 
563 646 479 567 591 566 606 545 646 
545 606 608 567 546 581 570 595 581 
596 571 594 599 569 650 572 571 596 
596 550 572 617 550 596 597 584 625 
582 584 597 586 585 614 586 614 618 
588 586 618 600 588 618 587 588 598 
598 588 600 625 577 578 584 577 625 
589 491 601 602 589 601 601 620 602 
626 578 559 620 589 602 589 620 559 
540 628 627 448 603 642 768 603 562 
604 670 563 591 590 566 591 605 590 
605 630 590 591 607 605 607 591 567 
580 691 569 592 691 580 593 485 649 
609 581 595 610 609 595 597 612 613 
612 582 597 615 595 600 616 617 596 
583 582 637 574 583 611 585 574 611 
614 585 611 598 600 595 570 598 595 
599 601 491 625 578 619 626 559 620 
627 621 540 590 630 565 567 581 607 
607 581 609 608 624 594 612 637 582 
583 637 611 637 651 611 624 616 594 
650 700 599 612 597 625 610 595 615 
594 616 596 617 616 624 600 618 614 
615 600 614 656 619 626 619 578 626 
601 626 620 627 628 621 726 477 741 
604 644 670 630 605 631 646 623 606 
686 593 633 568 593 686 592 568 686 
605 632 631 605 607 632 606 623 634 
632 607 635 635 607 609 606 634 608 
593 649 633 608 634 624 485 617 649 
649 617 636 625 695 612 677 611 651 
678 614 677 614 611 677 678 615 614 
615 635 610 610 635 609 625 619 714 
601 599 700 656 626 679 626 601 679 
639 621 628 628 640 639 477 726 638 
621 639 641 449 641 643 603 768 642 
604 643 730 604 730 644 662 622 629 
670 645 563 563 663 646 563 645 663 
623 646 647 691 592 687 632 648 631 
637 612 712 652 634 623 636 653 649 
667 650 569 636 652 653 615 678 654 
655 615 654 635 615 655 652 624 634 
636 624 652 636 617 624 695 625 714 
619 656 714 628 477 638 640 628 638 
640 657 639 639 659 641 706 562 622 
660 622 661 622 662 661 686 733 592 
733 687 592 631 665 664 630 631 664 
646 666 647 631 648 668 647 652 623 
652 647 666 666 649 653 678 668 654 
668 648 654 648 655 654 632 635 648 
653 652 666 712 612 695 648 635 655 
669 714 656 700 679 601 639 657 658 
638 726 640 658 659 639 793 477 642 
660 671 622 660 661 671 661 662 684 
629 684 662 630 688 629 664 688 630 
663 672 646 664 665 673 665 674 673 
672 675 646 646 675 666 693 633 676 
694 569 691 667 569 694 631 668 665 
665 668 674 633 649 676 666 653 675 
649 666 675 676 649 675 650 667 700 
674 668 678 669 701 714 702 679 700 
701 656 679 669 656 701 658 657 680 
657 681 680 640 681 657 640 726 681 
680 659 658 793 741 477 682 793 642 
641 728 643 682 642 760 643 728 729 
562 731 768 706 731 562 706 622 717 
671 683 622 683 671 661 645 719 663 
688 708 684 629 688 684 663 719 685 
664 689 688 663 690 672 663 685 690 
693 754 686 673 692 689 664 673 689 
633 693 686 672 697 675 690 693 697 
693 676 697 677 651 696 677 696 698 
677 696 678 696 699 678 692 678 699 
673 678 692 673 674 678 676 675 697 
705 659 680 705 641 659 643 729 730 
730 670 644 683 707 622 683 718 707 
661 684 718 661 718 683 733 686 709 
750 687 733 693 711 754 691 773 694 
689 692 688 688 692 699 694 723 667 
713 699 696 697 672 690 700 715 702 
715 716 702 679 715 701 681 704 680 
681 703 704 703 681 726 680 704 705 
642 850 760 768 761 642 707 763 717 
622 707 717 719 720 685 691 687 750 
688 710 708 721 685 720 754 711 720 
695 775 712 712 776 637 776 651 637 
651 738 696 738 722 696 688 699 713 
710 688 713 685 721 690 720 711 721 
711 690 721 711 693 690 667 723 700 
715 700 723 715 679 702 724 704 703 
703 725 724 703 726 725 724 727 704 
704 727 705 705 727 641 706 732 731 
717 732 706 670 762 645 733 709 749 
734 735 718 684 734 718 684 708 734 
719 752 720 737 720 752 736 686 754 
710 722 734 710 734 708 754 720 737 
773 791 723 710 713 722 773 723 694 
713 696 722 723 756 715 778 714 715 
714 701 715 724 739 727 766 739 724 
725 766 724 740 766 725 726 740 725 
727 742 641 730 743 729 729 743 730 
817 761 768 732 744 731 707 718 763 
762 745 746 762 746 645 645 746 719 
747 763 718 747 718 748 719 746 752 
686 749 709 735 751 718 749 686 736 
734 751 735 754 753 736 749 736 753 
752 753 737 753 754 737 776 777 651 
651 755 738 777 755 651 738 751 722 
755 751 738 734 722 751 778 715 756 
739 742 727 742 739 757 757 739 766 
726 741 740 742 816 641 641 816 728 
763 785 732 717 763 732 745 762 764 
746 745 752 751 748 718 714 774 695 
775 695 774 776 712 775 751 755 777 
765 723 791 756 723 765 757 766 758 
742 757 758 740 767 766 741 759 767 
741 767 740 741 793 759 758 816 742 
682 760 793 729 783 743 728 783 729 
744 768 731 732 785 744 784 762 670 
747 769 763 733 749 786 747 748 769 
770 764 749 771 769 748 771 748 772 
753 752 745 770 764 753 749 753 770 
751 772 748 777 772 751 756 765 779 
804 778 756 766 780 758 781 780 766 
806 767 759 758 780 781 759 782 806 
793 782 759 761 850 642 743 670 730 
743 783 670 764 762 784 787 764 784 
786 749 795 733 786 750 769 790 763 
790 785 763 764 787 749 786 825 750 
764 770 745 691 750 825 691 825 773 
774 814 775 775 814 788 788 789 775 
814 789 788 788 790 776 789 790 788 
776 790 769 771 772 769 745 770 753 
776 775 788 769 777 776 772 777 769 
778 813 714 765 804 756 781 792 758 
766 792 781 767 792 766 806 792 767 
758 805 816 782 793 807 670 808 784 
785 794 744 784 796 787 749 787 797 
773 825 791 714 813 774 792 805 758 
782 807 806 817 768 798 808 810 784 
784 810 799 744 794 800 785 802 794 
785 790 802 799 796 784 796 797 787 
796 799 797 799 801 797 749 797 801 
795 749 801 802 790 803 803 789 814 
790 789 803 791 804 765 778 804 827 
813 778 827 792 806 805 760 850 793 
808 809 810 744 820 768 795 840 786 
744 800 811 812 799 810 812 801 799 
812 795 801 800 794 811 814 811 803 
802 803 794 794 803 811 806 815 805 
816 805 815 816 836 728 761 817 850 
798 768 838 670 818 808 808 819 809 
809 812 810 795 821 822 744 823 820 
744 811 823 821 795 824 824 795 812 
843 826 814 826 811 814 814 774 843 
791 845 804 793 834 807 793 847 834 
728 836 888 888 783 728 670 828 818 
818 819 808 822 829 795 819 824 812 
809 819 812 824 822 821 824 819 822 
823 826 820 823 811 826 811 830 826 
859 827 804 774 813 843 815 806 832 
831 815 832 807 834 806 806 834 832 
831 833 815 815 833 816 816 833 835 
816 835 836 899 850 861 783 849 670 
670 849 828 798 838 864 798 864 817 
828 837 818 819 818 839 818 837 839 
820 841 838 820 838 768 819 839 829 
822 819 829 786 880 825 826 842 820 
842 841 820 791 825 883 826 843 842 
827 859 858 813 827 858 844 813 858 
859 804 845 831 846 833 831 832 846 
835 846 836 835 833 846 836 848 835 
846 848 836 793 873 847 836 848 888 
899 793 850 899 861 895 863 828 849 
863 851 828 837 851 852 851 837 828 
852 829 837 829 839 837 852 856 829 
795 829 853 829 856 853 854 795 853 
840 795 854 855 840 854 840 854 786 
841 857 838 843 857 841 844 868 813 
868 843 813 842 843 841 847 832 834 
832 860 846 864 870 817 870 850 817 
856 852 851 853 856 851 880 786 854 
858 866 844 867 868 844 843 868 857 
859 897 858 845 897 859 791 883 845 
860 869 846 846 869 848 783 862 849 
875 783 888 862 783 875 862 863 849 
871 851 863 865 851 871 853 851 865 
854 853 865 890 854 865 872 868 864 
838 872 864 838 857 872 872 857 868 
866 858 867 858 896 867 844 866 867 
860 832 886 886 832 847 848 869 888 
873 930 887 873 887 847 793 899 873 
861 874 895 874 861 889 889 861 850 
875 876 877 875 877 862 862 877 863 
876 863 877 876 865 863 865 871 863 
878 879 870 864 878 870 854 890 880 
864 868 878 905 825 880 868 881 878 
882 881 868 905 883 825 867 896 882 
868 867 882 897 896 858 845 883 897 
869 860 884 860 885 884 860 886 885 
869 884 888 850 870 889 865 876 890 
880 890 902 902 903 880 903 912 880 
878 891 879 896 892 882 905 914 883 
884 885 886 887 886 847 886 893 884 
889 895 874 888 890 876 875 888 876 
870 904 889 870 879 891 878 881 891 
891 882 892 891 881 882 887 893 886 
898 888 884 898 925 888 895 900 894 
895 894 899 895 889 908 900 895 908 
901 890 888 890 901 909 902 890 909 
880 912 905 891 904 870 906 891 892 
906 892 896 914 916 883 883 915 897 
916 915 883 896 897 915 907 884 893 
930 907 887 884 918 898 898 918 925 
899 930 873 894 933 899 909 910 902 
902 910 911 889 904 908 913 904 906 
904 891 906 893 887 907 884 907 917 
901 888 919 909 901 919 903 902 910 
904 935 908 905 950 942 905 942 914 
913 915 921 896 915 913 906 896 913 
917 922 884 922 917 918 922 918 884 
888 925 919 894 900 908 923 909 919 
910 909 923 934 910 923 903 910 934 
903 927 912 905 912 948 904 921 935 
904 913 921 920 921 915 920 916 914 
915 916 920 918 917 924 924 925 918 
926 919 925 926 923 919 926 934 923 
948 950 905 928 921 920 928 920 929 
917 931 924 894 945 933 903 934 966 
948 912 927 928 936 921 914 929 920 
914 928 929 936 928 929 917 907 930 
924 931 925 930 899 954 925 932 926 
926 932 934 894 908 945 903 939 927 
927 939 940 940 948 927 941 949 908 
935 941 908 921 936 935 936 941 935 
936 928 942 942 928 914 930 951 917 
931 944 925 925 944 932 944 938 932 
899 933 937 945 937 933 932 938 934 
946 934 938 946 947 934 966 934 947 
903 966 939 945 908 974 908 949 974 
939 948 940 943 949 941 943 941 936 
936 942 943 954 951 930 917 952 953 
931 917 953 951 952 917 931 953 944 
899 955 982 937 955 899 955 937 945 
938 956 947 938 947 946 957 955 945 
974 957 945 939 958 948 949 959 974 
948 960 950 948 958 960 961 950 960 
943 959 949 950 961 962 942 950 962 
952 963 953 951 963 952 899 982 954 
944 953 938 938 953 956 956 983 966 
966 947 956 955 957 965 939 966 958 
974 959 968 961 960 962 960 968 962 
968 959 962 969 962 959 959 943 969 
962 969 942 943 942 969 951 978 963 
964 978 951 954 964 951 964 954 982 
963 970 953 970 956 953 955 971 982 
983 956 970 955 972 971 955 965 972 
965 957 972 966 973 958 958 973 967 
975 972 974 972 957 974 960 958 975 
958 967 975 975 976 960 974 968 977 
968 960 977 960 976 977 968 962 977 
964 979 978 978 980 963 963 981 970 
964 982 979 983 970 981 983 984 966 
985 982 971 986 982 985 966 984 987 
985 971 972 966 986 973 966 987 986 
988 985 975 972 975 985 988 975 967 
974 977 975 975 977 976 981 963 980 
978 983 980 983 981 980 967 973 986 
985 988 986 988 967 986 983 978 984 
984 978 979 979 982 984 984 982 987 
986 987 982 
