# vtk DataFile Version 5.1
vtk output
ASCII
DATASET POLYDATA
POINTS 1427 float
48.821 85.768 1.24634 48.6314 87.4305 0.829961 51.8159 88.3992 1.11569 
50.9735 85.9508 1.79933 53.5847 89.2923 1.60379 52.439 91.6715 1.09473 
53.54 91.426 1.46114 45.908 85.0634 1.71463 47.4445 87.8544 1.3579 
54.191 91.6835 2.39957 42.9834 82.7363 2.95905 46.091 83.1986 2.4867 
40.9091 84.2451 3.49221 43.3644 84.8912 2.5419 48.5011 82.6281 3.49753 
51.8863 85.5749 2.69041 53.8169 89.2384 1.91644 52.1646 93.3844 2.23035 
53.7121 93.8268 3.19885 40.606 82.4215 3.54063 38.939 82.452 4.22886 
40.3001 85.4727 4.17658 53.9758 85.5305 4.7724 42.9986 89.1702 4.3283 
54.823 88.3666 4.3406 54.656 91.5633 3.42434 45.7019 91.4236 4.28527 
46.9711 93.7681 4.84081 48.6955 94.5264 4.37232 54.0787 94.1736 3.84852 
45.3625 91.9398 5.80991 37.8219 80.5553 5.69661 36.3915 80.7721 5.96095 
36.2888 81.9023 5.97535 54.7268 85.3756 5.90913 43.7706 90.7175 5.82051 
54.4642 94.4964 5.00308 46.6801 94.793 6.03085 35.5629 85.0414 7.87773 
37.9287 89.0556 7.3016 39.9284 90.9158 7.36788 43.8823 91.0627 7.2456 
45.2957 92.2405 7.40888 46.3171 96.004 7.71153 36.986 78.349 7.56057 
36.9864 89.5461 8.80627 38.3362 91.1475 8.77703 47.9566 97.8864 8.40416 
56.2826 83.2013 9.81244 46.8913 96.7152 9.13913 48.9993 100.071 8.98034 
51.2711 101.111 9.042 31.8343 78.931 9.89036 34.6983 86.499 9.71539 
35.6028 88.2445 10.5774 37.9889 91.2817 10.099 43.9406 91.0397 10.4401 
45.8389 95.2184 10.5236 53.6043 100.673 10.3407 48.5979 101.046 10.1241 
51.6877 101.527 9.4661 29.6186 78.7314 11.7807 31.7575 85.7502 12.2068 
57.3019 84.8785 11.3924 45.9234 95.225 10.6736 46.58 95.5348 12.0516 
42.9495 97.754 10.4776 47.7918 101.276 12.3208 54.0777 101.646 12.3 
49.2378 103.032 11.7587 34.6503 75.0029 11.1614 37.8488 90.7763 11.2299 
44.0701 90.8103 11.6782 45.0698 91.4611 13.4633 41.6949 97.7618 11.138 
47.6537 101.762 13.7689 53.2542 102.758 11.9219 51.652 105.099 13.6322 
35.0642 70.0231 13.412 28.8649 76.1298 12.4941 27.4887 75.6055 13.4938 
29.9713 85.3757 13.6394 57.6899 85.1861 12.7964 45.0608 91.527 13.9902 
46.0857 94.938 11.0651 43.8156 94.2439 13.2875 41.7164 95.6628 13.4412 
40.0653 98.2325 12.8399 46.6787 95.5493 13.0683 44.3064 98.9765 12.8634 
42.5559 99.4399 13.6581 54.1834 101.934 13.5227 48.651 103.96 13.8655 
53.0993 103.784 13.4029 54.4848 70.1375 14.8284 27.0799 74.0867 13.9634 
27.3474 74.2752 13.8848 26.6681 75.7448 14.2508 58.2856 79.0963 14.5662 
29.5247 86.093 14.634 44.3985 90.1391 14.9126 45.0022 91.7533 14.7495 
55.9376 93.9956 14.7326 41.3691 95.8067 14.4563 46.8927 94.7081 14.0276 
44.9024 98.3726 13.9682 47.4701 97.267 13.7007 54.8151 97.0802 14.7947 
43.9254 98.904 14.577 41.2257 99.3224 13.8377 41.4506 99.684 14.5502 
42.2616 99.4812 14.5232 48.2836 102.828 14.988 53.8653 101.312 14.7371 
48.447 103.873 14.9299 53.5554 102.69 14.5772 51.3069 105.25 14.8097 
27.9392 71.2539 14.916 58.584 79.722 14.7765 44.8851 91.1206 17.1028 
45.0925 90.9974 17.2791 42.7511 94.6023 16.1532 40.272 98.5024 14.3582 
48.1866 97.1934 14.871 35.0482 66.0222 15.7569 24.4783 72.9334 16.5833 
59.4123 79.3888 15.8772 26.7454 82.2393 16.1527 27.2162 85.4596 16.9395 
47.0475 94.6193 15.6642 53.5207 96.8827 15.5636 43.4213 97.5854 17.3808 
51.7804 101.092 15.6316 52.6864 101.43 15.3691 50.6199 102.998 15.4673 
27.2705 85.8489 17.2339 28.0198 86.572 17.8331 35.2716 87.5712 17.3126 
44.9721 91.0552 17.6742 45.3584 90.8613 17.9606 43.2353 95.0184 17.3182 
48.3438 94.1285 17.0014 43.9107 96.6427 17.8957 45.2731 96.5751 17.5847 
40.521 87.2306 18.8048 57.8242 88.8991 19.2223 45.9877 91.8332 19.8993 
56.8022 92.3882 18.9245 23.3389 69.5875 18.9753 26.2976 85.8347 18.9714 
44.1646 89.4079 19.0831 32.056 88.2259 19.1628 44.2197 94.8259 18.3543 
45.5858 94.5221 19.0647 55.2669 92.741 19.3284 40.4008 60.0309 19.8181 
62.2899 76.181 20.334 24.2724 85.1636 21.0329 28.5094 86.8415 20.6649 
30.4062 88.1721 20.3433 43.3152 87.4161 21.2039 57.3724 89.0009 20.8613 
46.4794 90.8822 20.3441 56.6422 91.5136 19.8283 47.9669 91.827 20.1906 
51.5757 91.6889 20.2439 59.1084 85.7103 22.2789 26.471 86.361 21.6883 
34.5848 89.1796 20.8068 27.4264 89.6904 21.1693 57.2399 88.1812 21.8467 
35.1808 88.736 21.8509 48.0308 88.5445 21.9239 27.7668 90.1009 21.0617 
28.9024 90.3442 21.001 32.1464 90.2756 21.0562 32.1457 90.2677 21.4423 
23.2778 85.6978 22.9682 31.164 87.6458 21.7536 32.3436 88.2403 22.281 
27.5008 89.725 21.3619 27.7511 90.0205 21.2351 29.5568 90.2745 21.3677 
40.6927 57.0749 23.1419 57.2124 60.4949 23.1456 20.7191 79.2995 23.7354 
21.9545 84.7367 23.9634 23.4663 85.9027 23.2751 59.166 85.7472 23.4048 
32.3692 87.1396 23.1896 37.268 87.0446 23.3634 46.0597 87.2476 23.2562 
57.2935 87.2563 23.31 64.7782 70.0798 24.612 48.8234 86.7168 24.7123 
57.5206 86.7705 24.6746 18.1817 66.5672 25.1217 43.2175 86.4822 24.9743 
65.4028 64.295 26.6989 19.0212 64.6193 25.906 17.5044 66.8562 25.7311 
65.629 66.8899 26.2043 59.873 85.72 26.3349 40.534 86.4416 26.2996 
57.4055 86.6317 26.1174 21.6713 61.4811 27.1722 66.2401 64.1069 27.6002 
66.4077 67.059 27.4361 17.4032 75.3401 27.2492 16.2691 78.9429 27.5081 
61.805 82.7034 27.5794 19.1925 85.1207 27.6246 60.2262 85.7937 27.6132 
15.6848 9.33251 27.9001 13.759 9.3088 28.2899 17.0902 11.0023 27.7095 
12.2402 15.734 27.8298 15.2842 14.2598 27.4648 12.7304 16.9681 27.8573 
35.1389 54.3003 27.8286 15.7631 79.2156 29.053 18.9409 85.4479 29.0565 
22.3336 86.945 27.8281 13.2208 7.52149 29.1552 18.733 11.1791 28.1925 
21.2715 11.2113 29.0165 10.9971 14.8041 28.9001 11.7443 16.9749 28.3674 
10.8227 17.7424 29.2078 15.7264 63.6125 28.6906 66.2218 70.0407 28.8967 
21.4674 86.7047 28.8055 15.7285 2.40868 30.3344 18.4374 1.63208 30.6494 
12.8593 5.37637 30.5972 11.2452 22.3944 29.5633 9.49702 24.3618 30.3118 
18.4586 33.3757 29.4223 21.1986 33.2518 29.3687 26.6704 33.2707 29.3956 
15.6925 34.8556 30.7159 18.4373 35.0989 30.4494 18.427 34.5608 29.9546 
21.1519 34.5237 29.8982 21.1684 35.1314 30.4603 29.9634 35.379 29.6181 
31.9028 36.1056 29.614 35.1024 36.0999 30.1718 26.9396 35.131 30.7043 
37.6684 51.8239 30.8541 57.1184 53.7591 30.5884 27.3012 54.6758 30.8896 
14.8758 63.9808 29.7688 14.8015 66.707 30.5068 16.2455 81.5172 30.606 
17.1658 83.1015 30.2764 20.46 86.5681 30.5448 60.3893 86.2946 30.4999 
15.9333 0.957069 32.0631 20.0658 1.94899 30.9231 20.1385 1.09255 31.3861 
13.9886 3.12309 30.9214 21.1754 5.35832 30.6496 9.40683 33.6364 30.6335 
12.6479 33.6679 30.3241 8.54029 34.7581 31.915 10.1993 34.5635 30.9589 
9.99661 35.1985 31.7363 29.7723 38.8049 31.9074 30.5803 42.1313 31.1321 
30.1381 42.2678 31.7703 31.8676 41.9963 30.4768 32.186 45.1035 31.3504 
18.7915 85.4819 31.6696 18.9639 0.750526 31.9982 13.6414 2.40612 32.1382 
23.7973 2.03634 32.3567 26.7267 5.24773 32.0153 29.397 5.35328 32.4943 
29.524 8.28457 31.8537 34.9804 11.4485 32.176 9.49951 14.5614 32.3559 
9.17279 17.1458 31.7626 7.97927 27.1151 31.9947 7.6656 33.4726 31.7031 
12.8902 35.3727 32.0261 31.7076 45.7581 31.6176 25.3696 48.0579 32.0314 
30.2433 47.0417 32.023 24.5762 48.2612 32.3684 46.1835 50.8986 32.2994 
18.5623 57.9941 31.7312 68.6529 59.799 32.4237 15.5689 79.2732 32.1269 
62.0318 85.3541 32.777 15.661 0.737669 33.4003 21.3594 0.948211 33.4745 
24.1623 1.35867 33.2471 26.9607 2.99914 32.6045 29.15 2.05264 33.512 
40.7124 14.3129 32.9872 6.64173 33.6634 33.3209 7.9051 35.0973 33.6597 
45.958 36.0045 32.5745 48.8919 36.1039 33.1436 46.2236 36.1612 32.6534 
30.087 45.5855 33.3582 25.7288 47.1955 33.2442 24.5041 47.8967 32.8021 
23.8019 51.6783 32.6593 22.629 51.2381 33.179 26.309 51.8899 32.2885 
48.7631 50.3973 33.777 11.9591 56.6927 33.8302 15.3812 57.8603 32.34 
69.1712 57.3738 34.7491 14.0842 60.845 32.6503 13.2663 60.5722 33.7584 
18.7595 85.166 33.6801 62.0581 85.486 33.4316 20.6143 86.8369 33.7332 
40.7579 86.7725 33.6114 51.5833 86.331 33.3184 60.129 86.3661 33.4149 
26.6832 86.9601 33.4385 36.3939 2.26537 35.0929 35.1191 5.27968 33.754 
9.48051 11.6929 35.3248 6.89173 35.0481 35.292 43.3604 48.6941 33.4471 
18.2794 52.4261 34.7984 18.6384 84.5026 35.8629 36.335 2.41086 34.9502 
35.1515 4.00228 34.0401 5.85378 33.3743 34.6112 5.99926 33.8826 34.7249 
12.8925 35.6987 34.9939 54.295 45.2215 35.362 49.569 48.8409 35.1558 
24.2897 47.8649 34.1098 49.1142 50.0236 34.3096 53.8987 50.7132 35.0666 
67.5717 55.5485 35.7623 68.936 57.4291 34.5442 70.187 58.0968 35.6147 
12.6317 60.7645 34.8587 20.8641 86.185 34.7684 37.8038 86.4719 34.6118 
43.3663 85.9302 34.7961 57.1146 85.9833 34.7067 60.4239 85.918 34.8609 
35.7472 1.94814 36.3947 37.3706 2.41262 36.2177 40.5426 4.253 36.1619 
6.76608 17.3119 36.2072 51.482 48.8145 35.4392 54.1457 48.6699 35.9123 
54.4721 45.455 35.4947 54.4112 48.4902 35.9241 59.9708 51.5199 36.4902 
63.4621 52.1068 37.1568 65.6812 53.8684 36.6202 9.33951 55.3321 36.218 
8.16976 55.5751 36.7493 8.18986 56.4099 36.777 70.5805 57.4691 36.489 
70.1978 63.3403 36.6435 15.8356 79.2231 36.4373 26.7202 84.7809 36.6414 
35.0081 84.7807 36.6427 65.0373 42.5562 36.9721 62.4406 49.279 37.2278 
54.6774 50.0605 35.6912 7.80273 56.8221 37.5895 18.1457 83.4253 38.2254 
49.0339 7.79824 37.9853 50.4034 8.53531 38.1154 59.9752 20.4441 37.5901 
4.53284 33.5101 37.8031 28.9519 36.3024 37.9154 63.0816 50.8602 37.4006 
65.3614 51.7864 37.8713 66.3185 53.4057 37.4534 70.3872 54.783 38.4644 
29.4771 84.0046 37.9456 32.2445 84.0056 37.9491 37.7801 84.0587 37.9129 
10.8647 4.84281 39.5723 47.6741 6.26725 39.3368 51.6943 8.26828 39.221 
53.6659 9.39104 39.7127 53.3443 9.91959 38.883 55.9333 10.9269 39.2893 
62.6644 17.693 39.3813 4.78359 23.6874 39.3871 65.565 26.7215 38.9219 
65.7596 29.6548 38.3106 68.1728 30.1415 39.0312 3.91068 33.8607 39.5105 
70.2939 45.7488 38.2757 73.6666 48.5013 39.528 15.6416 53.9614 39.4613 
7.39091 55.2574 38.3861 7.5298 56.5553 37.7135 46.1829 5.58316 40.2644 
54.1942 9.19393 40.8989 56.9932 10.3683 40.5684 59.393 12.0764 40.8181 
65.5065 17.3581 40.8947 71.187 29.726 40.2184 71.0121 32.7909 39.5824 
71.4367 32.7564 39.6366 73.7965 32.9244 40.6416 74.4223 39.2479 40.3547 
74.2775 48.7912 39.8702 7.47774 54.8931 40.5246 64.8525 81.8743 40.9325 
16.3188 81.9177 40.8799 11.5488 3.96195 40.6716 64.5985 15.5961 41.2844 
63.3967 17.2436 39.7705 4.35853 35.3306 42.1798 76.173 48.323 41.1448 
76.0302 51.2937 41.8595 72.5431 56.2542 40.8658 14.092 72.7718 41.024 
43.2953 83.0204 41.1521 18.4072 3.05286 42.1206 12.7316 3.40929 42.1171 
10.6841 4.7599 41.9514 61.8311 12.9081 42.3396 65.2809 15.191 42.4171 
67.7922 17.9221 42.146 5.33547 20.9146 42.3697 76.8641 35.6113 41.953 
7.13584 35.681 42.1867 77.2441 45.6518 41.7535 6.95473 54.0351 42.4652 
15.3769 53.3967 41.8588 7.40978 57.3878 42.2336 64.8038 81.8838 42.0946 
46.0536 82.4867 42.366 63.2353 82.4813 42.5317 54.0397 9.03225 43.6455 
70.9017 20.306 43.6524 76.3621 26.0665 43.9962 75.8979 27.1171 43.3088 
2.70259 33.8093 43.6965 2.96891 33.8173 42.3212 4.26653 35.4497 43.7732 
9.41553 52.5484 43.582 5.74349 53.5154 44.0416 69.3766 70.3188 43.2679 
15.7591 81.4542 45.4521 5.99975 18.041 44.0035 70.9946 19.7391 45.1257 
74.7104 23.0459 44.8794 3.17479 30.1367 43.9599 82.4091 42.6981 44.6378 
4.51617 52.2207 45.4832 4.99115 53.6363 44.9931 5.94664 52.6267 44.4047 
7.14928 52.6444 43.92 16.1279 81.7168 44.9745 5.71138 17.9395 45.4027 
4.81988 20.7266 45.2015 78.2573 27.4345 45.2006 2.52485 33.2617 45.26 
14.8696 79.7507 45.3431 65.9562 79.6943 45.4231 41.5374 80.2928 45.7904 
17.9426 82.1789 45.0922 37.8972 81.9942 45.0837 9.92337 4.86111 46.045 
69.8712 18.8494 46.2699 82.4491 32.394 46.3332 4.06011 35.4807 46.5041 
85.6804 38.8211 46.9334 84.4159 42.2159 46.2144 4.57268 52.2318 45.5955 
21.3045 51.053 46.9926 13.7403 76.3212 47.1556 15.0087 79.8709 46.7806 
65.6034 79.3504 46.4508 16.295 81.2318 46.2112 37.9164 81.1866 46.6338 
86.858 38.9875 47.9255 74.0372 60.4624 48.0321 11.7669 64.8582 46.3251 
69.2116 76.746 48.1389 15.1792 79.6636 48.1149 39.9646 81.0494 45.7858 
87.262 36.4274 48.086 85.1804 42.4677 47.7148 21.4895 50.7588 47.9986 
4.42543 51.7655 47.6679 10.1438 50.8679 47.9366 13.6994 76.5342 48.7475 
86.9948 33.8487 49.5171 2.544 35.1241 49.5688 89.5564 35.9724 49.9037 
23.7304 48.33 50.0925 3.72948 50.6513 49.5 4.72011 54.0381 49.3033 
70.4459 75.5908 49.9192 69.3021 76.8899 49.9001 9.78314 4.94791 50.9262 
91.3932 36.4348 52.0095 90.0292 38.4492 50.8837 3.57913 48.342 51.652 
2.78993 50.752 51.1542 14.759 77.3413 51.0475 16.2608 77.9548 50.639 
38.093 77.8713 50.9183 2.86519 49.3281 51.345 21.5179 48.8077 51.113 
70.8961 75.2156 51.6241 43.5201 76.5315 51.0184 68.8163 76.2784 51.2566 
15.4951 4.05585 52.5185 8.17062 6.11293 52.4678 6.7235 7.90549 52.3179 
88.3079 34.6472 52.0904 91.6486 36.1551 52.5597 94.187 37.127 54.562 
90.9289 38.9614 52.2466 30.2619 43.329 52.3884 3.94846 47.752 52.4501 
7.38131 47.7982 52.4112 2.42326 50.6968 52.2882 71.8918 74.2103 52.2941 
42.9261 76.1771 52.221 45.6255 75.2723 52.5393 57.1089 75.2785 52.3789 
68.6317 75.5073 52.4368 70.4331 75.3351 52.2441 15.2212 77.4635 52.0785 
18.1292 3.63479 52.5698 18.6551 3.64364 53.7698 35.205 4.11395 53.9781 
84.679 33.8234 53.6408 27.2449 35.4573 53.8832 90.6492 35.8944 54.0707 
92.8713 38.0424 53.887 26.3746 46.8054 53.7841 27.4036 46.6673 53.829 
84.9356 48.504 53.7654 85.8003 47.1257 54.0582 1.92433 48.4957 52.4647 
21.1397 47.3864 53.5398 73.9531 73.4251 54.632 71.0801 74.8646 53.5455 
0.604873 33.5884 54.0272 87.8466 42.5291 53.9423 89.3508 40.7896 54.2513 
77.5112 60.859 53.7997 71.7237 74.5858 53.5443 6.31367 7.83838 55.6492 
0.691459 30.5735 55.3717 27.3769 35.5506 55.3015 28.9718 36.5099 55.724 
91.3093 36.7993 54.9897 91.4118 38.3211 55.077 87.5766 42.4901 55.1851 
29.9648 45.5348 55.9261 86.3036 45.4732 55.114 0.977639 47.3092 56.0836 
3.00211 46.6569 55.6348 4.28912 46.5388 55.4023 1.88018 50.9403 55.4877 
81.9786 54.7295 55.2975 79.7148 57.7173 55.317 78.2395 60.2352 55.4021 
74.0131 73.8568 55.3577 48.8377 74.4216 55.3466 68.055 74.5629 55.4369 
26.6648 3.39672 56.7437 12.8325 4.68341 56.8444 18.3728 4.00375 56.9055 
9.18784 5.7683 57.1922 6.42904 7.68136 57.1979 5.85314 8.71737 57.0649 
4.10275 15.0305 57.0261 0.586202 29.5264 56.9161 85.2404 35.3555 57.1105 
1.73405 35.2847 57.4389 4.40302 35.7814 56.6208 27.264 35.5221 56.7509 
0.708537 47.6106 56.6343 2.14568 46.5235 57.138 4.30654 46.3255 56.749 
27.4711 46.5251 56.6233 77.9338 60.3942 56.5503 78.286 63.403 56.843 
76.3174 69.6005 56.9571 14.8854 77.3776 56.76 8.05281 6.63014 58.02 
2.9718 20.1624 58.1978 0.826889 34.2498 58.5148 28.9377 36.3004 57.0527 
1.90836 46.7266 58.0282 84.1838 48.0449 56.8182 81.5062 54.732 56.8107 
78.1713 65.5807 56.8815 18.7904 4.49948 58.2813 20.9429 4.00868 58.4102 
23.9711 3.58772 57.8896 29.6078 3.99868 58.3898 15.6247 4.89944 58.3819 
34.9105 4.60683 58.687 9.86505 6.02857 58.2645 6.80248 7.7786 58.5094 
4.26276 14.7259 58.3535 1.44856 27.0856 58.3688 0.875614 28.4042 58.2043 
1.23391 34.9036 58.6961 84.8162 36.0581 58.3244 4.63524 35.3494 58.1825 
7.35367 35.274 58.2881 23.9195 35.2138 58.2784 29.3272 35.9826 58.5388 
84.8982 38.4453 58.488 30.4451 42.3284 58.7325 30.4796 45.7066 58.3125 
0.963342 47.2954 58.4666 27.452 46.7532 57.6947 82.3989 48.5244 58.1395 
81.4145 52.3105 58.0051 77.4371 58.5937 57.8181 77.1577 60.8841 57.7165 
78.4722 64.9356 58.683 78.27 66.62 58.3163 77.7836 67.5196 58.308 
74.4571 73.8039 57.5635 72.8632 74.6138 57.9797 32.297 5.06754 60.2462 
34.9591 4.89019 59.9107 9.37539 6.65068 58.6937 3.43634 19.5322 58.7092 
82.007 33.5116 60.0121 82.5747 38.8955 59.8151 31.2215 45.3456 59.1659 
10.1361 47.1247 58.6963 18.4193 46.9254 58.4477 27.4352 47.2758 58.622 
2.80098 51.5758 59.3969 3.48732 54.9526 60.6317 4.4114 57.0271 60.1722 
75.3168 60.6254 59.0348 77.321 64.3473 59.9763 78.0448 65.8004 59.3994 
77.4761 66.9981 59.9205 75.3459 72.2758 59.4714 23.9435 5.00357 59.3836 
26.742 5.09118 59.4226 10.5725 6.73418 58.9852 34.5947 5.38019 61.2003 
7.7721 8.56669 59.3033 9.60424 8.24223 59.5642 29.753 11.4176 59.7869 
5.17387 15.4581 59.3305 4.01418 23.5985 59.556 2.95564 24.3393 59.2082 
29.7384 23.7407 59.7596 27.2577 26.7729 59.4434 1.68347 33.8482 59.267 
3.95559 33.6159 59.6344 7.33942 33.6599 59.6458 21.1829 33.3202 59.6096 
23.9568 33.7149 59.5255 27.2547 33.71 59.5338 29.5918 33.7196 59.9794 
4.56327 34.54 59.1064 7.38682 34.5033 59.1169 23.9184 34.5208 59.0656 
83.0217 35.6406 60.1899 31.9127 35.5763 61.124 31.4743 39.3999 59.5279 
33.9359 39.9216 60.966 31.168 42.5162 60.058 31.3328 42.9912 61.3015 
31.6296 45.518 59.2715 1.8586 47.7201 59.0254 3.21249 47.9473 59.3957 
12.8956 48.0117 59.3386 29.5162 47.8786 59.7178 79.2358 48.3812 59.716 
29.793 51.8621 60.6008 3.25139 53.6809 59.8254 3.59679 54.059 61.2123 
4.29715 57.1202 61.2651 74.4306 60.4484 59.6295 70.9065 75.0608 59.5284 
13.8703 75.8436 61.8832 15.3424 77.349 61.2187 37.2986 5.66328 61.3363 
32.2592 7.67163 60.92 31.2734 11.492 60.2574 32.5973 29.8329 60.9062 
81.5647 35.4733 61.5943 76.5552 42.3059 61.3557 30.9102 47.7768 61.5539 
4.87367 52.4715 60.6137 18.4191 52.4582 60.5618 6.89893 53.4015 61.342 
27.2962 53.6777 61.1278 29.2213 53.494 61.2112 75.7062 67.0707 61.2758 
12.7666 70.0425 61.3386 71.4409 74.9521 61.0916 72.8154 75.095 60.6456 
35.7144 6.35633 63.0537 34.2237 7.85072 62.5091 34.2706 11.4251 62.4577 
33.7928 14.5418 61.7423 33.8019 26.7755 61.7197 34.2813 29.62 62.5065 
33.1972 33.8721 62.3807 79.8336 32.9983 62.6667 35.1307 39.6478 62.5049 
34.1007 41.0595 61.4843 31.5954 43.0524 62.8212 34.9034 41.6527 62.6985 
31.9624 45.3642 60.3963 33.5076 45.2781 60.9661 31.4561 47.3282 62.9525 
31.5923 52.1187 61.8694 32.2318 51.6717 62.4902 31.7464 53.5163 62.6964 
4.40629 55.4305 62.4584 6.81479 55.2221 62.7912 15.6791 55.2696 62.6586 
4.65553 57.242 62.7167 8.19139 63.1145 62.6363 73.9265 73.6589 63.1862 
13.91 75.6904 62.1865 71.5549 74.7395 62.3677 41.362 75.9204 62.2199 
37.4226 77.2467 63.0363 33.5279 45.2841 62.3987 31.7835 45.2896 61.8769 
31.949 47.1906 64.0417 5.8905 59.3162 62.4222 72.0216 74.5255 63.1319 
15.4091 76.7639 65.502 35.1389 7.58952 63.7604 37.1835 6.33794 64.0461 
35.8021 39.6745 63.3934 34.3945 43.0654 64.5897 36.6333 41.267 64.3739 
5.32608 56.8642 62.8404 6.31791 57.1811 63.5088 12.8926 56.3616 63.1658 
27.4355 56.3864 63.1695 10.0671 58.0822 63.697 7.84219 60.398 63.5472 
23.9584 60.1913 64.1674 18.8284 64.0812 63.5589 21.1529 63.5668 64.2056 
20.0033 65.5288 64.5178 14.8367 69.7543 64.1909 73.8783 70.5784 63.8489 
14.1217 72.8154 63.7256 40.6398 74.8891 63.7619 37.3311 76.6907 64.2685 
42.8496 74.5645 64.3471 18.0505 77.6168 64.1501 21.1509 77.6303 64.0466 
29.4454 77.3281 64.3065 37.606 39.9553 65.4223 70.8951 39.1131 65.4154 
37.011 42.7465 66.2222 34.4295 43.0933 66.0434 35.506 45.3812 64.9853 
37.1198 45.2597 66.1266 32.2311 47.168 64.4388 34.134 47.3259 66.4144 
26.6463 60.4928 65.3055 23.5691 62.719 65.4182 20.1292 65.9913 65.2304 
17.9179 68.3721 65.4828 72.5094 72.8161 65.5006 14.8714 72.9436 65.8659 
14.4646 73.3638 64.5811 37.9063 72.8807 65.4819 37.9436 75.8213 64.6277 
39.1469 74.2228 64.6801 41.1068 73.7186 64.8238 51.5658 74.4755 65.462 
68.1415 74.6183 65.446 70.5541 73.9212 67.2555 15.2343 76.4877 65.1186 
44.1297 74.7144 65.1979 17.3797 77.5464 65.4573 22.0201 77.5768 65.7137 
32.8385 77.0405 65.4145 63.0544 20.0594 67.1109 38.4186 40.1109 66.2235 
37.0907 43.0619 67.5804 37.6971 45.3022 66.9937 34.9035 47.5053 67.1067 
35.3419 53.7881 66.5066 35.535 72.7275 66.6466 38.2337 71.8282 66.0491 
41.294 72.1894 66.4629 15.4787 76.2884 66.71 45.1703 74.838 67.0076 
39.264 41.2604 67.0825 35.8693 45.4618 66.0486 31.7608 56.8123 66.8508 
16.0242 70.4043 67.0328 35.4499 70.554 67.1484 68.2966 73.9271 68.6845 
14.9705 72.9337 67.0601 68.0176 74.5505 66.6058 32.8618 75.8389 66.9884 
24.0373 77.0434 66.9813 21.0615 78.0059 67.1381 37.3655 8.08218 69.8514 
39.9862 7.86279 68.5341 36.2491 8.91279 68.3784 35.9776 10.7892 68.2216 
71.3293 27.1024 68.4644 73.1084 29.611 68.0582 36.9608 30.1109 67.7889 
41.6746 42.6344 70.1973 37.2903 43.1126 68.8555 40.3775 45.4657 68.533 
38.1212 45.4606 68.0131 36.6992 53.4335 67.5385 29.5303 63.7032 68.5825 
17.3109 68.5119 68.3882 34.1224 68.9916 68.4091 37.1715 69.3772 68.2379 
14.8087 72.9019 68.7691 67.7113 73.7185 69.1027 24.0039 76.7193 68.3834 
32.4445 73.2983 68.8781 54.3792 74.5828 68.411 66.37 73.9293 70.1131 
44.2742 74.621 68.4101 40.2958 8.6989 69.8244 42.9272 9.36216 69.5282 
45.4557 10.7996 70.0846 37.0553 9.41194 70.0286 48.763 12.4623 69.9812 
37.189 14.5139 70.0405 56.9958 17.7682 70.1218 62.1399 20.8792 69.9279 
64.3169 22.0339 69.3783 65.6622 23.6726 69.9252 71.2545 27.6519 69.0879 
37.3852 27.7033 70.0498 41.0305 39.9196 69.1823 40.1656 42.9097 70.2097 
40.9243 45.0886 69.401 37.8571 44.9793 69.7341 38.5621 51.8609 69.0402 
23.7872 66.5813 69.8114 29.8302 66.67 69.6187 32.2329 69.1691 69.5699 
38.1303 69.0779 69.3995 41.4007 70.1482 70.132 64.9066 70.4428 68.9942 
13.8721 68.7679 70.2468 66.2239 73.4983 69.9223 29.757 72.4377 70.1764 
54.3761 74.6192 69.8561 63.0009 74.4923 69.2495 23.1625 77.8348 69.869 
16.6477 81.6722 69.7712 17.9525 82.8787 69.6616 19.7957 81.6894 69.989 
60.0363 20.4245 70.3538 42.4331 40.3578 70.5087 42.3392 41.4373 70.282 
43.1024 44.8865 71.4859 18.4767 67.828 69.7707 20.4943 67.2213 69.9848 
13.4994 69.1056 70.0986 12.9141 69.2568 70.7797 43.5007 73.6456 70.2823 
15.9497 80.5465 71.4294 21.8199 79.7383 71.4215 38.931 11.4462 70.6682 
40.3265 11.404 70.7846 45.4741 12.5563 70.6557 46.2407 14.1255 70.7432 
51.8253 17.1448 70.7437 40.29 20.64 70.6391 43.2593 20.6457 70.5304 
54.3643 20.6069 70.5956 57.1682 20.5459 70.6413 57.3548 20.3257 70.6897 
43.471 24.3058 70.459 51.5624 24.5388 70.325 57.0514 24.4958 70.3655 
43.5539 27.2077 70.7576 59.8874 26.6361 71.0617 62.6292 26.4341 71.2244 
65.9921 26.2896 71.2527 68.2391 27.4644 71.3999 62.8342 36.1962 71.5792 
42.63 43.0469 71.9043 40.0224 43.09 71.8159 40.975 45.4303 70.8272 
38.7609 47.6876 71.2669 40.4435 53.5553 71.3901 56.5236 60.7855 70.381 
32.5845 64.1112 70.8788 34.7928 66.6119 71.4616 13.5539 69.3465 71.0902 
23.4796 69.9962 71.3758 27.0868 70.179 71.2003 29.6403 70.4359 71.0476 
41.0949 69.3796 71.2635 42.9253 69.9827 71.4505 15.6863 75.962 71.3087 
23.2132 76.224 71.2412 23.0497 78.0193 70.9856 16.2652 81.2518 71.2015 
20.2742 81.2495 71.1264 17.9886 82.2724 71.2963 48.4636 27.5297 72.4888 
57.0905 27.457 72.3376 59.759 27.6584 72.5328 65.2525 27.7307 72.6457 
65.9937 29.281 73.3565 43.044 42.9698 72.9703 43.5217 45.2495 72.5002 
45.7966 44.0309 72.9798 41.9334 45.2976 71.3332 56.5916 48.2134 72.1517 
41.3245 52.1506 71.9575 34.7531 64.2881 72.9579 35.1813 65.9621 72.5759 
43.2224 67.9793 72.873 18.1103 71.0609 72.3729 21.2497 70.9413 72.1135 
54.4283 74.6279 72.8494 56.8415 74.5901 72.2258 57.3769 74.3505 73.3991 
22.5257 77.4974 71.7997 45.799 29.5071 72.6466 59.6267 28.019 73.8081 
43.7 30.9949 72.3662 43.6572 39.017 72.3965 45.1946 43.5152 73.5774 
45.4193 42.9941 74.7687 45.6486 44.9636 74.5536 54.9851 48.5706 73.4733 
51.3903 63.6146 74.0317 43.302 67.5104 72.0895 41.0523 68.4075 73.5573 
16.2172 73.0426 72.2457 21.428 76.0111 72.6728 44.346 74.8753 72.756 
16.4757 79.1451 72.0753 18.0973 80.1648 72.5331 20.5204 78.6392 72.4948 
63.5964 28.1923 73.733 60.7206 28.5585 74.4934 43.9306 45.4004 73.5493 
42.4079 47.8172 75.053 54.2787 48.3575 74.1005 43.2019 52.0484 74.1659 
43.2315 53.5002 74.2888 37.5868 66.5925 74.3465 41.0326 68.0496 74.2661 
57.8657 73.6831 74.5119 55.0979 74.3593 74.6584 47.7074 29.391 74.4321 
61.8777 29.8962 75.1107 46.8479 32.3975 76.4048 45.8058 43.1819 75.8547 
48.4105 43.9508 75.9742 41.9363 47.8223 74.52 43.8214 52.2017 74.7666 
38.1009 64.5858 76.0143 42.9799 64.5014 75.2409 43.3249 66.6432 73.4499 
37.9089 65.9558 75.4816 56.7938 73.3177 75.144 48.6932 74.7141 75.6106 
51.7981 74.455 76.0093 54.7252 73.7032 76.4435 48.2379 42.927 77.7859 
49.1674 44.3937 77.5714 47.8373 45.3654 78.3586 45.0607 53.3189 75.9322 
46.0479 53.8868 77.2791 40.0602 61.9743 75.8733 40.6169 62.8835 76.4715 
43.098 65.0238 75.4732 41.469 65.7459 78.7259 51.4064 27.8282 77.3024 
49.0241 31.9301 77.3874 43.9525 48.2484 76.4842 44.1071 48.0139 76.1458 
44.2323 50.128 76.3571 43.3529 55.4933 77.4108 42.5329 57.4861 77.8061 
47.2052 64.4355 77.8442 41.7487 61.4935 77.091 43.3643 66.098 75.0261 
53.2483 73.6635 77.6625 53.6475 73.5374 77.1854 54.1279 27.3737 78.6937 
57.3906 27.4328 79.0651 59.0523 29.0738 79.322 51.2287 28.9856 78.409 
51.0706 33.2621 78.6722 49.7744 36.584 78.8615 54.2496 35.7365 78.9098 
49.4132 39.2914 78.5715 51.3735 39.2419 79.1402 49.1365 43.0064 78.7499 
50.7118 42.634 78.2808 48.8185 45.6079 78.6443 46.3068 48.0314 78.8548 
49.032 47.3711 79.1738 47.8254 54.6269 78.1262 46.7728 54.4132 78.0682 
43.7908 55.8023 77.9863 43.4175 57.5195 78.6119 46.4478 60.6964 79.0544 
44.368 63.8825 78.135 45.8885 63.9488 78.583 41.6194 65.4687 78.6185 
43.8273 66.378 78.6026 43.3064 73.5583 78.5304 51.8247 73.3981 78.5272 
45.1846 75.0576 79.852 54.0777 27.7455 79.8722 58.7925 28.3257 78.9901 
58.7216 28.9282 79.8257 58.2543 29.2101 80.4254 51.5726 36.3737 79.8606 
51.5429 36.4556 79.6312 46.0209 56.7681 79.725 45.8295 57.0839 79.5209 
44.3487 57.8571 79.3428 44.2283 60.8126 80.163 45.0865 74.9496 80.998 
53.9109 34.0444 79.9463 51.7072 38.8929 79.0118 44.8406 60.6455 80.1326 
44.1574 67.109 79.9077 45.3576 67.1723 80.2425 43.4862 69.4485 80.3348 
43.6478 74.0302 82.6796 54.375 29.0918 81.3998 55.2678 28.1709 81.1641 
56.219 28.0504 81.0165 55.1825 29.0455 81.9042 56.501 29.3138 81.4013 
45.4912 70.0961 81.8877 43.8737 69.8504 81.5442 44.3546 74.8025 81.4316 
45.4174 74.759 81.6071 47.148 73.524 81.7661 44.7211 68.2875 81.0581 
45.3591 73.5989 83.3422 43.9432 74.3638 83.5897 44.0395 74.5347 83.3432 
44.5037 71.2703 82.5058 45.9234 95.225 10.6736 45.9234 95.225 10.6736 
46.58 95.5348 12.0516 46.58 95.5348 12.0516 42.9495 97.754 10.4776 
41.6949 97.7618 11.138 46.0857 94.938 11.0651 46.0857 94.938 11.0651 
46.6787 95.5493 13.0683 58.2856 79.0963 14.5662 45.0022 91.7533 14.7495 
47.4701 97.267 13.7007 41.4506 99.684 14.5502 48.447 103.873 14.9299 
58.584 79.722 14.7765 44.8851 91.1206 17.1028 44.8851 91.1206 17.1028 
45.0925 90.9974 17.2791 45.0925 90.9974 17.2791 24.4783 72.9334 16.5833 
59.4123 79.3888 15.8772 44.9721 91.0552 17.6742 45.3584 90.8613 17.9606 
45.9877 91.8332 19.8993 23.3389 69.5875 18.9753 44.1646 89.4079 19.0831 
30.4062 88.1721 20.3433 27.4264 89.6904 21.1693 27.4264 89.6904 21.1693 
27.7668 90.1009 21.0617 31.164 87.6458 21.7536 27.5008 89.725 21.3619 
21.6713 61.4811 27.1722 17.0902 11.0023 27.7095 12.7304 16.9681 27.8573 
15.7631 79.2156 29.053 18.733 11.1791 28.1925 21.2715 11.2113 29.0165 
11.7443 16.9749 28.3674 10.8227 17.7424 29.2078 11.2452 22.3944 29.5633 
11.2452 22.3944 29.5633 12.5375 23.5938 29.5321 9.49702 24.3618 30.3118 
18.4586 33.3757 29.4223 21.1986 33.2518 29.3687 18.4373 35.0989 30.4494 
18.427 34.5608 29.9546 21.1519 34.5237 29.8982 21.1684 35.1314 30.4603 
26.7267 5.24773 32.0153 26.7267 5.24773 32.0153 29.397 5.35328 32.4943 
29.397 5.35328 32.4943 29.524 8.28457 31.8537 29.524 8.28457 31.8537 
15.5689 79.2732 32.1269 37.9207 11.2766 33.0819 40.4172 11.5366 33.8581 
40.7124 14.3129 32.9872 45.958 36.0045 32.5745 45.958 36.0045 32.5745 
48.8919 36.1039 33.1436 48.8919 36.1039 33.1436 46.2236 36.1612 32.6534 
46.2236 36.1612 32.6534 69.1712 57.3738 34.7491 36.3939 2.26537 35.0929 
36.3939 2.26537 35.0929 36.3939 2.26537 35.0929 35.1191 5.27968 33.754 
6.89173 35.0481 35.292 36.335 2.41086 34.9502 35.1515 4.00228 34.0401 
5.85378 33.3743 34.6112 5.99926 33.8826 34.7249 54.295 45.2215 35.362 
67.5717 55.5485 35.7623 68.936 57.4291 34.5442 70.187 58.0968 35.6147 
35.7472 1.94814 36.3947 51.482 48.8145 35.4392 54.1457 48.6699 35.9123 
54.4721 45.455 35.4947 54.4112 48.4902 35.9241 54.4112 48.4902 35.9241 
15.8356 79.2231 36.4373 7.80273 56.8221 37.5895 68.1728 30.1415 39.0312 
73.6666 48.5013 39.528 7.39091 55.2574 38.3861 7.39091 55.2574 38.3861 
7.5298 56.5553 37.7135 74.2775 48.7912 39.8702 76.173 48.323 41.1448 
5.33547 20.9146 42.3697 4.93785 21.1833 44.0106 2.70259 33.8093 43.6965 
2.96891 33.8173 42.3212 4.26653 35.4497 43.7732 15.7591 81.4542 45.4521 
5.99975 18.041 44.0035 3.17479 30.1367 43.9599 4.99115 53.6363 44.9931 
16.1279 81.7168 44.9745 5.71138 17.9395 45.4027 5.71138 17.9395 45.4027 
4.81988 20.7266 45.2015 14.8696 79.7507 45.3431 17.9426 82.1789 45.0922 
5.43616 17.8501 46.7856 4.57268 52.2318 45.5955 4.42543 51.7655 47.6679 
2.86519 49.3281 51.345 15.4951 4.05585 52.5185 91.6486 36.1551 52.5597 
27.4036 46.6673 53.829 73.9531 73.4251 54.632 71.0801 74.8646 53.5455 
71.7237 74.5858 53.5443 0.977639 47.3092 56.0836 0.977639 47.3092 56.0836 
3.00211 46.6569 55.6348 4.28912 46.5388 55.4023 68.055 74.5629 55.4369 
18.3728 4.00375 56.9055 18.3728 4.00375 56.9055 18.7904 4.49948 58.2813 
18.7904 4.49948 58.2813 20.9429 4.00868 58.4102 20.9429 4.00868 58.4102 
4.63524 35.3494 58.1825 23.9195 35.2138 58.2784 77.1577 60.8841 57.7165 
3.48732 54.9526 60.6317 3.48732 54.9526 60.6317 75.3168 60.6254 59.0348 
3.95559 33.6159 59.6344 23.9568 33.7149 59.5255 4.56327 34.54 59.1064 
23.9184 34.5208 59.0656 33.9359 39.9216 60.966 31.6296 45.518 59.2715 
3.25139 53.6809 59.8254 3.59679 54.059 61.2123 74.4306 60.4484 59.6295 
33.8851 39.9868 61.0279 4.87367 52.4715 60.6137 34.1007 41.0595 61.4843 
31.5954 43.0524 62.8212 31.9624 45.3642 60.3963 33.5076 45.2781 60.9661 
4.65553 57.242 62.7167 33.5279 45.2841 62.3987 31.949 47.1906 64.0417 
31.949 47.1906 64.0417 15.4091 76.7639 65.502 34.3945 43.0654 64.5897 
5.32608 56.8642 62.8404 6.31791 57.1811 63.5088 37.011 42.7465 66.2222 
37.011 42.7465 66.2222 34.4295 43.0933 66.0434 34.4295 43.0933 66.0434 
35.506 45.3812 64.9853 37.1198 45.2597 66.1266 32.2311 47.168 64.4388 
32.2311 47.168 64.4388 34.134 47.3259 66.4144 34.134 47.3259 66.4144 
14.8714 72.9436 65.8659 15.2343 76.4877 65.1186 17.3797 77.5464 65.4573 
37.0907 43.0619 67.5804 37.0907 43.0619 67.5804 37.6971 45.3022 66.9937 
68.2966 73.9271 68.6845 70.1745 73.4173 67.2271 37.3655 8.08218 69.8514 
41.6746 42.6344 70.1973 41.6746 42.6344 70.1973 37.2903 43.1126 68.8555 
37.2903 43.1126 68.8555 37.2903 43.1126 68.8555 40.3775 45.4657 68.533 
38.1212 45.4606 68.0131 67.7113 73.7185 69.1027 67.7113 73.7185 69.1027 
67.7113 73.7185 69.1027 54.3088 74.577 68.3423 54.3792 74.5828 68.411 
66.37 73.9293 70.1131 66.37 73.9293 70.1131 41.0305 39.9196 69.1823 
40.1656 42.9097 70.2097 40.1656 42.9097 70.2097 40.9243 45.0886 69.401 
40.9243 45.0886 69.401 23.7872 66.5813 69.8114 38.1303 69.0779 69.3995 
38.1303 69.0779 69.3995 41.4007 70.1482 70.132 41.4007 70.1482 70.132 
64.9066 70.4428 68.9942 66.2239 73.4983 69.9223 66.2239 73.4983 69.9223 
54.3761 74.6192 69.8561 63.0009 74.4923 69.2495 43.1024 44.8865 71.4859 
13.4994 69.1056 70.0986 40.29 20.64 70.6391 43.2593 20.6457 70.5304 
43.3222 20.681 70.5201 54.3643 20.6069 70.5956 57.1682 20.5459 70.6413 
57.1682 20.5459 70.6413 57.3548 20.3257 70.6897 57.0514 24.4958 70.3655 
42.63 43.0469 71.9043 42.63 43.0469 71.9043 40.0224 43.09 71.8159 
40.0224 43.09 71.8159 40.975 45.4303 70.8272 41.0949 69.3796 71.2635 
41.0949 69.3796 71.2635 59.759 27.6584 72.5328 43.044 42.9698 72.9703 
43.044 42.9698 72.9703 43.5217 45.2495 72.5002 43.5217 45.2495 72.5002 
43.5217 45.2495 72.5002 45.7966 44.0309 72.9798 41.9334 45.2976 71.3332 
56.5916 48.2134 72.1517 41.1324 68.5816 72.9113 56.8415 74.5901 72.2258 
57.3769 74.3505 73.3991 59.6267 28.019 73.8081 45.1946 43.5152 73.5774 
45.1946 43.5152 73.5774 45.4193 42.9941 74.7687 45.4193 42.9941 74.7687 
54.9851 48.5706 73.4733 43.302 67.5104 72.0895 41.0523 68.4075 73.5573 
60.7206 28.5585 74.4934 43.9306 45.4004 73.5493 43.9306 45.4004 73.5493 
42.4079 47.8172 75.053 54.2787 48.3575 74.1005 43.2019 52.0484 74.1659 
41.0326 68.0496 74.2661 57.8657 73.6831 74.5119 45.8058 43.1819 75.8547 
45.8058 43.1819 75.8547 48.4105 43.9508 75.9742 44.6341 45.3734 74.2959 
47.5369 45.287 77.2479 41.9363 47.8223 74.52 43.3249 66.6432 73.4499 
48.2379 42.927 77.7859 48.2379 42.927 77.7859 47.8373 45.3654 78.3586 
40.6169 62.8835 76.4715 43.098 65.0238 75.4732 43.9525 48.2484 76.4842 
44.1071 48.0139 76.1458 44.2323 50.128 76.3571 43.3643 66.098 75.0261 
53.2483 73.6635 77.6625 53.2483 73.6635 77.6625 53.6475 73.5374 77.1854 
53.6475 73.5374 77.1854 57.3906 27.4328 79.0651 59.0523 29.0738 79.322 
51.0706 33.2621 78.6722 54.2496 35.7365 78.9098 51.3735 39.2419 79.1402 
49.1365 43.0064 78.7499 46.3068 48.0314 78.8548 46.7728 54.4132 78.0682 
41.6194 65.4687 78.6185 51.8247 73.3981 78.5272 51.8247 73.3981 78.5272 
58.7925 28.3257 78.9901 51.5726 36.3737 79.8606 51.5726 36.3737 79.8606 
51.5726 36.3737 79.8606 51.5726 36.3737 79.8606 51.5429 36.4556 79.6312 
51.5429 36.4556 79.6312 51.5429 36.4556 79.6312 46.0209 56.7681 79.725 
45.8295 57.0839 79.5209 51.7072 38.8929 79.0118 45.9234 95.225 10.6736 
46.0857 94.938 11.0651 46.6787 95.5493 13.0683 44.8851 91.1206 17.1028 
45.0925 90.9974 17.2791 45.0925 90.9974 17.2791 45.0925 90.9974 17.2791 
44.9721 91.0552 17.6742 45.3584 90.8613 17.9606 45.3584 90.8613 17.9606 
3.48732 54.9526 60.6317 3.59679 54.059 61.2123 33.5076 45.2781 60.9661 
37.1198 45.2597 66.1266 68.2966 73.9271 68.6845 41.6746 42.6344 70.1973 
66.37 73.9293 70.1131 40.1656 42.9097 70.2097 66.2239 73.4983 69.9223 
57.1682 20.5459 70.6413 40.975 45.4303 70.8272 40.975 45.4303 70.8272 
43.3249 66.6432 73.4499 43.3643 66.098 75.0261 43.3643 66.098 75.0261 
51.5429 36.4556 79.6312 44.9721 91.0552 17.6742 45.3584 90.8613 17.9606 
21.6713 61.4811 27.1722 21.6713 61.4811 27.1722 70.187 58.0968 35.6147 
31.9624 45.3642 60.3963 34.3945 43.0654 64.5897 35.506 45.3812 64.9853 
41.6746 42.6344 70.1973 66.37 73.9293 70.1131 40.9243 45.0886 69.401 
40.9243 45.0886 69.401 40.9243 45.0886 69.401 43.1024 44.8865 71.4859 
57.3548 20.3257 70.6897 57.3548 20.3257 70.6897 43.5217 45.2495 72.5002 
43.5217 45.2495 72.5002 41.9334 45.2976 71.3332 43.302 67.5104 72.0895 
41.0523 68.4075 73.5573 57.8657 73.6831 74.5119 40.6169 62.8835 76.4715 
43.9525 48.2484 76.4842 44.1071 48.0139 76.1458 51.5726 36.3737 79.8606 
44.9721 91.0552 17.6742 45.3584 90.8613 17.9606 66.2239 73.4983 69.9223 
59.0523 29.0738 79.322 9.49702 24.3618 30.3118 49.1674 44.3937 77.5714 
12.9141 69.2568 70.7797 46.8927 94.7081 14.0276 36.335 2.41086 34.9502 
42.9272 9.36216 69.5282 42.9272 9.36216 69.5282 42.9272 9.36216 69.5282 
37.3655 8.08218 69.8514 40.2958 8.6989 69.8244 
POLYGONS 2186 6555
OFFSETS vtktypeint64
0 3 6 9 12 15 18 21 24 
27 30 33 36 39 42 45 48 51 
54 57 60 63 66 69 72 75 78 
81 84 87 90 93 96 99 102 105 
108 111 114 117 120 123 126 129 132 
135 138 141 144 147 150 153 156 159 
162 165 168 171 174 177 180 183 186 
189 192 195 198 201 204 207 210 213 
216 219 222 225 228 231 234 237 240 
243 246 249 252 255 258 261 264 267 
270 273 276 279 282 285 288 291 294 
297 300 303 306 309 312 315 318 321 
324 327 330 333 336 339 342 345 348 
351 354 357 360 363 366 369 372 375 
378 381 384 387 390 393 396 399 402 
405 408 411 414 417 420 423 426 429 
432 435 438 441 444 447 450 453 456 
459 462 465 468 471 474 477 480 483 
486 489 492 495 498 501 504 507 510 
513 516 519 522 525 528 531 534 537 
540 543 546 549 552 555 558 561 564 
567 570 573 576 579 582 585 588 591 
594 597 600 603 606 609 612 615 618 
621 624 627 630 633 636 639 642 645 
648 651 654 657 660 663 666 669 672 
675 678 681 684 687 690 693 696 699 
702 705 708 711 714 717 720 723 726 
729 732 735 738 741 744 747 750 753 
756 759 762 765 768 771 774 777 780 
783 786 789 792 795 798 801 804 807 
810 813 816 819 822 825 828 831 834 
837 840 843 846 849 852 855 858 861 
864 867 870 873 876 879 882 885 888 
891 894 897 900 903 906 909 912 915 
918 921 924 927 930 933 936 939 942 
945 948 951 954 957 960 963 966 969 
972 975 978 981 984 987 990 993 996 
999 1002 1005 1008 1011 1014 1017 1020 1023 
1026 1029 1032 1035 1038 1041 1044 1047 1050 
1053 1056 1059 1062 1065 1068 1071 1074 1077 
1080 1083 1086 1089 1092 1095 1098 1101 1104 
1107 1110 1113 1116 1119 1122 1125 1128 1131 
1134 1137 1140 1143 1146 1149 1152 1155 1158 
1161 1164 1167 1170 1173 1176 1179 1182 1185 
1188 1191 1194 1197 1200 1203 1206 1209 1212 
1215 1218 1221 1224 1227 1230 1233 1236 1239 
1242 1245 1248 1251 1254 1257 1260 1263 1266 
1269 1272 1275 1278 1281 1284 1287 1290 1293 
1296 1299 1302 1305 1308 1311 1314 1317 1320 
1323 1326 1329 1332 1335 1338 1341 1344 1347 
1350 1353 1356 1359 1362 1365 1368 1371 1374 
1377 1380 1383 1386 1389 1392 1395 1398 1401 
1404 1407 1410 1413 1416 1419 1422 1425 1428 
1431 1434 1437 1440 1443 1446 1449 1452 1455 
1458 1461 1464 1467 1470 1473 1476 1479 1482 
1485 1488 1491 1494 1497 1500 1503 1506 1509 
1512 1515 1518 1521 1524 1527 1530 1533 1536 
1539 1542 1545 1548 1551 1554 1557 1560 1563 
1566 1569 1572 1575 1578 1581 1584 1587 1590 
1593 1596 1599 1602 1605 1608 1611 1614 1617 
1620 1623 1626 1629 1632 1635 1638 1641 1644 
1647 1650 1653 1656 1659 1662 1665 1668 1671 
1674 1677 1680 1683 1686 1689 1692 1695 1698 
1701 1704 1707 1710 1713 1716 1719 1722 1725 
1728 1731 1734 1737 1740 1743 1746 1749 1752 
1755 1758 1761 1764 1767 1770 1773 1776 1779 
1782 1785 1788 1791 1794 1797 1800 1803 1806 
1809 1812 1815 1818 1821 1824 1827 1830 1833 
1836 1839 1842 1845 1848 1851 1854 1857 1860 
1863 1866 1869 1872 1875 1878 1881 1884 1887 
1890 1893 1896 1899 1902 1905 1908 1911 1914 
1917 1920 1923 1926 1929 1932 1935 1938 1941 
1944 1947 1950 1953 1956 1959 1962 1965 1968 
1971 1974 1977 1980 1983 1986 1989 1992 1995 
1998 2001 2004 2007 2010 2013 2016 2019 2022 
2025 2028 2031 2034 2037 2040 2043 2046 2049 
2052 2055 2058 2061 2064 2067 2070 2073 2076 
2079 2082 2085 2088 2091 2094 2097 2100 2103 
2106 2109 2112 2115 2118 2121 2124 2127 2130 
2133 2136 2139 2142 2145 2148 2151 2154 2157 
2160 2163 2166 2169 2172 2175 2178 2181 2184 
2187 2190 2193 2196 2199 2202 2205 2208 2211 
2214 2217 2220 2223 2226 2229 2232 2235 2238 
2241 2244 2247 2250 2253 2256 2259 2262 2265 
2268 2271 2274 2277 2280 2283 2286 2289 2292 
2295 2298 2301 2304 2307 2310 2313 2316 2319 
2322 2325 2328 2331 2334 2337 2340 2343 2346 
2349 2352 2355 2358 2361 2364 2367 2370 2373 
2376 2379 2382 2385 2388 2391 2394 2397 2400 
2403 2406 2409 2412 2415 2418 2421 2424 2427 
2430 2433 2436 2439 2442 2445 2448 2451 2454 
2457 2460 2463 2466 2469 2472 2475 2478 2481 
2484 2487 2490 2493 2496 2499 2502 2505 2508 
2511 2514 2517 2520 2523 2526 2529 2532 2535 
2538 2541 2544 2547 2550 2553 2556 2559 2562 
2565 2568 2571 2574 2577 2580 2583 2586 2589 
2592 2595 2598 2601 2604 2607 2610 2613 2616 
2619 2622 2625 2628 2631 2634 2637 2640 2643 
2646 2649 2652 2655 2658 2661 2664 2667 2670 
2673 2676 2679 2682 2685 2688 2691 2694 2697 
2700 2703 2706 2709 2712 2715 2718 2721 2724 
2727 2730 2733 2736 2739 2742 2745 2748 2751 
2754 2757 2760 2763 2766 2769 2772 2775 2778 
2781 2784 2787 2790 2793 2796 2799 2802 2805 
2808 2811 2814 2817 2820 2823 2826 2829 2832 
2835 2838 2841 2844 2847 2850 2853 2856 2859 
2862 2865 2868 2871 2874 2877 2880 2883 2886 
2889 2892 2895 2898 2901 2904 2907 2910 2913 
2916 2919 2922 2925 2928 2931 2934 2937 2940 
2943 2946 2949 2952 2955 2958 2961 2964 2967 
2970 2973 2976 2979 2982 2985 2988 2991 2994 
2997 3000 3003 3006 3009 3012 3015 3018 3021 
3024 3027 3030 3033 3036 3039 3042 3045 3048 
3051 3054 3057 3060 3063 3066 3069 3072 3075 
3078 3081 3084 3087 3090 3093 3096 3099 3102 
3105 3108 3111 3114 3117 3120 3123 3126 3129 
3132 3135 3138 3141 3144 3147 3150 3153 3156 
3159 3162 3165 3168 3171 3174 3177 3180 3183 
3186 3189 3192 3195 3198 3201 3204 3207 3210 
3213 3216 3219 3222 3225 3228 3231 3234 3237 
3240 3243 3246 3249 3252 3255 3258 3261 3264 
3267 3270 3273 3276 3279 3282 3285 3288 3291 
3294 3297 3300 3303 3306 3309 3312 3315 3318 
3321 3324 3327 3330 3333 3336 3339 3342 3345 
3348 3351 3354 3357 3360 3363 3366 3369 3372 
3375 3378 3381 3384 3387 3390 3393 3396 3399 
3402 3405 3408 3411 3414 3417 3420 3423 3426 
3429 3432 3435 3438 3441 3444 3447 3450 3453 
3456 3459 3462 3465 3468 3471 3474 3477 3480 
3483 3486 3489 3492 3495 3498 3501 3504 3507 
3510 3513 3516 3519 3522 3525 3528 3531 3534 
3537 3540 3543 3546 3549 3552 3555 3558 3561 
3564 3567 3570 3573 3576 3579 3582 3585 3588 
3591 3594 3597 3600 3603 3606 3609 3612 3615 
3618 3621 3624 3627 3630 3633 3636 3639 3642 
3645 3648 3651 3654 3657 3660 3663 3666 3669 
3672 3675 3678 3681 3684 3687 3690 3693 3696 
3699 3702 3705 3708 3711 3714 3717 3720 3723 
3726 3729 3732 3735 3738 3741 3744 3747 3750 
3753 3756 3759 3762 3765 3768 3771 3774 3777 
3780 3783 3786 3789 3792 3795 3798 3801 3804 
3807 3810 3813 3816 3819 3822 3825 3828 3831 
3834 3837 3840 3843 3846 3849 3852 3855 3858 
3861 3864 3867 3870 3873 3876 3879 3882 3885 
3888 3891 3894 3897 3900 3903 3906 3909 3912 
3915 3918 3921 3924 3927 3930 3933 3936 3939 
3942 3945 3948 3951 3954 3957 3960 3963 3966 
3969 3972 3975 3978 3981 3984 3987 3990 3993 
3996 3999 4002 4005 4008 4011 4014 4017 4020 
4023 4026 4029 4032 4035 4038 4041 4044 4047 
4050 4053 4056 4059 4062 4065 4068 4071 4074 
4077 4080 4083 4086 4089 4092 4095 4098 4101 
4104 4107 4110 4113 4116 4119 4122 4125 4128 
4131 4134 4137 4140 4143 4146 4149 4152 4155 
4158 4161 4164 4167 4170 4173 4176 4179 4182 
4185 4188 4191 4194 4197 4200 4203 4206 4209 
4212 4215 4218 4221 4224 4227 4230 4233 4236 
4239 4242 4245 4248 4251 4254 4257 4260 4263 
4266 4269 4272 4275 4278 4281 4284 4287 4290 
4293 4296 4299 4302 4305 4308 4311 4314 4317 
4320 4323 4326 4329 4332 4335 4338 4341 4344 
4347 4350 4353 4356 4359 4362 4365 4368 4371 
4374 4377 4380 4383 4386 4389 4392 4395 4398 
4401 4404 4407 4410 4413 4416 4419 4422 4425 
4428 4431 4434 4437 4440 4443 4446 4449 4452 
4455 4458 4461 4464 4467 4470 4473 4476 4479 
4482 4485 4488 4491 4494 4497 4500 4503 4506 
4509 4512 4515 4518 4521 4524 4527 4530 4533 
4536 4539 4542 4545 4548 4551 4554 4557 4560 
4563 4566 4569 4572 4575 4578 4581 4584 4587 
4590 4593 4596 4599 4602 4605 4608 4611 4614 
4617 4620 4623 4626 4629 4632 4635 4638 4641 
4644 4647 4650 4653 4656 4659 4662 4665 4668 
4671 4674 4677 4680 4683 4686 4689 4692 4695 
4698 4701 4704 4707 4710 4713 4716 4719 4722 
4725 4728 4731 4734 4737 4740 4743 4746 4749 
4752 4755 4758 4761 4764 4767 4770 4773 4776 
4779 4782 4785 4788 4791 4794 4797 4800 4803 
4806 4809 4812 4815 4818 4821 4824 4827 4830 
4833 4836 4839 4842 4845 4848 4851 4854 4857 
4860 4863 4866 4869 4872 4875 4878 4881 4884 
4887 4890 4893 4896 4899 4902 4905 4908 4911 
4914 4917 4920 4923 4926 4929 4932 4935 4938 
4941 4944 4947 4950 4953 4956 4959 4962 4965 
4968 4971 4974 4977 4980 4983 4986 4989 4992 
4995 4998 5001 5004 5007 5010 5013 5016 5019 
5022 5025 5028 5031 5034 5037 5040 5043 5046 
5049 5052 5055 5058 5061 5064 5067 5070 5073 
5076 5079 5082 5085 5088 5091 5094 5097 5100 
5103 5106 5109 5112 5115 5118 5121 5124 5127 
5130 5133 5136 5139 5142 5145 5148 5151 5154 
5157 5160 5163 5166 5169 5172 5175 5178 5181 
5184 5187 5190 5193 5196 5199 5202 5205 5208 
5211 5214 5217 5220 5223 5226 5229 5232 5235 
5238 5241 5244 5247 5250 5253 5256 5259 5262 
5265 5268 5271 5274 5277 5280 5283 5286 5289 
5292 5295 5298 5301 5304 5307 5310 5313 5316 
5319 5322 5325 5328 5331 5334 5337 5340 5343 
5346 5349 5352 5355 5358 5361 5364 5367 5370 
5373 5376 5379 5382 5385 5388 5391 5394 5397 
5400 5403 5406 5409 5412 5415 5418 5421 5424 
5427 5430 5433 5436 5439 5442 5445 5448 5451 
5454 5457 5460 5463 5466 5469 5472 5475 5478 
5481 5484 5487 5490 5493 5496 5499 5502 5505 
5508 5511 5514 5517 5520 5523 5526 5529 5532 
5535 5538 5541 5544 5547 5550 5553 5556 5559 
5562 5565 5568 5571 5574 5577 5580 5583 5586 
5589 5592 5595 5598 5601 5604 5607 5610 5613 
5616 5619 5622 5625 5628 5631 5634 5637 5640 
5643 5646 5649 5652 5655 5658 5661 5664 5667 
5670 5673 5676 5679 5682 5685 5688 5691 5694 
5697 5700 5703 5706 5709 5712 5715 5718 5721 
5724 5727 5730 5733 5736 5739 5742 5745 5748 
5751 5754 5757 5760 5763 5766 5769 5772 5775 
5778 5781 5784 5787 5790 5793 5796 5799 5802 
5805 5808 5811 5814 5817 5820 5823 5826 5829 
5832 5835 5838 5841 5844 5847 5850 5853 5856 
5859 5862 5865 5868 5871 5874 5877 5880 5883 
5886 5889 5892 5895 5898 5901 5904 5907 5910 
5913 5916 5919 5922 5925 5928 5931 5934 5937 
5940 5943 5946 5949 5952 5955 5958 5961 5964 
5967 5970 5973 5976 5979 5982 5985 5988 5991 
5994 5997 6000 6003 6006 6009 6012 6015 6018 
6021 6024 6027 6030 6033 6036 6039 6042 6045 
6048 6051 6054 6057 6060 6063 6066 6069 6072 
6075 6078 6081 6084 6087 6090 6093 6096 6099 
6102 6105 6108 6111 6114 6117 6120 6123 6126 
6129 6132 6135 6138 6141 6144 6147 6150 6153 
6156 6159 6162 6165 6168 6171 6174 6177 6180 
6183 6186 6189 6192 6195 6198 6201 6204 6207 
6210 6213 6216 6219 6222 6225 6228 6231 6234 
6237 6240 6243 6246 6249 6252 6255 6258 6261 
6264 6267 6270 6273 6276 6279 6282 6285 6288 
6291 6294 6297 6300 6303 6306 6309 6312 6315 
6318 6321 6324 6327 6330 6333 6336 6339 6342 
6345 6348 6351 6354 6357 6360 6363 6366 6369 
6372 6375 6378 6381 6384 6387 6390 6393 6396 
6399 6402 6405 6408 6411 6414 6417 6420 6423 
6426 6429 6432 6435 6438 6441 6444 6447 6450 
6453 6456 6459 6462 6465 6468 6471 6474 6477 
6480 6483 6486 6489 6492 6495 6498 6501 6504 
6507 6510 6513 6516 6519 6522 6525 6528 6531 
6534 6537 6540 6543 6546 6549 6552 6555 
CONNECTIVITY vtktypeint64
1 2 3 0 1 3 4 2 6 
6 2 5 0 8 1 7 8 0 
1 5 2 9 4 6 6 5 17 
19 12 10 7 11 13 11 10 13 
7 0 14 11 7 14 10 12 13 
0 3 15 8 7 13 23 8 13 
2 4 15 3 2 15 15 4 16 
8 28 1 1 28 5 28 8 26 
4 9 16 5 28 17 6 17 18 
6 18 9 20 21 19 21 12 19 
15 14 0 15 16 22 26 23 35 
8 23 26 24 16 25 16 9 25 
28 26 27 18 29 9 9 29 25 
18 17 29 19 10 44 44 10 155 
10 11 14 155 10 14 13 21 23 
12 21 13 21 39 23 22 16 24 
26 30 27 33 31 32 33 20 31 
20 19 44 31 20 44 21 20 33 
15 34 48 14 15 48 15 22 34 
34 24 25 34 22 24 23 39 35 
39 40 35 26 35 30 25 29 36 
37 27 30 27 37 28 37 47 28 
47 17 28 17 58 29 29 58 36 
21 33 38 35 40 41 30 42 37 
42 43 37 47 37 43 32 31 44 
14 48 94 53 38 33 39 21 38 
54 39 38 34 25 48 45 39 54 
46 39 45 39 46 40 41 30 35 
42 30 41 17 51 58 38 53 54 
49 47 43 47 50 17 17 50 51 
155 78 44 52 32 44 32 52 33 
53 33 62 48 25 63 55 45 54 
55 46 45 73 42 41 55 40 46 
41 40 55 42 73 43 73 57 43 
36 58 91 50 47 59 58 51 60 
51 50 59 60 51 59 61 52 79 
44 79 52 61 33 52 56 73 41 
25 147 145 41 55 56 65 49 57 
49 43 57 49 65 47 47 67 59 
91 58 68 59 77 60 58 60 68 
59 67 69 77 59 69 184 155 14 
44 78 70 44 70 79 94 48 98 
61 62 33 63 25 145 53 62 54 
72 73 56 56 55 72 147 25 36 
73 64 57 1361 85 1070 64 65 57 
85 74 1070 1067 66 1069 47 65 67 
68 60 76 67 75 69 76 60 77 
98 48 82 61 81 62 48 63 82 
63 145 82 71 55 54 55 71 150 
150 72 55 83 73 72 73 83 64 
83 84 64 84 85 1361 85 86 87 
87 74 85 1073 1066 1068 88 1073 1068 
36 91 102 89 1363 66 66 1363 1069 
90 1071 87 66 1071 90 89 66 90 
65 1074 67 92 69 75 76 77 93 
76 93 68 68 93 91 92 77 69 
124 117 70 78 124 70 14 94 184 
117 95 96 96 95 97 80 117 96 
96 97 80 79 117 80 70 117 79 
127 79 80 127 80 97 79 127 61 
81 99 62 71 137 150 150 100 72 
85 101 121 85 84 101 84 83 101 
102 147 36 87 86 103 103 86 85 
104 1072 1363 105 104 1363 1072 1077 1363 
102 91 107 89 90 108 105 1363 89 
105 89 108 110 90 109 90 87 109 
111 90 110 1074 106 67 106 75 67 
75 112 92 112 114 92 91 93 115 
113 91 115 116 77 114 77 92 114 
93 77 116 98 118 94 98 82 118 
118 82 126 61 127 99 61 99 81 
71 54 137 100 83 72 101 83 100 
1076 119 120 1367 121 101 87 103 122 
85 121 103 143 104 105 1362 1420 106 
1420 123 106 123 112 106 91 113 107 
122 110 87 87 110 109 108 90 111 
106 112 75 115 93 116 205 125 95 
117 205 95 125 97 95 94 118 126 
1086 1075 1080 128 99 127 62 99 151 
54 62 137 62 151 137 100 150 1366 
1084 1082 100 100 1082 101 141 104 129 
103 121 122 141 123 1420 123 102 130 
129 104 143 102 107 130 105 131 143 
131 105 108 132 112 123 107 123 130 
111 122 131 111 1078 122 131 108 111 
107 113 123 113 132 123 113 133 132 
132 1079 112 134 1079 132 116 134 132 
133 116 132 113 116 133 134 116 1079 
113 115 116 124 205 117 125 127 97 
135 128 127 136 99 128 99 136 159 
99 159 151 1365 138 1364 1081 1387 139 
1083 1081 139 140 121 1369 1367 1369 121 
131 121 140 121 131 122 142 131 140 
141 129 143 184 94 126 125 157 127 
128 135 136 150 137 144 1366 150 1370 
138 1365 1388 131 142 143 78 155 124 
148 1085 1098 149 127 157 127 149 135 
126 82 145 135 149 136 136 149 159 
1091 1413 1414 1089 1368 150 1369 152 140 
1369 1089 152 1088 1087 146 153 152 1089 
123 141 165 102 123 165 147 102 154 
152 142 140 153 142 152 143 153 141 
143 142 153 149 158 159 150 144 160 
162 1089 150 145 147 163 1089 164 141 
162 164 1089 164 165 141 141 153 1089 
102 165 154 149 157 167 159 175 151 
151 168 137 175 168 151 137 168 144 
160 162 150 162 172 164 164 172 165 
165 172 154 154 161 163 172 161 154 
163 161 145 1094 1095 159 174 159 1095 
175 159 174 147 154 163 155 183 124 
205 124 251 126 193 184 185 157 125 
126 145 166 157 177 167 158 149 167 
159 158 178 158 167 178 144 203 197 
144 197 160 145 161 166 166 161 170 
1092 1096 169 169 1096 180 168 171 144 
160 191 162 1097 181 1093 181 1097 182 
1097 178 182 182 178 176 178 179 176 
172 162 191 170 161 172 1093 181 173 
173 181 174 174 181 182 168 175 176 
168 176 171 171 176 179 176 174 182 
175 174 176 124 183 251 125 1090 196 
156 193 126 177 157 185 186 177 185 
126 166 156 187 177 186 177 187 167 
178 167 189 179 178 189 190 203 144 
191 160 197 166 170 188 171 179 189 
190 171 189 144 171 190 191 194 172 
194 192 172 172 192 170 1390 196 1090 
211 186 185 156 166 188 156 188 202 
167 187 221 190 189 324 194 195 192 
192 188 170 192 195 188 195 202 188 
290 155 184 290 219 183 155 290 183 
193 156 210 185 125 208 210 156 202 
186 211 187 187 211 221 200 199 1389 
199 200 196 1390 199 196 198 193 201 
184 193 198 196 200 125 185 208 209 
185 209 211 221 222 167 190 324 203 
191 197 194 195 194 204 195 204 202 
219 251 183 198 206 184 200 229 253 
207 206 198 201 207 198 253 125 200 
230 207 201 193 230 201 210 202 212 
213 214 1099 1099 214 216 217 1099 216 
217 216 218 218 225 217 125 253 208 
167 222 324 189 167 324 202 204 212 
213 223 214 226 214 223 1102 213 1099 
1102 225 262 1103 224 215 225 1099 217 
216 214 226 228 227 226 218 216 227 
216 226 227 1104 1105 1100 227 228 1106 
218 227 1106 225 218 1106 238 225 1106 
238 239 225 239 247 225 291 205 251 
206 292 184 208 220 209 254 209 220 
211 209 254 254 255 211 221 211 255 
221 231 222 231 324 222 203 324 321 
197 322 194 204 194 257 204 257 212 
233 232 234 213 234 223 1102 234 213 
280 247 300 280 225 247 228 236 235 
1107 1108 1109 238 1106 283 247 239 245 
241 237 240 242 1110 1112 238 237 243 
243 237 1113 244 1111 1114 239 238 1115 
248 239 1115 245 239 248 247 245 246 
1115 1113 241 243 1113 1115 245 269 271 
271 246 245 251 219 249 229 200 205 
253 229 252 221 273 231 273 256 231 
197 203 348 197 348 322 194 322 257 
233 258 232 233 259 260 232 261 234 
259 233 234 259 234 262 234 1102 262 
234 226 223 1121 262 280 280 262 225 
226 281 228 281 282 228 1417 283 1106 
264 283 263 238 283 237 237 283 264 
237 264 240 264 263 266 263 265 267 
266 263 267 285 266 267 264 266 285 
240 264 285 247 246 271 303 247 271 
271 269 270 306 271 270 271 306 272 
250 184 360 205 291 229 230 193 469 
469 193 210 221 255 273 231 256 324 
233 274 258 233 260 274 232 258 275 
232 275 261 260 259 262 276 260 1116 
1116 260 262 261 275 234 1121 1116 262 
277 1120 278 236 228 282 283 284 263 
263 284 265 377 247 303 245 268 269 
269 268 270 286 272 306 286 306 288 
249 286 288 272 286 249 329 272 249 
290 249 219 250 341 184 249 311 251 
360 184 292 291 316 229 229 316 252 
1122 254 220 212 294 210 212 257 294 
256 273 320 256 320 324 203 321 348 
257 322 349 257 349 323 323 294 257 
274 295 258 260 296 274 275 258 295 
260 276 296 276 297 296 297 276 298 
299 297 298 298 276 1116 1118 299 298 
1118 298 1116 1119 279 1117 299 1118 280 
280 1118 1121 226 327 281 327 282 281 
377 300 247 284 301 265 301 302 265 
1128 377 303 265 302 267 285 267 336 
285 336 240 245 248 268 1129 1127 305 
304 1131 1126 271 1130 303 268 306 270 
288 307 287 288 306 307 272 329 271 
307 289 287 308 289 307 309 308 310 
289 308 309 289 311 287 309 311 289 
288 287 311 249 288 311 312 290 341 
290 184 341 309 310 291 341 250 359 
309 291 251 311 309 251 310 313 291 
291 313 314 313 316 314 291 314 316 
252 316 317 317 253 252 207 230 452 
230 469 452 255 254 1122 318 273 255 
210 294 319 320 273 318 274 296 295 
297 299 325 325 299 326 280 326 299 
280 332 326 327 226 234 1124 1125 1123 
283 301 284 301 328 302 1130 271 1128 
290 329 249 329 290 312 313 317 316 
319 294 323 333 1133 1136 332 1134 1139 
332 1139 326 300 332 280 283 236 282 
283 1140 301 1140 335 301 335 328 301 
302 328 267 377 1128 370 271 370 1128 
268 379 306 337 370 271 338 271 329 
339 308 307 308 339 310 329 312 338 
312 340 338 312 341 340 250 360 359 
330 313 310 313 362 364 360 292 361 
315 361 292 1143 361 315 1132 343 342 
292 206 344 315 292 344 1132 1145 343 
313 364 345 317 313 345 208 425 220 
1101 1152 293 367 255 1122 331 318 255 
320 318 346 318 331 346 347 320 346 
350 323 349 319 323 350 324 320 347 
321 324 347 296 427 295 296 297 427 
1138 351 1135 1421 352 1146 1421 353 352 
353 1421 375 332 300 375 377 375 300 
327 354 282 378 283 282 1137 1141 334 
268 248 379 307 306 339 271 338 355 
337 271 356 356 271 355 357 337 356 
358 1142 1149 357 356 1150 1151 1148 1147 
341 338 340 355 338 341 356 355 341 
341 1150 356 362 313 401 362 363 364 
1391 365 1144 365 344 206 364 373 345 
366 206 207 452 366 207 208 253 425 
210 319 416 416 469 210 347 346 368 
347 368 384 347 384 385 347 385 369 
347 369 386 321 347 386 348 321 386 
297 325 1146 353 404 352 377 370 395 
283 378 1140 1140 378 328 337 1150 370 
1150 359 370 371 370 359 359 1150 372 
1150 341 372 341 359 372 310 480 330 
363 362 402 1143 365 383 1143 1144 365 
331 255 374 346 331 368 375 404 353 
376 375 377 394 282 354 394 378 282 
240 336 241 399 410 370 339 306 501 
399 370 400 370 371 400 310 339 480 
371 359 360 360 380 371 400 371 381 
381 371 380 381 382 400 360 361 381 
360 381 380 401 313 330 381 361 382 
361 383 382 361 1143 383 364 402 373 
364 363 402 373 488 345 317 345 253 
374 368 331 322 348 386 350 349 533 
275 387 234 404 375 388 387 327 234 
375 376 388 388 376 389 377 389 376 
390 389 391 391 389 377 392 391 377 
377 407 392 396 395 397 1154 395 370 
410 1154 370 267 328 435 336 267 435 
241 336 1115 410 399 413 306 564 501 
339 501 480 383 400 382 424 383 365 
488 373 403 365 206 424 345 488 253 
488 425 253 220 425 367 425 1174 367 
367 1174 255 1174 417 255 417 374 255 
386 426 441 322 386 441 322 441 349 
416 319 350 275 418 387 390 405 389 
406 392 407 407 377 393 393 419 407 
432 408 393 377 432 393 432 377 395 
397 395 396 409 395 1154 410 409 1154 
409 410 411 412 411 410 413 412 410 
398 421 378 378 421 328 423 414 400 
383 423 400 330 480 438 423 383 424 
402 362 415 1157 1158 1153 295 418 275 
404 539 352 391 405 390 392 406 391 
391 406 405 393 420 419 420 408 419 
393 408 420 444 432 395 395 409 444 
411 412 409 412 413 434 336 435 1115 
436 413 399 414 399 400 414 436 399 
422 436 414 1159 1155 1160 422 414 423 
438 401 330 1156 415 403 439 403 415 
403 439 488 374 417 368 384 368 485 
384 485 385 369 385 485 386 369 472 
369 485 472 386 472 426 349 441 533 
350 533 442 442 416 350 1146 539 297 
1146 352 539 295 428 418 295 427 428 
429 387 418 404 388 539 387 429 327 
419 430 407 419 431 430 408 431 419 
432 431 408 433 394 354 394 597 378 
444 409 446 378 1163 398 434 409 412 
434 466 409 398 1163 421 328 421 435 
423 436 422 362 437 415 415 437 439 
487 424 206 206 366 487 469 416 440 
417 471 368 574 533 441 429 418 428 
428 427 473 443 389 405 443 405 406 
431 474 430 444 474 432 474 431 432 
465 433 354 465 394 433 446 456 444 
466 446 409 475 466 434 447 1164 449 
421 1163 1165 435 619 1115 434 413 475 
413 458 475 379 564 306 458 413 436 
362 450 437 362 401 496 450 362 496 
401 438 496 437 451 439 1174 453 417 
440 416 442 429 473 327 388 389 443 
407 443 406 430 443 407 1162 454 1161 
354 1167 465 466 456 445 445 456 446 
597 457 378 466 445 446 378 457 1163 
1168 1164 447 421 1165 435 379 248 560 
451 459 1169 459 451 461 461 451 462 
451 437 450 451 450 462 469 440 442 
429 428 473 473 354 327 354 464 1167 
464 465 1167 444 455 474 455 444 456 
448 457 467 458 436 423 1177 459 461 
462 1177 461 450 1177 462 496 1177 450 
424 487 423 451 488 439 366 452 487 
426 472 470 468 463 1166 574 441 426 
417 453 471 1166 463 1175 368 471 485 
388 443 539 473 521 354 474 443 430 
464 354 582 1172 1173 1176 465 1171 597 
1165 448 476 477 492 475 458 477 475 
478 477 458 438 480 496 459 479 1169 
487 452 469 425 481 1174 481 482 1174 
469 442 483 1174 484 1170 1170 484 471 
394 465 597 466 475 498 492 498 475 
1165 476 435 379 526 564 478 458 547 
482 484 1174 485 470 491 491 470 472 
491 472 485 427 538 473 427 297 538 
456 823 455 457 597 467 466 498 456 
486 492 477 379 560 526 477 478 493 
477 493 486 547 493 478 480 501 494 
1177 496 495 480 494 496 479 1178 1169 
503 1169 1178 503 451 460 647 451 503 
423 487 570 425 497 481 487 469 489 
497 482 481 497 490 482 483 489 469 
426 470 517 483 442 533 484 482 490 
484 490 471 485 471 513 470 485 513 
513 517 470 448 467 499 500 498 492 
476 448 499 476 499 435 435 618 619 
248 1115 541 500 492 486 500 486 508 
458 423 546 502 495 496 496 494 515 
708 497 425 504 487 489 497 512 490 
533 505 483 483 505 489 490 512 471 
471 512 513 539 607 297 473 506 521 
597 662 613 248 541 560 500 508 507 
547 458 546 502 509 510 502 496 509 
509 496 528 515 494 501 503 1178 502 
488 451 647 489 505 504 497 511 512 
532 426 517 426 532 574 473 577 506 
455 823 474 500 507 498 499 586 435 
486 493 547 509 1179 510 510 503 502 
425 488 708 530 550 487 487 504 516 
504 518 516 518 533 575 505 533 518 
504 505 518 473 538 519 297 578 538 
506 577 520 473 519 577 521 506 520 
582 354 557 597 552 467 467 552 499 
498 507 522 435 586 618 523 508 525 
507 508 523 524 523 525 508 486 525 
486 547 565 509 527 514 514 527 548 
548 529 514 529 510 514 569 503 510 
503 569 647 570 487 571 487 516 530 
531 532 517 1190 534 518 518 535 516 
534 535 518 517 513 531 511 497 536 
512 511 536 537 1180 538 297 606 578 
297 576 606 297 607 576 520 579 521 
521 557 354 464 582 597 498 823 456 
522 507 1181 1181 542 522 524 525 543 
560 599 526 599 564 526 525 486 554 
501 1182 544 564 1182 501 528 496 549 
496 515 549 528 527 509 546 423 570 
529 569 510 534 551 535 535 530 516 
535 551 530 551 550 530 538 1180 537 
597 613 558 597 558 552 522 540 498 
1181 524 542 525 554 543 486 553 554 
486 565 553 527 1189 548 527 528 1189 
544 515 501 549 515 544 529 548 569 
487 555 571 555 487 593 487 594 593 
594 487 550 1183 1184 556 574 532 531 
531 513 574 497 693 536 519 608 577 
538 608 519 557 521 579 796 443 474 
540 522 584 499 552 585 499 585 586 
541 1115 559 541 559 560 561 584 542 
542 584 522 524 561 542 543 554 562 
524 543 562 554 563 562 554 553 563 
553 565 563 567 1186 568 590 528 549 
549 544 545 549 1182 591 1182 564 591 
1189 566 548 565 547 546 548 1187 569 
546 570 565 572 571 555 572 555 593 
551 534 634 534 575 634 1185 551 634 
550 1185 573 1185 634 573 538 578 608 
539 609 607 577 579 520 580 557 579 
613 583 558 552 558 583 552 598 585 
559 1115 587 1115 619 587 524 562 561 
599 622 564 601 563 565 588 1187 589 
1188 589 1187 1189 590 1188 1188 590 589 
528 590 1189 549 591 590 1187 588 569 
572 593 592 733 708 488 594 550 573 
536 693 595 596 580 579 580 581 557 
823 498 540 583 598 552 560 559 599 
559 587 599 562 563 621 589 600 588 
601 565 570 602 571 592 602 570 571 
571 572 592 593 594 603 513 738 574 
536 766 512 605 604 1191 578 606 1195 
578 1193 608 1194 1196 1192 577 608 579 
579 608 610 579 610 596 611 580 596 
580 611 581 581 612 557 557 612 582 
582 612 597 614 583 613 583 614 598 
639 540 584 585 598 615 586 585 617 
585 615 617 586 617 618 584 561 616 
561 562 621 599 620 622 622 623 564 
686 563 601 588 600 624 590 600 589 
590 625 600 591 625 590 564 623 591 
591 623 625 601 626 686 601 570 602 
626 601 602 588 624 647 569 588 647 
602 627 626 602 592 628 628 592 629 
592 593 629 629 593 630 603 631 593 
593 631 630 603 594 631 631 594 632 
594 573 633 634 575 692 573 634 633 
536 595 766 513 512 767 576 607 606 
606 607 1195 607 609 635 636 609 539 
610 637 596 596 637 611 581 611 612 
718 540 639 584 616 639 599 587 620 
561 621 616 621 675 616 621 700 640 
563 700 621 622 641 623 563 686 700 
600 643 642 625 643 600 625 644 643 
623 644 625 628 1211 602 647 733 488 
628 629 648 629 649 648 629 630 649 
630 631 650 594 652 651 594 651 632 
594 633 652 633 710 652 497 708 693 
634 692 710 633 634 710 693 694 595 
1195 607 654 653 1195 654 608 1193 655 
1193 1195 653 655 1193 653 607 635 654 
609 636 635 610 608 655 611 637 658 
657 611 658 637 610 658 610 655 658 
443 819 539 611 657 612 654 659 653 
653 659 655 659 658 655 612 657 660 
658 660 657 612 660 597 659 668 658 
660 661 638 597 660 638 638 661 597 
658 661 660 668 661 658 597 661 662 
659 663 668 663 664 668 613 662 614 
668 662 661 664 698 668 662 665 598 
614 662 598 1203 665 662 667 1203 662 
668 667 662 698 670 668 670 1204 668 
671 670 698 598 665 615 1203 672 665 
672 615 665 668 673 667 674 673 668 
1204 674 668 616 675 639 617 615 672 
666 1197 1205 618 617 1203 667 618 1203 
673 618 667 619 618 673 674 619 673 
669 1198 1206 587 619 1204 670 587 1204 
620 587 670 671 620 670 676 677 620 
676 678 677 675 621 640 677 622 620 
677 679 622 679 641 622 624 600 683 
682 624 683 642 643 684 684 643 644 
644 623 685 642 683 600 682 645 624 
627 1211 686 626 627 686 624 645 647 
683 645 682 642 704 683 684 703 642 
703 704 642 644 703 684 705 703 644 
685 687 644 687 705 644 647 645 688 
688 646 647 689 1201 1209 627 602 1211 
628 648 1211 1202 1199 691 649 630 650 
650 651 649 651 650 631 651 631 632 
574 788 533 574 738 737 656 635 636 
539 695 636 636 695 656 539 819 695 
635 696 654 696 697 654 654 697 659 
697 714 659 714 715 659 659 715 663 
663 715 664 715 698 664 698 676 671 
718 823 540 699 718 639 675 699 639 
675 640 699 677 678 679 678 680 679 
641 679 680 641 680 681 641 681 701 
623 641 701 623 701 685 683 704 702 
683 1371 645 702 1371 683 1371 688 645 
1213 1372 1200 704 1210 702 687 706 705 
646 1210 647 690 647 1210 647 690 742 
733 647 742 1211 648 649 649 651 707 
652 707 651 652 734 707 652 710 734 
708 762 693 692 575 709 692 709 710 
595 694 766 512 766 767 513 767 768 
513 768 795 513 795 738 656 712 635 
712 696 635 712 656 711 695 819 746 
712 697 696 712 713 697 713 714 697 
823 796 474 715 716 698 716 717 698 
717 676 698 671 676 620 676 717 678 
717 719 678 699 640 700 1212 720 1207 
678 719 1214 678 1214 680 722 721 680 
1214 722 680 681 680 1392 1216 724 1208 
681 725 701 681 1392 725 700 686 770 
701 726 685 726 701 725 686 1211 770 
685 726 687 727 726 725 687 728 706 
687 726 728 727 728 726 730 729 1210 
704 730 1210 754 730 704 703 754 704 
752 754 703 731 752 703 705 731 703 
753 731 705 728 753 705 706 728 705 
1210 729 690 690 732 742 707 761 1211 
649 707 1211 733 760 708 707 734 761 
762 735 693 575 533 814 709 575 736 
710 709 736 710 736 734 693 735 694 
746 711 695 695 711 656 443 796 847 
848 847 796 719 722 1214 700 770 699 
1392 680 721 1392 721 1373 727 725 741 
690 729 732 708 760 762 736 743 734 
711 745 712 745 711 746 745 713 712 
718 699 823 719 717 747 747 1393 722 
719 747 722 1393 747 749 722 1393 721 
1373 721 748 1217 1393 739 1217 739 723 
723 739 740 1392 741 725 1392 740 741 
729 730 750 732 729 750 750 730 751 
751 730 754 1224 1225 1218 732 750 742 
733 742 750 733 750 751 755 733 751 
754 755 751 752 755 754 757 752 731 
778 757 731 756 778 731 777 756 753 
756 731 753 757 755 752 758 757 778 
760 733 755 757 760 755 759 760 757 
758 759 757 735 762 744 533 788 1273 
533 1273 814 575 814 789 575 789 736 
735 744 694 574 737 763 738 764 763 
763 737 738 694 744 766 767 816 768 
738 795 764 746 818 745 443 1422 819 
715 852 716 747 717 769 747 769 749 
749 769 771 1223 772 1215 749 771 1393 
771 1229 1393 739 1393 1229 739 1229 1394 
739 773 740 1230 774 1219 775 741 740 
740 773 775 1221 1233 1234 741 776 727 
727 801 728 801 809 728 756 777 778 
758 778 779 758 779 759 1211 761 863 
759 779 780 760 780 810 759 780 760 
810 782 783 810 783 760 760 783 762 
734 781 761 784 787 786 787 792 765 
762 783 744 764 785 786 786 785 784 
763 764 786 787 763 786 765 763 787 
574 763 765 574 806 788 736 789 790 
736 790 743 734 743 790 574 765 792 
1222 1237 793 766 744 1238 767 766 794 
766 1238 794 767 794 816 746 819 818 
443 847 845 822 796 823 717 797 769 
771 769 797 1394 1229 1226 1394 1226 1374 
1231 799 773 776 775 773 1232 1235 1220 
727 776 800 728 777 753 777 728 830 
802 803 784 784 803 787 803 804 787 
761 781 790 784 785 802 1236 1237 1222 
783 782 744 791 782 805 574 792 806 
734 790 781 791 805 1238 764 795 815 
785 764 815 745 818 820 820 821 745 
745 821 713 821 846 713 713 846 714 
714 846 715 715 846 852 716 824 717 
824 853 717 717 853 797 797 798 771 
807 797 853 798 797 807 1227 1240 1228 
1374 1226 1239 1374 1239 1241 773 799 808 
800 776 773 773 808 800 770 1211 902 
800 857 727 801 727 857 728 809 830 
777 830 877 778 777 877 779 778 877 
1211 863 908 779 877 780 761 812 863 
813 782 810 803 802 811 833 803 811 
804 803 833 761 790 812 804 792 787 
782 813 805 802 785 837 789 814 1375 
790 789 1375 837 785 815 840 806 792 
795 768 815 794 1238 817 794 817 816 
443 845 1422 822 850 796 852 824 716 
853 825 807 1240 826 1228 825 798 807 
825 1249 798 1241 1239 1248 1241 1248 827 
799 828 808 1250 828 799 906 800 808 
808 828 906 857 800 906 857 829 801 
829 809 801 809 909 830 810 780 831 
831 780 877 833 811 832 804 833 862 
813 810 834 837 832 802 832 811 802 
863 812 835 1242 1243 1254 813 834 805 
788 984 838 788 838 1273 814 839 1253 
814 1253 1375 815 768 837 816 836 768 
816 817 836 819 841 818 820 818 821 
818 844 821 845 843 1422 821 844 846 
851 850 822 770 822 823 946 824 945 
823 699 770 853 824 946 1259 854 1395 
1246 1261 1247 827 1248 1376 827 1376 855 
1250 1262 828 1251 1263 856 858 877 830 
859 858 830 832 860 910 810 864 834 
804 862 792 1252 865 1258 835 1377 863 
834 882 805 768 836 912 866 768 912 
837 768 866 1256 1255 867 838 1272 1273 
814 1273 839 869 836 817 872 869 817 
882 870 805 1238 805 871 871 805 870 
872 817 871 871 817 1238 1422 841 819 
796 849 848 796 850 849 822 770 851 
824 852 945 853 874 1261 874 875 1261 
1399 1245 1378 828 1262 906 829 857 907 
950 1211 908 878 877 1264 830 909 859 
831 864 810 831 877 864 910 861 832 
832 861 833 833 861 862 864 1275 834 
832 837 860 862 840 792 1269 1257 1271 
834 879 882 806 956 788 838 984 1272 
1396 868 1379 840 881 956 956 806 840 
883 869 872 1426 842 1244 1425 885 844 
885 884 844 1424 885 1425 843 886 1422 
884 846 844 885 846 884 1423 846 885 
886 887 1422 843 887 886 845 887 843 
1422 895 846 887 895 1422 845 895 887 
888 895 845 847 888 845 846 889 852 
895 890 846 890 889 846 891 895 888 
847 892 888 892 891 888 893 892 847 
848 873 847 873 893 847 1277 1278 1276 
873 1380 893 1281 1282 1279 1402 895 891 
848 849 873 849 850 873 890 894 889 
895 894 890 1402 896 895 1280 1283 1401 
873 898 1380 898 896 1380 889 897 852 
894 897 889 895 898 894 898 897 894 
896 898 895 899 898 873 850 900 873 
900 899 873 901 900 850 901 850 851 
901 851 770 897 945 852 770 902 927 
853 946 874 875 946 903 874 946 875 
904 1247 1261 1261 903 904 903 1261 875 
1397 1260 1287 1397 1287 876 905 856 1263 
1398 1400 1288 1262 1382 906 932 902 1211 
1001 809 829 907 1001 829 909 860 859 
909 910 860 864 880 1275 911 880 864 
877 878 864 878 911 864 858 912 878 
912 938 878 859 913 858 913 912 858 
914 913 859 859 860 914 1265 915 1268 
1267 1290 1266 912 913 866 913 914 866 
866 914 837 914 860 837 862 916 840 
916 881 840 1415 969 863 879 1419 882 
880 917 882 912 836 918 1273 1272 940 
919 918 869 869 918 836 869 883 919 
872 921 883 882 920 870 872 922 921 
871 922 872 870 920 922 871 870 922 
898 923 897 898 924 923 899 960 898 
898 960 925 900 926 899 899 926 960 
900 901 926 897 943 945 923 943 897 
770 927 901 1284 928 1286 876 1287 1285 
876 1285 1292 876 1292 929 1296 930 1274 
1400 1404 1288 1381 1403 931 1382 1405 906 
907 857 933 909 934 910 934 935 910 
908 863 951 910 967 861 936 916 1289 
878 937 911 938 937 878 1289 916 862 
788 956 983 788 983 984 1272 984 939 
1272 939 940 940 1302 1273 1270 1273 1408 
919 883 942 942 918 919 898 925 924 
927 926 901 902 972 927 946 1293 903 
946 947 1293 1305 948 928 929 1292 1304 
929 1304 1297 1295 949 1297 1405 1294 906 
1211 950 932 906 933 857 933 966 907 
1316 966 933 809 991 909 991 934 909 
910 935 967 967 1407 861 861 1407 1289 
1407 936 1289 954 880 911 937 954 911 
916 936 881 880 954 917 938 955 937 
912 918 955 938 912 955 1273 1302 1408 
954 957 917 937 957 954 917 957 882 
937 958 957 955 959 937 959 958 937 
942 883 955 918 942 955 958 882 957 
955 883 959 920 882 922 922 882 958 
883 921 958 883 958 959 921 922 958 
943 923 995 925 944 924 944 925 960 
1291 961 1303 972 1311 960 1311 944 960 
945 943 973 946 945 973 946 1306 947 
928 948 1286 1297 1304 1307 1297 1307 949 
962 1298 1295 1295 949 962 1314 906 1294 
1294 1313 1314 902 932 950 1299 1308 964 
950 1315 902 966 1001 907 950 908 1315 
809 1001 991 978 934 991 934 967 935 
1407 967 968 1310 1317 1300 1407 968 1406 
953 952 936 940 939 969 939 970 969 
941 1301 1318 923 1007 995 924 1008 923 
923 1008 1007 927 972 960 927 960 926 
944 1311 1008 943 971 973 973 1306 946 
948 974 1286 949 1307 1319 949 1319 1321 
949 1328 962 975 1328 949 976 963 1312 
906 1314 933 1314 1316 933 977 966 1316 
908 951 1002 1309 980 979 934 978 967 
978 981 967 967 981 994 967 994 968 
952 1049 936 936 1049 881 863 969 982 
939 984 985 939 985 970 943 995 971 
944 1008 924 1311 972 1008 986 1344 974 
975 1418 1328 962 1328 1324 1020 1418 902 
902 1315 1020 963 976 965 1324 977 1316 
990 989 977 977 989 966 989 990 966 
1315 908 1025 978 991 992 1003 992 991 
908 1002 1025 993 1329 979 951 863 1002 
994 1325 1406 1406 968 994 952 1383 1049 
1002 863 1006 863 982 985 985 982 970 
969 970 982 881 1030 956 1010 971 995 
971 996 973 971 1010 996 902 1013 972 
1306 973 1014 1014 1327 1320 1306 1014 1320 
1344 1286 974 1321 1319 1326 1326 987 1321 
1017 902 987 988 1322 1323 998 997 1324 
998 1324 1328 997 999 1324 1333 1410 1411 
1324 999 977 990 999 998 999 990 977 
966 990 1000 1001 966 1000 1001 1003 991 
992 1003 1330 979 980 993 993 980 1004 
981 978 994 1334 1325 994 1383 1385 1049 
1002 1006 1348 1337 1005 1349 1049 1030 881 
863 985 1006 983 1032 1335 984 983 1335 
985 984 1006 984 1335 1006 956 1030 1058 
1032 983 956 1058 1032 956 1008 972 1009 
1012 973 996 1011 1012 996 1014 973 1012 
1013 902 1015 1014 1016 1327 902 1017 1015 
987 1326 1016 987 1016 1017 1019 998 1328 
1018 1328 1418 1332 1345 1331 1019 990 998 
1020 1315 1021 1022 990 1019 1001 1000 1023 
1024 1001 1023 1315 1039 1021 1315 1025 1039 
1042 1001 1024 1003 1001 1042 1003 1042 1330 
1026 1330 1042 1025 1002 1027 992 1330 1384 
978 992 994 1385 1029 1049 1338 1031 1336 
1010 995 1033 1033 995 1007 1007 1008 1033 
1034 1339 1340 1035 1416 1036 996 1010 1011 
1416 1013 1036 972 1013 1416 1012 1011 1412 
1354 1341 1357 1015 1353 1013 1016 1014 1017 
1014 1015 1017 1328 1018 1019 1018 1418 1020 
1019 1021 1022 1000 990 1022 1023 1000 1022 
1039 1024 1022 1024 1023 1022 1022 1021 1039 
1040 1024 1039 1040 1041 1024 1025 1040 1039 
1347 1409 1334 1330 1026 1029 992 1028 994 
1334 994 1347 1330 1029 1385 1035 1008 1350 
1416 1035 1350 1011 1044 1038 1037 1355 1012 
1013 1038 1044 1356 1342 1352 1355 1015 1014 
1012 1355 1014 1351 1343 1360 1386 1351 1360 
1045 1015 1355 1019 1018 1020 1019 1020 1021 
1346 1359 1358 1041 1042 1024 1040 1025 1046 
1026 1042 1046 1025 1027 1046 1026 1046 1027 
1029 1026 1027 1047 1029 1048 1029 1027 1048 
1047 1049 1029 1027 1002 1048 1002 1348 1048 
1048 1348 1056 1335 1032 1348 1030 1050 1058 
1043 1032 1058 1051 1033 1052 1052 1033 1053 
1053 1033 1008 1008 1035 1036 1033 1051 1010 
1052 1054 1051 1051 1044 1011 1010 1051 1011 
1044 1051 1054 1054 1055 1044 1055 1013 1044 
1055 1036 1013 1040 1046 1041 1041 1046 1042 
1049 1057 1030 1057 1050 1030 1043 1058 1059 
1032 1043 1060 1043 1059 1060 1060 1348 1032 
1008 1036 1053 1053 1055 1052 1055 1054 1052 
1036 1055 1053 1047 1057 1049 1047 1048 1061 
1057 1047 1061 1048 1056 1061 1057 1061 1056 
1056 1062 1065 1056 1060 1062 1056 1348 1060 
1050 1063 1064 1058 1050 1064 1057 1065 1063 
1057 1063 1050 1065 1057 1056 1059 1064 1062 
1058 1064 1059 1062 1060 1059 1065 1062 1063 
1062 1064 1063 
