# vtk DataFile Version 5.1
vtk output
ASCII
DATASET POLYDATA
POINTS 781 float
31.8833 28.1389 1.919 31.7593 28.6138 2.24402 31.039 28.9763 2.4158 
27.7183 29.422 4.51837 30.4724 28.1354 4.29543 32.1796 28.7086 3.45021 
30.269 31.7756 4.19793 28.3336 28.4562 5.52467 28.1192 31.1182 4.93683 
32.0784 33.6379 5.5745 33.973 33.7456 6.33587 33.6536 34.9051 5.40223 
33.7625 35.0246 5.86516 26.9521 28.876 6.3362 28.0955 28.1553 6.71596 
26.3776 29.4764 6.50369 32.6524 32.407 6.65933 29.9131 33.1631 6.51149 
32.2577 33.9137 6.21092 31.9903 35.7082 6.38859 28.0345 32.8238 7.11843 
32.9148 36.8259 7.311 33.6362 37.1195 8.10377 22.0528 25.3526 8.03843 
23.0627 25.7737 8.90312 32.3045 28.7397 10.0669 25.2591 29.118 7.91719 
23.5373 29.004 9.14501 25.6106 28.0812 8.57187 27.623 27.6798 8.54144 
26.0308 31.6596 7.48495 32.2062 31.5256 8.12196 32.8137 33.4228 7.16285 
34.0687 33.1279 7.11122 27.566 33.3332 8.663 30.2455 33.0259 7.71592 
34.3415 35.7512 8.63432 32.6981 37.2764 7.94443 23.6345 27.2733 9.03444 
31.5965 27.983 8.46122 33.9657 31.8966 9.48195 30.8349 32.481 8.51253 
31.9101 35.7612 8.69631 33.0029 38.8684 9.30534 34.5251 38.4645 10.6925 
33.9811 39.5883 10.7224 19.8816 25.4932 9.96802 22.7248 25.1962 9.23513 
21.368 27.5051 9.68883 25.5311 26.7382 9.91937 30.48 27.1167 10.4313 
31.8994 27.9519 10.6573 32.0759 29.3011 11.0356 23.4497 31.194 10.0971 
33.9676 31.5164 10.0118 30.0523 31.7838 10.7687 25.6215 33.7157 10.2459 
29.2118 32.7528 9.60698 27.5667 33.6833 10.5592 34.6633 33.3296 10.5851 
31.8456 35.387 9.75051 34.8858 35.5046 10.8572 30.6456 36.3015 11.108 
32.403 39.422 9.95295 18.5139 24.8588 12.5764 25.8745 26.1121 10.9572 
19.4664 26.7823 10.7344 32.3888 33.917 12.4735 30.6512 39.1033 10.9182 
17.4138 25.7799 12.8169 18.3733 26.9788 11.9454 27.7825 26.0816 12.5373 
31.8209 27.5578 12.0022 34.1745 31.5441 11.9136 27.9992 34.0917 11.7646 
34.3923 31.9374 11.8638 28.171 35.8707 12.3025 29.9382 35.6777 12.7147 
26.3062 37.1551 12.8528 29.4777 37.562 11.546 28.0663 37.674 12.3627 
30.7768 39.7601 11.4184 34.486 40.7019 11.5318 34.3224 41.6799 12.3245 
39.3145 42.3335 12.0759 40.0742 42.2188 12.4464 38.9374 43.5331 12.7134 
40.0783 43.1239 12.647 16.0793 24.9277 15.2727 31.7819 28.9799 14.8791 
32.7091 32.7478 15.5932 35.8802 32.2154 12.8789 36.1064 33.5696 12.3745 
41.2241 33.2799 12.8519 41.057 32.1363 13.1685 41.7572 33.0613 13.149 
42.6114 33.0079 13.897 36.1517 35.0691 12.1256 40.7086 37.7766 12.7916 
35.9634 40.1261 11.9004 40.2642 40.0739 12.6783 32.4368 41.8194 12.9315 
41.2857 41.9497 13.9743 38.6311 45.029 14.1023 21.6289 24.3023 13.8516 
25.8762 24.4997 14.1435 26.6518 24.8957 13.8095 16.9909 27.1293 13.7974 
31.7202 27.408 14.4676 30.3902 31.6431 14.3211 34.3065 31.2116 14.0614 
35.9346 31.39 13.5976 42.538 31.4153 14.0818 29.1317 33.6792 13.1625 
30.4322 33.567 14.5484 24.8608 36.6721 13.4651 42.1426 37.6662 14.2918 
25.7354 37.8993 13.9986 41.6515 37.9486 13.5918 40.4361 43.7192 13.6041 
28.2347 24.4874 15.7986 16.6699 24.5677 16.8968 15.198 24.963 16.351 
32.1833 27.1858 16.411 32.3388 29.844 16.1576 33.6384 31.1214 15.5964 
32.8873 32.5918 15.055 39.7608 45.1697 14.8027 27.8636 24.1243 16.4327 
29.9394 25.5711 16.0082 15.7952 24.2325 16.4853 19.1003 25.1266 16.4141 
21.8046 24.8994 16.1979 23.6944 24.5723 16.4203 25.8819 24.1673 15.84 
15.7409 27.2777 16.4556 17.5307 31.1125 16.6756 32.3449 31.43 16.106 
33.6682 30.1589 16.3791 41.158 29.4148 16.3389 43.3172 30.7894 16.251 
31.9952 32.7692 15.5357 32.3279 44.17 16.2652 40.1797 46.0457 16.6777 
14.931 23.6893 17.6896 13.0458 23.9858 18.2342 16.3419 24.1271 17.1947 
28.0894 23.7845 18.1967 14.5626 25.4819 17.9894 16.318 26.8234 17.0131 
16.0443 28.794 17.5898 42.79 29.7274 16.5615 44.2213 29.8815 17.9834 
38.6731 47.9164 17.9603 17.1782 25.1413 18.0073 16.7775 23.9102 18.4381 
29.7108 23.8947 18.8901 12.7601 24.7988 18.5999 22.5201 25.7483 18.3681 
24.7522 24.5247 18.2039 17.2392 27.671 18.2087 18.8551 27.0744 18.2864 
20.6854 26.8685 18.3629 31.7292 25.0626 18.5473 18.1291 27.6363 18.2864 
34.0469 27.255 17.7879 43.3608 27.1768 17.8989 44.5236 27.3595 18.4944 
15.3962 27.8626 18.718 36.2531 28.5226 17.3214 30.0025 44.0749 18.2193 
31.6363 44.7533 17.6284 40.8072 46.1696 17.9779 36.4766 48.1938 18.689 
34.6448 47.4559 18.6467 40.1228 47.6216 18.6245 13.0234 23.5678 19.9074 
12.4419 24.5706 18.8509 33.7872 25.7199 18.7284 40.6839 25.6013 18.6107 
43.0098 25.5123 18.7419 44.9759 25.1837 19.8305 13.4869 27.7119 19.8363 
14.5851 29.6397 19.5326 15.2986 23.3031 20.017 19.561 24.7718 19.5188 
19.3153 23.8279 20.422 21.4329 24.6875 19.866 21.8151 24.1027 20.5844 
23.6136 24.6645 19.4501 31.7436 23.8139 20.7076 33.8481 24.6654 19.7486 
43.2695 24.5971 19.5963 13.7055 29.0054 20.3917 41.2966 46.425 19.7733 
40.7621 48.1888 20.0666 38.8847 49.6644 20.359 10.8 24.104 22.4294 
10.4391 25.1142 22.529 25.7409 23.5141 22.0357 34.2916 23.6182 22.0665 
42.9337 23.4384 21.9804 44.3278 24.2063 20.5472 45.0964 23.7263 22.1555 
11.6702 24.8949 20.1092 12.8911 29.5645 22.0389 39.9448 49.3262 20.4963 
19.3353 23.3316 22.2204 28.1392 46.0714 22.6049 34.4017 49.649 22.4756 
40.7464 49.9963 22.1729 10.4686 23.9193 23.7148 12.7016 23.3958 23.869 
46.2001 24.049 24.0706 46.7 24.7823 24.3881 36.6406 51.3311 24.1025 
21.4656 23.3639 24.34 23.6142 23.3871 24.3863 45.1437 23.4196 23.9734 
12.1681 30.0019 23.4195 46.7372 23.763 26.6363 9.57853 24.1109 24.9146 
47.2057 25.0905 25.9814 17.589 39.7869 25.9557 23.4063 44.2314 25.8454 
25.7319 46.1081 26.0096 43.0309 48.2121 25.909 40.8144 51.6804 24.8412 
15.1209 23.4738 25.9841 8.6178 27.2097 26.1928 9.17034 29.1577 26.5831 
10.8567 31.5498 26.2425 8.35729 23.9819 28.5364 7.60692 24.9456 28.0123 
47.7235 24.8229 27.7574 7.5552 25.054 28.543 7.57393 24.2912 28.7889 
42.8052 23.3281 29.9453 47.6067 23.5934 30.342 7.35951 24.9812 29.3319 
48.2485 25.2565 29.6059 9.51385 31.5523 29.6987 9.83176 32.1431 29.6469 
10.8349 33.8692 29.5355 12.3193 36.1418 29.8133 15.445 39.7501 29.8315 
40.6525 53.5524 29.6844 8.20248 23.96 30.0581 25.7991 23.9765 30.2153 
48.3197 25.0997 30.0971 7.51349 26.6741 29.8866 48.3611 23.8881 31.2353 
6.91599 23.9024 31.4556 48.5982 27.3408 32.0059 29.8323 50.4882 31.7534 
8.34992 23.3441 31.4111 42.7835 22.8108 31.7327 47.1395 22.8285 31.6857 
42.3974 54.0509 32.0627 6.31579 23.2228 32.5839 49.1191 23.3075 32.7497 
43.8541 53.1636 33.061 6.63702 21.5806 33.9644 8.37082 21.3589 33.9337 
44.9259 21.2976 34.2973 49.1171 21.477 34.6344 44.0511 53.8677 34.1227 
40.8867 55.3453 34.0624 5.28079 21.5355 35.458 8.22429 20.6325 35.5081 
10.878 20.6635 35.5932 30.033 20.8017 35.6433 49.5148 21.0279 35.3928 
5.05409 22.8389 35.9792 47.2136 37.7936 35.6827 45.0674 52.5981 35.5141 
44.6189 54.1821 35.8386 42.926 55.9671 36.0783 49.9325 20.6026 37.8968 
50.5918 21.3746 38.0446 4.68846 23.0028 37.6591 43.9637 55.3637 36.324 
43.1362 56.4809 37.5612 30.0473 19.9987 38.143 32.1523 20.0066 38.1643 
48.9206 20.0931 37.9671 44.6621 55.6219 37.9933 3.52787 20.836 39.877 
34.2871 19.3132 39.659 49.4214 19.2809 39.6298 51.3687 21.4147 39.3569 
51.2871 19.7113 40.1782 9.64894 35.124 39.7804 46.7196 48.1905 39.466 
44.6949 56.4899 39.3314 4.12195 19.4618 41.2005 49.388 18.3627 40.6825 
52.2149 18.1973 41.6223 3.23526 19.8272 41.9165 10.8634 19.1298 41.7373 
21.5111 19.1748 41.7889 25.7875 19.0295 41.5574 3.21031 20.9175 41.3662 
52.2804 21.1751 40.9166 51.3342 29.5103 41.5767 40.1263 57.1696 41.6315 
42.7984 57.9782 41.7883 44.5708 57.9116 42.0551 29.938 16.5772 43.1556 
51.7468 16.9886 42.2866 52.8923 17.3557 42.3256 16.8374 44.1917 43.4344 
53.3648 17.1332 42.9601 3.82858 18.4586 43.2667 2.84816 19.5139 43.372 
2.94892 21.1152 43.5932 17.9293 45.048 43.6414 19.3692 46.029 43.5273 
3.22092 18.033 44.37 8.70169 17.9388 43.8731 12.9918 17.9605 43.9588 
23.7919 18.0094 43.9544 29.7462 15.1237 45.5453 53.7876 15.1795 45.4443 
55.194 16.77 45.4799 2.53025 17.4383 45.4132 2.38158 19.004 45.0362 
10.8597 37.7256 45.49 11.8515 39.0528 45.5747 12.7123 40.0623 45.4475 
55.2767 15.2307 46.1138 56.0088 14.7727 46.9414 1.67177 17.0548 46.8801 
46.6487 57.6678 45.6792 2.22781 15.2622 47.5548 4.11673 14.8806 47.3755 
23.6327 14.9865 47.5908 3.04224 15.7998 46.4201 4.21497 15.704 46.2122 
2.06865 19.0058 47.1218 28.0122 51.9888 47.4381 45.3575 58.9012 47.8055 
53.6423 13.3756 47.5302 55.592 13.4579 47.7647 56.948 14.9575 47.8856 
1.97217 15.1279 49.321 56.7483 16.8317 47.8999 34.1815 12.2012 49.3937 
51.3162 12.2258 49.3466 56.7293 12.1412 49.3821 58.9394 12.3323 50.1565 
4.11661 14.4162 49.36 27.2437 14.2113 49.0374 57.5387 16.9901 49.3387 
19.1951 46.2665 49.3722 48.7524 56.7103 49.4808 47.4722 59.0214 50.148 
49.1957 11.6193 51.0259 53.4639 11.4916 51.1938 55.7453 11.7441 50.0288 
58.5462 11.4985 51.3009 59.3631 12.8817 50.4403 60.6364 12.3091 51.8944 
48.2906 57.9141 49.7604 31.5914 12.0669 51.1482 59.4467 11.6597 51.718 
59.3707 14.7974 51.2056 58.3608 17.3705 51.2252 9.36533 35.3575 51.2942 
52.0777 46.1801 50.9233 40.9039 57.7889 51.2737 47.3551 59.2784 51.1571 
32.6059 11.6385 53.311 61.0673 12.3822 53.1476 56.9198 23.1064 51.9167 
55.6457 31.5724 53.5205 10.9493 37.6997 53.2539 50.6963 56.7006 53.5771 
53.4605 11.3287 53.2726 59.9962 11.581 53.2346 1.69904 17.0803 53.2794 
59.1129 16.8064 53.432 58.2914 18.9067 53.1661 57.6153 21.5093 53.3572 
56.921 25.2646 53.5176 12.7443 40.0293 53.2992 13.7573 41.1995 53.186 
49.3741 58.7478 53.3715 47.2685 59.4661 53.1698 57.2918 23.2177 54.9595 
55.3742 33.5902 55.2355 11.9089 39.0439 53.0937 57.753 11.6025 55.4782 
58.8555 11.7404 54.9762 60.3182 12.6294 55.1591 59.819 14.7781 55.3274 
54.2309 39.8542 55.2658 50.8838 58.3448 55.5699 32.5881 11.7289 57.1706 
15.0266 41.9743 57.1807 57.5633 11.6515 57.0668 58.6641 12.0852 56.7377 
59.6712 13.0856 56.9085 10.8737 14.5618 57.1666 27.0191 14.1734 57.2836 
1.86556 16.6215 57.0901 54.204 43.9205 57.2315 53.9463 47.9048 57.4117 
51.2352 58.5935 57.2155 49.2125 59.3428 57.1898 59.9136 12.3072 59.1899 
28.3141 12.9834 59.0893 2.29999 14.8328 60.0829 23.7879 14.5126 59.308 
51.3688 58.7823 58.4329 59.2588 11.8508 59.1876 13.0536 14.5356 59.6097 
53.0952 56.6901 59.2052 2.45361 14.9571 60.0968 4.31544 14.3303 61.1207 
21.3782 14.3951 61.1174 2.53727 17.2984 61.0329 55.9792 23.6582 61.2918 
54.1341 50.1382 61.0861 52.6859 57.7908 59.6197 49.6306 59.1682 61.3359 
51.7231 58.8895 60.9389 25.8861 13.1638 60.6456 26.1997 11.0774 61.6681 
27.7402 12.0552 60.5768 27.7394 11.2152 61.3363 30.1082 11.734 61.0102 
59.0288 11.816 60.7684 15.1527 14.283 61.301 23.2753 14.2903 60.5616 
24.3542 13.5445 61.4613 54.0606 46.0214 60.854 24.4307 11.2916 62.3217 
25.4432 10.6305 62.0872 28.6667 10.5304 62.2011 30.1489 11.0887 62.7367 
31.836 11.8064 63.081 59.0904 12.744 63.4944 2.97581 15.3631 63.3934 
4.1677 14.6372 63.4466 2.84629 16.9764 63.4317 3.66534 19.482 63.4417 
30.2953 51.6608 62.8694 54.2355 56.6612 62.9541 51.3107 59.0187 62.5372 
53.5845 58.0321 63.3176 22.5635 7.80427 63.9161 25.6516 8.97343 62.9347 
28.1151 9.4868 62.9257 23.3236 13.0059 62.4995 57.9919 11.6635 63.1126 
12.777 13.6531 63.3604 17.2375 13.6619 62.9427 20.0716 13.6045 63.0895 
22.0378 13.3628 62.8446 10.1527 14.3136 63.2435 22.4648 8.47608 63.8569 
21.5729 6.69761 64.8301 21.5387 8.51075 64.4436 23.186 6.51849 64.8154 
25.3507 7.22561 64.6712 30.5578 10.9521 64.6056 31.8432 11.8523 64.9444 
55.7377 11.5991 64.8669 12.8153 12.9062 64.3281 58.5994 12.3896 64.1031 
3.84381 15.2659 64.6977 11.3251 13.9291 63.8135 3.16862 16.5891 64.4345 
57.6374 16.5532 65.1739 4.70107 19.8919 65.2602 8.73016 31.5964 64.9581 
53.0844 46.0262 64.8703 36.5199 54.0553 64.8876 54.1401 56.7537 64.8067 
47.2096 57.8992 64.8415 53.1252 58.214 64.5982 20.9654 10.9795 64.6779 
57.458 11.8601 64.4025 11.14 13.4179 65.5323 3.36616 15.5865 64.3767 
7.14548 15.4298 65.3258 9.21279 14.89 65.1885 3.51847 16.3332 64.8443 
18.942 4.28413 67.0925 21.8727 5.39356 65.8241 18.9481 5.96919 66.5874 
23.2091 4.97223 66.7203 30.5813 10.7786 66.1785 31.7257 11.9279 66.8556 
51.2546 11.6442 66.7797 57.4546 12.5952 65.9046 10.2044 14.6968 66.8629 
57.2626 14.5923 66.6349 9.09091 16.0475 66.7129 7.33916 17.7564 66.9019 
8.22887 17.3572 67.377 57.1282 16.8778 66.7283 5.50253 18.8265 66.1734 
5.96361 19.4566 67.165 56.878 18.3962 66.6279 5.39748 21.3999 66.9303 
17.7435 41.9118 66.8346 52.8347 48.1137 66.8003 36.7446 53.6081 66.6969 
38.4808 54.4001 66.9402 49.9695 58.1907 66.6636 19.8237 3.5345 67.6524 
18.1757 5.34986 67.4439 28.0684 6.95756 67.1202 29.7777 8.70432 66.6684 
11.2761 10.8076 66.9743 11.5595 9.36935 67.5175 12.5167 9.18876 67.347 
17.3523 8.50555 67.4865 55.9434 12.4448 66.8373 10.5945 13.2691 67.1841 
5.80818 23.2548 67.3062 20.0191 3.31962 68.2974 18.6959 4.46069 69.2009 
17.9741 5.06103 68.4973 20.8925 3.04658 68.7906 23.5958 3.85091 69.0451 
17.6685 7.12054 67.8091 17.0871 6.86513 68.9652 28.3193 6.24642 68.5157 
29.3506 7.54625 67.4507 30.2003 8.29841 68.2645 10.5805 8.53125 68.9275 
10.0735 10.4436 68.306 30.6492 10.9751 68.1265 51.6784 12.0035 67.7755 
51.4246 12.6693 69.0449 9.98676 14.8737 68.1549 54.6872 13.509 68.237 
56.5669 14.557 67.4972 55.6134 15.0648 68.4964 9.01249 15.6757 68.6637 
8.60807 16.7434 68.2969 5.85869 18.917 68.5868 5.25542 21.1458 68.581 
44.9603 56.2386 68.8205 51.3744 57.6442 68.5837 52.4938 57.3834 68.3077 
30.2803 3.88257 69.9329 30.2437 3.4606 69.9252 25.6416 4.99741 68.9692 
29.9261 5.26187 69.4042 27.8756 5.60055 69.7807 29.9691 6.36924 68.8978 
15.4289 7.73506 69.2967 16.1951 7.91188 68.4729 6.80256 17.4918 68.7263 
5.06044 19.2653 69.1998 52.9838 56.1551 69.2232 49.1504 57.2838 69.1537 
51.7374 57.2252 69.4111 19.4373 4.37899 70.1135 28.1913 4.94123 71.2775 
30.4847 6.61012 70.3827 1.18395 8.12486 70.6614 1.72983 7.72439 71.0325 
4.44091 8.2374 70.1366 8.42947 8.087 70.1478 8.98873 8.80658 69.4164 
8.75854 7.61873 70.9202 15.4033 7.39922 70.4492 3.78835 9.14459 69.831 
6.94693 9.28791 69.6197 3.92833 10.1592 69.6857 2.76782 12.3554 70.5051 
8.75839 13.188 69.1178 3.28736 17.3529 70.5986 3.08274 17.1403 71.1019 
4.76633 17.5561 69.4735 4.2682 19.448 70.3949 55.2949 20.8712 70.5755 
5.96846 23.2271 71.0673 55.1119 23.1187 70.7274 52.5813 35.6183 70.7074 
17.1947 39.5515 70.6177 25.6755 46.1475 70.8541 28.0885 47.7567 70.6614 
30.5455 49.2773 70.4298 32.1752 50.1066 70.7812 52.5251 50.2381 70.7181 
52.8779 54.6472 70.7132 52.728 55.7167 70.2288 51.905 56.7976 70.4085 
17.3019 6.7038 70.9067 55.0188 19.2162 70.6771 18.7211 40.5757 71.2463 
26.4689 46.929 70.3014 30.3184 1.76398 72.9755 25.8752 3.2408 73.5493 
28.0834 4.15002 72.5321 1.56395 8.00815 71.9008 2.30788 7.69958 71.8285 
4.56082 7.63089 72.2452 10.9221 7.34512 72.5875 2.55042 10.7937 72.4771 
2.79021 15.4977 72.2059 3.64318 17.9063 72.5318 6.28353 23.1673 72.7369 
10.2151 29.7067 72.8787 19.2284 40.0094 72.8553 32.5014 49.5587 72.4854 
52.5987 54.4357 72.7278 51.5047 55.8304 73.422 28.4621 3.79714 73.1263 
52.335 54.974 73.0402 30.273 2.00341 74.1165 26.1953 3.19155 74.2735 
27.9949 3.01422 75.3202 6.99109 8.87174 74.7875 3.95815 10.3803 74.1215 
42.5071 12.8833 74.4287 4.10951 17.1783 74.4454 8.67845 25.3202 74.5436 
53.3993 25.4041 74.6481 53.4866 27.2676 74.7849 53.305 29.2182 74.8062 
27.9825 45.8784 74.6235 29.6182 46.6781 75.027 51.7326 54.7168 75.762 
51.2724 55.5153 74.3375 29.9764 2.44386 75.8327 28.2947 2.92654 76.3293 
23.2958 6.21616 76.9358 15.1783 7.44904 76.573 9.1058 9.45206 76.471 
6.45451 10.8481 76.4461 5.03955 13.1783 76.4178 40.7676 14.988 76.7664 
5.00022 17.1088 76.0167 42.9215 16.8979 76.5234 6.40234 19.4017 76.8239 
51.3749 23.6892 76.0695 51.9707 24.9104 76.6159 52.5994 25.4775 76.3487 
53.147 29.0861 76.484 19.1103 37.5943 76.8444 30.0042 46.0506 76.6578 
51.8876 54.0207 76.5739 49.4844 54.4061 76.8136 30.6882 10.8021 78.7956 
41.2436 16.5859 77.4542 52.1719 52.7606 76.7888 28.3635 4.29943 78.8149 
23.6473 6.49329 78.5733 31.7049 11.8015 78.7936 51.7191 27.7393 78.8478 
52.3031 26.6427 77.3439 38.6613 49.9588 78.4261 51.7633 50.5135 78.8946 
51.3904 52.6732 78.6897 47.6378 53.4615 78.1722 49.6334 53.6364 78.3062 
50.8671 53.5495 77.9194 30.5155 10.9466 80.7465 29.5515 6.70557 80.1881 
29.8818 8.82189 80.8231 11.435 9.61336 80.1653 10.2972 10.8695 80.9233 
9.30629 11.4317 80.1264 31.8669 12.4668 81.1988 42.5264 21.5634 80.0851 
43.0146 23.0827 80.8514 44.6718 23.6058 80.1391 51.7691 29.658 80.193 
51.0631 49.6452 81.2656 50.8993 51.6727 80.647 49.6768 52.2282 80.552 
50.1002 29.1071 81.1192 27.7464 6.89308 81.7945 18.7859 8.03963 82.8727 
29.41 9.27082 82.0362 29.7354 10.9657 82.5977 51.6943 33.6436 82.5081 
51.7299 35.2925 82.243 26.0425 39.4873 82.234 50.7427 48.5566 82.5586 
50.383 50.5849 81.7066 49.5976 50.8693 82.0644 21.3475 8.26238 84.5004 
25.5948 8.90597 84.8335 27.2659 9.49354 84.3059 27.7831 10.6909 84.5522 
21.6988 33.6785 84.2361 49.978 33.2814 84.6157 50.8852 34.1154 84.1795 
50.9555 35.6195 84.6963 50.8869 37.5638 84.8693 50.6415 46.1121 84.5001 
12.0338 12.6023 85.0835 23.0894 9.41551 86.6615 21.6445 31.4617 86.259 
22.3288 32.95 85.6584 49.8247 35.5099 86.2627 50.4226 45.7327 86.1195 
49.5052 48.1961 85.3523 22.8568 32.2005 87.0178 23.5457 31.6522 88.4031 
21.3704 9.67416 87.9898 13.5521 15.3455 87.8526 14.8801 18.706 88.4491 
48.7427 36.0616 88.0217 47.2691 35.4218 88.5961 27.7458 35.8688 88.4842 
49.7159 37.4598 88.1439 50.4711 43.9491 88.3044 49.2544 46.5467 87.3457 
19.2182 10.4247 90.688 20.904 10.7657 90.4524 18.0959 10.823 90.3319 
45.021 35.5756 90.3804 50.3848 42.2626 90.2525 49.5058 43.9145 90.5811 
47.4057 45.404 89.825 48.5818 45.2024 89.6685 22.8041 11.8912 89.9131 
46.7159 36.2003 89.8064 49.1379 38.0669 89.8055 47.9322 37.5141 90.3678 
17.2308 17.0383 92.611 44.4809 36.3201 91.6466 36.774 37.7442 92.5849 
48.9961 39.9606 91.9104 19.0502 13.0416 92.833 17.2591 13.2655 92.0308 
17.4427 15.2519 93.0012 30.2142 25.2041 92.4117 27.802 31.6838 92.3426 
33.479 35.6794 92.8522 47.806 39.6889 92.7989 40.9623 41.1425 92.1945 
48.6436 42.0963 93.1584 42.9012 41.7139 92.7685 48.6387 43.109 92.585 
47.3549 43.2348 92.7365 19.499 15.3981 94.0059 20.9592 15.5633 93.6589 
21.3305 17.0565 94.2151 17.9662 17.1957 93.2862 24.3011 23.7896 94.5742 
24.4696 25.4871 94.0116 28.4924 26.5784 94.9831 26.5758 27.5624 94.755 
32.6217 33.246 94.3501 37.9401 33.8635 94.1121 40.7303 35.9841 94.032 
37.4976 35.7393 94.5429 39.0423 37.5108 94.0205 41.1633 39.3267 93.9157 
45.9159 40.3968 94.0273 47.161 40.422 93.7099 48.2462 41.9651 93.4621 
43.452 41.1171 93.5017 47.9043 42.232 93.5866 19.2709 16.9532 94.0734 
21.8983 19.4207 94.4508 22.9985 20.4542 94.553 25.1729 21.7335 94.218 
25.9427 24.0524 94.6109 29.2063 26.0884 94.15 30.3475 27.9192 94.7852 
34.6917 32.0794 94.8904 36.1355 33.7273 94.8521 38.0455 35.3045 94.6142 
36.9563 36.8904 93.4504 42.1369 39.2628 94.1285 45.1213 41.3929 93.7112 
25.6043 24.9531 94.7588 27.5447 27.0133 95.1964 30.1508 29.8437 94.9948 
31.841 31.3585 95.0435 
POLYGONS 1590 4767
OFFSETS vtktypeint64
0 3 6 9 12 15 18 21 24 
27 30 33 36 39 42 45 48 51 
54 57 60 63 66 69 72 75 78 
81 84 87 90 93 96 99 102 105 
108 111 114 117 120 123 126 129 132 
135 138 141 144 147 150 153 156 159 
162 165 168 171 174 177 180 183 186 
189 192 195 198 201 204 207 210 213 
216 219 222 225 228 231 234 237 240 
243 246 249 252 255 258 261 264 267 
270 273 276 279 282 285 288 291 294 
297 300 303 306 309 312 315 318 321 
324 327 330 333 336 339 342 345 348 
351 354 357 360 363 366 369 372 375 
378 381 384 387 390 393 396 399 402 
405 408 411 414 417 420 423 426 429 
432 435 438 441 444 447 450 453 456 
459 462 465 468 471 474 477 480 483 
486 489 492 495 498 501 504 507 510 
513 516 519 522 525 528 531 534 537 
540 543 546 549 552 555 558 561 564 
567 570 573 576 579 582 585 588 591 
594 597 600 603 606 609 612 615 618 
621 624 627 630 633 636 639 642 645 
648 651 654 657 660 663 666 669 672 
675 678 681 684 687 690 693 696 699 
702 705 708 711 714 717 720 723 726 
729 732 735 738 741 744 747 750 753 
756 759 762 765 768 771 774 777 780 
783 786 789 792 795 798 801 804 807 
810 813 816 819 822 825 828 831 834 
837 840 843 846 849 852 855 858 861 
864 867 870 873 876 879 882 885 888 
891 894 897 900 903 906 909 912 915 
918 921 924 927 930 933 936 939 942 
945 948 951 954 957 960 963 966 969 
972 975 978 981 984 987 990 993 996 
999 1002 1005 1008 1011 1014 1017 1020 1023 
1026 1029 1032 1035 1038 1041 1044 1047 1050 
1053 1056 1059 1062 1065 1068 1071 1074 1077 
1080 1083 1086 1089 1092 1095 1098 1101 1104 
1107 1110 1113 1116 1119 1122 1125 1128 1131 
1134 1137 1140 1143 1146 1149 1152 1155 1158 
1161 1164 1167 1170 1173 1176 1179 1182 1185 
1188 1191 1194 1197 1200 1203 1206 1209 1212 
1215 1218 1221 1224 1227 1230 1233 1236 1239 
1242 1245 1248 1251 1254 1257 1260 1263 1266 
1269 1272 1275 1278 1281 1284 1287 1290 1293 
1296 1299 1302 1305 1308 1311 1314 1317 1320 
1323 1326 1329 1332 1335 1338 1341 1344 1347 
1350 1353 1356 1359 1362 1365 1368 1371 1374 
1377 1380 1383 1386 1389 1392 1395 1398 1401 
1404 1407 1410 1413 1416 1419 1422 1425 1428 
1431 1434 1437 1440 1443 1446 1449 1452 1455 
1458 1461 1464 1467 1470 1473 1476 1479 1482 
1485 1488 1491 1494 1497 1500 1503 1506 1509 
1512 1515 1518 1521 1524 1527 1530 1533 1536 
1539 1542 1545 1548 1551 1554 1557 1560 1563 
1566 1569 1572 1575 1578 1581 1584 1587 1590 
1593 1596 1599 1602 1605 1608 1611 1614 1617 
1620 1623 1626 1629 1632 1635 1638 1641 1644 
1647 1650 1653 1656 1659 1662 1665 1668 1671 
1674 1677 1680 1683 1686 1689 1692 1695 1698 
1701 1704 1707 1710 1713 1716 1719 1722 1725 
1728 1731 1734 1737 1740 1743 1746 1749 1752 
1755 1758 1761 1764 1767 1770 1773 1776 1779 
1782 1785 1788 1791 1794 1797 1800 1803 1806 
1809 1812 1815 1818 1821 1824 1827 1830 1833 
1836 1839 1842 1845 1848 1851 1854 1857 1860 
1863 1866 1869 1872 1875 1878 1881 1884 1887 
1890 1893 1896 1899 1902 1905 1908 1911 1914 
1917 1920 1923 1926 1929 1932 1935 1938 1941 
1944 1947 1950 1953 1956 1959 1962 1965 1968 
1971 1974 1977 1980 1983 1986 1989 1992 1995 
1998 2001 2004 2007 2010 2013 2016 2019 2022 
2025 2028 2031 2034 2037 2040 2043 2046 2049 
2052 2055 2058 2061 2064 2067 2070 2073 2076 
2079 2082 2085 2088 2091 2094 2097 2100 2103 
2106 2109 2112 2115 2118 2121 2124 2127 2130 
2133 2136 2139 2142 2145 2148 2151 2154 2157 
2160 2163 2166 2169 2172 2175 2178 2181 2184 
2187 2190 2193 2196 2199 2202 2205 2208 2211 
2214 2217 2220 2223 2226 2229 2232 2235 2238 
2241 2244 2247 2250 2253 2256 2259 2262 2265 
2268 2271 2274 2277 2280 2283 2286 2289 2292 
2295 2298 2301 2304 2307 2310 2313 2316 2319 
2322 2325 2328 2331 2334 2337 2340 2343 2346 
2349 2352 2355 2358 2361 2364 2367 2370 2373 
2376 2379 2382 2385 2388 2391 2394 2397 2400 
2403 2406 2409 2412 2415 2418 2421 2424 2427 
2430 2433 2436 2439 2442 2445 2448 2451 2454 
2457 2460 2463 2466 2469 2472 2475 2478 2481 
2484 2487 2490 2493 2496 2499 2502 2505 2508 
2511 2514 2517 2520 2523 2526 2529 2532 2535 
2538 2541 2544 2547 2550 2553 2556 2559 2562 
2565 2568 2571 2574 2577 2580 2583 2586 2589 
2592 2595 2598 2601 2604 2607 2610 2613 2616 
2619 2622 2625 2628 2631 2634 2637 2640 2643 
2646 2649 2652 2655 2658 2661 2664 2667 2670 
2673 2676 2679 2682 2685 2688 2691 2694 2697 
2700 2703 2706 2709 2712 2715 2718 2721 2724 
2727 2730 2733 2736 2739 2742 2745 2748 2751 
2754 2757 2760 2763 2766 2769 2772 2775 2778 
2781 2784 2787 2790 2793 2796 2799 2802 2805 
2808 2811 2814 2817 2820 2823 2826 2829 2832 
2835 2838 2841 2844 2847 2850 2853 2856 2859 
2862 2865 2868 2871 2874 2877 2880 2883 2886 
2889 2892 2895 2898 2901 2904 2907 2910 2913 
2916 2919 2922 2925 2928 2931 2934 2937 2940 
2943 2946 2949 2952 2955 2958 2961 2964 2967 
2970 2973 2976 2979 2982 2985 2988 2991 2994 
2997 3000 3003 3006 3009 3012 3015 3018 3021 
3024 3027 3030 3033 3036 3039 3042 3045 3048 
3051 3054 3057 3060 3063 3066 3069 3072 3075 
3078 3081 3084 3087 3090 3093 3096 3099 3102 
3105 3108 3111 3114 3117 3120 3123 3126 3129 
3132 3135 3138 3141 3144 3147 3150 3153 3156 
3159 3162 3165 3168 3171 3174 3177 3180 3183 
3186 3189 3192 3195 3198 3201 3204 3207 3210 
3213 3216 3219 3222 3225 3228 3231 3234 3237 
3240 3243 3246 3249 3252 3255 3258 3261 3264 
3267 3270 3273 3276 3279 3282 3285 3288 3291 
3294 3297 3300 3303 3306 3309 3312 3315 3318 
3321 3324 3327 3330 3333 3336 3339 3342 3345 
3348 3351 3354 3357 3360 3363 3366 3369 3372 
3375 3378 3381 3384 3387 3390 3393 3396 3399 
3402 3405 3408 3411 3414 3417 3420 3423 3426 
3429 3432 3435 3438 3441 3444 3447 3450 3453 
3456 3459 3462 3465 3468 3471 3474 3477 3480 
3483 3486 3489 3492 3495 3498 3501 3504 3507 
3510 3513 3516 3519 3522 3525 3528 3531 3534 
3537 3540 3543 3546 3549 3552 3555 3558 3561 
3564 3567 3570 3573 3576 3579 3582 3585 3588 
3591 3594 3597 3600 3603 3606 3609 3612 3615 
3618 3621 3624 3627 3630 3633 3636 3639 3642 
3645 3648 3651 3654 3657 3660 3663 3666 3669 
3672 3675 3678 3681 3684 3687 3690 3693 3696 
3699 3702 3705 3708 3711 3714 3717 3720 3723 
3726 3729 3732 3735 3738 3741 3744 3747 3750 
3753 3756 3759 3762 3765 3768 3771 3774 3777 
3780 3783 3786 3789 3792 3795 3798 3801 3804 
3807 3810 3813 3816 3819 3822 3825 3828 3831 
3834 3837 3840 3843 3846 3849 3852 3855 3858 
3861 3864 3867 3870 3873 3876 3879 3882 3885 
3888 3891 3894 3897 3900 3903 3906 3909 3912 
3915 3918 3921 3924 3927 3930 3933 3936 3939 
3942 3945 3948 3951 3954 3957 3960 3963 3966 
3969 3972 3975 3978 3981 3984 3987 3990 3993 
3996 3999 4002 4005 4008 4011 4014 4017 4020 
4023 4026 4029 4032 4035 4038 4041 4044 4047 
4050 4053 4056 4059 4062 4065 4068 4071 4074 
4077 4080 4083 4086 4089 4092 4095 4098 4101 
4104 4107 4110 4113 4116 4119 4122 4125 4128 
4131 4134 4137 4140 4143 4146 4149 4152 4155 
4158 4161 4164 4167 4170 4173 4176 4179 4182 
4185 4188 4191 4194 4197 4200 4203 4206 4209 
4212 4215 4218 4221 4224 4227 4230 4233 4236 
4239 4242 4245 4248 4251 4254 4257 4260 4263 
4266 4269 4272 4275 4278 4281 4284 4287 4290 
4293 4296 4299 4302 4305 4308 4311 4314 4317 
4320 4323 4326 4329 4332 4335 4338 4341 4344 
4347 4350 4353 4356 4359 4362 4365 4368 4371 
4374 4377 4380 4383 4386 4389 4392 4395 4398 
4401 4404 4407 4410 4413 4416 4419 4422 4425 
4428 4431 4434 4437 4440 4443 4446 4449 4452 
4455 4458 4461 4464 4467 4470 4473 4476 4479 
4482 4485 4488 4491 4494 4497 4500 4503 4506 
4509 4512 4515 4518 4521 4524 4527 4530 4533 
4536 4539 4542 4545 4548 4551 4554 4557 4560 
4563 4566 4569 4572 4575 4578 4581 4584 4587 
4590 4593 4596 4599 4602 4605 4608 4611 4614 
4617 4620 4623 4626 4629 4632 4635 4638 4641 
4644 4647 4650 4653 4656 4659 4662 4665 4668 
4671 4674 4677 4680 4683 4686 4689 4692 4695 
4698 4701 4704 4707 4710 4713 4716 4719 4722 
4725 4728 4731 4734 4737 4740 4743 4746 4749 
4752 4755 4758 4761 4764 4767 
CONNECTIVITY vtktypeint64
1 0 2 1 2 6 4 2 0 
0 1 5 4 3 2 6 2 3 
6 9 1 1 9 5 3 4 7 
8 6 3 12 10 11 0 39 4 
7 14 3 3 14 13 4 14 7 
4 50 14 3 15 8 5 9 16 
17 6 8 6 17 18 9 6 18 
18 16 9 9 11 10 9 10 18 
9 18 19 9 19 11 11 19 12 
4 39 50 39 0 5 13 14 15 
13 15 3 8 15 30 8 20 17 
12 19 21 12 21 22 25 39 5 
26 15 28 14 29 15 15 29 28 
14 50 29 30 26 27 26 30 15 
5 16 25 25 16 31 8 30 20 
18 32 31 33 32 10 16 18 31 
30 56 34 20 30 34 17 20 34 
17 34 35 18 17 35 35 32 18 
32 18 10 10 12 33 33 12 36 
21 19 37 22 21 37 12 22 36 
38 23 48 24 23 38 26 28 27 
28 38 27 53 30 27 31 32 41 
32 35 41 32 42 18 40 32 33 
19 18 42 19 42 37 22 37 43 
37 22 44 22 43 45 44 22 45 
47 23 24 23 64 46 48 23 46 
47 24 38 47 38 49 49 38 28 
29 49 28 65 49 29 65 29 50 
51 39 25 48 27 38 51 25 52 
53 27 48 25 31 52 41 55 31 
55 52 31 30 53 56 55 57 58 
55 35 57 55 41 35 40 33 54 
54 33 59 58 57 34 35 34 57 
54 32 40 60 32 54 32 60 42 
33 36 59 59 36 61 60 62 79 
60 79 37 42 60 37 61 36 44 
37 79 68 36 22 44 37 68 63 
37 63 43 45 43 63 23 47 64 
46 66 48 65 47 49 39 51 50 
89 52 55 58 34 56 67 60 54 
53 78 56 47 105 64 64 105 104 
105 47 65 64 69 70 70 66 64 
64 66 46 65 71 105 50 72 65 
65 72 71 72 50 51 66 70 136 
48 66 136 51 52 72 136 53 48 
89 58 74 55 58 89 73 75 54 
54 59 73 73 59 75 75 67 54 
58 78 76 56 78 58 76 74 58 
67 62 60 59 61 75 62 77 79 
80 76 78 81 79 80 44 45 82 
68 79 81 81 63 68 101 63 81 
63 101 82 45 63 82 87 85 84 
87 84 86 69 64 88 72 129 71 
52 89 72 73 90 75 91 75 92 
91 73 75 91 92 94 92 93 94 
93 95 94 94 95 96 90 67 75 
92 75 97 93 96 95 67 90 62 
75 61 97 97 61 99 116 96 93 
79 77 76 79 76 80 61 44 99 
92 97 98 98 97 99 93 92 98 
98 116 93 117 81 80 44 82 99 
98 99 100 142 101 81 82 101 83 
99 82 83 100 99 84 84 99 83 
85 100 84 85 102 100 103 86 83 
83 86 84 64 104 88 106 105 71 
88 107 69 107 70 69 71 129 106 
72 108 129 136 70 107 108 72 89 
73 111 110 89 113 109 111 73 91 
112 111 94 89 74 113 114 109 113 
73 110 90 94 111 91 112 94 96 
113 76 77 74 76 113 114 113 77 
90 77 62 53 115 78 78 115 117 
80 78 117 116 98 118 118 98 102 
98 100 102 81 117 142 103 83 142 
83 101 142 102 85 119 85 87 119 
86 103 119 86 119 87 88 121 122 
107 88 122 123 108 89 124 123 89 
110 126 90 90 114 77 115 53 224 
118 102 116 103 127 119 122 121 130 
88 131 121 104 132 88 88 132 131 
105 133 104 104 133 132 105 134 133 
106 134 105 128 106 120 134 106 128 
120 106 129 122 135 107 108 123 129 
136 107 135 124 109 137 89 109 124 
110 138 125 111 138 110 111 139 138 
112 139 111 112 140 139 125 137 110 
112 96 140 137 114 90 109 114 137 
141 137 90 110 137 126 137 90 126 
96 116 140 136 224 53 119 172 102 
102 172 116 103 142 153 127 103 143 
127 143 119 119 143 172 143 103 153 
144 130 146 120 129 128 122 144 145 
148 122 145 130 144 122 130 121 146 
122 149 135 121 149 122 150 136 135 
125 138 137 138 124 137 140 151 139 
152 151 140 146 154 155 146 155 144 
129 156 128 128 156 147 156 129 163 
157 148 145 146 121 154 132 133 158 
158 133 159 134 159 133 147 134 128 
159 134 147 121 122 154 122 148 154 
121 160 154 131 161 121 161 160 121 
132 162 131 162 161 131 162 132 158 
149 121 154 149 154 160 161 164 160 
162 164 161 129 123 163 160 135 149 
168 150 160 160 150 135 165 124 138 
123 124 165 169 165 138 179 169 139 
166 179 151 151 179 139 152 166 151 
152 167 166 139 169 138 140 116 152 
142 117 170 171 142 170 143 153 172 
153 142 174 173 153 174 153 175 172 
145 176 177 144 176 145 145 177 157 
178 163 123 165 178 123 169 178 165 
191 178 169 179 191 169 180 179 166 
181 180 166 166 167 181 168 182 183 
183 150 168 136 150 183 116 172 152 
144 184 176 144 155 184 154 185 186 
154 186 155 185 187 186 186 187 188 
187 189 188 159 147 156 154 161 185 
159 189 158 163 190 156 163 191 190 
187 185 162 162 185 161 189 187 158 
158 187 162 178 191 163 192 191 179 
180 192 179 181 192 180 182 157 177 
168 157 182 148 157 168 160 148 168 
154 148 160 164 154 160 161 154 164 
183 182 193 117 115 170 152 172 194 
209 142 170 172 175 194 174 142 209 
175 195 194 173 196 153 175 153 196 
175 196 195 177 197 198 177 176 197 
197 176 212 189 199 188 159 199 189 
159 156 199 190 191 200 200 192 201 
192 202 203 201 192 203 202 181 203 
177 198 204 192 200 191 181 202 192 
182 177 229 229 177 204 182 229 193 
193 205 182 183 193 205 195 196 206 
184 228 176 176 228 212 155 207 184 
184 207 228 186 207 155 186 188 207 
156 217 199 156 190 217 198 229 204 
205 193 229 115 224 225 170 115 225 
152 194 210 209 170 208 194 195 210 
173 174 209 173 209 196 206 196 210 
195 206 210 197 212 211 181 214 203 
203 214 213 244 136 219 170 225 208 
226 274 210 196 209 215 196 215 227 
210 196 227 188 216 207 199 217 188 
188 217 216 203 218 201 218 203 213 
214 218 213 197 211 198 214 167 253 
181 167 214 229 219 205 167 152 253 
205 219 183 136 183 219 152 210 274 
208 225 209 226 210 227 212 221 211 
213 214 220 221 198 211 220 214 222 
152 274 253 136 223 224 212 228 221 
207 248 228 207 216 248 217 190 200 
218 220 201 213 220 218 222 214 253 
229 230 219 230 231 219 219 231 243 
219 243 244 244 245 136 136 245 223 
209 254 215 221 232 233 198 221 233 
216 217 248 217 200 248 201 237 200 
200 237 248 220 238 201 201 238 237 
220 222 234 253 234 222 227 215 305 
198 233 229 223 317 224 225 224 254 
209 225 254 305 215 254 232 236 235 
235 233 232 235 239 233 238 220 234 
240 238 234 235 239 229 233 235 229 
229 241 230 231 230 241 241 242 231 
231 242 243 227 305 246 236 232 247 
232 221 247 221 228 247 247 228 248 
235 236 239 247 239 236 240 234 249 
240 249 238 250 229 239 234 253 240 
229 250 241 243 242 241 317 223 245 
227 246 258 227 258 226 247 252 239 
238 249 251 249 240 253 239 252 250 
242 244 243 224 317 254 267 246 305 
237 256 248 264 256 237 238 264 237 
257 264 238 251 257 238 247 255 252 
248 270 247 249 253 251 244 242 241 
246 267 258 252 255 259 248 271 270 
251 260 257 260 251 253 241 250 292 
274 260 253 241 292 244 254 317 340 
293 226 261 226 258 261 255 262 259 
263 262 255 270 263 255 247 270 255 
288 271 248 256 288 248 264 288 256 
257 265 264 260 265 257 252 259 250 
274 226 293 266 261 258 262 263 269 
269 263 270 262 268 259 272 265 260 
268 273 259 250 259 280 250 280 292 
311 245 244 261 275 293 266 276 261 
261 276 275 266 258 276 258 267 277 
280 259 273 276 258 277 262 269 268 
268 269 287 271 301 270 271 284 283 
271 288 284 265 285 264 272 285 265 
278 272 279 268 287 273 260 279 272 
279 260 274 292 311 244 286 275 276 
277 281 276 276 281 286 277 267 282 
281 277 282 272 278 285 280 273 287 
286 281 282 287 269 295 269 270 299 
299 270 320 320 270 300 300 270 301 
301 271 283 283 284 308 264 285 289 
285 278 289 278 290 291 289 278 291 
279 290 278 279 274 304 245 311 317 
369 274 293 275 286 293 282 267 306 
294 286 282 306 294 282 290 279 304 
280 315 292 264 289 296 289 291 297 
296 289 297 269 319 295 299 319 269 
295 298 302 302 287 295 303 297 291 
290 303 291 287 302 280 290 304 303 
304 274 396 286 369 293 267 305 306 
294 306 307 310 309 297 288 308 284 
297 309 296 274 369 396 310 312 309 
313 295 319 319 299 320 300 301 321 
301 308 321 301 283 308 310 297 312 
312 297 303 298 313 314 295 313 298 
298 314 302 302 315 280 329 311 292 
311 316 317 254 370 305 286 294 333 
305 370 306 294 307 333 313 318 314 
318 313 338 319 338 313 302 314 315 
316 311 317 308 288 357 288 264 357 
296 309 348 264 296 348 348 309 323 
309 312 323 323 312 324 318 325 326 
314 318 326 318 338 325 319 335 338 
320 335 319 300 335 320 300 336 335 
322 321 308 336 321 322 312 303 324 
314 326 315 328 292 327 292 328 329 
328 327 329 311 329 354 317 311 354 
254 340 370 324 330 323 324 331 330 
324 303 383 336 322 352 322 364 352 
308 364 322 357 347 308 308 347 364 
323 342 348 330 331 323 323 331 342 
335 334 337 338 335 337 325 334 332 
337 334 325 338 337 325 321 336 300 
332 339 325 339 326 325 326 339 315 
303 304 383 327 292 315 328 354 329 
354 340 317 307 306 341 333 307 341 
331 344 343 343 342 331 331 324 346 
331 346 344 348 342 358 342 343 349 
358 342 349 348 357 264 350 349 343 
344 350 343 335 351 334 334 351 345 
336 403 335 335 403 351 334 345 332 
345 380 332 346 353 344 380 339 332 
346 324 353 324 383 353 353 383 382 
383 304 374 368 327 315 368 328 327 
368 354 328 286 355 369 286 333 355 
333 356 355 341 306 370 356 341 370 
356 333 341 349 350 359 359 350 360 
350 361 362 360 350 362 349 359 358 
339 380 315 356 363 355 362 365 360 
361 350 366 361 366 362 350 344 366 
353 367 344 344 367 366 353 382 367 
380 368 315 374 304 384 384 304 375 
368 376 386 386 354 368 340 354 447 
356 371 363 356 370 371 347 372 364 
390 304 396 348 378 357 357 378 347 
358 378 348 359 378 358 359 360 378 
365 379 360 362 379 365 379 362 373 
372 352 364 404 352 372 336 352 403 
403 352 420 373 362 381 362 366 381 
367 381 366 367 382 381 304 390 375 
386 376 385 399 354 386 447 354 399 
355 377 369 377 355 387 355 363 387 
371 370 388 363 371 387 387 371 388 
380 446 368 374 384 389 391 385 376 
476 386 385 372 347 398 360 392 378 
379 393 360 360 393 392 351 403 460 
403 420 433 395 394 381 381 394 373 
405 380 345 383 374 389 376 385 391 
476 385 376 386 476 399 396 369 406 
370 340 478 370 478 480 397 377 387 
370 409 388 387 388 397 388 409 397 
379 394 393 379 373 394 345 351 412 
405 421 380 369 377 423 392 400 378 
401 400 392 392 393 394 401 392 394 
401 394 402 372 398 404 394 395 402 
351 419 412 351 460 419 345 412 405 
382 383 381 381 383 422 389 422 383 
389 384 422 422 384 583 583 384 375 
368 476 376 436 406 407 406 369 407 
369 423 407 423 377 417 417 377 408 
377 397 408 408 397 409 400 415 378 
378 415 468 401 402 400 400 402 410 
404 398 411 411 398 431 410 402 395 
352 413 420 446 476 368 423 436 407 
347 378 398 410 415 400 433 416 403 
404 413 352 411 413 404 410 395 442 
421 405 412 395 381 442 421 446 380 
390 396 583 447 478 340 417 408 414 
409 370 480 414 408 409 412 419 418 
396 584 583 476 507 399 406 584 396 
417 414 424 448 417 424 425 409 480 
426 424 414 427 429 430 428 427 430 
429 431 430 398 378 467 378 468 495 
432 415 410 411 429 427 431 429 411 
411 427 413 416 460 403 416 456 460 
416 433 456 413 434 420 413 435 434 
427 435 413 412 418 421 375 390 583 
399 507 447 423 417 448 426 414 409 
425 426 409 437 428 438 439 430 431 
437 435 428 431 398 441 427 428 435 
419 444 418 418 444 443 419 460 444 
418 443 421 443 445 421 442 381 422 
446 522 476 406 436 477 423 477 436 
508 477 423 424 426 450 426 449 450 
452 451 437 453 439 440 452 437 438 
428 452 438 453 452 428 430 453 428 
439 453 430 439 431 440 437 454 435 
415 455 468 432 455 415 455 432 410 
442 455 410 431 441 440 420 457 433 
458 457 420 459 458 420 434 459 420 
454 459 434 435 454 434 421 445 446 
589 478 447 478 546 480 448 424 450 
426 425 449 461 462 463 461 451 464 
462 461 464 451 452 465 464 451 465 
452 453 465 463 451 461 463 482 451 
482 437 451 398 467 441 378 495 467 
456 433 469 433 457 469 482 459 437 
437 459 454 440 467 466 441 467 440 
442 474 470 444 471 443 472 460 456 
443 473 445 422 474 442 446 475 522 
585 507 476 423 448 508 508 448 590 
479 590 448 425 480 511 449 425 511 
450 449 481 453 440 515 466 515 440 
469 457 519 457 458 519 519 458 482 
455 483 468 470 483 455 455 442 470 
459 482 458 443 471 485 460 486 444 
444 486 471 460 487 486 460 472 487 
484 472 469 456 469 472 485 473 443 
488 445 473 475 446 488 488 446 445 
448 450 479 479 450 481 462 489 491 
489 462 512 490 512 462 490 492 512 
490 462 492 462 464 492 464 465 492 
462 491 519 519 463 462 482 463 519 
515 466 493 469 518 484 470 496 468 
470 468 483 466 494 493 467 494 466 
497 487 484 484 487 472 498 470 474 
471 488 473 485 471 473 486 488 471 
487 499 486 499 487 497 501 500 499 
500 486 499 500 488 486 503 475 488 
504 503 500 503 488 500 502 474 422 
505 502 422 503 506 475 505 422 581 
522 475 506 477 584 406 589 509 478 
590 479 559 478 510 546 548 559 479 
548 479 481 492 465 551 551 465 514 
453 515 514 453 514 465 517 516 518 
518 469 556 556 469 519 518 516 484 
468 539 495 520 539 468 468 496 520 
516 521 484 484 521 497 470 498 496 
498 474 502 503 504 506 422 583 581 
509 478 510 509 510 478 511 547 449 
481 449 548 449 547 548 489 524 525 
489 523 524 523 489 512 512 526 523 
489 525 513 512 492 526 489 513 491 
492 551 527 528 513 525 529 528 525 
513 528 491 528 519 491 515 531 514 
531 515 532 517 518 533 518 556 533 
517 533 516 516 533 534 515 493 532 
532 493 535 467 655 494 495 655 467 
495 537 655 536 537 495 536 495 539 
493 494 535 539 537 536 540 541 520 
540 520 496 497 521 538 496 498 540 
498 541 540 497 538 499 499 538 542 
541 540 595 498 502 540 542 501 499 
543 501 542 502 595 540 501 543 500 
502 505 595 544 504 500 504 544 545 
504 545 506 506 545 522 582 609 522 
609 476 522 584 477 675 447 507 587 
509 658 510 511 480 547 480 546 547 
526 492 527 527 551 492 551 530 553 
551 514 530 552 530 554 533 556 555 
555 556 529 530 514 554 531 554 514 
554 531 532 529 556 519 528 529 519 
516 534 521 534 576 521 521 576 538 
520 541 539 500 543 557 581 595 505 
557 544 500 558 545 544 587 588 447 
447 588 589 589 658 509 547 546 560 
548 547 561 561 559 548 562 524 523 
526 562 523 551 553 563 553 530 563 
553 530 552 552 554 549 549 554 564 
565 567 566 568 569 570 569 533 570 
533 571 570 555 571 533 555 529 571 
554 532 564 568 567 572 573 568 572 
569 568 573 567 565 572 572 567 574 
573 572 574 533 569 534 532 535 564 
572 565 574 574 565 575 534 569 576 
574 575 579 573 574 576 576 574 579 
569 573 576 579 575 577 576 579 557 
542 576 557 538 576 542 539 541 537 
543 542 557 642 541 595 579 577 558 
558 577 580 557 579 544 544 579 558 
558 580 545 545 580 522 580 582 522 
609 585 476 507 627 586 675 477 508 
507 586 587 658 546 510 590 559 591 
592 591 559 546 630 560 593 592 559 
593 547 560 593 561 547 593 559 561 
527 551 599 527 599 526 525 594 529 
525 524 562 525 562 594 563 552 549 
552 563 553 567 570 566 568 570 567 
529 594 571 537 541 642 507 585 596 
586 587 597 591 592 593 617 562 526 
526 599 617 550 598 549 599 551 600 
551 563 600 550 563 549 598 549 631 
631 549 564 566 601 565 566 602 601 
570 603 566 566 603 602 570 604 603 
570 571 604 565 605 575 494 655 535 
575 605 577 605 606 577 577 606 578 
607 577 578 607 580 577 642 595 581 
580 608 582 624 581 583 609 582 623 
624 583 584 609 646 585 585 646 596 
646 610 596 596 610 585 610 507 596 
627 507 610 627 587 586 587 627 588 
588 611 589 589 611 588 589 611 658 
590 591 612 546 661 630 591 593 612 
612 593 613 593 560 613 560 630 613 
599 600 614 600 563 598 563 550 598 
602 603 601 605 565 601 606 607 578 
607 608 580 581 624 642 608 623 582 
612 613 615 614 618 599 599 618 617 
598 631 616 617 633 562 614 600 618 
614 600 598 562 633 594 601 603 619 
619 603 604 571 634 604 604 634 635 
571 594 634 620 605 601 619 620 601 
620 637 605 537 621 655 605 637 606 
637 622 606 622 607 606 607 641 608 
624 584 625 625 584 626 610 646 627 
627 628 588 628 658 588 588 658 611 
612 615 629 613 630 629 613 629 615 
618 614 616 614 598 616 670 655 621 
632 633 617 618 632 617 631 618 616 
632 618 631 594 680 634 564 535 631 
631 535 650 635 619 604 619 636 620 
635 636 619 670 621 638 637 639 622 
638 621 537 622 639 607 639 641 607 
537 642 640 624 644 643 624 643 642 
644 624 657 657 624 625 625 626 657 
657 626 645 626 584 645 627 685 628 
685 647 628 628 647 627 628 647 658 
590 659 508 659 675 508 658 661 546 
590 612 652 652 612 648 612 629 648 
661 649 630 630 649 629 649 648 629 
667 636 635 620 636 637 535 655 650 
537 651 638 537 640 651 673 640 642 
645 584 684 652 659 590 631 653 632 
632 653 654 680 594 633 633 654 680 
632 654 633 634 680 635 680 667 635 
667 669 636 669 637 636 651 640 638 
608 641 623 642 643 657 644 657 643 
710 646 609 646 685 627 685 658 647 
660 659 652 661 662 649 649 662 663 
652 663 660 652 648 663 648 649 663 
653 631 665 650 655 664 638 671 670 
638 640 671 657 656 678 657 678 642 
656 657 645 663 662 660 689 680 654 
654 679 689 631 650 665 665 650 666 
666 650 664 667 668 669 699 637 669 
637 699 639 639 699 641 640 672 671 
623 641 710 640 673 672 642 678 673 
623 710 609 645 674 656 674 645 684 
710 693 646 675 659 676 659 660 676 
677 676 660 677 662 661 660 662 677 
653 679 654 655 670 664 672 673 671 
656 674 678 584 675 698 679 653 691 
665 666 691 653 665 691 691 666 681 
680 668 667 666 664 681 682 681 664 
669 668 699 664 670 682 671 682 670 
699 710 641 674 683 678 674 684 683 
646 693 685 684 584 697 686 698 675 
687 686 675 677 661 688 687 677 688 
676 677 687 676 687 675 681 682 691 
672 736 671 673 678 672 686 687 688 
689 679 690 679 691 690 699 680 719 
680 699 668 682 692 691 682 671 692 
672 678 736 683 694 678 683 695 694 
683 684 695 695 684 696 684 697 696 
685 723 658 658 723 661 661 723 705 
688 705 686 688 661 705 691 692 690 
725 692 671 710 701 693 680 689 700 
700 689 690 692 725 690 709 710 699 
671 736 725 701 702 693 693 701 707 
695 696 694 694 696 703 693 707 685 
696 697 703 703 697 714 714 697 721 
697 584 721 721 584 704 584 698 704 
698 686 704 704 686 705 707 701 706 
678 694 736 740 723 685 705 715 704 
700 708 680 690 725 700 699 719 734 
709 699 734 710 707 701 736 694 720 
711 712 694 694 703 711 703 711 712 
703 714 711 685 713 740 721 704 715 
705 723 716 715 705 716 680 717 719 
725 718 708 708 700 725 707 737 685 
685 737 713 694 712 720 711 714 712 
722 721 715 715 716 722 723 724 716 
716 724 722 708 718 680 680 718 717 
734 735 709 735 710 709 736 767 725 
720 712 726 727 728 726 712 727 726 
712 714 727 714 727 728 714 721 727 
727 721 732 710 729 748 736 768 767 
720 739 730 726 720 730 720 726 728 
738 731 740 720 728 739 727 732 728 
722 724 723 718 733 717 719 733 734 
719 717 733 733 718 725 735 729 710 
725 767 747 710 737 707 755 754 736 
713 737 738 755 736 720 730 755 720 
740 713 738 732 739 728 732 721 741 
742 723 740 742 776 723 721 722 741 
722 743 741 776 744 723 743 723 744 
722 723 743 725 745 733 746 745 725 
725 747 746 749 750 710 736 751 768 
710 752 737 738 737 779 754 772 736 
738 756 731 757 758 731 758 740 731 
739 760 759 740 758 742 741 761 760 
732 741 760 732 760 739 742 762 776 
733 735 734 733 745 735 746 747 745 
735 748 729 764 735 745 748 735 764 
729 764 748 767 765 747 751 736 769 
710 750 752 736 770 769 752 779 737 
736 772 771 779 753 738 755 773 754 
731 756 774 774 773 757 756 773 774 
757 731 774 739 755 730 757 775 758 
742 775 762 758 775 742 775 759 762 
760 761 763 762 759 776 741 761 763 
763 744 776 763 741 744 743 744 741 
745 747 764 747 765 764 765 748 764 
766 748 765 767 766 765 710 748 749 
749 748 766 767 749 766 767 768 749 
750 768 777 749 768 750 777 768 751 
750 777 752 769 770 778 769 778 751 
779 752 778 736 771 770 753 779 780 
772 753 771 754 756 772 773 756 754 
756 738 753 772 756 753 757 773 775 
775 773 755 739 759 755 755 759 775 
763 776 759 760 763 759 777 751 752 
778 752 751 770 779 778 780 779 770 
770 771 780 753 780 771 
