g 505
v 159.0 232.0 4.5
v 159.0 231.5 5.0
v 158.5 232.0 5.0
v 161.0 232.0 4.5
v 165.0 231.5 5.0
v 159.0 232.5 5.0
v 162.0 233.0 4.5
v 167.0 233.0 4.5
v 161.5 235.0 5.0
v 169.0 235.0 4.5
v 170.0 235.0 4.5
v 170.0 234.5 5.0
v 162.0 237.0 4.5
v 161.5 237.0 5.0
v 172.0 237.0 4.5
v 172.5 237.0 5.0
v 163.0 238.0 4.5
v 163.0 239.0 4.5
v 161.5 240.0 5.0
v 172.5 240.0 5.0
v 173.0 241.0 4.5
v 173.5 241.0 5.0
v 162.0 242.0 4.5
v 161.5 242.0 5.0
v 173.0 243.0 4.5
v 173.5 243.0 5.0
v 164.0 244.0 4.5
v 172.5 244.0 5.0
v 163.5 245.0 5.0
v 165.0 245.0 4.5
v 173.0 245.0 4.5
v 173.5 245.0 5.0
v 164.0 245.5 5.0
v 166.0 246.0 4.5
v 171.0 246.0 4.5
v 172.0 246.0 4.5
v 170.0 247.0 4.5
v 168.0 248.0 4.5
v 170.0 248.0 4.5
v 168.0 248.5 5.0
v 166.0 231.5 6.0
v 161.0 232.5 6.0
v 168.0 232.5 6.0
v 160.5 235.0 6.0
v 170.0 234.5 6.0
v 173.5 245.0 6.0
v 172.5 246.0 6.0
v 165.0 246.5 6.0
v 166.5 248.0 6.0
v 160.5 233.0 7.0
v 168.0 232.5 7.0
v 160.5 235.0 7.0
v 172.5 244.0 7.0
v 173.5 245.0 7.0
v 164.0 245.5 7.0
v 173.5 246.0 7.0
v 172.5 248.0 7.0
v 167.0 248.5 7.0
v 172.0 248.5 7.0
v 161.0 231.5 8.0
v 166.0 231.5 8.0
v 161.5 235.0 8.0
v 169.0 234.5 8.0
v 172.5 237.0 8.0
v 164.0 245.5 8.0
v 165.0 245.5 8.0
v 172.5 246.0 8.0
v 166.5 247.0 8.0
v 170.0 247.5 8.0
v 168.0 248.5 8.0
v 160.5 232.0 9.0
v 167.0 231.5 9.0
v 168.0 232.0 8.5
v 168.0 231.5 9.0
v 160.5 233.0 9.0
v 172.5 236.0 9.0
v 161.5 237.0 9.0
v 161.5 240.0 9.0
v 171.0 247.5 9.0
v 171.5 248.0 9.0
v 172.5 248.0 9.0
v 167.0 248.5 9.0
v 162.0 231.5 10.0
v 162.5 236.0 10.0
v 162.5 240.0 10.0
v 173.5 242.0 10.0
v 172.5 244.0 10.0
v 173.5 245.0 10.0
v 172.0 247.0 9.5
v 172.5 249.0 10.0
v 170.0 249.5 10.0
v 172.0 249.5 10.0
v 161.5 232.0 11.0
v 161.5 235.0 11.0
v 172.5 240.0 11.0
v 174.5 242.0 11.0
v 174.5 243.0 11.0
v 171.5 249.0 11.0
v 172.5 249.0 11.0
v 163.0 231.5 12.0
v 167.0 231.5 12.0
v 168.0 231.5 12.0
v 169.0 232.5 12.0
v 172.5 239.0 12.0
v 174.0 240.5 12.0
v 162.5 243.0 12.0
v 163.5 244.0 12.0
v 172.0 246.5 12.0
v 173.0 246.5 12.0
v 171.0 248.0 11.5
v 172.0 248.5 12.0
v 170.0 249.5 12.0
v 172.5 250.0 12.0
v 172.0 250.5 12.0
v 164.0 232.0 12.5
v 165.0 231.5 13.0
v 167.0 232.5 13.0
v 169.0 232.5 13.0
v 162.5 234.0 13.0
v 163.5 236.0 13.0
v 162.5 237.0 13.0
v 174.5 241.0 13.0
v 173.5 244.0 13.0
v 172.0 248.5 13.0
v 172.5 249.0 13.0
v 169.0 249.5 13.0
v 171.5 250.0 13.0
v 166.0 232.0 13.5
v 162.5 237.0 14.0
v 174.0 239.5 14.0
v 174.5 240.0 14.0
v 162.5 241.0 14.0
v 171.5 248.0 14.0
v 171.0 249.0 13.5
v 172.0 249.5 14.0
v 171.5 250.0 14.0
v 172.5 250.0 14.0
v 172.0 250.5 14.0
v 164.0 234.0 14.5
v 165.0 234.0 14.5
v 165.0 235.0 14.5
v 165.5 235.0 15.0
v 163.5 236.0 15.0
v 163.5 244.0 15.0
v 164.5 245.0 15.0
v 174.5 245.0 15.0
v 166.5 247.0 15.0
v 171.5 249.0 15.0
v 171.0 249.5 15.0
v 172.0 250.0 14.5
v 171.0 234.5 16.0
v 164.0 235.5 16.0
v 163.5 236.0 16.0
v 166.5 248.0 16.0
v 171.5 248.0 16.0
v 167.0 248.5 16.0
v 168.0 233.5 17.0
v 165.0 235.5 17.0
v 171.0 235.5 17.0
v 164.5 244.0 17.0
v 166.5 247.0 17.0
v 172.5 247.0 17.0
v 167.5 248.0 17.0
v 172.5 248.0 17.0
v 168.0 248.5 17.0
v 165.0 235.5 18.0
v 164.5 236.0 18.0
v 167.0 235.5 18.0
v 172.5 239.0 18.0
v 173.0 239.5 18.0
v 174.5 245.0 18.0
v 173.5 246.0 18.0
v 167.5 248.0 18.0
v 172.5 248.0 18.0
v 167.5 249.0 18.0
v 168.0 249.5 18.0
v 172.0 235.5 19.0
v 172.5 236.0 19.0
v 163.5 239.0 19.0
v 173.5 239.0 19.0
v 163.5 241.0 19.0
v 175.5 241.0 19.0
v 175.5 242.0 19.0
v 174.5 246.0 19.0
v 166.5 248.0 19.0
v 172.0 236.0 19.5
v 164.5 237.0 20.0
v 166.0 236.5 20.0
v 172.0 236.5 20.0
v 173.5 237.0 20.0
v 164.5 239.0 20.0
v 175.5 244.0 20.0
v 170.0 250.5 20.0
v 168.0 234.5 21.0
v 170.0 234.5 21.0
v 171.0 235.5 21.0
v 173.0 236.5 21.0
v 173.5 237.0 21.0
v 173.5 239.0 21.0
v 174.5 243.0 21.0
v 175.5 244.0 21.0
v 166.5 247.0 21.0
v 173.5 247.0 21.0
v 173.5 248.0 21.0
v 171.0 250.5 21.0
v 169.0 234.5 22.0
v 167.0 235.5 22.0
v 164.5 238.0 22.0
v 174.5 239.0 22.0
v 175.5 241.0 22.0
v 165.5 247.0 22.0
v 168.0 250.5 22.0
v 168.0 235.5 23.0
v 171.0 235.5 23.0
v 167.0 236.5 23.0
v 174.5 245.0 23.0
v 175.5 246.0 23.0
v 173.5 248.0 23.0
v 167.5 249.0 23.0
v 172.0 249.5 23.0
v 173.0 249.5 23.0
v 170.0 251.5 23.0
v 168.0 235.5 24.0
v 166.5 237.0 24.0
v 171.0 236.5 24.0
v 164.5 239.0 24.0
v 173.0 240.0 23.5
v 172.5 240.0 24.0
v 173.0 239.5 24.0
v 173.5 240.0 24.0
v 173.0 240.5 24.0
v 175.5 247.0 24.0
v 166.5 249.0 24.0
v 168.0 250.5 24.0
v 169.0 251.5 24.0
v 171.0 251.5 24.0
v 170.0 235.5 25.0
v 166.0 237.5 25.0
v 167.0 238.0 24.5
v 167.0 238.5 25.0
v 173.0 239.5 25.0
v 173.0 240.5 25.0
v 175.5 247.0 25.0
v 166.5 248.0 25.0
v 170.0 236.5 26.0
v 172.0 236.5 26.0
v 173.0 237.5 26.0
v 165.5 239.0 26.0
v 174.5 239.0 26.0
v 174.0 239.5 26.0
v 175.5 241.0 26.0
v 165.5 248.0 26.0
v 175.5 248.0 26.0
v 166.5 250.0 26.0
v 167.0 250.5 26.0
v 172.0 250.5 26.0
v 173.0 250.5 26.0
v 171.0 236.5 27.0
v 174.5 239.0 27.0
v 174.0 239.5 27.0
v 174.0 240.5 27.0
v 174.5 241.0 27.0
v 164.5 242.0 27.0
v 164.5 243.0 27.0
v 175.5 244.0 27.0
v 164.5 245.0 27.0
v 174.5 245.0 27.0
v 165.5 246.0 27.0
v 175.5 247.0 27.0
v 167.0 250.5 27.0
v 172.0 251.5 27.0
v 169.0 252.5 27.0
v 170.0 252.5 27.0
v 166.0 238.5 28.0
v 165.5 239.0 28.0
v 173.5 239.0 28.0
v 174.0 239.5 28.0
v 173.0 240.5 28.0
v 174.5 241.0 28.0
v 165.5 242.0 28.0
v 165.5 243.0 28.0
v 164.5 244.0 28.0
v 175.5 244.0 28.0
v 176.5 246.0 28.0
v 176.5 247.0 28.0
v 175.5 249.0 28.0
v 173.0 250.5 28.0
v 174.0 250.5 28.0
v 171.0 252.5 28.0
v 151.0 215.0 28.5
v 151.0 214.5 29.0
v 150.5 215.0 29.0
v 152.0 214.5 29.0
v 151.0 216.0 28.5
v 153.0 216.0 28.5
v 152.0 217.0 28.5
v 153.0 217.0 28.5
v 168.0 237.5 29.0
v 170.0 237.5 29.0
v 172.0 237.5 29.0
v 165.5 240.0 29.0
v 173.0 239.5 29.0
v 174.0 239.5 29.0
v 175.5 241.0 29.0
v 175.5 243.0 29.0
v 165.5 244.0 29.0
v 176.5 244.0 29.0
v 172.0 251.5 29.0
v 170.0 253.5 29.0
v 150.5 215.0 30.0
v 153.0 214.5 30.0
v 154.5 216.0 30.0
v 150.5 217.0 30.0
v 151.5 218.0 30.0
v 155.0 218.0 29.5
v 154.0 219.0 29.5
v 153.0 219.5 30.0
v 154.0 219.5 30.0
v 168.0 238.0 29.5
v 171.0 237.5 30.0
v 167.0 239.0 29.5
v 170.0 238.5 30.0
v 172.0 238.5 30.0
v 174.0 239.0 29.5
v 174.0 238.5 30.0
v 174.5 239.0 30.0
v 173.0 239.5 30.0
v 173.5 240.0 30.0
v 174.5 240.0 30.0
v 165.5 242.0 30.0
v 176.5 242.0 30.0
v 165.5 248.0 30.0
v 166.5 249.0 30.0
v 176.5 249.0 30.0
v 166.5 251.0 30.0
v 174.0 250.5 30.0
v 175.0 250.5 30.0
v 168.0 252.5 30.0
v 170.0 253.5 30.0
v 152.0 214.5 31.0
v 152.5 215.0 31.0
v 150.5 216.0 31.0
v 154.0 215.5 31.0
v 150.5 217.0 31.0
v 155.0 216.5 31.0
v 156.0 218.0 30.5
v 156.5 218.0 31.0
v 151.5 219.0 31.0
v 152.0 219.5 31.0
v 154.0 220.0 30.5
v 156.0 220.0 30.5
v 169.0 238.5 31.0
v 168.5 240.0 31.0
v 172.5 240.0 31.0
v 173.0 239.5 31.0
v 173.5 240.0 31.0
v 175.5 240.0 31.0
v 173.0 240.5 31.0
v 166.0 241.5 31.0
v 167.0 241.5 31.0
v 176.5 242.0 31.0
v 176.5 246.0 31.0
v 177.5 247.0 31.0
v 165.5 249.0 31.0
v 174.0 251.5 31.0
v 171.0 253.5 31.0
v 152.0 215.0 31.5
v 152.0 216.0 31.5
v 153.0 215.5 32.0
v 151.0 217.0 31.5
v 151.5 217.0 32.0
v 151.5 219.0 32.0
v 157.5 219.0 32.0
v 155.0 221.0 31.5
v 158.0 221.0 31.5
v 158.5 221.0 32.0
v 154.0 221.5 32.0
v 156.0 222.0 31.5
v 157.0 222.0 31.5
v 174.0 238.5 32.0
v 169.0 239.5 32.0
v 170.0 239.5 32.0
v 173.0 240.0 31.5
v 167.5 241.0 32.0
v 165.5 243.0 32.0
v 167.0 242.5 32.0
v 177.5 243.0 32.0
v 177.5 248.0 32.0
v 166.5 249.0 32.0
v 173.0 251.5 32.0
v 153.0 216.5 33.0
v 155.0 216.5 33.0
v 152.5 220.0 33.0
v 158.5 220.0 33.0
v 153.5 221.0 33.0
v 158.0 223.0 32.5
v 156.0 223.5 33.0
v 158.0 223.5 33.0
v 168.5 240.0 33.0
v 174.0 239.5 33.0
v 176.0 239.5 33.0
v 176.5 240.0 33.0
v 168.5 241.0 33.0
v 165.5 249.0 33.0
v 176.5 249.0 33.0
v 166.5 250.0 33.0
v 176.5 250.0 33.0
v 175.0 250.5 33.0
v 153.0 217.0 33.5
v 154.0 217.0 33.5
v 156.0 217.5 34.0
v 152.5 219.0 34.0
v 153.5 221.0 34.0
v 159.5 221.0 34.0
v 159.5 223.0 34.0
v 158.0 224.5 34.0
v 171.0 238.5 34.0
v 174.0 238.5 34.0
v 170.0 239.5 34.0
v 167.5 243.0 34.0
v 166.5 244.0 34.0
v 178.5 244.0 34.0
v 165.5 245.0 34.0
v 178.5 247.0 34.0
v 165.5 248.0 34.0
v 177.5 249.0 34.0
v 167.5 252.0 34.0
v 175.0 251.5 34.0
v 168.0 252.5 34.0
v 170.0 253.5 34.0
v 155.0 218.0 34.5
v 153.0 219.0 34.5
v 157.0 218.5 35.0
v 153.5 220.0 35.0
v 154.5 222.0 35.0
v 159.5 224.0 35.0
v 157.0 224.5 35.0
v 174.0 239.5 35.0
v 178.5 243.0 35.0
v 166.5 248.0 35.0
v 178.5 248.0 35.0
v 177.5 249.0 35.0
v 170.0 252.5 35.0
v 171.0 253.5 35.0
v 155.0 219.0 35.5
v 154.0 220.0 35.5
v 159.0 220.5 36.0
v 159.5 221.0 36.0
v 160.0 221.5 36.0
v 160.5 222.0 36.0
v 155.5 223.0 36.0
v 160.5 224.0 36.0
v 158.0 225.5 36.0
v 159.0 225.5 36.0
v 173.0 238.5 36.0
v 170.0 239.5 36.0
v 175.0 239.5 36.0
v 169.0 240.5 36.0
v 167.5 242.0 36.0
v 166.5 244.0 36.0
v 178.5 248.0 36.0
v 174.0 252.5 36.0
v 170.0 253.5 36.0
v 156.0 220.0 36.5
v 155.0 221.0 36.5
v 156.0 221.0 36.5
v 155.5 222.0 37.0
v 160.0 221.5 37.0
v 160.5 222.0 37.0
v 156.5 224.0 37.0
v 169.0 240.5 37.0
v 175.0 240.5 37.0
v 177.5 242.0 37.0
v 178.5 243.0 37.0
v 167.5 244.0 37.0
v 178.5 249.0 37.0
v 176.0 251.5 37.0
v 171.5 253.0 37.0
v 172.0 252.5 37.0
v 157.0 221.0 37.5
v 158.0 221.0 37.5
v 156.0 222.0 37.5
v 157.0 222.0 37.5
v 158.0 221.5 38.0
v 156.5 223.0 38.0
v 161.5 224.0 38.0
v 158.0 225.5 38.0
v 171.0 240.5 38.0
v 176.0 240.5 38.0
v 167.5 243.0 38.0
v 177.5 243.0 38.0
v 167.5 245.0 38.0
v 178.5 245.0 38.0
v 179.5 246.0 38.0
v 179.5 247.0 38.0
v 175.0 251.5 38.0
v 172.0 253.5 38.0
v 159.0 222.0 38.5
v 157.0 223.0 38.5
v 160.0 222.5 39.0
v 162.5 225.0 39.0
v 162.0 227.0 38.5
v 160.0 227.5 39.0
v 170.0 239.5 39.0
v 175.0 240.5 39.0
v 167.5 242.0 39.0
v 176.0 241.5 39.0
v 166.5 244.0 39.0
v 166.5 245.0 39.0
v 173.0 252.5 39.0
v 175.0 252.5 39.0
v 172.0 253.5 39.0
v 161.0 223.5 40.0
v 162.0 224.5 40.0
v 158.5 226.0 40.0
v 163.5 226.0 40.0
v 163.0 228.0 39.5
v 163.5 228.0 40.0
v 172.0 238.5 40.0
v 171.0 239.5 40.0
v 166.5 243.0 40.0
v 179.5 248.0 40.0
v 166.5 250.0 40.0
v 159.0 224.0 40.5
v 162.0 224.5 41.0
v 159.5 226.0 41.0
v 159.5 227.0 41.0
v 164.0 228.0 40.5
v 164.5 228.0 41.0
v 161.0 229.5 41.0
v 163.0 230.0 40.5
v 164.0 230.0 40.5
v 170.0 239.5 41.0
v 168.0 240.5 41.0
v 167.5 241.0 41.0
v 177.0 240.5 41.0
v 177.5 241.0 41.0
v 167.5 242.0 41.0
v 176.0 242.0 40.5
v 175.5 242.0 41.0
v 176.0 241.5 41.0
v 166.5 243.0 41.0
v 177.5 243.0 41.0
v 178.5 244.0 41.0
v 173.0 249.0 40.5
v 172.5 249.0 41.0
v 173.0 248.5 41.0
v 173.5 249.0 41.0
v 173.0 249.5 41.0
v 178.5 250.0 41.0
v 166.5 251.0 41.0
v 176.0 251.5 41.0
v 174.0 253.5 41.0
v 160.0 225.0 41.5
v 161.0 225.0 41.5
v 163.0 225.5 42.0
v 163.5 226.0 42.0
v 161.0 229.5 42.0
v 161.5 230.0 42.0
v 164.5 230.0 42.0
v 163.0 232.0 41.5
v 164.0 232.0 41.5
v 172.0 238.5 42.0
v 172.5 239.0 42.0
v 171.0 239.5 42.0
v 175.0 240.5 42.0
v 175.5 242.0 42.0
v 176.0 241.5 42.0
v 177.5 244.0 42.0
v 179.5 246.0 42.0
v 173.0 249.0 41.5
v 176.0 252.5 42.0
v 161.0 226.0 42.5
v 160.5 228.0 43.0
v 164.5 228.0 43.0
v 165.5 230.0 43.0
v 161.5 231.0 43.0
v 161.5 232.0 43.0
v 172.0 239.0 42.5
v 175.0 239.5 43.0
v 168.5 241.0 43.0
v 172.0 240.5 43.0
v 168.5 242.0 43.0
v 174.0 242.0 42.5
v 173.5 242.0 43.0
v 174.0 241.5 43.0
v 176.0 242.0 42.5
v 178.5 242.0 43.0
v 174.5 243.0 43.0
v 175.0 242.5 43.0
v 177.5 243.0 43.0
v 167.5 244.0 43.0
v 176.0 244.0 42.5
v 177.0 243.5 43.0
v 177.0 244.0 42.5
v 166.5 245.0 43.0
v 176.0 244.5 43.0
v 166.5 246.0 43.0
v 178.0 245.5 43.0
v 162.0 227.0 43.5
v 163.0 227.0 43.5
v 162.0 228.5 44.0
v 161.5 229.0 44.0
v 161.5 232.0 44.0
v 166.0 232.0 43.5
v 166.5 232.0 44.0
v 165.0 233.0 43.5
v 166.5 233.0 44.0
v 164.5 234.0 44.0
v 165.5 234.0 44.0
v 166.0 234.0 43.5
v 163.0 234.5 44.0
v 166.0 236.0 43.5
v 172.0 239.5 44.0
v 176.0 240.5 44.0
v 177.0 240.5 44.0
v 177.5 241.0 44.0
v 169.0 241.5 44.0
v 168.5 242.0 44.0
v 174.0 242.0 43.5
v 177.5 242.0 44.0
v 167.5 243.0 44.0
v 175.0 243.0 43.5
v 176.0 243.0 43.5
v 166.5 244.0 44.0
v 174.5 244.0 44.0
v 175.5 244.0 44.0
v 177.0 244.0 43.5
v 178.0 243.5 44.0
v 178.5 244.0 44.0
v 167.5 245.0 44.0
v 175.0 244.5 44.0
v 178.5 245.0 44.0
v 167.5 246.0 44.0
v 179.5 248.0 44.0
v 178.5 249.0 44.0
v 167.5 252.0 44.0
v 162.0 229.0 44.5
v 164.0 229.0 44.5
v 164.5 233.0 45.0
v 162.5 234.0 45.0
v 166.0 233.5 45.0
v 164.0 235.0 44.5
v 164.0 236.0 44.5
v 163.5 236.0 45.0
v 165.5 237.0 45.0
v 166.5 237.0 45.0
v 166.0 238.0 44.5
v 166.5 238.0 45.0
v 176.0 240.0 44.5
v 176.0 239.5 45.0
v 176.5 240.0 45.0
v 169.5 241.0 45.0
v 176.5 241.0 45.0
v 177.0 241.0 44.5
v 170.0 241.5 45.0
v 178.0 241.5 45.0
v 178.5 242.0 45.0
v 167.0 244.0 44.5
v 168.0 243.5 45.0
v 168.0 244.0 44.5
v 174.5 244.0 45.0
v 175.0 243.5 45.0
v 175.5 244.0 45.0
v 177.5 244.0 45.0
v 168.0 245.0 44.5
v 168.5 245.0 45.0
v 175.0 244.5 45.0
v 178.5 245.0 45.0
v 167.5 247.0 45.0
v 163.0 231.0 45.5
v 164.0 231.0 45.5
v 163.0 234.0 45.5
v 163.5 235.0 46.0
v 163.5 237.0 46.0
v 164.5 237.0 46.0
v 164.0 238.0 45.5
v 163.5 238.0 46.0
v 164.5 238.0 46.0
v 168.0 240.0 45.5
v 168.0 239.5 46.0
v 167.5 240.0 46.0
v 169.0 239.5 46.0
v 175.0 239.5 46.0
v 167.5 241.0 46.0
v 169.5 241.0 46.0
v 169.0 242.0 45.5
v 177.5 242.0 46.0
v 168.0 243.0 45.5
v 173.5 244.0 46.0
v 174.0 243.5 46.0
v 178.5 244.0 46.0
v 174.0 245.0 45.5
v 173.5 245.0 46.0
v 174.5 245.0 46.0
v 178.0 245.0 45.5
v 167.5 246.0 46.0
v 174.0 245.5 46.0
v 177.0 246.0 45.5
v 166.5 247.0 46.0
v 178.5 250.0 46.0
v 164.0 235.0 46.5
v 166.5 236.0 47.0
v 163.5 237.0 47.0
v 164.5 237.0 47.0
v 165.5 237.0 47.0
v 166.5 237.0 47.0
v 163.5 238.0 47.0
v 164.5 238.0 47.0
v 164.0 239.0 46.5
v 166.0 240.0 46.5
v 167.0 239.5 47.0
v 167.0 240.0 46.5
v 169.0 239.5 47.0
v 167.0 241.0 46.5
v 167.5 241.0 47.0
v 169.0 240.5 47.0
v 171.0 240.5 47.0
v 164.0 242.0 46.5
v 166.0 242.0 46.5
v 168.0 242.0 46.5
v 169.5 242.0 47.0
v 166.0 243.0 46.5
v 166.5 243.0 47.0
v 167.5 244.0 47.0
v 174.0 244.0 46.5
v 174.0 245.0 46.5
v 175.5 246.0 47.0
v 177.0 247.5 47.0
v 178.5 248.0 47.0
v 177.5 251.0 47.0
v 176.5 252.0 47.0
v 166.0 236.0 47.5
v 164.0 237.0 47.5
v 163.5 239.0 48.0
v 164.5 239.0 48.0
v 167.0 239.0 47.5
v 168.0 239.0 47.5
v 169.0 238.5 48.0
v 164.5 240.0 48.0
v 165.5 240.0 48.0
v 168.0 239.5 48.0
v 168.5 240.0 48.0
v 170.0 240.0 47.5
v 171.0 239.5 48.0
v 175.0 239.5 48.0
v 162.5 241.0 48.0
v 167.5 241.0 48.0
v 169.0 240.5 48.0
v 169.5 241.0 48.0
v 165.0 242.0 47.5
v 168.5 242.0 48.0
v 177.5 242.0 48.0
v 163.0 243.0 47.5
v 162.5 243.0 48.0
v 168.5 243.0 48.0
v 166.5 244.0 48.0
v 167.5 244.0 48.0
v 166.0 245.0 47.5
v 166.5 245.0 48.0
v 165.0 246.0 47.5
v 164.5 246.0 48.0
v 167.5 246.0 48.0
v 178.0 246.0 47.5
v 178.5 246.0 48.0
v 165.0 246.5 48.0
v 166.5 247.0 48.0
v 175.0 247.0 47.5
v 178.5 247.0 48.0
v 166.5 250.0 48.0
v 177.5 250.0 48.0
v 167.5 252.0 48.0
v 168.0 252.5 48.0
v 169.0 252.5 48.0
v 176.0 252.5 48.0
v 170.0 253.5 48.0
v 174.0 253.5 48.0
v 166.0 238.0 48.5
v 164.0 239.0 48.5
v 168.0 239.0 48.5
v 164.0 240.0 48.5
v 166.0 240.0 48.5
v 170.0 240.0 48.5
v 175.0 240.0 48.5
v 163.0 241.0 48.5
v 170.0 241.0 48.5
v 166.0 242.0 48.5
v 169.0 242.0 48.5
v 177.0 242.0 48.5
v 169.0 243.0 48.5
v 165.0 245.0 48.5
v 177.0 245.0 48.5
v 165.0 246.0 48.5
v 167.0 247.0 48.5
v 178.0 247.0 48.5
v 175.0 248.0 48.5
v 177.0 250.0 48.5
v 168.0 251.0 48.5
v 168.0 252.0 48.5
v 175.0 252.0 48.5
v 170.0 253.0 48.5
v 172.0 247.0 9.5
v 171.5 249.0 11.0
v 172.0 248.5 12.0
v 172.0 248.5 13.0
v 171.5 250.0 13.0
v 171.0 249.0 13.5
v 172.0 249.5 14.0
v 166.5 237.0 24.0
v 174.0 239.0 29.5
v 173.0 239.5 30.0
v 173.5 240.0 30.0
v 152.5 215.0 31.0
v 154.0 219.5 35.0
v 156.0 221.5 37.0
v 176.0 244.0 42.5
v 177.0 243.5 43.0
v 176.0 244.5 43.0
v 174.5 244.0 44.0
v 178.0 243.5 44.0
v 175.0 244.5 44.0
v 166.0 233.5 45.0
v 176.0 240.0 44.5
v 169.5 241.0 45.0
v 177.0 241.0 44.5
v 170.0 241.5 45.0
v 170.0 241.5 45.0
v 168.0 243.5 45.0
v 175.0 243.5 45.0
v 175.0 244.5 45.0
v 175.0 244.5 45.0
v 164.0 234.5 46.0
v 169.0 242.0 45.5
v 169.0 239.5 47.0
v 167.0 239.0 47.5
v 168.0 239.0 47.5
v 170.0 240.0 47.5
v 169.0 240.5 48.0
v 169.5 241.0 48.0
v 177.5 248.0 48.0
v 169.0 242.0 45.5
v 176.0 244.5 43.0
v 164.5 237.0 47.0
v 164.5 237.0 47.0
v 164.0 237.0 47.5
v 168.5 243.0 48.0
v 168.5 243.0 48.0
v 167.5 244.0 47.0
v 167.5 246.0 46.0
v 175.0 243.5 45.0
v 175.0 243.0 43.5
v 175.0 243.0 43.5
v 174.5 243.0 43.0
v 174.5 244.0 45.0
v 171.5 249.0 11.0
v 172.0 250.5 12.0
v 166.0 233.5 45.0
v 169.0 239.5 47.0
v 169.0 240.5 47.0
v 170.0 240.0 47.5
v 174.0 239.0 29.5
v 163.5 238.0 47.0
v 171.5 248.0 9.0
v 172.0 248.5 12.0
v 172.0 247.0 9.5
v 172.5 249.0 11.0
v 174.0 239.5 29.0
v 174.0 239.0 29.5
v 176.0 244.5 43.0
v 177.0 244.0 43.5
v 175.0 243.0 43.5
v 175.5 244.0 44.0
v 164.0 240.0 48.5
v 164.0 240.0 48.5
v 162.5 241.0 48.0
v 173.0 239.5 25.0
v 173.0 239.5 25.0
v 174.0 239.5 26.0
v 174.5 239.0 26.0
v 174.5 239.0 26.0
v 173.0 239.5 29.0
v 168.5 240.0 48.0
v 169.0 240.5 47.0
v 164.0 238.0 45.5
v 164.0 238.0 45.5
v 164.0 239.0 46.5
v 164.5 238.0 47.0
v 164.5 238.0 47.0
v 164.5 238.0 46.0
v 164.5 238.0 46.0
v 168.0 243.0 45.5
v 169.5 242.0 47.0
v 164.0 237.0 47.5
v 163.5 237.0 47.0
v 175.0 240.5 39.0
v 175.0 240.5 39.0
v 175.0 240.5 39.0
v 175.0 240.5 39.0
v 175.0 240.5 39.0
v 175.0 240.5 39.0
v 165.0 235.5 17.0
v 165.0 235.5 17.0
v 164.0 240.0 48.5
v 177.0 240.5 41.0
v 177.0 240.5 41.0
v 177.5 242.0 37.0
v 177.5 243.0 41.0
v 178.0 245.5 43.0
v 168.5 240.0 48.0
v 168.5 240.0 48.0
v 169.0 240.5 47.0
v 168.0 242.0 46.5
v 174.0 238.5 34.0
v 174.0 238.5 34.0
v 174.0 238.5 34.0
v 174.0 239.5 33.0
v 161.0 229.5 42.0
v 161.0 229.5 42.0
v 165.0 241.0 47.5
v 165.0 241.0 47.5
v 165.5 240.0 48.0
v 171.5 248.0 14.0
v 171.0 248.0 11.5
v 171.0 240.5 38.0
v 167.5 243.0 38.0
v 172.0 240.5 43.0
v 172.0 240.5 43.0
v 174.0 247.0 48.5
v 174.0 247.0 48.5
v 176.0 247.0 48.5
v 176.0 247.0 48.5
v 168.0 235.5 23.0
v 168.0 235.5 23.0
v 167.0 235.5 22.0
v 166.0 236.5 20.0
v 166.0 236.5 20.0
v 166.0 236.5 20.0
v 174.0 240.5 27.0
v 174.0 240.5 27.0
v 167.0 238.5 25.0
v 167.0 238.5 25.0
v 167.0 238.0 24.5
v 177.5 241.0 41.0
v 177.5 241.0 41.0
v 172.0 248.5 12.0
v 172.0 247.0 9.5
v 171.5 249.0 11.0
v 171.0 249.0 13.5
v 166.0 236.5 20.0
v 168.0 239.5 48.0
v 166.0 240.0 48.5
v 155.0 221.0 31.5
v 155.0 221.0 31.5
v 172.0 250.5 26.0
v 172.0 250.5 26.0
v 173.0 250.5 26.0
v 171.0 251.5 24.0
v 170.0 251.5 23.0
v 176.0 239.5 33.0
v 174.0 239.5 33.0
v 175.0 239.5 36.0
v 175.0 239.5 36.0
v 175.0 240.5 37.0
v 174.5 243.0 19.0
v 174.5 243.0 19.0
v 175.5 242.0 19.0
v 161.5 230.0 42.0
v 172.5 239.0 42.0
v 172.0 238.5 40.0
v 164.5 233.0 45.0
v 165.0 242.0 47.5
v 166.5 244.0 48.0
v 166.5 244.0 48.0
v 166.0 243.0 46.5
v 166.0 242.0 46.5
v 163.5 228.0 40.0
v 167.5 243.0 38.0
v 169.0 240.5 36.0
v 171.0 247.5 9.0
v 170.0 247.5 8.0
v 165.5 249.0 31.0
v 165.5 249.0 31.0
v 164.0 235.5 16.0
v 175.0 242.5 43.0
v 176.0 244.0 42.5
v 176.0 244.0 42.5
v 169.0 249.5 13.0
v 169.0 249.5 13.0
v 164.0 242.0 46.5
v 164.0 239.0 46.5
v 161.5 230.0 42.0
v 162.0 228.5 44.0
v 174.0 243.5 46.0
v 174.0 244.0 46.5
v 160.5 228.0 43.0
v 164.5 237.0 47.0
v 164.5 237.0 46.0
v 164.5 237.0 47.0
v 163.5 237.0 47.0
v 164.0 235.0 46.5
v 164.0 234.5 46.0
v 177.5 242.0 46.0
v 177.5 242.0 46.0
v 172.5 248.0 18.0
v 172.5 248.0 18.0
v 176.0 242.0 42.5
v 176.0 242.0 42.5
v 176.0 242.0 42.5
v 175.5 242.0 42.0
v 175.5 242.0 41.0
v 176.0 244.0 42.5
v 173.0 249.5 23.0
v 173.0 249.5 23.0
v 175.5 247.0 24.0
v 162.5 232.0 45.0
v 162.5 232.0 45.0
v 161.5 232.0 43.0
v 164.5 233.0 45.0
v 165.5 234.0 44.0
v 166.0 234.0 43.5
v 168.0 252.5 34.0
v 168.0 252.5 34.0
v 169.5 241.0 48.0
v 170.0 241.5 45.0
v 170.0 240.0 47.5
v 170.0 234.5 21.0
v 170.0 234.5 21.0
v 174.5 245.0 15.0
v 174.5 245.0 18.0
v 174.0 238.5 34.0
v 171.5 248.0 9.0
v 173.5 248.0 21.0
v 174.5 246.0 19.0
v 158.5 232.0 6.0
v 158.5 232.0 6.0
v 160.5 233.0 7.0
v 158.5 232.0 5.0
v 158.5 232.0 5.0
v 152.5 220.0 33.0
v 152.5 220.0 33.0
v 153.5 221.0 33.0
v 154.0 221.5 32.0
v 176.5 241.0 45.0
v 177.5 242.0 46.0
v 172.0 240.5 43.0
v 170.0 241.5 45.0
v 166.0 233.5 45.0
v 164.5 228.0 43.0
v 164.5 228.0 43.0
v 165.5 230.0 43.0
v 156.5 224.0 36.0
v 156.5 224.0 36.0
v 157.0 224.5 35.0
v 157.0 224.5 35.0
v 155.5 223.0 36.0
v 155.5 222.0 37.0
v 172.0 247.0 9.5
v 172.0 247.0 9.5
v 172.0 247.0 9.5
v 173.5 245.0 7.0
v 172.5 246.0 8.0
v 172.5 246.0 8.0
v 167.0 250.5 27.0
v 167.0 250.5 27.0
v 167.0 250.5 27.0
v 167.0 250.5 27.0
v 169.0 252.5 27.0
v 170.0 252.5 27.0
v 171.0 252.5 28.0
v 171.0 252.5 28.0
v 172.0 251.5 27.0
v 173.0 250.5 28.0
v 173.0 250.5 28.0
v 173.0 250.5 28.0
v 161.0 231.5 8.0
v 168.0 249.5 18.0
v 170.0 250.5 20.0
v 171.0 250.5 21.0
v 171.0 250.5 21.0
v 171.0 250.5 21.0
v 171.0 250.5 21.0
v 168.0 249.5 18.0
v 177.5 242.0 44.0
v 177.5 243.0 43.0
v 178.0 243.5 44.0
v 178.5 242.0 45.0
v 176.0 243.0 43.5
v 176.0 242.0 42.5
v 177.0 243.5 43.0
v 166.0 236.0 43.5
v 165.5 237.0 45.0
v 174.5 241.0 28.0
v 175.5 241.0 26.0
v 175.5 241.0 29.0
v 166.0 237.5 25.0
v 165.5 239.0 26.0
v 167.5 243.0 44.0
v 167.5 241.0 46.0
v 167.5 241.0 46.0
v 168.0 243.0 45.5
v 172.0 248.5 7.0
v 177.0 245.0 48.5
v 177.0 245.0 48.5
v 178.5 245.0 38.0
v 179.5 246.0 38.0
v 174.5 240.0 30.0
v 174.0 238.5 32.0
v 178.5 244.0 46.0
v 178.0 245.0 45.5
v 175.5 246.0 47.0
v 167.0 239.5 47.0
v 166.0 238.0 48.5
v 166.0 238.0 48.5
v 163.5 236.0 15.0
v 163.5 236.0 15.0
v 165.0 235.5 17.0
v 161.0 229.5 41.0
v 161.0 226.0 42.5
v 160.5 228.0 43.0
v 170.0 240.0 47.5
v 166.0 238.0 44.5
v 165.5 237.0 47.0
v 166.0 240.0 46.5
v 174.5 239.0 27.0
v 171.0 248.0 11.5
v 169.0 249.5 13.0
v 169.0 249.5 13.0
v 170.0 249.5 12.0
v 171.5 249.0 11.0
v 155.5 223.0 36.0
v 172.0 239.5 44.0
v 161.0 232.5 6.0
v 173.5 245.0 10.0
v 164.5 237.0 46.0
v 171.0 239.5 40.0
v 172.0 238.5 40.0
v 178.0 243.5 44.0
v 178.5 244.0 44.0
v 176.0 241.5 42.0
v 176.0 242.0 42.5
v 173.5 248.0 21.0
v 173.5 247.0 21.0
v 173.5 247.0 21.0
v 178.5 245.0 44.0
v 178.0 245.5 43.0
v 178.0 245.5 43.0
v 177.0 246.0 45.5
v 162.5 243.0 48.0
v 165.0 245.0 48.5
v 165.0 245.0 48.5
v 169.0 239.5 46.0
v 165.5 249.0 31.0
v 166.5 249.0 32.0
v 166.5 250.0 33.0
v 171.0 239.5 42.0
v 166.0 233.5 45.0
v 166.0 236.0 47.5
v 177.5 248.0 48.0
v 178.5 247.0 48.0
v 171.0 247.5 9.0
v 154.0 217.0 33.5
v 152.5 219.0 34.0
v 152.5 219.0 34.0
v 169.0 240.5 36.0
v 167.5 244.0 37.0
v 168.0 243.0 45.5
v 168.5 240.0 48.0
v 168.0 242.0 46.5
v 164.5 240.0 48.0
v 166.0 242.0 48.5
v 167.5 241.0 48.0
v 168.0 239.0 48.5
v 166.0 236.5 23.0
v 166.0 236.5 23.0
v 165.5 242.0 28.0
v 164.5 239.0 24.0
v 164.5 238.0 22.0
v 164.5 238.0 22.0
f 1 2 1038
f 1 4 5
f 2 1 5
f 4 8 5
f 1 1038 6
f 4 1 6
f 8 4 7
f 10 11 12
f 20 8 7
f 10 8 20
f 12 11 16
f 13 7 9
f 14 13 9
f 20 7 13
f 10 20 11
f 16 11 15
f 14 17 13
f 20 13 17
f 20 17 18
f 15 11 20
f 20 16 15
f 21 20 18
f 20 21 22
f 24 23 19
f 18 19 23
f 24 27 23
f 23 27 18
f 26 22 21
f 25 26 21
f 28 25 18
f 18 25 21
f 26 25 28
f 18 27 30
f 30 27 29
f 28 18 31
f 28 31 32
f 30 29 33
f 30 34 18
f 35 18 34
f 36 18 35
f 36 31 18
f 32 31 36
f 37 34 38
f 37 35 34
f 37 38 39
f 39 38 40
f 1038 2 1034
f 5 1034 2
f 5 61 1034
f 5 8 41
f 5 41 61
f 4 6 42
f 6 1037 1132
f 42 7 4
f 1036 7 42
f 8 45 43
f 9 1036 44
f 9 7 1036
f 8 10 45
f 10 12 45
f 9 44 52
f 45 12 16
f 64 45 16
f 9 52 14
f 105 20 22
f 105 22 26
f 27 107 29
f 53 28 32
f 46 53 32
f 33 29 55
f 30 33 55
f 30 55 34
f 36 47 46
f 46 32 36
f 34 55 48
f 35 37 59
f 35 57 36
f 59 57 35
f 36 57 47
f 49 38 34
f 37 39 59
f 38 49 40
f 40 70 39
f 42 3 1036
f 43 51 8
f 43 45 51
f 44 1036 52
f 85 17 14
f 16 20 64
f 17 85 18
f 19 78 24
f 53 26 28
f 107 65 29
f 54 53 46
f 29 65 55
f 46 56 54
f 34 48 68
f 46 47 57
f 56 46 57
f 34 68 49
f 68 58 49
f 40 49 58
f 40 58 70
f 70 1101 39
f 1034 61 60
f 61 41 8
f 1035 1075 50
f 1075 75 50
f 51 61 8
f 45 63 61
f 45 61 51
f 1036 62 52
f 45 76 63
f 62 77 52
f 45 64 76
f 52 77 14
f 85 19 18
f 106 24 78
f 53 54 1058
f 55 65 66
f 54 56 1062
f 1059 1060 67
f 55 66 68
f 55 68 48
f 56 57 1062
f 68 70 58
f 70 69 1101
f 1031 57 59
f 60 61 71
f 72 73 74
f 1075 71 75
f 74 73 76
f 61 63 72
f 63 73 72
f 76 73 63
f 1036 75 62
f 77 85 14
f 19 85 78
f 105 26 86
f 24 106 27
f 87 26 53
f 65 107 66
f 68 66 107
f 980 70 979
f 79 1101 69
f 863 1101 79
f 1062 57 81
f 70 68 82
f 81 57 1031
f 83 71 61
f 61 115 83
f 71 93 75
f 93 71 83
f 102 74 76
f 75 94 62
f 94 77 62
f 94 84 77
f 84 85 77
f 76 64 95
f 64 20 95
f 106 78 85
f 27 106 107
f 86 26 87
f 87 53 1058
f 79 802 863
f 979 70 91
f 1031 90 81
f 81 90 1062
f 90 1031 92
f 83 115 93
f 72 101 61
f 72 74 101
f 93 94 75
f 95 20 105
f 97 96 86
f 86 87 97
f 87 1057 1133
f 87 1133 97
f 108 88 89
f 1160 108 89
f 70 82 91
f 865 111 855
f 865 855 80
f 80 855 92
f 864 946 1061
f 945 1062 99
f 99 1062 90
f 99 90 92
f 855 99 92
f 93 115 100
f 74 102 101
f 93 120 94
f 120 93 119
f 76 103 102
f 120 84 94
f 84 120 85
f 76 95 104
f 85 132 106
f 95 105 104
f 105 86 96
f 96 97 105
f 108 109 88
f 88 109 97
f 68 147 82
f 108 1160 110
f 91 82 988
f 110 1160 1126
f 979 91 987
f 803 804 923
f 98 1125 1128
f 855 856 113
f 855 113 99
f 116 115 61
f 61 128 116
f 101 128 61
f 93 100 119
f 119 100 115
f 101 117 128
f 102 117 101
f 102 103 117
f 103 118 117
f 76 118 103
f 120 121 85
f 85 121 132
f 105 122 104
f 107 106 132
f 105 97 123
f 97 109 123
f 147 68 107
f 108 110 133
f 109 108 133
f 923 124 922
f 804 124 923
f 124 804 866
f 125 124 866
f 1125 1127 1128
f 1129 112 948
f 807 114 947
f 127 114 807
f 866 113 125
f 114 127 138
f 138 113 856
f 119 115 116
f 157 117 118
f 151 118 76
f 119 143 120
f 121 143 129
f 143 121 120
f 121 129 132
f 104 122 130
f 130 122 131
f 122 105 123
f 132 144 107
f 1028 109 133
f 988 82 156
f 82 147 156
f 805 948 133
f 112 126 948
f 135 134 124
f 808 127 807
f 135 136 806
f 135 124 125
f 135 125 137
f 137 125 113
f 127 136 138
f 137 113 138
f 128 117 157
f 116 139 119
f 139 116 140
f 116 128 140
f 157 140 128
f 118 151 157
f 119 139 143
f 140 141 139
f 141 143 139
f 141 140 142
f 144 129 143
f 132 129 144
f 131 122 123
f 145 107 144
f 161 107 145
f 123 109 1028
f 161 147 107
f 155 1028 133
f 133 948 148
f 148 948 149
f 135 150 136
f 135 137 150
f 136 150 138
f 137 138 150
f 140 902 142
f 143 152 153
f 141 1116 1114
f 1115 901 983
f 1116 141 142
f 76 159 151
f 159 76 178
f 178 76 169
f 76 104 169
f 130 170 104
f 170 130 131
f 144 160 145
f 123 1028 1029
f 147 154 156
f 133 148 155
f 156 165 988
f 140 168 158
f 157 168 140
f 167 153 152
f 167 152 158
f 143 153 144
f 104 170 169
f 131 123 170
f 155 162 1028
f 161 154 147
f 161 163 154
f 155 164 162
f 154 163 165
f 154 165 156
f 988 165 176
f 948 126 1082
f 948 1082 149
f 155 148 149
f 157 195 168
f 151 1026 157
f 158 166 167
f 158 168 166
f 151 159 1026
f 177 159 178
f 181 160 144
f 123 1029 170
f 172 171 146
f 146 174 172
f 173 163 161
f 1028 162 1004
f 162 164 1005
f 165 163 175
f 175 163 173
f 174 164 155
f 1079 174 155
f 165 175 176
f 1079 155 149
f 168 195 949
f 168 949 166
f 178 169 186
f 153 167 191
f 153 191 179
f 153 179 144
f 169 170 180
f 144 179 181
f 170 965 182
f 966 182 965
f 172 184 171
f 1029 1033 170
f 184 172 174
f 185 173 161
f 185 175 173
f 149 1082 1080
f 1027 194 936
f 159 196 1026
f 186 196 177
f 177 196 159
f 177 178 186
f 167 188 187
f 166 949 167
f 186 189 196
f 186 190 189
f 167 187 191
f 169 190 186
f 169 180 190
f 190 180 199
f 180 209 199
f 170 209 180
f 179 191 181
f 209 170 182
f 210 209 182
f 182 183 210
f 200 183 964
f 200 170 192
f 192 170 1033
f 1143 184 174
f 161 233 185
f 233 175 185
f 1143 174 1079
f 176 175 219
f 190 197 189
f 198 197 190
f 187 208 191
f 188 208 187
f 190 199 198
f 210 183 200
f 201 200 192
f 201 192 1033
f 202 161 145
f 161 202 233
f 219 175 233
f 1142 205 1141
f 176 219 212
f 176 212 193
f 1081 1076 1077
f 206 194 1027
f 1026 213 206
f 1026 196 213
f 208 188 207
f 189 225 196
f 197 225 189
f 197 198 225
f 199 225 198
f 191 226 181
f 160 181 264
f 200 201 265
f 160 264 145
f 1143 218 184
f 211 202 145
f 211 233 202
f 218 203 204
f 220 1032 1078
f 193 212 1078
f 206 933 194
f 932 934 935
f 933 937 194
f 196 214 213
f 214 196 225
f 207 215 208
f 215 1173 1178
f 213 215 207
f 209 225 199
f 208 226 191
f 226 264 181
f 210 200 304
f 1033 216 201
f 216 265 201
f 216 184 217
f 204 1013 218
f 221 1032 220
f 1078 212 234
f 213 237 223
f 214 237 213
f 224 1174 215
f 223 215 213
f 224 215 223
f 214 225 237
f 227 228 229
f 229 230 227
f 227 231 228
f 230 231 227
f 209 210 261
f 145 268 211
f 184 1014 217
f 233 211 268
f 218 1014 184
f 218 1013 1014
f 233 234 219
f 234 212 219
f 232 1012 220
f 220 1078 236
f 1014 220 236
f 1078 234 235
f 1078 235 222
f 236 1078 222
f 224 223 237
f 224 1095 1174
f 809 239 238
f 942 224 237
f 239 240 238
f 209 879 225
f 229 228 876
f 241 230 229
f 209 261 879
f 231 242 228
f 877 231 230
f 242 231 877
f 261 210 251
f 304 200 265
f 217 1014 243
f 244 233 268
f 954 243 1014
f 255 234 233
f 954 1014 236
f 234 255 256
f 235 234 256
f 235 256 222
f 237 245 942
f 225 245 237
f 225 246 245
f 225 247 246
f 1095 248 1174
f 238 240 1096
f 879 247 225
f 1177 1175 1176
f 1174 248 280
f 877 878 939
f 939 878 880
f 939 242 877
f 216 267 265
f 267 216 217
f 269 267 217
f 217 243 269
f 252 268 332
f 954 253 243
f 243 253 269
f 252 244 268
f 252 254 244
f 254 233 244
f 954 956 253
f 233 254 255
f 957 958 955
f 258 942 245
f 246 258 245
f 246 247 258
f 321 940 942
f 1124 247 879
f 250 876 260
f 259 249 250
f 260 259 250
f 242 278 228
f 242 938 278
f 262 938 1093
f 226 280 263
f 262 1093 1094
f 226 263 264
f 264 266 145
f 145 266 268
f 1074 269 253
f 257 1074 253
f 255 254 270
f 1074 257 1066
f 256 255 270
f 1072 1065 1071
f 1068 1063 1067
f 942 298 321
f 258 299 942
f 258 247 299
f 247 300 299
f 248 274 275
f 248 941 274
f 247 276 300
f 247 1124 276
f 248 275 280
f 876 228 276
f 260 876 276
f 260 276 259
f 278 938 277
f 277 938 262
f 277 262 279
f 1092 262 1094
f 281 263 280
f 264 263 281
f 264 306 282
f 281 306 264
f 304 265 283
f 268 266 282
f 282 266 264
f 265 267 283
f 267 269 284
f 267 284 283
f 269 285 284
f 1073 286 269
f 270 254 333
f 286 1073 288
f 272 270 333
f 272 338 273
f 1063 1068 289
f 271 1064 1070
f 290 291 292
f 291 290 293
f 294 290 292
f 293 290 294
f 294 296 293
f 295 293 297
f 297 293 296
f 314 297 296
f 942 299 298
f 275 274 321
f 321 274 941
f 276 323 300
f 275 301 280
f 276 228 881
f 277 303 278
f 276 881 323
f 301 330 280
f 867 277 279
f 324 1092 1094
f 307 305 283
f 305 304 283
f 282 306 268
f 283 362 307
f 283 284 362
f 284 285 362
f 336 288 287
f 336 286 288
f 336 287 271
f 336 271 308
f 272 333 338
f 308 271 1070
f 273 338 309
f 1069 273 309
f 292 291 310
f 291 293 310
f 292 310 294
f 293 295 311
f 295 312 311
f 294 313 296
f 295 297 312
f 296 313 314
f 314 312 297
f 312 314 316
f 316 314 317
f 346 315 316
f 316 315 312
f 318 316 317
f 346 316 318
f 298 319 321
f 298 299 319
f 382 320 300
f 300 320 299
f 321 319 330
f 322 319 299
f 300 323 382
f 323 324 325
f 325 324 326
f 301 275 321
f 301 321 330
f 319 353 330
f 881 228 327
f 303 868 812
f 328 810 811
f 323 302 324
f 327 861 881
f 326 324 1106
f 278 358 228
f 812 278 303
f 358 278 812
f 1106 324 1094
f 280 330 281
f 305 331 304
f 281 385 306
f 305 307 331
f 306 385 268
f 307 362 331
f 362 285 363
f 332 254 252
f 333 254 332
f 269 286 334
f 269 334 285
f 285 334 363
f 286 336 337
f 334 286 337
f 365 336 308
f 333 335 338
f 365 308 1070
f 365 1069 390
f 390 1069 339
f 309 338 339
f 339 1069 309
f 340 310 293
f 341 340 311
f 311 340 293
f 311 312 341
f 310 342 294
f 312 343 341
f 294 342 313
f 342 344 313
f 345 343 312
f 314 313 344
f 312 315 345
f 315 346 345
f 345 346 347
f 314 348 317
f 317 348 349
f 317 349 372
f 350 318 372
f 318 317 372
f 318 350 346
f 351 346 350
f 351 347 346
f 351 350 374
f 320 382 299
f 319 322 352
f 382 322 299
f 380 325 326
f 319 352 353
f 327 354 355
f 228 354 327
f 355 328 811
f 356 328 355
f 380 326 1106
f 228 358 354
f 356 358 812
f 1107 329 304
f 1107 304 357
f 360 359 330
f 353 360 330
f 357 304 331
f 361 357 331
f 331 362 361
f 982 333 332
f 333 1152 335
f 337 336 365
f 430 339 338
f 390 339 366
f 340 367 310
f 340 341 367
f 342 310 367
f 342 367 368
f 341 368 367
f 813 369 368
f 343 369 341
f 342 370 344
f 371 370 368
f 370 342 368
f 343 391 369
f 343 345 391
f 370 314 344
f 370 371 314
f 392 345 347
f 314 371 348
f 371 372 348
f 349 348 372
f 372 1039 350
f 347 351 373
f 350 1039 377
f 374 373 351
f 373 375 376
f 374 350 377
f 373 953 379
f 379 953 378
f 379 375 373
f 325 380 323
f 352 381 353
f 322 381 352
f 382 381 322
f 355 354 383
f 355 383 356
f 400 1107 357
f 384 353 381
f 354 358 383
f 356 383 358
f 360 353 386
f 353 384 386
f 400 357 361
f 359 385 330
f 330 385 281
f 360 385 359
f 386 385 360
f 361 362 387
f 363 388 362
f 363 334 405
f 388 363 405
f 405 334 337
f 1152 430 335
f 335 430 338
f 368 391 371
f 368 369 391
f 345 392 391
f 371 1040 372
f 377 1039 1041
f 373 376 394
f 952 1042 395
f 953 1041 378
f 375 379 396
f 375 396 376
f 376 396 394
f 378 1041 397
f 378 396 379
f 396 378 397
f 398 396 397
f 415 396 398
f 382 419 381
f 381 419 399
f 384 381 403
f 381 399 403
f 959 960 361
f 959 361 402
f 384 420 386
f 403 420 384
f 420 385 386
f 361 387 402
f 385 423 268
f 268 423 332
f 332 423 982
f 404 389 364
f 404 406 389
f 1154 981 1153
f 337 407 405
f 406 430 1152
f 407 337 408
f 408 337 365
f 390 408 365
f 339 430 366
f 391 409 371
f 409 391 410
f 410 391 392
f 371 409 1040
f 1040 409 410
f 431 410 392
f 392 347 431
f 347 411 431
f 433 411 347
f 1161 1162 393
f 433 347 373
f 1041 1039 1163
f 433 373 394
f 814 413 1041
f 1041 413 435
f 396 414 394
f 397 1041 435
f 415 414 396
f 398 397 451
f 419 382 417
f 382 323 417
f 1107 400 913
f 401 914 916
f 959 402 915
f 419 403 399
f 385 421 423
f 420 421 385
f 387 424 422
f 387 362 424
f 423 425 982
f 425 404 982
f 405 426 388
f 388 426 362
f 405 407 428
f 426 405 428
f 428 407 408
f 428 408 390
f 406 427 429
f 406 429 430
f 412 410 431
f 412 431 432
f 432 431 814
f 433 431 411
f 1163 432 1041
f 1041 432 814
f 447 433 394
f 435 413 434
f 434 413 814
f 447 394 414
f 451 397 435
f 414 415 449
f 451 1053 398
f 415 398 436
f 415 436 449
f 398 1053 416
f 398 416 436
f 380 455 323
f 323 455 417
f 1030 455 380
f 1030 438 455
f 978 403 419
f 420 403 459
f 421 420 460
f 387 422 402
f 402 422 439
f 421 460 423
f 422 424 439
f 425 423 440
f 424 441 493
f 425 406 404
f 425 440 406
f 424 362 442
f 362 426 442
f 441 424 442
f 442 426 428
f 427 406 523
f 390 462 428
f 427 463 429
f 1021 463 443
f 390 366 462
f 1022 443 444
f 1022 444 430
f 430 444 366
f 444 478 366
f 445 431 433
f 814 446 434
f 814 431 445
f 814 445 446
f 446 445 433
f 447 480 433
f 434 446 435
f 448 447 414
f 465 435 446
f 465 815 435
f 448 414 449
f 435 815 451
f 452 450 449
f 436 452 449
f 416 1051 453
f 416 437 1052
f 436 416 453
f 454 436 453
f 978 419 456
f 455 419 417
f 418 457 438
f 459 403 978
f 402 906 915
f 474 402 439
f 460 420 459
f 439 424 474
f 424 493 474
f 493 441 461
f 461 441 442
f 462 461 442
f 462 442 428
f 443 463 444
f 464 433 480
f 446 433 464
f 446 464 465
f 465 464 466
f 466 464 480
f 447 481 480
f 815 465 466
f 480 815 466
f 447 484 481
f 448 484 447
f 448 449 484
f 449 468 484
f 468 449 450
f 469 468 450
f 1054 1055 1056
f 467 1130 815
f 483 470 1051
f 450 452 469
f 1051 470 453
f 436 454 452
f 453 487 454
f 455 895 419
f 438 896 455
f 457 896 438
f 978 471 977
f 962 472 897
f 1164 1165 459
f 906 402 474
f 460 459 1165
f 1165 492 460
f 461 476 493
f 406 440 523
f 461 462 476
f 523 463 427
f 476 462 477
f 366 478 479
f 366 479 462
f 444 463 497
f 497 478 444
f 815 482 467
f 815 480 482
f 482 480 483
f 484 483 481
f 483 480 481
f 468 498 484
f 468 469 498
f 1056 482 1054
f 1054 482 483
f 500 498 469
f 453 470 485
f 485 470 483
f 500 469 452
f 500 452 486
f 499 487 453
f 452 454 486
f 454 502 486
f 900 456 419
f 925 471 924
f 924 471 978
f 456 924 978
f 900 924 456
f 961 489 963
f 963 489 505
f 489 915 906
f 490 475 458
f 491 906 474
f 491 474 493
f 460 492 423
f 423 492 440
f 495 494 493
f 495 493 476
f 462 496 477
f 511 476 477
f 479 478 510
f 510 462 479
f 510 496 462
f 510 478 497
f 483 499 485
f 483 484 499
f 499 484 498
f 485 499 453
f 502 501 486
f 454 487 503
f 502 454 503
f 517 502 503
f 504 490 488
f 520 504 488
f 899 520 488
f 504 506 490
f 489 507 505
f 489 906 507
f 490 506 538
f 906 491 543
f 508 475 538
f 475 490 538
f 543 491 493
f 475 509 492
f 508 509 475
f 492 523 440
f 511 477 496
f 511 496 510
f 497 463 512
f 512 510 497
f 499 498 524
f 500 524 498
f 486 524 500
f 486 513 524
f 514 513 486
f 499 524 487
f 514 486 501
f 487 524 515
f 514 501 502
f 514 502 516
f 503 487 515
f 517 516 502
f 518 516 517
f 1135 898 969
f 538 506 504
f 505 507 904
f 507 473 904
f 543 905 906
f 538 521 508
f 544 543 493
f 570 1104 1105
f 492 509 523
f 476 522 495
f 512 463 776
f 555 524 513
f 514 555 513
f 514 525 555
f 556 525 514
f 524 526 515
f 556 514 516
f 526 503 515
f 526 527 503
f 530 503 527
f 528 516 518
f 503 976 517
f 976 503 530
f 528 518 532
f 532 518 531
f 532 529 528
f 504 520 533
f 534 504 533
f 538 534 535
f 504 534 538
f 539 540 541
f 539 541 594
f 536 907 537
f 542 521 538
f 521 542 508
f 508 596 509
f 545 546 547
f 547 548 545
f 545 549 546
f 548 549 545
f 476 511 550
f 463 523 551
f 550 511 552
f 510 512 511
f 511 512 553
f 554 524 555
f 524 554 526
f 526 554 555
f 573 555 525
f 556 573 525
f 557 556 516
f 526 573 527
f 516 528 557
f 573 530 527
f 967 518 917
f 976 530 918
f 518 967 531
f 529 532 560
f 531 991 532
f 532 605 560
f 562 532 561
f 562 605 532
f 563 519 564
f 1155 533 520
f 563 1155 1136
f 1155 520 1136
f 581 535 534
f 533 581 534
f 505 566 519
f 505 904 566
f 541 567 1139
f 540 567 541
f 568 594 541
f 1140 594 568
f 593 540 539
f 593 1007 540
f 1006 1009 1010
f 539 594 593
f 542 596 508
f 538 596 542
f 544 569 543
f 569 943 543
f 544 599 569
f 599 544 493
f 1104 570 908
f 509 596 523
f 1105 495 570
f 495 522 570
f 547 546 571
f 547 571 548
f 546 549 571
f 548 571 549
f 476 550 636
f 552 511 572
f 512 776 553
f 555 573 526
f 556 557 601
f 601 557 528
f 1118 574 1117
f 601 528 529
f 1048 601 529
f 574 558 1117
f 574 602 558
f 529 560 1048
f 558 602 559
f 1048 560 576
f 532 991 577
f 605 576 560
f 578 532 577
f 532 578 561
f 562 607 605
f 643 562 561
f 563 564 579
f 1155 563 579
f 1155 579 926
f 564 927 579
f 519 580 564
f 519 566 580
f 580 566 615
f 566 904 615
f 904 616 615
f 616 904 944
f 617 616 944
f 535 581 583
f 584 585 586
f 1139 567 1088
f 617 944 588
f 535 622 538
f 583 622 535
f 585 985 589
f 585 584 985
f 984 986 586
f 586 986 584
f 1008 1011 590
f 624 1089 587
f 588 943 591
f 596 538 592
f 538 622 592
f 817 595 816
f 595 817 591
f 595 591 569
f 569 591 943
f 595 597 985
f 599 597 595
f 599 595 569
f 596 598 523
f 598 551 523
f 573 556 601
f 600 573 601
f 1119 573 600
f 601 575 600
f 575 1119 600
f 1049 992 995
f 992 603 991
f 991 603 577
f 1049 605 639
f 605 1049 1050
f 577 603 578
f 603 604 578
f 608 606 605
f 561 578 612
f 562 643 609
f 562 609 607
f 609 1019 1020
f 609 1020 607
f 607 1020 605
f 1020 608 605
f 643 561 612
f 613 611 610
f 1090 608 1020
f 564 580 614
f 565 1045 533
f 533 1045 581
f 968 1131 582
f 581 618 619
f 581 619 583
f 586 585 620
f 617 588 621
f 619 622 583
f 589 620 585
f 589 851 620
f 586 620 984
f 984 620 623
f 984 624 587
f 623 624 984
f 1084 1085 1083
f 588 591 621
f 592 622 625
f 852 853 850
f 850 853 626
f 985 819 589
f 869 871 627
f 842 624 623
f 871 663 627
f 1087 628 817
f 624 842 870
f 820 591 628
f 628 591 817
f 625 631 592
f 596 592 631
f 872 632 818
f 985 597 819
f 819 597 821
f 1145 870 842
f 1145 629 870
f 633 630 629
f 1145 633 629
f 634 596 631
f 598 596 634
f 634 770 598
f 635 908 570
f 635 570 522
f 635 522 476
f 636 635 476
f 598 770 551
f 636 550 701
f 770 637 551
f 701 550 552
f 463 551 637
f 463 637 773
f 463 773 774
f 992 638 603
f 638 992 639
f 992 1049 639
f 638 1016 603
f 1016 638 639
f 603 1016 604
f 604 1015 1017
f 970 605 857
f 606 857 605
f 606 608 1047
f 578 641 612
f 609 640 642
f 609 642 1019
f 643 641 832
f 643 612 641
f 609 643 1018
f 644 643 832
f 645 644 832
f 1090 1091 647
f 649 647 1091
f 1121 649 1091
f 580 650 651
f 651 650 652
f 653 683 618
f 826 581 1045
f 1046 582 1131
f 580 615 650
f 650 615 616
f 823 616 654
f 650 1043 652
f 654 616 655
f 616 617 655
f 618 685 619
f 618 656 653
f 581 826 618
f 655 617 621
f 825 1083 657
f 655 657 654
f 657 1083 658
f 1097 1099 891
f 619 685 622
f 658 1083 1085
f 828 1097 891
f 660 659 622
f 828 661 659
f 659 625 622
f 828 892 661
f 626 662 850
f 664 627 663
f 631 625 659
f 631 659 666
f 666 659 661
f 667 661 892
f 666 661 667
f 819 831 854
f 821 831 819
f 664 632 872
f 668 632 664
f 1137 1109 665
f 1109 1137 1138
f 1109 1138 669
f 669 1138 1144
f 666 697 631
f 631 697 634
f 667 697 666
f 669 1144 1147
f 770 634 670
f 634 697 670
f 1144 1146 1147
f 635 699 908
f 636 701 635
f 463 774 776
f 639 671 578
f 671 639 672
f 639 605 672
f 671 673 578
f 672 673 671
f 605 970 672
f 578 673 641
f 672 970 673
f 1001 673 970
f 641 673 832
f 1001 970 998
f 1156 1157 610
f 733 822 608
f 832 674 645
f 674 704 645
f 643 644 1018
f 1018 644 996
f 610 1157 613
f 675 644 645
f 675 645 704
f 644 675 1134
f 644 676 996
f 1090 647 608
f 678 884 675
f 890 1134 675
f 677 890 675
f 1121 1123 1111
f 1121 1111 649
f 680 681 682
f 681 680 683
f 1046 1131 718
f 580 684 614
f 651 684 580
f 651 652 684
f 1099 680 682
f 683 685 618
f 1151 680 1098
f 683 653 686
f 688 684 652
f 1002 652 1043
f 1024 722 687
f 827 833 824
f 653 841 686
f 657 1044 654
f 657 658 1044
f 722 689 687
f 1086 1137 1003
f 891 892 828
f 690 829 854
f 690 691 829
f 663 993 664
f 1003 1137 665
f 1003 665 692
f 697 667 847
f 667 892 847
f 694 690 693
f 690 831 693
f 690 854 831
f 693 830 695
f 695 668 993
f 664 993 668
f 665 696 692
f 693 698 694
f 695 698 693
f 1109 669 1147
f 700 670 697
f 670 700 770
f 699 635 701
f 731 701 552
f 637 772 773
f 572 511 775
f 775 552 572
f 553 776 777
f 800 511 553
f 777 800 553
f 832 702 674
f 1001 998 1000
f 674 702 704
f 1000 998 894
f 733 608 703
f 613 1157 646
f 1157 706 646
f 608 647 703
f 703 647 707
f 675 704 678
f 704 862 678
f 997 679 843
f 843 679 709
f 646 706 648
f 647 649 707
f 710 884 678
f 710 678 862
f 885 886 887
f 885 887 889
f 649 1111 707
f 712 711 713
f 1167 682 681
f 742 712 713
f 882 681 714
f 714 681 683
f 718 1131 745
f 614 684 745
f 920 887 886
f 713 711 715
f 742 713 715
f 742 715 716
f 682 1167 1099
f 714 686 717
f 714 683 686
f 688 746 684
f 719 990 873
f 989 920 886
f 975 711 971
f 975 715 711
f 910 721 1166
f 1167 891 1099
f 715 975 716
f 686 841 1168
f 686 1168 717
f 883 912 909
f 1024 1025 722
f 722 1025 1023
f 718 744 1046
f 971 974 975
f 723 724 720
f 1100 1168 841
f 691 690 726
f 846 848 849
f 726 694 727
f 690 694 726
f 993 727 695
f 994 727 993
f 694 698 727
f 695 727 698
f 1108 1147 728
f 1109 1147 1108
f 700 767 770
f 1147 729 728
f 730 729 1147
f 699 701 730
f 731 730 701
f 732 731 552
f 732 552 775
f 999 705 893
f 703 707 1122
f 733 703 1122
f 704 845 862
f 844 888 708
f 734 844 708
f 1122 707 1113
f 862 735 710
f 708 888 736
f 706 1112 648
f 778 712 737
f 1113 707 1111
f 737 738 739
f 778 737 739
f 735 874 710
f 736 887 740
f 648 1112 711
f 1112 741 711
f 950 836 835
f 712 742 737
f 834 836 743
f 858 739 738
f 836 950 743
f 858 1120 739
f 684 746 745
f 740 887 920
f 919 921 1169
f 971 711 741
f 1172 716 1171
f 911 743 749
f 839 837 838
f 858 859 1120
f 749 860 911
f 745 744 718
f 920 989 751
f 1171 716 975
f 1170 1171 975
f 752 892 750
f 753 746 688
f 754 873 875
f 1148 754 875
f 719 873 754
f 754 751 989
f 720 724 787
f 892 752 847
f 1148 759 754
f 751 754 759
f 971 973 974
f 723 972 724
f 724 972 787
f 758 725 756
f 688 1108 753
f 753 1108 792
f 757 751 759
f 759 760 757
f 725 758 697
f 1108 728 792
f 762 761 759
f 760 759 761
f 758 763 697
f 1102 1110 764
f 1102 764 765
f 761 762 766
f 760 761 766
f 763 700 697
f 767 700 763
f 764 1110 1159
f 1159 1110 1158
f 1159 765 764
f 930 796 768
f 728 729 840
f 730 840 729
f 840 730 771
f 730 731 771
f 798 637 770
f 732 797 771
f 732 771 731
f 637 798 772
f 732 775 797
f 511 800 775
f 708 779 735
f 708 736 779
f 1112 739 780
f 735 779 874
f 736 740 781
f 779 736 781
f 1112 782 741
f 780 748 1112
f 748 782 1112
f 743 950 780
f 1120 783 739
f 739 783 780
f 744 745 783
f 745 746 783
f 783 746 784
f 747 903 785
f 781 740 785
f 1169 921 951
f 748 740 782
f 743 780 749
f 750 749 780
f 750 780 786
f 786 780 783
f 792 786 783
f 746 753 784
f 748 787 740
f 752 750 786
f 752 786 788
f 792 788 786
f 753 789 784
f 747 785 755
f 740 791 785
f 791 755 785
f 787 791 740
f 788 790 756
f 752 788 756
f 784 792 783
f 787 760 791
f 787 972 760
f 758 756 790
f 788 792 790
f 792 758 790
f 789 792 784
f 789 753 792
f 759 1148 1150
f 791 793 762
f 759 1149 762
f 760 793 791
f 758 792 763
f 762 793 766
f 760 766 793
f 767 763 792
f 767 792 794
f 931 768 928
f 765 795 1103
f 765 769 795
f 768 796 929
f 840 1103 795
f 769 840 795
f 840 771 1103
f 767 794 770
f 798 770 794
f 1103 798 794
f 1103 797 774
f 1103 771 797
f 1103 774 798
f 798 799 772
f 774 799 798
f 797 800 774
f 775 800 797
f 772 799 773
f 774 773 799
f 800 801 774
f 777 801 800
f 774 801 776
f 777 776 801
