g 532
v 131.0 267.0 106.5
v 131.0 266.5 107.0
v 130.5 267.0 107.0
v 131.5 267.0 107.0
v 131.0 268.0 106.5
v 130.0 266.0 107.5
v 132.0 266.0 107.5
v 137.0 266.0 107.5
v 128.0 267.0 107.5
v 128.0 266.5 108.0
v 129.0 267.0 107.5
v 131.0 266.5 108.0
v 130.0 268.0 107.5
v 132.0 268.0 107.5
v 128.0 269.0 107.5
v 129.0 269.0 107.5
v 133.0 269.0 107.5
v 134.0 269.0 107.5
v 130.0 270.0 107.5
v 132.0 270.0 107.5
v 132.0 270.5 108.0
v 132.0 263.0 108.5
v 137.0 263.0 108.5
v 140.0 263.0 108.5
v 130.0 264.0 108.5
v 131.0 264.0 108.5
v 128.0 265.0 108.5
v 137.0 265.0 108.5
v 140.0 265.0 108.5
v 131.0 266.0 108.5
v 126.0 267.0 108.5
v 128.0 268.0 108.5
v 136.0 268.0 108.5
v 137.0 268.0 108.5
v 126.0 270.0 108.5
v 127.0 270.0 108.5
v 129.0 270.0 108.5
v 128.0 271.0 108.5
v 133.0 270.5 109.0
v 134.0 270.5 109.0
v 131.0 271.5 109.0
v 132.0 261.5 110.0
v 141.0 262.0 109.5
v 141.0 261.5 110.0
v 139.0 263.0 109.5
v 141.0 263.0 109.5
v 142.0 263.0 109.5
v 128.0 264.0 109.5
v 127.0 265.0 109.5
v 129.0 265.0 109.5
v 142.0 265.0 109.5
v 126.0 266.0 109.5
v 128.0 266.0 109.5
v 140.0 266.0 109.5
v 141.0 266.0 109.5
v 125.0 267.0 109.5
v 124.0 268.0 109.5
v 139.0 267.5 110.0
v 125.0 270.0 109.5
v 137.0 269.5 110.0
v 124.0 271.0 109.5
v 135.0 270.5 110.0
v 132.0 271.5 110.0
v 128.0 272.5 110.0
v 129.0 272.5 110.0
v 135.0 260.5 111.0
v 141.0 260.5 111.0
v 130.0 261.5 111.0
v 134.0 261.5 111.0
v 143.0 262.0 110.5
v 128.0 262.5 111.0
v 129.0 262.5 111.0
v 143.0 263.0 110.5
v 144.0 263.0 110.5
v 144.5 263.0 111.0
v 144.0 265.0 110.5
v 144.5 265.0 111.0
v 142.0 266.0 110.5
v 143.0 266.0 110.5
v 139.0 267.5 111.0
v 141.0 267.5 111.0
v 122.0 270.0 110.5
v 122.0 271.0 110.5
v 123.0 271.0 110.5
v 133.0 270.5 111.0
v 125.0 272.0 110.5
v 132.0 271.5 111.0
v 124.0 273.0 110.5
v 127.0 272.5 111.0
v 132.0 260.5 112.0
v 139.0 260.5 112.0
v 143.0 260.5 112.0
v 129.0 261.5 112.0
v 126.0 263.5 112.0
v 122.5 267.0 112.0
v 121.5 268.0 112.0
v 141.0 267.5 112.0
v 143.0 267.5 112.0
v 121.5 269.0 112.0
v 139.0 268.5 112.0
v 140.0 268.5 112.0
v 120.5 270.0 112.0
v 137.0 269.5 112.0
v 135.0 270.5 112.0
v 121.0 272.0 111.5
v 120.5 272.0 112.0
v 123.0 274.0 111.5
v 124.0 274.0 111.5
v 127.0 273.5 112.0
v 124.0 274.5 112.0
v 139.0 259.5 113.0
v 141.0 259.5 113.0
v 132.0 260.5 113.0
v 138.0 260.5 113.0
v 142.0 260.5 113.0
v 144.0 260.5 113.0
v 144.5 261.0 113.0
v 131.0 261.5 113.0
v 127.0 262.5 113.0
v 122.0 268.0 112.5
v 122.5 268.0 113.0
v 143.0 267.5 113.0
v 121.0 268.5 113.0
v 120.5 269.0 113.0
v 122.0 268.5 113.0
v 141.0 268.5 113.0
v 142.0 268.5 113.0
v 120.5 271.0 113.0
v 131.0 270.5 113.0
v 132.0 270.5 113.0
v 134.0 270.5 113.0
v 119.5 272.0 113.0
v 129.0 272.5 113.0
v 122.0 274.0 112.5
v 128.0 273.5 113.0
v 126.0 274.5 113.0
v 142.0 259.5 114.0
v 143.0 259.5 114.0
v 133.0 260.5 114.0
v 134.0 260.5 114.0
v 144.5 261.0 114.0
v 129.0 261.5 114.0
v 127.0 262.5 114.0
v 128.0 262.5 114.0
v 126.0 263.5 114.0
v 122.5 267.0 114.0
v 144.5 268.0 114.0
v 121.0 268.5 114.0
v 143.0 268.5 114.0
v 144.0 268.5 114.0
v 119.5 270.0 114.0
v 132.0 269.5 114.0
v 134.0 269.5 114.0
v 119.5 271.0 114.0
v 128.0 273.5 114.0
v 126.0 274.5 114.0
v 120.0 276.0 113.5
v 119.5 276.0 114.0
v 122.0 276.0 113.5
v 124.0 275.5 114.0
v 125.0 275.5 114.0
v 120.0 276.5 114.0
v 139.0 259.5 115.0
v 144.0 259.5 115.0
v 144.5 260.0 115.0
v 135.0 260.5 115.0
v 138.0 260.5 115.0
v 134.0 261.5 115.0
v 128.0 262.5 115.0
v 130.0 262.5 115.0
v 126.0 263.5 115.0
v 133.0 268.5 115.0
v 136.0 268.5 115.0
v 138.0 268.5 115.0
v 129.5 271.0 115.0
v 119.5 272.0 115.0
v 118.5 273.0 115.0
v 118.5 274.0 115.0
v 119.0 274.5 115.0
v 119.5 275.0 115.0
v 119.5 276.0 115.0
v 119.0 277.0 114.5
v 122.0 277.0 114.5
v 123.0 276.5 115.0
v 124.0 276.5 115.0
v 121.0 278.0 114.5
v 120.0 278.5 115.0
v 121.0 278.5 115.0
v 137.0 260.5 116.0
v 134.0 261.5 116.0
v 130.0 262.5 116.0
v 127.0 263.5 116.0
v 128.0 263.5 116.0
v 125.0 264.5 116.0
v 136.0 267.5 116.0
v 138.0 267.5 116.0
v 135.0 268.5 116.0
v 118.5 271.0 116.0
v 119.0 271.5 116.0
v 119.5 272.0 116.0
v 119.0 272.5 116.0
v 118.0 275.0 115.5
v 117.5 275.0 116.0
v 119.0 275.0 115.5
v 119.0 276.0 115.5
v 118.0 277.0 115.5
v 117.5 277.0 116.0
v 122.0 278.5 116.0
v 123.0 266.5 117.0
v 132.0 267.0 116.5
v 120.5 269.0 117.0
v 141.0 268.5 117.0
v 129.5 270.0 117.0
v 118.5 271.0 117.0
v 118.0 272.0 116.5
v 117.5 272.0 117.0
v 119.0 272.0 116.5
v 128.5 272.0 117.0
v 118.5 273.0 117.0
v 117.5 274.0 117.0
v 126.5 274.0 117.0
v 116.5 275.0 117.0
v 117.5 276.0 117.0
v 117.5 278.0 117.0
v 118.0 278.5 117.0
v 120.0 279.5 117.0
v 140.0 261.0 117.5
v 141.0 261.0 117.5
v 134.0 263.0 117.5
v 139.0 262.5 118.0
v 130.0 264.0 117.5
v 133.0 264.0 117.5
v 127.0 265.0 117.5
v 129.0 266.0 117.5
v 134.0 266.0 117.5
v 133.0 267.0 117.5
v 135.0 267.0 117.5
v 122.0 267.5 118.0
v 129.0 268.0 117.5
v 139.0 267.5 118.0
v 141.0 267.5 118.0
v 129.0 269.0 117.5
v 117.5 273.0 118.0
v 126.5 274.0 118.0
v 117.5 275.0 118.0
v 125.5 275.0 118.0
v 116.5 276.0 118.0
v 123.0 277.5 118.0
v 120.0 278.5 118.0
v 122.0 278.5 118.0
v 143.0 259.5 119.0
v 144.0 259.5 119.0
v 144.5 260.0 119.0
v 142.5 261.0 119.0
v 140.0 262.0 118.5
v 137.0 263.0 118.5
v 139.0 262.5 119.0
v 141.0 263.0 118.5
v 137.0 264.0 118.5
v 135.0 265.0 118.5
v 137.0 265.0 118.5
v 135.0 266.0 118.5
v 125.0 267.0 118.5
v 129.0 267.0 118.5
v 124.0 268.0 118.5
v 121.0 268.5 119.0
v 120.5 269.0 119.0
v 122.0 268.5 119.0
v 128.0 270.0 118.5
v 126.5 271.0 119.0
v 118.5 272.0 119.0
v 117.5 273.0 119.0
v 116.5 275.0 119.0
v 118.0 278.5 119.0
v 119.0 279.5 119.0
v 120.0 279.5 119.0
v 142.5 261.0 120.0
v 144.5 261.0 120.0
v 139.0 263.0 119.5
v 142.5 263.0 120.0
v 138.0 264.0 119.5
v 140.0 264.0 119.5
v 138.0 265.0 119.5
v 141.0 265.0 119.5
v 141.5 265.0 120.0
v 139.0 266.0 119.5
v 142.0 267.5 120.0
v 144.5 268.0 120.0
v 122.0 268.5 120.0
v 123.0 268.5 120.0
v 144.0 268.5 120.0
v 121.5 270.0 120.0
v 120.0 270.5 120.0
v 121.0 270.5 120.0
v 126.5 272.0 120.0
v 118.5 273.0 120.0
v 117.5 274.0 120.0
v 125.5 275.0 120.0
v 124.5 276.0 120.0
v 122.0 277.5 120.0
v 120.0 279.5 120.0
v 144.0 260.5 121.0
v 144.5 261.0 121.0
v 142.5 263.0 121.0
v 140.0 265.0 120.5
v 141.5 265.0 121.0
v 144.5 265.0 121.0
v 141.0 266.0 120.5
v 142.0 265.5 121.0
v 122.0 269.0 120.5
v 121.0 270.0 120.5
v 121.0 269.5 121.0
v 120.5 270.0 121.0
v 125.0 270.0 120.5
v 120.5 271.0 121.0
v 119.0 271.5 121.0
v 118.5 272.0 121.0
v 120.0 271.5 121.0
v 125.5 272.0 121.0
v 125.5 274.0 121.0
v 124.5 276.0 121.0
v 123.5 277.0 121.0
v 121.0 279.5 121.0
v 118.0 280.5 121.0
v 119.0 280.5 121.0
v 144.0 261.0 121.5
v 144.0 262.0 121.5
v 143.0 263.0 121.5
v 143.0 264.0 121.5
v 142.0 265.0 121.5
v 143.0 266.0 121.5
v 144.5 266.0 122.0
v 117.0 273.5 122.0
v 116.5 274.0 122.0
v 124.5 274.0 122.0
v 124.5 275.0 122.0
v 116.5 276.0 122.0
v 115.5 277.0 122.0
v 117.0 280.5 122.0
v 144.0 266.0 122.5
v 123.5 275.0 123.0
v 123.5 277.0 123.0
v 122.5 278.0 123.0
v 122.5 279.0 123.0
v 121.5 280.0 123.0
v 120.0 280.5 123.0
v 121.0 280.5 123.0
v 119.0 281.5 123.0
v 121.0 272.0 123.5
v 123.0 272.0 123.5
v 119.0 272.5 124.0
v 117.5 274.0 124.0
v 116.0 276.5 124.0
v 114.5 278.0 124.0
v 122.5 278.0 124.0
v 114.5 280.0 124.0
v 121.5 280.0 124.0
v 118.0 280.5 124.0
v 121.0 280.5 124.0
v 119.0 281.5 124.0
v 121.0 273.0 124.5
v 118.0 276.5 125.0
v 121.5 278.0 125.0
v 121.5 279.0 125.0
v 118.0 280.5 125.0
v 116.0 281.5 125.0
v 117.0 281.5 125.0
v 100.0 272.0 125.5
v 100.0 271.5 126.0
v 99.5 272.0 126.0
v 102.0 272.0 125.5
v 105.0 272.0 125.5
v 105.0 271.5 126.0
v 100.0 272.5 126.0
v 103.0 273.0 125.5
v 106.0 273.0 125.5
v 103.0 273.5 126.0
v 119.0 274.0 125.5
v 120.0 274.0 125.5
v 121.0 275.0 125.5
v 118.0 277.5 126.0
v 119.0 277.5 126.0
v 113.5 279.0 126.0
v 121.0 279.0 125.5
v 113.5 280.0 126.0
v 115.0 281.5 126.0
v 106.0 271.5 127.0
v 107.0 272.0 126.5
v 107.0 271.5 127.0
v 101.0 272.5 127.0
v 102.0 273.5 127.0
v 107.0 274.0 126.5
v 104.0 274.5 127.0
v 117.0 276.5 127.0
v 118.0 277.5 127.0
v 120.5 280.0 127.0
v 118.0 280.5 127.0
v 108.0 271.5 128.0
v 108.5 272.0 128.0
v 108.5 274.0 128.0
v 105.0 275.5 128.0
v 107.0 275.5 128.0
v 121.5 279.0 128.0
v 121.5 280.0 128.0
v 120.0 281.5 128.0
v 103.0 271.5 129.0
v 108.5 274.0 129.0
v 119.0 276.5 129.0
v 120.0 277.5 129.0
v 121.0 277.5 129.0
v 121.5 278.0 129.0
v 113.5 279.0 129.0
v 112.5 280.0 129.0
v 121.5 281.0 129.0
v 115.0 282.0 128.5
v 121.0 281.5 129.0
v 116.0 283.0 128.5
v 116.0 283.5 129.0
v 117.0 283.5 129.0
v 103.0 271.5 130.0
v 102.5 272.0 130.0
v 102.5 273.0 130.0
v 109.5 273.0 130.0
v 109.5 274.0 130.0
v 105.0 275.5 130.0
v 106.0 275.5 130.0
v 107.0 276.5 130.0
v 119.0 276.5 130.0
v 114.0 277.5 130.0
v 115.0 277.5 130.0
v 112.5 279.0 130.0
v 121.5 279.0 130.0
v 121.5 281.0 130.0
v 120.5 282.0 130.0
v 115.0 282.5 130.0
v 120.0 282.5 130.0
v 117.0 284.5 130.0
v 104.0 274.5 131.0
v 105.0 274.5 131.0
v 105.0 275.0 130.5
v 105.5 275.0 131.0
v 105.5 276.0 131.0
v 106.0 276.5 131.0
v 108.5 277.0 131.0
v 115.0 276.5 131.0
v 118.0 276.5 131.0
v 108.0 277.5 131.0
v 121.5 279.0 131.0
v 120.0 282.5 131.0
v 115.0 284.0 130.5
v 117.0 284.5 131.0
v 118.0 284.5 131.0
v 107.0 271.5 132.0
v 108.0 271.5 132.0
v 109.5 273.0 132.0
v 104.0 274.0 131.5
v 104.5 275.0 132.0
v 107.0 276.5 132.0
v 108.5 277.0 132.0
v 118.0 276.5 132.0
v 119.0 277.5 132.0
v 111.5 280.0 132.0
v 111.5 281.0 132.0
v 112.5 282.0 132.0
v 113.0 283.0 131.5
v 113.0 284.0 131.5
v 114.0 285.0 131.5
v 117.0 285.5 132.0
v 106.0 271.5 133.0
v 104.5 273.0 133.0
v 104.5 274.0 133.0
v 106.0 276.5 133.0
v 106.5 277.0 133.0
v 115.0 276.5 133.0
v 108.0 278.5 133.0
v 112.0 278.5 133.0
v 113.0 278.5 133.0
v 114.0 286.5 133.0
v 116.0 286.5 133.0
v 106.0 272.0 133.5
v 105.0 273.0 133.5
v 108.0 273.5 134.0
v 105.5 275.0 134.0
v 110.5 275.0 134.0
v 106.5 277.0 134.0
v 114.0 276.5 134.0
v 120.0 276.5 134.0
v 120.5 277.0 134.0
v 109.0 278.0 133.5
v 110.0 278.0 133.5
v 110.5 278.0 134.0
v 109.0 278.5 134.0
v 111.0 278.5 134.0
v 112.0 278.5 134.0
v 121.5 279.0 134.0
v 120.5 280.0 134.0
v 120.5 282.0 134.0
v 110.5 284.0 134.0
v 111.5 285.0 134.0
v 106.0 274.0 134.5
v 108.0 273.5 135.0
v 109.0 273.5 135.0
v 109.5 274.0 135.0
v 106.0 275.0 134.5
v 106.5 275.0 135.0
v 110.5 276.0 135.0
v 112.0 277.5 135.0
v 120.0 277.5 135.0
v 107.5 279.0 135.0
v 108.0 279.5 135.0
v 109.0 279.5 135.0
v 120.5 281.0 135.0
v 109.5 282.0 135.0
v 119.5 282.0 135.0
v 110.5 283.0 135.0
v 119.5 283.0 135.0
v 111.5 286.0 135.0
v 112.0 286.5 135.0
v 114.0 287.5 135.0
v 108.0 274.0 135.5
v 109.0 274.0 135.5
v 110.5 277.0 136.0
v 115.0 276.5 136.0
v 117.0 276.5 136.0
v 118.0 276.5 136.0
v 113.0 277.5 136.0
v 114.0 277.5 136.0
v 120.0 277.5 136.0
v 120.5 278.0 136.0
v 107.5 279.0 136.0
v 111.0 278.5 136.0
v 120.5 281.0 136.0
v 118.5 283.0 136.0
v 118.5 284.0 136.0
v 116.0 286.5 136.0
v 109.0 276.0 136.5
v 108.5 276.0 137.0
v 110.0 277.0 136.5
v 114.0 276.5 137.0
v 118.0 277.0 136.5
v 115.0 277.5 137.0
v 119.0 278.0 136.5
v 120.0 278.0 136.5
v 109.0 279.0 136.5
v 109.5 279.0 137.0
v 111.0 278.5 137.0
v 107.5 280.0 137.0
v 108.0 280.5 137.0
v 119.5 281.0 137.0
v 119.5 282.0 137.0
v 110.5 283.0 137.0
v 107.5 277.0 138.0
v 108.5 277.0 138.0
v 112.0 276.5 138.0
v 111.0 277.5 138.0
v 116.0 278.5 138.0
v 107.5 280.0 138.0
v 108.5 280.0 138.0
v 119.5 280.0 138.0
v 108.0 280.5 138.0
v 118.5 282.0 138.0
v 113.0 286.5 138.0
v 108.0 277.0 138.5
v 111.0 277.5 139.0
v 112.0 277.5 139.0
v 116.0 278.5 139.0
v 108.0 280.0 138.5
v 119.5 280.0 139.0
v 108.5 281.0 139.0
v 119.5 281.0 139.0
v 110.5 284.0 139.0
v 110.5 285.0 139.0
v 116.0 285.5 139.0
v 112.0 286.5 139.0
v 115.0 286.5 139.0
v 112.0 277.0 139.5
v 112.0 276.5 140.0
v 111.5 277.0 140.0
v 114.0 276.5 140.0
v 111.5 278.0 140.0
v 116.0 277.5 140.0
v 111.0 278.5 140.0
v 118.5 280.0 140.0
v 118.5 283.0 140.0
v 113.0 286.5 140.0
v 112.0 277.0 140.5
v 111.0 277.5 141.0
v 110.0 278.5 141.0
v 109.5 279.0 141.0
v 118.0 278.5 141.0
v 118.5 279.0 141.0
v 109.5 280.0 141.0
v 117.5 282.0 141.0
v 117.5 284.0 141.0
v 109.5 285.0 141.0
v 116.5 285.0 141.0
v 115.0 286.5 141.0
v 113.0 287.5 141.0
v 112.0 277.5 142.0
v 114.0 277.5 142.0
v 118.5 280.0 142.0
v 118.5 281.0 142.0
v 116.5 285.0 142.0
v 115.0 286.5 142.0
v 114.0 287.5 142.0
v 116.0 278.5 143.0
v 117.5 280.0 143.0
v 117.5 282.0 143.0
v 116.5 283.0 143.0
v 111.0 287.5 143.0
v 111.0 278.5 144.0
v 114.0 278.5 144.0
v 115.0 279.5 144.0
v 117.5 281.0 144.0
v 117.5 282.0 144.0
v 107.5 283.0 144.0
v 115.5 284.0 144.0
v 108.5 286.0 144.0
v 109.0 286.5 144.0
v 110.0 286.5 144.0
v 111.0 287.5 144.0
v 115.0 279.5 145.0
v 116.5 281.0 145.0
v 107.5 282.0 145.0
v 109.0 286.5 145.0
v 114.0 280.5 146.0
v 116.5 282.0 146.0
v 116.5 283.0 146.0
v 115.5 285.0 146.0
v 115.5 286.0 146.0
v 108.5 287.0 146.0
v 114.5 287.0 146.0
v 109.0 287.5 146.0
v 111.0 288.5 146.0
v 110.0 279.5 147.0
v 113.0 279.5 147.0
v 115.0 280.5 147.0
v 116.5 282.0 147.0
v 107.5 284.0 147.0
v 114.5 285.0 147.0
v 108.5 287.0 147.0
v 114.5 287.0 147.0
v 110.0 288.5 147.0
v 112.0 288.5 147.0
v 110.0 280.5 148.0
v 111.0 280.5 148.0
v 115.5 282.0 148.0
v 106.5 284.0 148.0
v 115.5 284.0 148.0
v 106.5 285.0 148.0
v 108.0 287.5 148.0
v 109.0 287.5 148.0
v 110.0 279.5 149.0
v 111.0 279.5 149.0
v 109.0 280.5 149.0
v 113.0 280.5 149.0
v 106.5 283.0 149.0
v 115.5 283.0 149.0
v 114.5 285.0 149.0
v 113.5 286.0 149.0
v 113.5 287.0 149.0
v 110.0 280.5 150.0
v 111.0 280.5 150.0
v 113.0 280.5 150.0
v 114.5 282.0 150.0
v 106.5 285.0 150.0
v 114.5 285.0 150.0
v 106.5 286.0 150.0
v 106.5 287.0 150.0
v 112.5 287.0 150.0
v 108.0 288.5 150.0
v 114.5 284.0 151.0
v 105.5 285.0 151.0
v 113.5 285.0 151.0
v 105.5 286.0 151.0
v 108.0 288.5 151.0
v 110.0 288.5 151.0
v 109.0 280.5 152.0
v 111.0 280.5 152.0
v 112.0 280.5 152.0
v 108.0 281.5 152.0
v 113.0 281.5 152.0
v 113.5 282.0 152.0
v 106.5 283.0 152.0
v 114.5 283.0 152.0
v 105.5 284.0 152.0
v 106.5 287.0 152.0
v 106.5 288.0 152.0
v 107.0 288.5 152.0
v 109.0 289.5 152.0
v 110.0 289.5 152.0
v 110.0 280.5 153.0
v 111.0 281.5 153.0
v 113.0 281.5 153.0
v 113.5 282.0 153.0
v 114.5 284.0 153.0
v 107.0 288.5 153.0
v 111.0 288.5 153.0
v 110.0 289.5 153.0
v 112.0 281.5 154.0
v 113.5 286.0 154.0
v 105.5 287.0 154.0
v 106.5 288.0 154.0
v 106.5 289.0 154.0
v 107.0 289.5 154.0
v 111.0 289.5 154.0
v 108.0 281.5 155.0
v 110.0 281.5 155.0
v 111.0 281.5 155.0
v 113.5 284.0 155.0
v 112.5 286.0 155.0
v 112.5 288.0 155.0
v 107.0 289.5 155.0
v 110.0 289.5 155.0
v 109.0 281.5 156.0
v 108.0 282.5 156.0
v 110.0 282.5 156.0
v 112.0 282.5 156.0
v 113.5 284.0 156.0
v 105.5 287.0 156.0
v 111.5 288.0 156.0
v 107.0 289.5 156.0
v 108.0 290.5 156.0
v 110.0 290.5 156.0
v 113.5 285.0 157.0
v 104.5 287.0 157.0
v 104.5 288.0 157.0
v 107.0 290.5 157.0
v 111.0 282.5 158.0
v 112.5 287.0 158.0
v 111.5 289.0 158.0
v 105.5 291.0 158.0
v 106.0 291.5 158.0
v 108.0 291.5 158.0
v 110.0 282.5 159.0
v 112.0 283.5 159.0
v 112.5 284.0 159.0
v 104.5 285.0 159.0
v 104.5 290.0 159.0
v 111.5 290.0 159.0
v 105.5 291.0 159.0
v 111.0 290.5 159.0
v 109.0 291.5 159.0
v 109.5 283.0 160.0
v 110.0 283.5 160.0
v 112.5 285.0 160.0
v 104.5 290.0 160.0
v 110.0 290.5 160.0
v 106.0 291.5 160.0
v 109.0 291.5 160.0
v 107.0 281.5 161.0
v 109.0 281.5 161.0
v 109.5 282.0 161.0
v 111.0 283.5 161.0
v 112.5 285.0 161.0
v 107.0 291.5 161.0
v 110.0 291.5 161.0
v 108.0 281.5 162.0
v 110.0 283.5 162.0
v 111.5 285.0 162.0
v 112.5 286.0 162.0
v 112.5 289.0 162.0
v 111.5 290.0 162.0
v 106.0 291.5 162.0
v 107.0 281.5 163.0
v 109.0 281.5 163.0
v 106.0 282.5 163.0
v 110.0 282.5 163.0
v 112.5 286.0 163.0
v 104.5 290.0 163.0
v 108.0 281.5 164.0
v 105.5 283.0 164.0
v 110.0 282.5 164.0
v 111.5 284.0 164.0
v 111.5 286.0 164.0
v 112.5 287.0 164.0
v 111.5 288.0 164.0
v 107.0 282.5 165.0
v 108.0 282.5 165.0
v 109.0 282.5 165.0
v 106.0 283.5 165.0
v 110.0 284.0 164.5
v 109.5 284.0 165.0
v 111.0 284.0 164.5
v 104.5 285.0 165.0
v 110.0 284.5 165.0
v 112.5 286.0 165.0
v 111.5 287.0 165.0
v 104.5 288.0 165.0
v 112.5 289.0 165.0
v 109.0 283.0 165.5
v 107.0 283.5 166.0
v 110.0 283.5 166.0
v 105.5 285.0 166.0
v 104.5 286.0 166.0
v 103.5 288.0 166.0
v 111.5 290.0 166.0
v 106.0 291.5 166.0
v 104.5 285.0 167.0
v 111.0 284.5 167.0
v 112.5 286.0 167.0
v 103.5 287.0 167.0
v 111.5 288.0 167.0
v 103.5 289.0 167.0
v 109.5 285.0 168.0
v 110.0 285.5 168.0
v 111.5 287.0 168.0
v 112.5 288.0 168.0
v 111.5 289.0 168.0
v 106.0 283.5 169.0
v 109.0 283.5 169.0
v 109.5 284.0 169.0
v 105.0 284.5 169.0
v 111.5 288.0 169.0
v 112.5 289.0 169.0
v 107.0 283.5 170.0
v 108.0 283.5 170.0
v 105.0 284.5 170.0
v 104.5 285.0 170.0
v 109.0 284.5 170.0
v 109.5 285.0 170.0
v 110.0 285.5 170.0
v 111.0 285.5 170.0
v 111.5 286.0 170.0
v 111.5 288.0 170.0
v 112.5 289.0 170.0
v 111.0 290.5 170.0
v 110.0 285.0 170.5
v 110.0 284.5 171.0
v 110.5 285.0 171.0
v 105.0 285.5 171.0
v 110.5 286.0 171.0
v 103.5 287.0 171.0
v 112.5 288.0 171.0
v 112.5 290.0 171.0
v 111.0 290.5 171.0
v 112.0 290.5 171.0
v 107.0 291.5 171.0
v 108.0 291.5 171.0
v 104.5 286.0 172.0
v 104.5 287.0 172.0
v 104.5 290.0 172.0
v 111.0 291.5 172.0
v 107.0 292.5 172.0
v 108.0 292.5 172.0
v 103.5 288.0 173.0
v 103.5 289.0 173.0
v 105.0 291.5 173.0
v 106.0 291.5 173.0
v 109.0 292.5 173.0
v 104.5 291.0 175.0
v 110.0 291.5 175.0
v 106.0 292.5 175.0
v 109.0 292.5 175.0
v 110.5 286.0 176.0
v 111.0 286.5 176.0
v 112.0 286.5 176.0
v 112.5 289.0 176.0
v 104.5 292.0 176.0
v 111.0 291.5 176.0
v 105.0 292.5 176.0
v 110.0 292.5 176.0
v 107.0 284.5 177.0
v 109.0 284.5 177.0
v 111.5 286.0 177.0
v 104.5 287.0 177.0
v 113.5 288.0 177.0
v 104.5 292.0 177.0
v 106.0 292.5 177.0
v 109.0 283.5 178.0
v 111.0 284.5 178.0
v 111.5 285.0 178.0
v 111.5 286.0 178.0
v 112.0 286.5 178.0
v 113.0 286.5 178.0
v 113.5 287.0 178.0
v 113.5 288.0 178.0
v 104.5 293.0 178.0
v 105.0 293.5 178.0
v 106.0 293.5 178.0
v 107.0 282.5 179.0
v 108.0 282.5 179.0
v 110.0 283.5 179.0
v 111.0 284.5 179.0
v 111.5 285.0 179.0
v 112.0 285.5 179.0
v 112.0 286.0 178.5
v 112.5 286.0 179.0
v 112.5 287.0 179.0
v 112.5 288.0 179.0
v 104.5 291.0 179.0
v 104.5 292.0 179.0
v 106.0 282.5 180.0
v 105.5 283.0 180.0
v 104.5 284.0 180.0
v 110.0 284.5 180.0
v 111.0 285.5 180.0
v 104.5 290.0 180.0
v 105.0 292.0 179.5
v 106.0 292.0 179.5
v 107.0 292.5 180.0
v 105.5 283.0 181.0
v 108.0 282.5 181.0
v 105.5 284.0 181.0
v 104.5 285.0 181.0
v 111.5 285.0 181.0
v 112.0 285.5 181.0
v 112.5 286.0 181.0
v 104.5 290.0 181.0
v 107.0 282.5 182.0
v 105.5 284.0 182.0
v 109.0 283.5 182.0
v 104.5 285.0 182.0
v 111.0 284.5 182.0
v 111.5 285.0 182.0
v 111.5 286.0 182.0
v 112.5 287.0 182.0
v 104.5 289.0 182.0
v 107.0 292.5 182.0
v 107.0 283.0 182.5
v 105.5 285.0 183.0
v 110.0 285.5 183.0
v 111.0 285.5 183.0
v 112.5 287.0 183.0
v 105.5 289.0 183.0
v 105.5 291.0 183.0
v 106.0 291.5 183.0
v 108.0 292.5 183.0
v 110.0 285.0 183.5
v 110.0 284.5 184.0
v 110.5 285.0 184.0
v 110.5 286.0 184.0
v 108.0 284.5 185.0
v 112.5 288.0 185.0
v 112.5 290.0 185.0
v 111.5 288.0 186.0
v 112.5 289.0 186.0
v 105.5 290.0 186.0
v 112.5 291.0 186.0
v 108.0 284.5 187.0
v 109.0 284.5 187.0
v 107.0 285.5 187.0
v 110.0 285.5 187.0
v 111.5 288.0 187.0
v 105.5 291.0 187.0
v 106.0 291.5 187.0
v 107.0 291.5 187.0
v 108.0 292.5 187.0
v 108.0 285.5 188.0
v 109.0 285.5 188.0
v 110.0 285.5 188.0
v 111.0 286.5 188.0
v 112.5 288.0 188.0
v 107.0 292.5 188.0
v 111.0 292.5 188.0
v 111.0 285.5 190.0
v 111.5 286.0 190.0
v 105.5 287.0 190.0
v 110.0 286.5 190.0
v 113.5 289.0 190.0
v 112.5 290.0 190.0
v 107.0 285.5 191.0
v 106.5 286.0 191.0
v 110.0 285.5 191.0
v 106.5 287.0 191.0
v 111.0 286.5 191.0
v 105.5 288.0 191.0
v 113.5 289.0 191.0
v 112.5 290.0 191.0
v 108.0 285.5 192.0
v 113.5 290.0 192.0
v 105.5 291.0 192.0
v 108.0 285.5 193.0
v 105.5 288.0 193.0
v 113.5 290.0 193.0
v 111.0 292.5 193.0
v 109.0 285.5 194.0
v 110.0 285.5 194.0
v 106.5 287.0 194.0
v 111.0 286.5 194.0
v 106.5 288.0 194.0
v 105.5 289.0 194.0
v 113.5 291.0 194.0
v 109.0 292.5 194.0
v 112.0 292.5 194.0
v 111.0 286.5 195.0
v 113.0 287.5 195.0
v 113.5 288.0 195.0
v 109.0 293.5 195.0
v 110.0 293.5 195.0
v 110.0 287.5 196.0
v 111.0 287.5 196.0
v 105.5 289.0 196.0
v 114.5 290.0 196.0
v 108.0 293.5 196.0
v 111.0 293.5 196.0
v 108.0 286.5 197.0
v 106.5 289.0 197.0
v 114.5 289.0 197.0
v 105.5 290.0 197.0
v 113.5 291.0 197.0
v 113.5 292.0 197.0
v 112.0 292.5 197.0
v 113.0 292.5 197.0
v 111.0 293.5 197.0
v 111.0 286.5 198.0
v 106.5 288.0 198.0
v 108.0 287.5 198.0
v 114.5 291.0 198.0
v 113.0 292.5 198.0
v 112.0 293.5 198.0
v 109.0 286.5 200.0
v 106.5 289.0 200.0
v 107.0 286.5 202.0
v 106.5 287.0 202.0
v 114.5 289.0 202.0
v 105.5 291.0 202.0
v 114.5 291.0 202.0
v 110.0 293.5 202.0
v 111.0 293.5 202.0
v 112.0 293.5 202.0
v 105.5 288.0 203.0
v 113.0 287.5 203.0
v 113.5 288.0 203.0
v 113.5 289.0 203.0
v 105.5 290.0 203.0
v 114.5 292.0 203.0
v 109.0 293.5 203.0
v 113.0 293.5 203.0
v 110.0 294.5 203.0
v 111.0 294.5 203.0
v 107.0 286.5 204.0
v 106.5 287.0 204.0
v 111.0 286.5 204.0
v 106.5 292.0 204.0
v 112.0 293.5 204.0
v 108.0 286.5 205.0
v 110.0 286.5 205.0
v 106.5 288.0 205.0
v 106.5 291.0 205.0
v 107.5 293.0 205.0
v 108.0 293.5 205.0
v 112.0 294.5 205.0
v 110.0 287.5 206.0
v 107.5 289.0 206.0
v 114.5 290.0 206.0
v 114.5 292.0 206.0
v 109.0 293.5 206.0
v 112.0 294.5 206.0
v 108.0 288.0 206.5
v 114.5 293.0 207.0
v 110.0 294.5 207.0
v 113.0 294.5 207.0
v 108.5 289.0 208.0
v 107.5 290.0 208.0
v 114.5 291.0 208.0
v 108.5 293.0 208.0
v 108.5 294.0 208.0
v 109.0 294.5 208.0
v 108.5 290.0 209.0
v 114.5 290.0 209.0
v 115.5 291.0 209.0
v 115.5 292.0 209.0
v 107.5 293.0 209.0
v 114.5 293.0 209.0
v 111.0 295.5 209.0
v 107.5 290.0 210.0
v 114.5 291.0 210.0
v 114.5 292.0 210.0
v 107.5 293.0 210.0
v 113.0 294.5 210.0
v 110.0 295.5 210.0
v 112.0 295.5 210.0
v 110.0 287.5 211.0
v 112.0 287.5 211.0
v 109.0 288.5 211.0
v 107.5 290.0 211.0
v 107.5 294.0 211.0
v 108.0 294.5 211.0
v 109.0 294.5 211.0
v 111.0 287.5 212.0
v 109.0 288.5 212.0
v 108.5 289.0 212.0
v 108.5 290.0 212.0
v 107.5 291.0 212.0
v 114.5 293.0 212.0
v 109.0 295.5 212.0
v 112.0 295.5 212.0
v 111.0 288.5 213.0
v 114.5 294.0 213.0
v 110.0 295.5 213.0
v 113.0 295.5 213.0
v 113.0 288.5 214.0
v 114.5 290.0 214.0
v 107.5 294.0 214.0
v 110.0 296.5 214.0
v 114.5 291.0 215.0
v 107.5 295.0 215.0
v 112.0 295.5 215.0
v 109.0 296.5 215.0
v 111.0 296.5 215.0
v 107.5 291.0 216.0
v 112.0 295.5 216.0
v 111.0 296.5 216.0
v 110.0 288.5 217.0
v 108.5 291.0 217.0
v 113.0 295.5 217.0
v 112.0 296.5 217.0
v 111.0 288.5 218.0
v 109.0 289.5 218.0
v 108.5 290.0 218.0
v 110.0 289.5 218.0
v 112.0 288.5 220.0
v 109.5 290.0 220.0
v 114.5 291.0 220.0
v 101.0 279.0 220.5
v 102.0 279.0 220.5
v 103.0 279.0 220.5
v 104.0 281.0 220.5
v 105.0 281.0 220.5
v 106.0 282.0 220.5
v 110.0 288.5 221.0
v 109.5 290.0 221.0
v 114.5 290.0 221.0
v 107.5 292.0 221.0
v 100.0 278.0 221.5
v 103.0 277.5 222.0
v 104.0 278.5 222.0
v 101.0 280.0 221.5
v 102.0 280.0 221.5
v 106.0 279.5 222.0
v 106.0 281.0 221.5
v 107.0 281.0 221.5
v 107.5 281.0 222.0
v 102.0 281.5 222.0
v 104.0 282.0 221.5
v 105.0 282.0 221.5
v 107.0 284.0 221.5
v 109.0 284.0 221.5
v 106.0 284.5 222.0
v 109.0 285.0 221.5
v 109.0 287.0 221.5
v 111.0 287.0 221.5
v 109.5 288.0 222.0
v 113.0 287.5 222.0
v 113.5 288.0 222.0
v 109.5 289.0 222.0
v 108.5 292.0 222.0
v 114.5 292.0 222.0
v 107.5 293.0 222.0
v 107.5 295.0 222.0
v 108.5 296.0 222.0
v 110.0 296.5 222.0
v 100.0 276.5 223.0
v 102.0 277.0 222.5
v 102.0 276.5 223.0
v 102.5 277.0 223.0
v 98.5 278.0 223.0
v 102.5 278.0 223.0
v 98.5 279.0 223.0
v 103.0 278.5 223.0
v 105.0 278.5 223.0
v 107.0 279.5 223.0
v 107.5 280.0 223.0
v 100.0 280.5 223.0
v 102.0 281.5 223.0
v 103.0 282.5 223.0
v 110.5 284.0 223.0
v 106.0 284.5 223.0
v 106.5 286.0 223.0
v 108.0 286.0 222.5
v 108.5 289.0 223.0
v 114.5 289.0 223.0
v 108.5 292.0 223.0
v 115.5 292.0 223.0
v 107.5 293.0 223.0
v 107.5 294.0 223.0
v 110.0 297.5 223.0
v 99.0 277.5 224.0
v 98.5 278.0 224.0
v 104.0 278.5 224.0
v 106.0 279.5 224.0
v 101.0 280.5 224.0
v 107.5 281.0 224.0
v 102.0 281.5 224.0
v 110.5 284.0 224.0
v 106.5 286.0 224.0
v 115.5 291.0 224.0
v 115.5 293.0 224.0
v 114.5 294.0 224.0
v 112.0 296.5 224.0
v 111.0 297.5 224.0
v 99.0 278.0 224.5
v 100.0 279.0 224.5
v 103.0 278.5 225.0
v 102.0 280.0 224.5
v 106.5 285.0 225.0
v 107.5 287.0 225.0
v 114.0 288.5 225.0
v 108.5 290.0 225.0
v 115.5 293.0 225.0
v 108.5 296.0 225.0
v 110.0 297.5 225.0
v 111.0 297.5 225.0
v 101.0 279.0 225.5
v 102.0 279.0 225.5
v 106.0 281.0 225.5
v 105.0 282.0 225.5
v 109.0 284.0 225.5
v 107.0 285.0 225.5
v 109.0 287.0 225.5
v 111.5 287.0 226.0
v 113.0 288.5 226.0
v 109.5 290.0 226.0
v 114.5 290.0 226.0
v 108.5 291.0 226.0
v 108.5 295.0 226.0
v 112.0 296.5 226.0
v 109.0 286.0 226.5
v 110.0 287.0 226.5
v 111.0 287.0 226.5
v 111.0 288.0 226.5
v 112.0 287.5 227.0
v 113.0 287.5 227.0
v 109.5 290.0 227.0
v 109.5 295.0 227.0
v 112.0 295.5 227.0
v 112.0 287.5 228.0
v 114.0 288.5 228.0
v 115.0 288.5 228.0
v 115.5 289.0 228.0
v 109.5 290.0 228.0
v 111.0 295.5 228.0
v 113.0 295.5 228.0
v 115.5 289.0 229.0
v 109.5 291.0 229.0
v 109.5 293.0 229.0
v 113.0 287.5 230.0
v 111.0 293.5 230.0
v 113.0 286.5 231.0
v 115.0 286.5 231.0
v 115.5 287.0 231.0
v 116.5 292.0 231.0
v 110.5 293.0 231.0
v 114.0 294.5 231.0
v 116.5 288.0 232.0
v 110.5 289.0 232.0
v 110.5 292.0 232.0
v 116.5 292.0 232.0
v 114.0 293.5 232.0
v 113.0 285.5 233.0
v 115.0 285.5 233.0
v 115.5 286.0 233.0
v 115.5 287.0 233.0
v 116.5 288.0 233.0
v 111.5 289.0 233.0
v 116.5 291.0 233.0
v 111.5 292.0 233.0
v 115.5 292.0 233.0
v 115.5 293.0 233.0
v 115.0 293.5 233.0
v 112.0 285.5 234.0
v 115.5 286.0 234.0
v 116.5 287.0 234.0
v 110.5 288.0 234.0
v 110.5 289.0 234.0
v 111.5 290.0 234.0
v 111.5 292.0 234.0
v 113.0 293.5 234.0
v 114.0 293.5 234.0
v 114.0 284.5 235.0
v 110.5 287.0 235.0
v 116.5 287.0 235.0
v 116.5 291.0 235.0
v 114.0 292.5 235.0
v 115.0 284.5 236.0
v 116.5 286.0 236.0
v 110.5 287.0 236.0
v 116.5 290.0 236.0
v 115.5 291.0 236.0
v 115.5 292.0 236.0
v 113.0 292.5 236.0
v 115.0 292.5 236.0
v 112.0 284.5 237.0
v 113.0 284.5 237.0
v 114.0 284.5 237.0
v 110.5 286.0 237.0
v 116.5 286.0 237.0
v 116.5 290.0 237.0
v 113.0 291.5 237.0
v 113.0 283.5 238.0
v 114.0 283.5 238.0
v 116.0 284.5 238.0
v 116.5 285.0 238.0
v 110.5 286.0 238.0
v 115.5 291.0 238.0
v 113.0 291.5 238.0
v 115.0 291.5 238.0
v 112.0 283.5 239.0
v 114.0 283.5 239.0
v 110.5 285.0 239.0
v 115.0 284.5 239.0
v 110.5 287.0 239.0
v 110.5 288.0 239.0
v 112.0 283.5 240.0
v 114.0 283.5 240.0
v 115.0 283.5 240.0
v 109.5 287.0 240.0
v 116.5 287.0 240.0
v 109.5 288.0 240.0
v 115.5 288.0 240.0
v 110.5 289.0 240.0
v 112.0 290.5 240.0
v 114.0 290.5 240.0
v 112.0 282.5 241.0
v 114.0 282.5 241.0
v 116.5 287.0 241.0
v 110.5 288.0 241.0
v 110.5 289.0 241.0
v 113.0 282.5 242.0
v 116.5 285.0 242.0
v 116.5 286.0 242.0
v 109.5 287.0 242.0
v 115.5 288.0 242.0
v 112.0 289.5 242.0
v 114.0 289.5 242.0
v 112.0 281.5 243.0
v 113.0 281.5 243.0
v 109.5 284.0 243.0
v 110.5 287.0 243.0
v 110.5 288.0 243.0
v 110.0 282.0 243.5
v 111.0 281.5 244.0
v 112.0 281.5 244.0
v 114.0 281.5 244.0
v 115.5 283.0 244.0
v 109.5 284.0 244.0
v 114.5 287.0 244.0
v 114.5 288.0 244.0
v 112.0 288.5 244.0
v 109.0 281.0 244.5
v 108.5 281.0 245.0
v 112.0 280.5 245.0
v 108.5 284.0 245.0
v 110.0 279.5 246.0
v 113.5 281.0 246.0
v 109.5 286.0 246.0
v 115.5 286.0 246.0
v 111.0 287.5 246.0
v 114.0 287.5 246.0
v 109.0 280.5 247.0
v 108.5 281.0 247.0
v 108.5 284.0 247.0
v 113.0 287.5 247.0
v 111.0 280.5 248.0
v 115.5 283.0 248.0
v 109.5 284.0 248.0
v 109.5 285.0 248.0
v 111.0 286.5 248.0
v 113.0 280.5 249.0
v 113.5 281.0 249.0
v 110.0 281.5 249.0
v 109.5 282.0 249.0
v 111.0 281.5 249.0
v 115.0 281.5 249.0
v 115.5 282.0 249.0
v 109.5 284.0 249.0
v 114.5 286.0 249.0
v 112.0 286.5 249.0
v 114.0 286.5 249.0
v 111.0 281.0 249.5
v 111.0 280.5 250.0
v 110.5 281.0 250.0
v 114.0 280.5 250.0
v 114.5 281.0 250.0
v 112.0 281.5 250.0
v 112.0 282.0 249.5
v 111.5 282.0 250.0
v 113.0 281.5 250.0
v 113.0 282.0 249.5
v 114.0 282.0 249.5
v 115.0 281.5 250.0
v 112.0 282.5 250.0
v 114.0 282.5 250.0
v 110.5 284.0 250.0
v 112.0 284.5 250.0
v 112.0 285.0 249.5
v 114.0 285.0 249.5
v 114.0 284.5 250.0
v 113.0 285.5 250.0
v 113.0 286.0 249.5
v 114.0 286.0 249.5
v 112.0 282.0 250.5
v 114.0 282.0 250.5
v 115.0 281.5 251.0
v 110.5 283.0 251.0
v 111.0 284.0 250.5
v 111.5 284.0 251.0
v 111.5 285.0 251.0
v 112.0 285.5 251.0
v 112.0 279.5 252.0
v 114.0 280.5 252.0
v 115.5 282.0 252.0
v 111.0 279.5 253.0
v 110.5 280.0 253.0
v 115.0 280.5 253.0
v 115.5 281.0 253.0
v 111.5 285.0 253.0
v 115.5 285.0 253.0
v 112.0 285.5 253.0
v 115.0 285.5 253.0
v 110.5 283.0 254.0
v 115.5 284.0 254.0
v 114.0 285.5 254.0
v 111.0 279.5 255.0
v 111.5 283.0 255.0
v 111.5 284.0 255.0
v 112.0 284.5 255.0
v 114.0 285.5 255.0
v 111.0 278.5 256.0
v 110.5 279.0 256.0
v 112.0 278.5 256.0
v 112.5 279.0 256.0
v 114.0 279.5 256.0
v 113.0 280.5 256.0
v 114.0 284.5 256.0
v 111.0 278.5 257.0
v 110.5 279.0 257.0
v 110.5 281.0 257.0
v 110.5 282.0 257.0
v 110.5 280.0 258.0
v 114.0 279.5 258.0
v 111.5 281.0 258.0
v 113.0 280.5 258.0
v 111.5 282.0 258.0
v 112.0 279.5 259.0
v 114.0 280.5 260.0
v 111.5 283.0 260.0
v 112.5 284.0 260.0
v 112.0 279.5 261.0
v 111.5 280.0 261.0
v 114.0 279.5 261.0
v 115.0 280.5 261.0
v 115.5 281.0 261.0
v 111.5 282.0 261.0
v 112.5 283.0 261.0
v 111.5 281.0 262.0
v 111.5 282.0 262.0
v 115.5 282.0 262.0
v 112.5 281.0 263.0
v 113.0 280.5 263.0
v 112.5 284.0 263.0
v 113.0 284.5 263.0
v 114.0 280.5 264.0
v 113.0 282.5 264.0
v 113.5 284.0 264.0
v 114.0 284.5 264.0
v 113.0 280.5 265.0
v 114.0 281.5 265.0
v 115.0 281.5 265.0
v 115.5 282.0 265.0
v 113.0 283.0 264.5
v 112.5 283.0 265.0
v 114.0 282.5 265.0
v 114.5 283.0 265.0
v 113.0 284.0 264.5
v 112.5 284.0 265.0
v 114.0 283.5 265.0
v 113.0 284.5 265.0
v 113.0 280.5 266.0
v 112.5 281.0 266.0
v 114.0 283.0 265.5
v 115.5 283.0 266.0
v 112.5 284.0 266.0
v 113.0 284.5 266.0
v 114.0 281.5 267.0
v 112.5 283.0 267.0
v 115.5 283.0 267.0
v 113.0 283.5 267.0
v 115.5 284.0 267.0
v 114.0 284.5 267.0
v 115.0 284.5 267.0
v 113.0 281.5 268.0
v 115.0 283.0 267.5
v 114.5 283.0 268.0
v 115.0 284.0 267.5
v 113.5 282.0 270.0
v 114.5 283.0 270.0
v 113.0 281.5 271.0
v 112.5 282.0 271.0
v 113.5 282.0 271.0
v 113.0 283.5 271.0
v 112.5 283.0 272.0
v 113.5 283.0 272.0
v 113.0 283.5 272.0
v 113.0 283.0 272.5
v 130.5 267.0 107.0
v 131.5 267.0 107.0
v 131.0 266.5 108.0
v 121.5 269.0 112.0
v 122.0 268.0 112.5
v 120.0 276.5 114.0
v 119.0 271.5 116.0
v 119.0 272.5 116.0
v 118.5 271.0 117.0
v 118.0 272.0 116.5
v 118.5 273.0 117.0
v 142.0 265.5 121.0
v 122.0 269.0 120.5
v 121.0 270.0 120.5
v 105.0 275.0 130.5
v 104.0 274.0 131.5
v 112.0 277.0 139.5
v 111.5 278.0 140.0
v 111.5 278.0 140.0
v 112.0 277.0 140.5
v 109.0 283.0 165.5
v 110.0 285.0 170.5
v 112.0 286.0 178.5
v 111.0 285.5 183.0
v 110.0 285.0 183.5
v 102.0 277.0 222.5
v 111.5 287.0 226.0
v 113.5 281.0 249.0
v 110.0 281.5 249.0
v 114.5 286.0 249.0
v 113.0 281.5 250.0
v 113.0 282.0 249.5
v 114.0 282.0 250.5
v 114.0 282.0 250.5
v 111.0 284.0 250.5
v 113.5 284.0 264.0
v 113.0 284.0 264.5
v 114.0 283.5 265.0
v 118.0 272.0 116.5
v 131.0 266.5 108.0
v 111.0 281.5 249.0
v 110.0 286.5 190.0
v 113.5 288.0 176.0
v 113.5 288.0 176.0
v 112.0 286.5 176.0
v 118.5 273.0 117.0
v 117.5 272.0 117.0
v 118.5 271.0 117.0
v 110.0 285.5 183.0
v 110.0 285.5 183.0
v 110.0 285.0 183.5
v 142.5 261.0 120.0
v 142.5 261.0 120.0
v 110.0 285.5 183.0
v 110.0 285.0 183.5
v 105.0 285.5 171.0
v 105.0 285.5 171.0
v 104.5 287.0 172.0
v 113.0 286.5 178.0
v 109.5 290.0 227.0
v 109.5 290.0 227.0
v 109.5 290.0 227.0
v 108.5 290.0 225.0
v 120.0 276.5 134.0
v 120.0 276.5 134.0
v 120.0 277.5 129.0
v 120.0 276.0 113.5
v 120.0 276.0 113.5
v 122.0 276.0 113.5
v 124.0 275.5 114.0
v 141.0 265.0 119.5
v 141.0 265.0 119.5
v 139.0 266.0 119.5
v 111.5 287.0 165.0
v 111.5 287.0 165.0
v 111.5 288.0 164.0
v 112.5 289.0 165.0
v 112.5 289.0 165.0
v 108.5 290.0 212.0
v 108.5 290.0 212.0
v 118.5 280.0 140.0
v 118.5 280.0 140.0
v 119.5 280.0 138.0
v 107.0 284.0 221.5
v 107.0 284.0 221.5
v 107.0 284.0 221.5
v 107.0 284.0 221.5
v 109.0 284.0 221.5
v 111.5 288.0 162.0
v 111.5 288.0 156.0
v 120.5 277.0 134.0
v 121.5 279.0 134.0
v 120.5 280.0 134.0
v 120.5 282.0 134.0
v 110.5 286.0 184.0
v 141.5 265.0 120.0
v 143.0 264.0 121.5
v 128.0 267.0 107.5
v 128.0 267.0 107.5
v 112.5 288.0 155.0
v 114.0 283.5 265.0
v 113.5 281.0 249.0
v 128.0 268.0 108.5
v 128.0 266.5 108.0
v 106.0 284.5 223.0
v 109.5 279.0 137.0
v 109.5 279.0 137.0
v 121.0 277.5 129.0
v 110.0 284.5 180.0
v 109.0 283.5 178.0
v 111.0 278.5 136.0
v 109.5 279.0 137.0
v 109.0 279.0 136.5
v 108.5 280.0 140.0
v 108.5 280.0 140.0
v 108.5 281.0 139.0
v 108.5 281.0 139.0
v 108.5 287.0 147.0
v 108.5 287.0 147.0
v 108.5 287.0 146.0
v 109.0 286.5 145.0
v 109.0 286.5 145.0
v 112.0 279.5 259.0
v 112.0 279.5 259.0
v 110.5 280.0 258.0
v 119.0 274.5 115.0
v 119.0 274.5 115.0
v 119.0 274.5 115.0
v 119.5 272.0 115.0
v 118.5 273.0 115.0
v 109.0 283.5 182.0
v 109.0 283.5 182.0
v 109.5 279.0 141.0
v 107.0 289.5 155.0
v 107.0 289.5 155.0
v 107.0 289.5 156.0
v 113.5 291.0 197.0
v 113.5 291.0 197.0
v 113.5 292.0 197.0
v 113.0 292.5 197.0
v 110.5 278.0 134.0
v 114.5 286.0 249.0
v 110.5 286.0 171.0
v 112.5 289.0 176.0
v 109.0 291.5 159.0
v 109.0 291.5 159.0
v 110.0 289.5 155.0
v 112.5 288.0 155.0
v 111.0 289.5 154.0
v 113.5 284.0 264.0
v 113.5 284.0 264.0
v 110.5 285.0 184.0
v 110.5 286.0 184.0
v 113.0 280.5 258.0
v 113.0 280.5 256.0
v 112.5 279.0 256.0
v 112.0 278.5 256.0
v 131.0 268.0 106.5
v 131.0 268.0 106.5
v 111.0 287.5 144.0
v 143.0 259.5 119.0
v 104.0 274.0 131.5
v 110.0 283.5 166.0
v 111.0 284.5 167.0
v 119.5 280.0 139.0
v 129.0 267.0 107.5
v 128.0 266.0 109.5
v 139.0 267.5 110.0
v 139.0 267.5 110.0
v 111.5 288.0 162.0
v 111.5 288.0 162.0
v 111.5 290.0 162.0
v 112.5 289.0 162.0
v 112.5 289.0 162.0
v 113.0 283.5 271.0
v 113.0 283.5 271.0
v 113.0 283.5 271.0
v 139.0 266.0 119.5
v 109.5 284.0 244.0
v 109.5 284.0 244.0
v 129.0 269.0 117.5
v 129.0 269.0 117.5
v 129.0 269.0 117.5
v 120.0 277.5 129.0
v 114.0 281.5 267.0
v 114.0 281.5 267.0
v 113.0 281.5 268.0
v 119.0 274.5 115.0
v 118.5 274.0 115.0
v 118.5 273.0 117.0
v 112.0 292.5 197.0
v 112.0 292.5 197.0
v 111.5 286.0 164.0
v 142.5 261.0 120.0
v 114.0 282.0 250.5
v 114.0 280.5 252.0
v 114.0 280.5 250.0
v 114.5 281.0 250.0
v 112.5 283.0 261.0
v 118.5 271.0 116.0
v 112.5 286.0 155.0
v 111.5 281.0 132.0
v 111.5 281.0 132.0
v 112.5 282.0 132.0
v 113.0 283.0 131.5
v 111.5 287.0 226.0
v 113.0 287.5 227.0
v 113.0 287.5 227.0
v 129.0 265.0 109.5
v 129.0 265.0 109.5
v 131.0 266.5 108.0
v 113.0 280.5 258.0
v 109.5 290.0 226.0
v 129.5 271.0 115.0
v 116.5 291.0 230.0
v 116.5 291.0 230.0
v 116.5 291.0 230.0
v 116.5 288.0 232.0
v 115.5 287.0 233.0
v 115.5 287.0 233.0
v 115.5 287.0 233.0
v 115.5 289.0 229.0
v 115.5 289.0 228.0
v 115.5 289.0 228.0
v 119.5 280.0 138.0
v 119.5 280.0 138.0
v 108.0 284.5 185.0
v 108.0 284.5 185.0
v 106.0 284.5 222.0
v 106.0 282.0 220.5
v 104.0 282.0 221.5
v 108.5 286.0 144.0
v 118.0 280.5 127.0
v 118.0 280.5 127.0
v 117.0 283.5 129.0
v 117.0 283.5 129.0
v 117.0 283.5 129.0
v 112.0 277.5 135.0
v 140.0 265.0 120.5
v 114.5 289.0 223.0
v 114.5 289.0 223.0
v 115.0 288.5 228.0
v 115.0 288.5 228.0
v 143.0 264.0 121.5
v 143.0 264.0 121.5
v 143.0 264.0 121.5
v 120.5 269.0 117.0
v 120.5 269.0 117.0
v 120.5 269.0 117.0
v 121.5 270.0 120.0
v 118.5 273.0 117.0
v 117.0 284.5 131.0
v 110.0 286.5 190.0
v 112.5 288.0 188.0
v 112.5 288.0 188.0
v 111.5 286.0 190.0
v 111.0 285.5 190.0
v 110.0 286.5 190.0
v 134.0 261.5 111.0
v 134.0 261.5 111.0
v 130.0 264.0 108.5
v 134.0 261.5 111.0
v 132.0 260.5 112.0
v 131.0 261.5 113.0
f 1 2 3
f 2 1 4
f 1654 1 3
f 13 1654 3
f 14 4 1
f 5 14 1
f 14 1655 13
f 10 1594 11
f 25 11 6
f 3 2 12
f 1497 1707 6
f 25 6 1707
f 1498 7 1499
f 4 1536 2
f 18 7 17
f 29 8 18
f 18 8 7
f 6 11 13
f 6 13 3
f 4 14 7
f 17 7 14
f 11 15 16
f 13 11 16
f 16 19 13
f 14 13 20
f 20 13 19
f 20 17 14
f 21 20 19
f 17 20 21
f 42 23 1758
f 23 22 26
f 28 23 26
f 24 23 29
f 29 46 24
f 27 49 1663
f 30 26 25
f 7 26 30
f 28 26 7
f 8 28 7
f 29 28 8
f 29 23 28
f 60 54 29
f 1663 1595 1600
f 53 11 25
f 53 10 11
f 25 1707 30
f 7 30 1499
f 1595 1663 32
f 9 1599 1662
f 29 18 33
f 33 34 29
f 60 29 34
f 35 31 56
f 1663 31 36
f 15 32 36
f 32 1663 36
f 11 32 15
f 60 34 33
f 36 31 35
f 15 37 16
f 36 37 15
f 16 37 19
f 17 40 18
f 18 40 60
f 37 36 38
f 19 37 41
f 37 38 41
f 17 21 39
f 39 21 19
f 40 17 39
f 1758 43 44
f 42 118 22
f 23 42 22
f 23 45 1758
f 24 43 45
f 43 1758 45
f 46 43 24
f 44 43 47
f 47 43 46
f 118 25 26
f 22 118 26
f 24 45 23
f 48 49 27
f 27 1706 48
f 48 1705 1757
f 46 29 55
f 47 46 51
f 51 46 55
f 51 76 47
f 49 52 1663
f 1663 1706 27
f 25 50 53
f 54 55 29
f 55 76 51
f 52 56 31
f 1663 52 31
f 60 58 54
f 56 96 57
f 82 57 96
f 61 57 82
f 56 57 59
f 56 59 35
f 18 60 33
f 59 57 61
f 59 61 35
f 19 41 39
f 60 40 62
f 35 61 86
f 39 41 63
f 41 38 64
f 65 41 64
f 1758 44 66
f 66 44 67
f 42 1758 118
f 68 72 1757
f 118 68 25
f 47 70 44
f 47 73 70
f 92 70 74
f 74 70 73
f 92 74 75
f 71 94 49
f 71 49 48
f 72 71 48
f 1757 72 48
f 47 76 73
f 74 73 76
f 77 75 74
f 76 77 74
f 76 55 78
f 78 79 76
f 54 58 80
f 54 81 55
f 80 81 54
f 55 81 98
f 55 98 78
f 79 78 98
f 56 52 96
f 84 82 83
f 82 84 61
f 40 39 85
f 40 85 62
f 61 84 88
f 84 83 88
f 88 86 61
f 63 41 87
f 85 39 63
f 87 85 63
f 83 105 88
f 89 35 86
f 36 35 89
f 38 36 89
f 38 89 64
f 66 91 1756
f 66 67 91
f 44 92 67
f 68 118 93
f 1755 1759 1760
f 44 70 92
f 93 71 72
f 68 93 72
f 117 92 75
f 117 75 77
f 49 94 52
f 52 94 95
f 95 96 52
f 79 147 76
f 77 76 147
f 97 81 80
f 98 81 97
f 96 1500 82
f 100 80 58
f 101 80 100
f 1500 102 82
f 103 58 60
f 82 105 83
f 102 105 82
f 62 85 104
f 103 60 62
f 104 103 62
f 106 105 102
f 106 107 105
f 64 89 65
f 133 41 65
f 105 108 88
f 105 107 108
f 88 108 86
f 109 89 86
f 110 108 107
f 90 69 113
f 91 114 69
f 114 91 111
f 67 111 91
f 112 111 67
f 112 67 115
f 67 92 115
f 113 118 90
f 92 117 116
f 119 145 94
f 71 119 94
f 117 77 141
f 145 95 94
f 77 147 141
f 95 120 96
f 95 121 120
f 95 146 121
f 147 79 98
f 147 98 122
f 120 125 123
f 1501 123 1500
f 120 99 96
f 121 125 120
f 97 80 101
f 97 101 126
f 98 97 126
f 127 98 126
f 102 123 124
f 1500 123 102
f 133 129 85
f 129 130 85
f 85 130 131
f 153 103 104
f 153 104 131
f 131 104 85
f 132 106 128
f 106 102 128
f 133 87 41
f 85 87 133
f 89 109 133
f 133 65 89
f 1622 134 106
f 107 106 134
f 133 109 135
f 135 109 136
f 107 134 157
f 110 107 1564
f 86 108 110
f 109 86 110
f 136 109 110
f 139 113 69
f 69 140 139
f 112 115 137
f 92 137 115
f 138 137 92
f 138 92 141
f 92 116 141
f 141 116 117
f 118 142 93
f 139 118 113
f 71 144 119
f 119 144 143
f 142 71 93
f 144 71 142
f 143 145 119
f 146 95 145
f 124 123 148
f 146 148 125
f 148 123 125
f 121 146 125
f 101 100 174
f 101 174 126
f 122 98 127
f 122 127 149
f 147 122 149
f 150 147 149
f 151 102 148
f 102 124 148
f 1664 103 153
f 102 154 128
f 151 154 102
f 133 152 129
f 152 130 129
f 153 130 152
f 131 130 153
f 128 154 132
f 132 1622 106
f 133 155 152
f 135 136 155
f 155 133 135
f 1622 157 134
f 160 110 1564
f 156 136 110
f 158 157 1622
f 1565 1566 1563
f 161 110 160
f 156 110 161
f 157 158 162
f 159 157 162
f 114 111 163
f 111 112 163
f 166 140 69
f 69 189 166
f 114 167 69
f 167 114 163
f 138 141 164
f 164 141 165
f 118 139 142
f 142 139 170
f 168 139 140
f 169 143 144
f 142 169 144
f 141 147 165
f 171 146 145
f 194 146 171
f 238 148 146
f 172 197 153
f 197 1665 153
f 197 173 1665
f 1665 173 174
f 100 1665 174
f 127 126 212
f 126 174 212
f 127 212 149
f 288 147 150
f 151 148 211
f 1679 172 153
f 1679 153 152
f 151 211 154
f 154 176 132
f 1626 1623 1625
f 1622 132 176
f 175 155 218
f 175 152 155
f 1626 1685 1623
f 156 218 136
f 218 155 136
f 179 180 158
f 180 181 158
f 160 159 184
f 218 156 161
f 1502 181 182
f 162 158 181
f 162 183 159
f 182 183 162
f 159 183 184
f 185 160 184
f 161 160 185
f 186 182 187
f 186 183 182
f 188 186 187
f 183 186 188
f 138 252 137
f 164 252 138
f 252 164 165
f 167 189 69
f 170 139 191
f 190 139 168
f 166 168 140
f 166 190 168
f 189 190 166
f 191 142 170
f 233 171 192
f 192 171 145
f 169 145 143
f 169 193 145
f 193 192 145
f 142 193 169
f 234 193 142
f 165 147 307
f 233 194 171
f 147 288 307
f 172 1678 197
f 237 195 173
f 237 173 197
f 174 173 195
f 196 174 195
f 149 212 150
f 211 148 238
f 154 211 1696
f 154 198 199
f 199 200 154
f 200 176 154
f 177 1504 1686
f 200 177 176
f 1504 177 200
f 177 1686 178
f 1686 1624 178
f 179 202 204
f 203 202 1684
f 179 204 180
f 204 202 205
f 180 205 181
f 204 205 180
f 206 202 203
f 207 206 203
f 182 205 206
f 205 202 206
f 181 205 182
f 182 206 187
f 184 183 208
f 184 208 185
f 208 183 188
f 112 137 163
f 190 189 256
f 139 190 229
f 256 229 190
f 233 192 193
f 142 231 234
f 142 191 231
f 232 231 191
f 139 232 191
f 229 232 139
f 234 233 193
f 194 263 146
f 263 209 146
f 209 238 146
f 231 210 1677
f 195 237 196
f 197 1677 210
f 237 197 210
f 196 212 174
f 1710 213 242
f 152 175 1679
f 1505 1696 211
f 215 1544 216
f 199 1535 217
f 1503 1544 215
f 199 198 214
f 199 217 200
f 201 215 219
f 1504 217 1506
f 215 216 219
f 200 217 1504
f 220 1684 1507
f 221 218 161
f 220 222 203
f 1684 220 203
f 223 203 222
f 203 223 207
f 248 161 185
f 224 206 207
f 206 224 187
f 208 248 185
f 187 224 225
f 226 188 187
f 188 226 208
f 187 225 226
f 137 252 163
f 167 163 228
f 167 228 227
f 167 227 230
f 167 256 189
f 230 256 167
f 256 232 229
f 260 235 256
f 235 232 256
f 263 194 233
f 234 263 233
f 235 231 232
f 262 235 260
f 238 209 263
f 210 231 236
f 235 237 231
f 237 236 231
f 237 235 262
f 265 238 263
f 231 1677 239
f 237 210 236
f 286 240 196
f 211 266 267
f 266 211 238
f 196 240 212
f 241 212 240
f 150 212 291
f 291 288 150
f 242 213 269
f 1745 1542 1543
f 269 175 218
f 213 175 269
f 1507 243 220
f 220 245 222
f 246 244 221
f 247 223 245
f 222 245 223
f 246 221 161
f 207 223 224
f 225 224 274
f 225 274 249
f 208 226 250
f 250 248 208
f 225 249 226
f 163 251 228
f 1657 163 252
f 253 252 165
f 251 254 228
f 227 255 230
f 227 228 258
f 255 227 258
f 228 277 258
f 228 254 1690
f 253 165 307
f 257 256 230
f 255 1741 230
f 1740 257 230
f 1742 255 258
f 260 256 259
f 259 261 260
f 261 259 283
f 286 262 260
f 261 286 260
f 283 1674 261
f 263 234 264
f 234 231 264
f 196 237 262
f 286 196 262
f 231 239 264
f 238 268 266
f 265 268 238
f 263 314 265
f 239 242 264
f 241 291 212
f 264 242 269
f 293 1747 1744
f 270 314 264
f 269 218 270
f 269 270 264
f 271 1747 293
f 270 218 295
f 271 243 1747
f 272 243 271
f 218 221 295
f 221 244 295
f 243 272 220
f 273 245 272
f 245 220 272
f 245 273 247
f 298 246 161
f 322 161 248
f 247 274 223
f 274 224 223
f 249 300 248
f 249 250 226
f 248 250 249
f 276 249 275
f 251 1690 254
f 252 1548 1657
f 278 1548 252
f 278 252 253
f 253 307 278
f 257 279 256
f 279 257 1740
f 258 277 280
f 259 256 279
f 259 279 281
f 329 282 279
f 282 281 279
f 280 1593 258
f 259 281 283
f 283 281 282
f 282 329 1567
f 1567 329 285
f 285 286 1567
f 286 287 240
f 240 287 241
f 241 287 291
f 267 266 289
f 289 266 268
f 268 290 289
f 265 290 268
f 263 264 314
f 1743 267 292
f 314 290 265
f 1744 294 293
f 1746 294 1744
f 271 316 317
f 316 271 293
f 319 314 270
f 319 270 295
f 272 271 296
f 271 317 296
f 296 297 272
f 246 319 244
f 273 297 334
f 297 273 272
f 246 298 319
f 273 334 247
f 334 337 247
f 299 298 161
f 299 161 322
f 247 339 274
f 301 300 249
f 249 274 275
f 275 274 301
f 276 275 301
f 301 249 276
f 302 1549 278
f 303 302 278
f 277 304 280
f 327 304 277
f 278 307 303
f 280 304 329
f 282 305 283
f 282 284 305
f 329 306 285
f 283 305 1674
f 1568 1569 1735
f 1508 1592 306
f 309 308 285
f 308 286 285
f 287 286 308
f 287 308 1508
f 291 287 1508
f 289 310 267
f 310 289 290
f 311 312 313
f 1509 312 1746
f 310 292 267
f 1746 312 311
f 311 313 315
f 1510 315 293
f 311 293 294
f 1746 311 294
f 293 318 316
f 315 318 293
f 295 244 319
f 298 320 319
f 321 299 322
f 247 337 339
f 322 248 300
f 300 301 323
f 300 323 322
f 274 325 301
f 325 274 324
f 302 326 277
f 302 303 326
f 277 326 327
f 326 303 327
f 304 327 328
f 304 328 329
f 327 307 328
f 307 329 328
f 327 303 307
f 306 329 330
f 307 330 329
f 306 330 1508
f 291 1508 330
f 291 330 331
f 331 330 307
f 291 332 288
f 288 332 307
f 310 290 350
f 312 310 350
f 312 349 313
f 313 349 315
f 290 319 350
f 349 317 316
f 349 316 318
f 349 318 315
f 314 319 290
f 317 351 296
f 349 351 317
f 351 297 296
f 319 320 335
f 297 333 334
f 298 299 335
f 299 336 335
f 320 298 335
f 322 336 321
f 321 336 299
f 338 339 337
f 301 325 323
f 274 339 324
f 307 340 331
f 307 332 340
f 331 340 291
f 332 291 340
f 349 312 350
f 350 319 341
f 352 334 333
f 352 333 297
f 352 297 351
f 341 319 335
f 352 353 334
f 336 341 335
f 322 341 336
f 322 342 341
f 343 342 322
f 322 344 343
f 322 323 345
f 344 322 345
f 324 339 358
f 325 324 358
f 345 323 325
f 345 325 347
f 347 325 346
f 325 358 348
f 346 325 348
f 361 351 349
f 361 349 341
f 349 350 341
f 353 352 362
f 334 353 337
f 353 338 337
f 341 342 355
f 380 341 355
f 338 353 354
f 342 343 355
f 339 338 354
f 345 355 344
f 344 355 343
f 356 339 354
f 347 346 359
f 357 345 347
f 359 357 347
f 348 358 360
f 359 346 348
f 360 359 348
f 351 378 352
f 362 352 378
f 361 341 380
f 380 355 363
f 354 353 383
f 345 364 363
f 355 345 363
f 354 386 356
f 359 384 364
f 359 364 357
f 357 364 345
f 339 356 386
f 365 358 339
f 365 384 359
f 367 339 366
f 365 339 367
f 358 365 360
f 359 360 365
f 368 369 370
f 368 371 373
f 369 368 373
f 371 372 373
f 368 370 374
f 371 368 374
f 372 371 375
f 376 372 375
f 373 372 376
f 376 375 377
f 392 376 377
f 351 361 379
f 378 351 379
f 361 380 379
f 378 380 362
f 379 380 378
f 362 394 353
f 362 381 394
f 380 381 362
f 382 381 380
f 382 380 384
f 363 364 384
f 380 363 384
f 354 385 386
f 383 385 354
f 339 386 366
f 397 365 367
f 387 388 389
f 370 390 374
f 371 374 390
f 371 390 375
f 376 387 373
f 376 392 387
f 392 388 387
f 375 390 391
f 375 391 377
f 392 377 393
f 430 383 353
f 381 395 394
f 381 382 395
f 384 365 397
f 397 396 384
f 367 366 397
f 406 370 369
f 388 399 398
f 388 398 389
f 390 370 406
f 388 392 399
f 390 422 391
f 391 422 377
f 392 400 399
f 377 422 393
f 392 393 401
f 402 392 401
f 353 445 430
f 353 394 445
f 394 395 1680
f 382 384 403
f 383 412 385
f 384 396 403
f 396 404 403
f 386 385 415
f 366 386 415
f 397 366 415
f 406 369 373
f 406 422 390
f 399 400 407
f 393 422 438
f 401 393 425
f 392 402 400
f 1680 408 394
f 395 382 1680
f 382 410 1680
f 412 383 430
f 382 403 410
f 410 403 411
f 413 385 412
f 403 404 411
f 413 465 385
f 465 415 385
f 396 397 414
f 396 414 404
f 404 414 411
f 397 405 416
f 414 397 416
f 1733 415 417
f 1732 397 415
f 417 415 418
f 419 417 418
f 406 420 421
f 373 387 406
f 407 398 399
f 406 421 422
f 424 423 407
f 393 438 425
f 401 425 426
f 402 401 426
f 400 444 407
f 400 402 427
f 444 400 427
f 394 446 445
f 408 428 394
f 428 408 1680
f 1604 411 1562
f 429 431 412
f 430 429 412
f 432 1562 411
f 413 412 431
f 411 414 432
f 432 414 433
f 434 416 405
f 433 414 416
f 434 433 416
f 415 465 435
f 434 405 1730
f 434 1730 436
f 415 435 451
f 418 415 451
f 419 418 451
f 421 420 469
f 469 420 406
f 406 387 469
f 389 453 387
f 389 398 453
f 454 398 407
f 421 456 422
f 454 407 423
f 456 438 422
f 438 439 440
f 439 441 440
f 407 490 424
f 424 490 423
f 438 440 425
f 440 426 425
f 1511 442 426
f 440 441 442
f 426 442 443
f 402 426 443
f 402 443 427
f 428 446 394
f 444 427 447
f 445 429 430
f 428 461 446
f 428 1680 461
f 431 429 477
f 448 1562 432
f 431 477 413
f 477 462 413
f 413 462 465
f 433 448 432
f 434 1590 433
f 452 449 397
f 449 436 1729
f 1590 434 436
f 449 1590 436
f 465 450 435
f 435 450 451
f 397 1732 452
f 1731 1748 437
f 452 1732 437
f 452 437 451
f 469 456 421
f 398 454 453
f 455 454 423
f 456 439 438
f 1512 457 439
f 423 490 455
f 439 457 472
f 472 441 439
f 472 442 441
f 443 442 472
f 427 443 458
f 443 472 458
f 490 407 459
f 407 444 459
f 446 460 445
f 427 458 459
f 447 427 459
f 459 444 447
f 477 429 445
f 446 461 460
f 462 463 465
f 448 433 1590
f 1699 1700 1701
f 452 1590 449
f 466 465 464
f 466 467 465
f 465 467 450
f 467 451 450
f 468 451 467
f 452 451 468
f 453 469 387
f 1658 470 457
f 470 471 457
f 454 455 482
f 472 457 471
f 455 490 484
f 473 458 472
f 477 445 474
f 445 460 474
f 459 458 473
f 490 459 489
f 460 461 1560
f 461 409 1560
f 459 473 475
f 1562 448 1561
f 477 476 462
f 448 1590 1561
f 462 476 1698
f 466 499 467
f 468 1590 452
f 467 499 478
f 478 468 467
f 479 468 478
f 469 480 456
f 470 456 480
f 470 480 481
f 469 453 482
f 469 482 480
f 480 482 481
f 453 454 482
f 470 481 471
f 471 483 472
f 483 473 472
f 490 491 484
f 475 473 485
f 486 526 477
f 474 486 477
f 489 459 475
f 489 475 492
f 493 491 490
f 493 490 513
f 513 490 489
f 513 476 493
f 493 476 494
f 526 494 477
f 494 476 477
f 488 487 495
f 495 487 496
f 496 487 497
f 513 1698 476
f 464 1698 513
f 498 464 513
f 464 498 466
f 499 466 498
f 516 1590 468
f 479 516 468
f 481 500 471
f 500 481 482
f 455 502 482
f 482 502 501
f 503 502 455
f 500 504 483
f 471 500 483
f 505 504 482
f 504 500 482
f 536 503 455
f 504 473 483
f 504 505 473
f 455 506 536
f 506 455 484
f 505 485 473
f 505 552 485
f 484 491 506
f 460 1560 474
f 485 552 475
f 1560 508 540
f 508 1560 1587
f 494 491 493
f 507 491 494
f 526 507 494
f 529 508 1587
f 1587 1588 529
f 475 509 510
f 492 475 510
f 511 492 510
f 513 492 511
f 513 489 492
f 1588 1589 529
f 1589 1590 529
f 529 1590 512
f 1590 514 512
f 1590 516 514
f 513 515 498
f 499 517 518
f 478 499 518
f 478 535 479
f 478 518 519
f 535 478 519
f 501 520 482
f 501 502 521
f 520 501 521
f 502 503 521
f 482 520 505
f 520 521 536
f 521 503 536
f 552 505 520
f 506 522 536
f 522 506 491
f 527 486 523
f 474 524 486
f 486 524 523
f 1560 525 474
f 474 525 524
f 540 525 1560
f 531 522 491
f 486 527 526
f 508 528 540
f 529 528 508
f 475 530 509
f 1734 1607 1637
f 509 530 544
f 510 509 544
f 511 510 544
f 529 512 532
f 532 512 514
f 550 532 514
f 551 515 513
f 516 533 550
f 516 550 514
f 515 551 498
f 516 534 533
f 551 499 498
f 517 499 551
f 534 516 479
f 479 535 534
f 517 519 518
f 536 537 520
f 536 522 538
f 524 525 540
f 522 531 538
f 539 507 526
f 527 539 526
f 527 541 539
f 523 541 527
f 524 541 523
f 1577 541 524
f 540 1577 524
f 540 542 1577
f 540 528 543
f 542 540 543
f 528 529 543
f 475 552 530
f 552 547 530
f 1609 537 536
f 1602 1609 538
f 1609 536 538
f 531 1608 538
f 1607 546 1603
f 546 1607 1734
f 544 530 547
f 1609 548 537
f 544 545 511
f 529 532 543
f 544 547 548
f 549 543 532
f 550 549 532
f 533 534 573
f 573 534 535
f 519 517 562
f 535 519 562
f 573 535 562
f 520 537 563
f 563 552 520
f 563 537 553
f 554 555 546
f 554 546 1734
f 539 554 1734
f 555 1603 546
f 1577 556 541
f 542 543 1577
f 552 557 547
f 537 548 553
f 553 548 558
f 1577 543 559
f 547 557 560
f 548 547 560
f 560 558 548
f 543 549 559
f 513 511 551
f 533 561 1722
f 533 1721 550
f 550 559 549
f 533 584 561
f 573 584 533
f 517 551 562
f 579 555 554
f 554 539 579
f 565 564 555
f 579 565 555
f 541 581 539
f 564 1603 555
f 541 566 581
f 556 566 541
f 563 567 557
f 552 563 557
f 553 558 567
f 563 553 567
f 1603 589 511
f 568 1578 1579
f 557 567 560
f 558 560 567
f 511 589 1613
f 1661 1722 570
f 570 1722 561
f 511 595 551
f 571 551 595
f 572 551 571
f 551 572 574
f 551 574 562
f 573 562 575
f 576 577 578
f 576 579 577
f 579 539 581
f 576 578 580
f 1513 1515 564
f 576 564 565
f 579 576 565
f 564 582 1603
f 1515 582 564
f 581 566 590
f 566 556 590
f 556 583 590
f 589 1610 1613
f 1661 570 602
f 583 1661 602
f 570 561 602
f 561 584 602
f 594 584 573
f 595 572 571
f 562 574 585
f 585 575 562
f 573 575 585
f 577 586 578
f 586 577 579
f 1516 587 1515
f 586 1514 578
f 579 587 586
f 600 587 579
f 579 581 600
f 1603 588 589
f 587 588 582
f 588 1603 582
f 1515 587 582
f 591 590 583
f 1611 1629 592
f 583 602 591
f 511 1613 595
f 593 602 584
f 594 593 584
f 596 594 573
f 573 585 596
f 572 595 574
f 574 595 620
f 585 574 620
f 596 585 597
f 587 600 599
f 612 600 581
f 599 588 587
f 581 590 612
f 588 592 1629
f 607 590 591
f 607 591 601
f 591 602 601
f 604 603 596
f 604 597 585
f 604 596 597
f 585 620 598
f 585 598 605
f 604 585 605
f 599 600 612
f 599 611 588
f 590 606 612
f 611 592 588
f 590 607 606
f 607 601 602
f 593 607 602
f 593 608 607
f 596 609 608
f 596 608 594
f 594 608 593
f 596 603 609
f 1613 1728 595
f 620 610 598
f 632 604 605
f 599 612 611
f 612 613 622
f 606 613 612
f 607 613 606
f 607 608 614
f 614 608 615
f 615 608 609
f 617 609 603
f 603 604 617
f 595 1728 619
f 595 619 620
f 610 620 621
f 610 621 598
f 611 635 592
f 612 635 611
f 622 635 612
f 613 623 622
f 607 623 613
f 607 614 623
f 623 614 615
f 616 592 624
f 1611 592 616
f 609 623 615
f 629 609 617
f 617 604 629
f 1612 1618 618
f 619 1728 625
f 620 619 625
f 622 636 635
f 622 626 636
f 623 626 622
f 626 623 627
f 623 609 627
f 627 609 628
f 628 609 629
f 641 569 616
f 641 1617 569
f 629 604 630
f 1616 1617 641
f 630 604 632
f 625 631 633
f 620 625 633
f 620 633 621
f 1656 633 1614
f 626 638 637
f 638 626 627
f 628 638 627
f 629 640 649
f 630 640 629
f 632 640 630
f 632 642 640
f 633 631 1615
f 641 643 621
f 644 642 621
f 642 598 621
f 605 598 642
f 642 632 605
f 621 643 634
f 644 621 634
f 645 655 635
f 636 645 635
f 646 645 636
f 656 646 636
f 626 656 636
f 626 637 656
f 624 592 657
f 655 592 635
f 638 647 637
f 624 657 616
f 628 629 647
f 638 628 647
f 648 639 657
f 639 616 657
f 629 649 647
f 648 650 639
f 650 669 639
f 669 616 639
f 651 641 616
f 651 616 669
f 641 651 652
f 652 643 641
f 644 661 642
f 634 643 644
f 653 646 654
f 654 646 656
f 653 655 645
f 646 653 645
f 657 592 655
f 637 665 656
f 637 647 665
f 665 647 658
f 640 658 649
f 649 658 647
f 661 660 659
f 661 659 642
f 642 659 640
f 652 651 669
f 652 669 671
f 652 671 643
f 662 653 654
f 662 655 653
f 662 678 655
f 663 662 654
f 656 663 654
f 656 664 663
f 681 657 655
f 656 665 664
f 658 640 665
f 648 666 650
f 640 659 665
f 665 659 667
f 666 668 650
f 667 659 660
f 670 667 660
f 669 650 668
f 644 670 661
f 661 670 660
f 643 677 644
f 655 678 681
f 664 680 663
f 665 672 680
f 665 680 664
f 657 681 684
f 657 684 648
f 673 666 684
f 666 648 684
f 670 674 672
f 670 672 667
f 667 672 665
f 666 675 668
f 673 675 666
f 670 701 674
f 675 669 668
f 671 669 676
f 671 676 677
f 643 671 677
f 663 679 662
f 663 680 679
f 672 682 680
f 683 682 672
f 685 683 672
f 684 686 673
f 687 669 675
f 701 670 1596
f 688 669 687
f 669 688 689
f 676 669 689
f 676 689 697
f 677 676 697
f 677 698 644
f 691 677 690
f 698 677 691
f 692 678 662
f 679 692 662
f 679 693 692
f 680 693 679
f 680 682 693
f 682 694 693
f 694 682 683
f 695 694 683
f 683 685 696
f 696 685 672
f 696 672 674
f 701 696 674
f 702 687 675
f 702 697 687
f 697 688 687
f 689 688 697
f 644 698 1596
f 677 697 705
f 677 705 690
f 691 690 699
f 699 698 691
f 684 681 707
f 692 681 678
f 692 708 681
f 692 693 708
f 693 700 708
f 694 700 693
f 694 710 700
f 710 694 695
f 710 695 683
f 683 696 710
f 696 701 710
f 673 702 675
f 703 697 702
f 670 644 1596
f 704 697 703
f 697 704 705
f 690 705 699
f 1596 698 699
f 1596 699 706
f 700 709 708
f 700 718 709
f 710 718 700
f 1596 1697 710
f 1596 710 701
f 702 1630 703
f 713 704 703
f 705 704 713
f 699 705 714
f 705 713 714
f 699 714 1645
f 714 1644 1645
f 715 707 681
f 708 715 681
f 707 716 684
f 715 716 707
f 708 717 715
f 709 717 708
f 709 718 717
f 710 719 718
f 673 720 702
f 714 1586 1644
f 732 702 720
f 1630 702 732
f 1631 732 722
f 714 713 723
f 724 714 723
f 751 716 715
f 719 717 718
f 725 719 710
f 711 730 710
f 730 725 710
f 711 712 730
f 726 727 720
f 1586 714 731
f 1641 731 714
f 728 722 732
f 713 1632 728
f 713 728 723
f 1642 1643 724
f 716 751 684
f 717 736 729
f 719 736 717
f 719 725 737
f 726 720 686
f 720 673 686
f 725 730 737
f 733 728 732
f 724 723 743
f 723 728 733
f 734 723 733
f 686 684 751
f 715 735 751
f 717 735 715
f 729 735 717
f 729 736 735
f 737 736 719
f 686 738 726
f 1641 740 731
f 739 720 727
f 739 741 720
f 741 732 720
f 740 1641 742
f 732 741 749
f 733 732 749
f 723 734 743
f 735 744 751
f 735 745 744
f 735 736 745
f 736 737 745
f 745 737 746
f 737 730 746
f 726 789 727
f 721 777 712
f 1586 731 1585
f 727 747 739
f 731 740 1585
f 747 741 739
f 743 748 742
f 741 747 749
f 733 749 734
f 743 734 750
f 750 748 743
f 753 752 751
f 751 767 686
f 753 751 744
f 744 745 753
f 753 745 754
f 754 745 746
f 755 754 746
f 746 730 755
f 763 742 748
f 763 740 742
f 747 756 749
f 734 749 756
f 734 756 750
f 763 748 750
f 763 750 757
f 752 758 751
f 752 753 758
f 753 759 758
f 767 772 686
f 753 754 759
f 760 754 755
f 760 755 761
f 755 730 761
f 777 730 712
f 727 789 747
f 1585 740 763
f 762 1666 1668
f 756 747 764
f 751 765 767
f 751 758 765
f 758 759 766
f 759 768 766
f 768 759 774
f 759 754 774
f 738 686 785
f 738 785 726
f 769 760 761
f 761 730 769
f 790 1667 1670
f 1573 1669 763
f 770 747 789
f 770 764 747
f 797 763 757
f 771 767 765
f 771 765 758
f 766 771 758
f 766 768 771
f 772 781 686
f 768 774 773
f 785 686 781
f 754 760 774
f 1689 774 760
f 726 785 789
f 1689 760 769
f 1689 769 776
f 776 769 730
f 776 730 777
f 1572 1667 790
f 756 764 798
f 756 798 750
f 778 772 767
f 771 779 767
f 779 778 767
f 771 768 779
f 768 780 779
f 773 780 768
f 778 781 772
f 783 773 782
f 773 774 784
f 773 784 782
f 782 786 783
f 784 786 782
f 784 774 1689
f 784 775 787
f 775 788 787
f 1689 776 1570
f 776 777 1570
f 1571 1572 790
f 797 1573 763
f 798 764 770
f 779 780 791
f 780 773 791
f 778 792 781
f 779 792 778
f 791 792 779
f 1659 792 791
f 791 773 783
f 1517 783 793
f 785 781 794
f 783 786 793
f 793 786 800
f 786 784 1660
f 794 795 785
f 1660 784 787
f 785 795 789
f 788 1574 797
f 789 804 770
f 798 770 804
f 795 794 799
f 801 1660 787
f 802 789 795
f 801 787 788
f 803 801 788
f 789 802 796
f 788 797 803
f 804 789 796
f 794 781 813
f 799 794 813
f 1659 1660 806
f 1659 806 805
f 801 806 1660
f 833 802 795
f 803 807 806
f 801 803 806
f 802 833 796
f 807 803 808
f 796 847 804
f 808 803 809
f 803 797 809
f 827 797 757
f 781 810 813
f 781 792 810
f 1659 811 792
f 812 811 1659
f 799 813 819
f 1659 805 812
f 799 819 795
f 814 806 807
f 807 808 814
f 809 814 808
f 809 815 814
f 809 797 827
f 815 809 827
f 798 839 750
f 757 750 843
f 843 827 757
f 816 813 810
f 816 810 792
f 792 817 816
f 811 817 792
f 813 818 819
f 811 820 817
f 820 811 812
f 820 812 821
f 821 812 805
f 805 822 821
f 806 822 805
f 806 823 822
f 824 823 806
f 833 846 796
f 806 814 824
f 824 814 825
f 796 846 847
f 825 814 815
f 826 825 815
f 826 815 827
f 816 829 813
f 829 818 813
f 817 829 816
f 817 820 829
f 821 828 829
f 821 829 820
f 829 828 830
f 819 831 795
f 818 1552 819
f 821 822 828
f 828 822 823
f 1518 823 832
f 828 1639 830
f 823 824 832
f 833 795 1553
f 832 824 825
f 1639 825 826
f 1639 826 834
f 798 804 847
f 827 835 826
f 826 835 834
f 835 827 837
f 837 827 836
f 798 849 838
f 798 838 839
f 836 827 843
f 818 863 1552
f 863 840 1552
f 829 863 818
f 833 1553 1554
f 1552 840 841
f 1554 846 833
f 857 1639 834
f 842 798 847
f 798 842 849
f 750 839 843
f 837 836 843
f 838 849 844
f 839 838 844
f 845 839 844
f 863 1554 840
f 848 842 847
f 935 835 837
f 842 848 849
f 850 843 839
f 935 837 843
f 839 845 850
f 1554 866 846
f 858 857 834
f 847 846 866
f 847 866 848
f 834 835 858
f 849 848 853
f 849 853 844
f 1554 863 866
f 853 848 851
f 850 854 852
f 850 852 843
f 860 935 843
f 844 853 845
f 850 845 854
f 830 1639 855
f 1639 856 855
f 857 856 1639
f 1541 1640 1539
f 852 854 860
f 860 843 852
f 851 859 861
f 853 851 861
f 853 854 845
f 860 854 862
f 829 864 863
f 864 829 830
f 871 864 830
f 871 830 855
f 855 856 865
f 856 857 865
f 865 857 867
f 867 1540 858
f 848 866 851
f 851 866 859
f 866 868 859
f 861 859 868
f 853 861 869
f 861 868 869
f 853 869 854
f 870 863 864
f 871 855 865
f 871 865 872
f 872 865 873
f 863 895 866
f 865 874 873
f 865 875 874
f 1555 865 867
f 1555 867 876
f 876 867 877
f 858 935 867
f 935 877 867
f 858 835 935
f 935 860 862
f 868 878 879
f 869 868 879
f 880 869 879
f 854 869 880
f 881 863 882
f 882 863 870
f 870 864 883
f 864 884 883
f 864 871 884
f 884 871 872
f 885 884 872
f 886 873 887
f 886 885 873
f 885 872 873
f 886 887 888
f 873 874 887
f 887 874 875
f 1519 1555 889
f 887 889 888
f 1555 876 889
f 890 889 877
f 889 876 877
f 935 890 877
f 866 891 868
f 891 892 868
f 899 878 892
f 892 878 868
f 878 899 879
f 880 879 899
f 900 880 899
f 854 880 900
f 894 863 881
f 894 881 893
f 881 882 893
f 894 895 863
f 870 896 882
f 883 1605 1606
f 884 1605 883
f 884 885 1605
f 885 897 1605
f 885 886 897
f 908 886 888
f 895 905 866
f 888 889 908
f 889 890 908
f 898 891 866
f 898 901 891
f 891 899 892
f 901 900 891
f 900 899 891
f 900 901 854
f 854 901 928
f 894 893 902
f 882 903 893
f 903 882 896
f 895 894 904
f 894 902 904
f 904 905 895
f 1605 897 906
f 906 897 907
f 897 886 907
f 907 886 908
f 905 918 866
f 918 909 866
f 866 909 898
f 909 901 898
f 901 909 919
f 901 919 928
f 910 902 893
f 903 910 893
f 902 911 904
f 910 911 902
f 903 1628 910
f 903 896 1628
f 905 911 913
f 911 905 904
f 896 1545 1628
f 906 914 1605
f 1605 914 1550
f 915 914 906
f 905 913 918
f 907 916 906
f 916 915 906
f 916 907 908
f 916 908 917
f 908 890 917
f 909 927 919
f 911 910 920
f 910 1628 920
f 920 1627 911
f 911 921 913
f 912 921 911
f 1521 921 912
f 1545 1551 1628
f 918 913 921
f 1520 1546 914
f 1520 914 915
f 1520 915 916
f 925 918 921
f 916 924 1520
f 924 916 917
f 917 890 924
f 918 925 909
f 890 935 924
f 909 926 927
f 927 928 919
f 930 1521 1648
f 1547 922 923
f 929 1520 932
f 1521 1591 1648
f 924 934 932
f 924 932 1520
f 924 935 934
f 925 926 909
f 926 925 927
f 927 925 928
f 1723 921 1521
f 930 1723 1521
f 930 931 1724
f 921 933 925
f 1724 931 1649
f 934 936 932
f 854 928 948
f 854 948 862
f 939 935 862
f 943 933 932
f 932 936 943
f 936 934 937
f 934 935 937
f 935 939 937
f 947 925 938
f 925 947 948
f 928 925 948
f 948 939 862
f 925 933 940
f 933 941 940
f 942 925 940
f 933 943 941
f 943 936 952
f 952 936 944
f 944 936 937
f 938 945 946
f 938 946 947
f 949 940 941
f 949 942 940
f 950 949 941
f 941 943 950
f 943 951 950
f 943 952 951
f 952 944 937
f 952 937 953
f 925 958 938
f 958 945 938
f 937 939 953
f 945 972 946
f 955 939 948
f 947 946 954
f 947 954 948
f 925 942 963
f 951 1754 950
f 951 952 1754
f 1754 952 953
f 976 939 955
f 949 964 942
f 950 964 949
f 958 925 963
f 950 959 964
f 1753 1749 1752
f 958 967 945
f 960 953 961
f 953 939 961
f 948 954 984
f 948 984 976
f 948 976 955
f 942 962 963
f 942 964 962
f 958 963 965
f 964 959 966
f 956 966 1538
f 966 956 957
f 966 957 1750
f 1751 1752 1749
f 965 967 958
f 987 1750 960
f 968 987 960
f 968 960 961
f 969 968 961
f 961 939 969
f 946 972 954
f 970 963 962
f 970 962 964
f 970 965 963
f 966 978 964
f 978 966 1750
f 967 965 974
f 967 974 945
f 969 971 968
f 969 939 976
f 971 969 976
f 970 964 973
f 973 965 970
f 974 965 973
f 975 987 968
f 974 972 945
f 968 971 975
f 975 971 976
f 977 973 964
f 964 978 977
f 1750 980 978
f 974 973 981
f 973 979 981
f 981 982 974
f 974 982 972
f 976 983 975
f 976 985 983
f 997 979 973
f 977 997 973
f 978 997 977
f 980 997 978
f 980 986 997
f 986 980 1750
f 987 986 1750
f 997 981 979
f 982 981 993
f 987 975 988
f 982 993 972
f 985 1634 983
f 954 972 984
f 976 984 985
f 990 984 989
f 986 991 997
f 992 991 986
f 987 992 986
f 975 983 1634
f 994 975 1634
f 995 984 972
f 996 1688 984
f 1003 985 984
f 1003 1634 985
f 984 995 989
f 996 984 990
f 1007 981 997
f 997 991 1006
f 993 981 998
f 981 1007 998
f 998 1000 993
f 988 975 994
f 988 994 999
f 993 1000 972
f 999 994 1634
f 1002 1001 1687
f 1002 1687 1004
f 996 990 1005
f 1005 1688 996
f 997 1008 1007
f 1006 991 992
f 1016 987 988
f 1016 988 999
f 1000 1017 972
f 1634 1009 999
f 1633 1635 1010
f 1009 1634 1010
f 1010 1636 1688
f 1010 1635 1636
f 990 989 995
f 990 995 1005
f 1010 1688 1005
f 1010 1005 1011
f 1012 1007 1008
f 1012 1008 997
f 1007 1013 998
f 1012 1013 1007
f 1013 1000 998
f 1018 1009 1010
f 1005 995 1011
f 1018 1010 1011
f 1006 1034 997
f 997 1034 1012
f 1000 1013 1017
f 1011 995 1021
f 1021 1018 1011
f 999 1009 1016
f 1016 1009 1018
f 992 1034 1006
f 1013 1014 1015
f 1013 1015 1033
f 1012 1014 1013
f 1024 987 1016
f 1022 1013 1033
f 1013 1022 1017
f 1035 972 1017
f 995 1028 1019
f 995 1019 1020
f 995 1020 1021
f 1015 1014 1033
f 987 1023 992
f 1023 987 1024
f 1016 1025 1024
f 1022 1026 1017
f 1016 1018 1025
f 1025 1018 1027
f 1017 1026 1035
f 1027 1018 1021
f 1027 1021 1029
f 1019 1028 1030
f 1020 1019 1030
f 1031 1020 1030
f 1021 1020 1031
f 1014 1032 1033
f 992 1075 1034
f 1023 1075 992
f 1023 1024 1075
f 1026 1022 1033
f 1075 1024 1025
f 1025 1027 1046
f 1041 972 1035
f 972 1041 1042
f 995 972 1042
f 1028 995 1048
f 995 1042 1048
f 1021 1036 1029
f 1043 1027 1029
f 1028 1048 1030
f 1036 1021 1031
f 1050 1033 1032
f 1050 1032 1037
f 1037 1032 1014
f 1012 1038 1014
f 1014 1038 1037
f 1034 1038 1012
f 1050 1039 1033
f 1034 1075 1038
f 1033 1039 1026
f 1039 1040 1026
f 1040 1035 1026
f 1035 1040 1041
f 1027 1043 1047
f 1043 1029 1036
f 1043 1036 1031
f 1050 1037 1038
f 1044 1050 1038
f 1038 1075 1044
f 1045 1039 1050
f 1045 1040 1039
f 1075 1025 1046
f 1027 1047 1046
f 1041 1040 1048
f 1041 1048 1042
f 1049 1047 1043
f 1030 1048 1052
f 1031 1030 1049
f 1030 1052 1049
f 1043 1031 1049
f 1044 1075 1050
f 1050 1055 1045
f 1045 1055 1040
f 1047 1051 1046
f 1040 1057 1052
f 1048 1040 1052
f 1047 1049 1053
f 1047 1053 1051
f 1054 1055 1050
f 1061 1075 1046
f 1061 1046 1056
f 1057 1040 1064
f 1046 1051 1056
f 1052 1057 1058
f 1053 1065 1051
f 1052 1058 1059
f 1053 1049 1071
f 1071 1065 1053
f 1055 1054 1060
f 1054 1076 1060
f 1055 1064 1040
f 1060 1064 1055
f 1061 1056 1062
f 1063 1062 1056
f 1056 1051 1065
f 1063 1056 1065
f 1064 1058 1057
f 1059 1058 1080
f 1052 1059 1080
f 1066 1052 1080
f 1049 1052 1071
f 1054 1050 1076
f 1067 1060 1076
f 1060 1067 1064
f 1061 1062 1068
f 1062 1063 1069
f 1068 1062 1069
f 1065 1086 1069
f 1063 1065 1069
f 1070 1058 1064
f 1080 1058 1070
f 1065 1071 1086
f 1066 1080 1072
f 1052 1066 1073
f 1071 1052 1073
f 1076 1050 1074
f 1050 1075 1074
f 1077 1067 1076
f 1067 1077 1064
f 1069 1086 1068
f 1070 1078 1079
f 1080 1070 1079
f 1081 1074 1075
f 1076 1082 1083
f 1081 1076 1074
f 1077 1076 1084
f 1076 1083 1575
f 1094 1075 1061
f 1077 1085 1064
f 1084 1085 1077
f 1061 1068 1094
f 1070 1095 1078
f 1078 1095 1079
f 1087 1080 1079
f 1088 1086 1071
f 1080 1087 1072
f 1073 1066 1088
f 1088 1071 1073
f 1089 1083 1082
f 1089 1082 1076
f 1081 1089 1076
f 1081 1075 1089
f 1075 1093 1089
f 1089 1576 1083
f 1085 1070 1064
f 1068 1086 1094
f 1079 1095 1087
f 1088 1090 1086
f 1072 1087 1091
f 1087 1100 1091
f 1066 1072 1091
f 1066 1091 1088
f 1090 1088 1092
f 1106 1084 1089
f 1075 1094 1093
f 1084 1102 1085
f 1102 1084 1106
f 1100 1087 1095
f 1107 1090 1092
f 1093 1109 1089
f 1094 1109 1093
f 1109 1094 1097
f 1085 1102 1070
f 1094 1086 1097
f 1097 1086 1090
f 1095 1098 1100
f 1099 1088 1091
f 1088 1099 1092
f 1091 1100 1096
f 1091 1096 1101
f 1099 1091 1101
f 1106 1089 1105
f 1115 1109 1097
f 1097 1090 1115
f 1095 1151 1098
f 1100 1098 1151
f 1099 1103 1092
f 1101 1096 1104
f 1103 1099 1101
f 1104 1103 1101
f 1106 1110 1111
f 1110 1106 1105
f 1106 1125 1102
f 1102 1125 1070
f 1107 1092 1103
f 1096 1100 1104
f 1107 1103 1104
f 1107 1104 1108
f 1109 1105 1089
f 1105 1112 1110
f 1109 1112 1105
f 1113 1109 1115
f 1070 1151 1095
f 1191 1090 1107
f 1191 1107 1108
f 1114 1111 1110
f 1114 1110 1112
f 1114 1112 1109
f 1111 1125 1106
f 1114 1109 1113
f 1117 1116 1129
f 1117 1119 1118
f 1120 1118 1119
f 1137 1120 1119
f 1113 1122 1114
f 1113 1124 1122
f 1123 1111 1114
f 1148 1111 1123
f 1124 1113 1115
f 1148 1125 1111
f 1070 1177 1151
f 1190 1090 1191
f 1117 1126 1116
f 1127 1126 1117
f 1118 1127 1117
f 1118 1128 1127
f 1129 1116 1126
f 1129 1130 1117
f 1118 1120 1182
f 1118 1182 1128
f 1129 1135 1130
f 1117 1130 1136
f 1130 1135 1136
f 1117 1136 1119
f 1132 1131 1120
f 1133 1131 1132
f 1131 1133 1134
f 1136 1137 1119
f 1137 1132 1120
f 1726 1132 1137
f 1582 1132 1121
f 1582 1133 1132
f 1582 1134 1133
f 1137 1140 1726
f 1137 1136 1140
f 1726 1140 1138
f 1141 1139 1581
f 1143 1141 1142
f 1142 1144 1143
f 1145 1143 1144
f 1122 1144 1114
f 1114 1144 1147
f 1145 1144 1122
f 1145 1122 1146
f 1172 1123 1147
f 1123 1114 1147
f 1123 1172 1148
f 1122 1124 1149
f 1125 1150 1070
f 1148 1150 1125
f 1124 1115 1149
f 1070 1150 1177
f 1115 1090 1149
f 1149 1090 1190
f 1151 1152 1100
f 1104 1100 1153
f 1108 1104 1153
f 1154 1155 1156
f 1156 1155 1157
f 1154 1158 1126
f 1127 1154 1126
f 1155 1154 1127
f 1522 1127 1159
f 1155 1159 1157
f 1127 1128 1159
f 1160 1126 1158
f 1128 1161 1159
f 1182 1162 1128
f 1128 1162 1161
f 1126 1160 1129
f 1120 1131 1182
f 1131 1163 1182
f 1129 1160 1165
f 1163 1131 1134
f 1163 1134 1164
f 1164 1134 1583
f 1135 1129 1166
f 1136 1135 1166
f 1136 1166 1167
f 1584 1168 1583
f 1725 1727 1601
f 1138 1140 1169
f 1141 1168 1139
f 1141 1581 1171
f 1581 1170 1171
f 1143 1168 1141
f 1172 1171 1170
f 1141 1171 1142
f 1143 1736 1168
f 1144 1171 1172
f 1144 1142 1171
f 1143 1145 1737
f 1737 1145 1146
f 1144 1172 1147
f 1173 1146 1122
f 1173 1122 1149
f 1150 1174 1176
f 1174 1150 1148
f 1150 1176 1177
f 1152 1151 1177
f 1153 1100 1152
f 1153 1152 1178
f 1154 1156 1194
f 1158 1179 1180
f 1154 1179 1158
f 1194 1179 1154
f 1156 1157 1195
f 1195 1157 1159
f 1180 1160 1158
f 1180 1194 1160
f 1161 1195 1159
f 1161 1181 1195
f 1162 1181 1161
f 1162 1182 1181
f 1160 1194 1183
f 1160 1183 1165
f 1165 1183 1129
f 1183 1166 1129
f 1163 1184 1182
f 1184 1163 1164
f 1184 1164 1583
f 1166 1183 1185
f 1166 1185 1208
f 1166 1208 1167
f 1167 1208 1136
f 1208 1601 1727
f 1184 1583 1168
f 1187 1601 1208
f 1186 1184 1168
f 1187 1580 1601
f 1580 1187 1170
f 1172 1170 1187
f 1198 1172 1187
f 1736 1186 1168
f 1199 1186 1736
f 1172 1559 1148
f 1173 1149 1175
f 1173 1175 1188
f 1174 1217 1176
f 1149 1189 1175
f 1175 1189 1188
f 1177 1176 1217
f 1189 1149 1190
f 1177 1217 1152
f 1191 1108 1153
f 1152 1202 1203
f 1178 1152 1203
f 1153 1178 1192
f 1192 1178 1203
f 1191 1153 1192
f 1179 1193 1180
f 1193 1179 1194
f 1194 1180 1193
f 1206 1194 1156
f 1195 1206 1156
f 1183 1206 1196
f 1181 1207 1195
f 1182 1207 1181
f 1185 1183 1196
f 1206 1208 1196
f 1208 1185 1196
f 1184 1207 1182
f 1184 1209 1207
f 1208 1197 1187
f 1184 1186 1209
f 1197 1198 1187
f 1225 1172 1198
f 1738 1199 1736
f 1172 1557 1559
f 1148 1559 1174
f 1188 1189 1201
f 1201 1189 1190
f 1201 1190 1191
f 1192 1203 1204
f 1204 1191 1192
f 1205 1194 1206
f 1194 1205 1183
f 1206 1183 1205
f 1195 1207 1206
f 1208 1206 1207
f 1209 1208 1207
f 1197 1208 1209
f 1209 1210 1197
f 1198 1197 1210
f 1198 1210 1209
f 1209 1186 1220
f 1199 1212 1186
f 1558 1198 1211
f 1199 1213 1212
f 1200 1556 1214
f 1230 1173 1215
f 1559 1558 1216
f 1709 1558 1559
f 1173 1188 1215
f 1559 1216 1174
f 1174 1216 1217
f 1226 1202 1217
f 1217 1202 1152
f 1218 1234 1201
f 1218 1201 1191
f 1202 1226 1203
f 1204 1203 1226
f 1218 1204 1226
f 1191 1204 1218
f 1209 1219 1198
f 1209 1220 1219
f 1198 1219 1211
f 1220 1211 1219
f 1220 1186 1221
f 1186 1212 1221
f 1211 1220 1558
f 1221 1222 1220
f 1212 1222 1221
f 1523 1223 1222
f 1702 1704 1223
f 1558 1220 1222
f 1223 1558 1222
f 1212 1213 1224
f 1224 1213 1738
f 1213 1199 1738
f 1188 1739 1215
f 1216 1558 1217
f 1217 1558 1226
f 1226 1227 1218
f 1223 1704 1228
f 1228 1558 1223
f 1739 1229 1703
f 1232 1558 1228
f 1739 1188 1231
f 1231 1188 1201
f 1226 1239 1233
f 1227 1226 1233
f 1218 1227 1234
f 1227 1233 1234
f 1704 1229 1235
f 1229 1739 1718
f 1718 1739 1231
f 1232 1228 1236
f 1232 1236 1558
f 1558 1236 1226
f 1236 1237 1226
f 1201 1234 1250
f 1226 1237 1239
f 1234 1233 1239
f 1228 1238 1247
f 1704 1241 1228
f 1228 1241 1238
f 1704 1235 1241
f 1237 1236 1239
f 1231 1201 1250
f 1245 1250 1234
f 1247 1238 1240
f 1241 1240 1238
f 1241 1235 1242
f 1242 1235 1717
f 1235 1719 1717
f 1228 1247 1236
f 1720 1243 1711
f 1236 1248 1239
f 1248 1244 1239
f 1243 1720 1250
f 1239 1244 1269
f 1269 1245 1239
f 1239 1245 1234
f 1717 1241 1242
f 1715 1713 1714
f 1236 1247 1248
f 1712 1243 1249
f 1249 1243 1250
f 1260 1249 1250
f 1250 1245 1269
f 1251 1240 1241
f 1252 1251 1241
f 1252 1241 1717
f 1252 1716 1253
f 1255 1254 1246
f 1258 1247 1256
f 1255 1246 1257
f 1246 1712 1257
f 1248 1247 1258
f 1260 1259 1257
f 1260 1257 1249
f 1249 1257 1712
f 1244 1248 1258
f 1258 1269 1244
f 1261 1260 1250
f 1262 1240 1251
f 1263 1252 1253
f 1247 1262 1284
f 1240 1262 1247
f 1263 1253 1254
f 1265 1256 1284
f 1256 1247 1284
f 1263 1254 1255
f 1263 1255 1264
f 1265 1266 1256
f 1267 1256 1266
f 1267 1258 1256
f 1255 1257 1264
f 1267 1268 1258
f 1270 1257 1259
f 1268 1269 1258
f 1261 1270 1260
f 1260 1270 1259
f 1250 1269 1270
f 1270 1261 1250
f 1271 1251 1263
f 1251 1252 1263
f 1273 1263 1264
f 1284 1272 1265
f 1264 1257 1273
f 1273 1257 1274
f 1274 1257 1270
f 1268 1282 1269
f 1270 1269 1282
f 1275 1270 1282
f 1271 1284 1251
f 1284 1262 1251
f 1271 1263 1276
f 1278 1272 1284
f 1263 1273 1276
f 1276 1273 1277
f 1272 1278 1265
f 1265 1278 1266
f 1267 1266 1312
f 1267 1312 1268
f 1270 1280 1279
f 1270 1279 1274
f 1274 1279 1273
f 1270 1281 1280
f 1270 1275 1283
f 1275 1282 1283
f 1283 1281 1270
f 1284 1271 1285
f 1271 1286 1285
f 1271 1276 1286
f 1284 1287 1278
f 1288 1276 1277
f 1277 1273 1288
f 1288 1273 1289
f 1273 1279 1289
f 1289 1279 1280
f 1268 1290 1282
f 1283 1282 1290
f 1280 1283 1290
f 1281 1283 1280
f 1291 1286 1292
f 1291 1284 1285
f 1286 1291 1285
f 1286 1276 1292
f 1295 1287 1284
f 1276 1288 1293
f 1293 1288 1294
f 1287 1295 1278
f 1294 1288 1289
f 1278 1312 1266
f 1313 1268 1312
f 1268 1313 1297
f 1268 1297 1290
f 1280 1290 1298
f 1290 1297 1298
f 1298 1296 1280
f 1292 1300 1291
f 1291 1300 1299
f 1299 1301 1295
f 1299 1295 1284
f 1291 1299 1284
f 1292 1302 1300
f 1276 1302 1292
f 1276 1293 1302
f 1295 1303 1278
f 1303 1304 1278
f 1294 1289 1309
f 1278 1304 1312
f 1280 1309 1289
f 1296 1324 1280
f 1298 1297 1313
f 1296 1298 1313
f 1300 1306 1299
f 1299 1306 1305
f 1300 1307 1306
f 1305 1301 1299
f 1300 1302 1307
f 1302 1293 1307
f 1307 1293 1294
f 1321 1307 1294
f 1301 1303 1295
f 1321 1294 1322
f 1322 1294 1309
f 1303 1310 1304
f 1308 1310 1303
f 1310 1312 1304
f 1280 1324 1311
f 1309 1280 1311
f 1326 1324 1296
f 1326 1296 1314
f 1314 1296 1313
f 1315 1305 1316
f 1305 1306 1316
f 1306 1307 1316
f 1301 1305 1329
f 1303 1301 1329
f 1303 1329 1308
f 1322 1309 1317
f 1308 1318 1310
f 1317 1309 1311
f 1324 1317 1311
f 1310 1318 1312
f 1318 1319 1312
f 1312 1319 1313
f 1314 1313 1319
f 1326 1314 1319
f 1316 1320 1315
f 1329 1305 1315
f 1307 1321 1316
f 1329 1323 1308
f 1324 1322 1317
f 1323 1318 1308
f 1319 1318 1323
f 1319 1325 1326
f 1327 1329 1315
f 1320 1327 1315
f 1328 1327 1320
f 1320 1316 1328
f 1328 1316 1321
f 1321 1322 1338
f 1322 1324 1338
f 1323 1330 1319
f 1330 1331 1319
f 1319 1331 1340
f 1324 1326 1339
f 1319 1340 1325
f 1326 1325 1340
f 1341 1332 1333
f 1333 1327 1334
f 1327 1328 1334
f 1676 1332 1341
f 1329 1333 1337
f 1333 1332 1675
f 1327 1333 1329
f 1335 1328 1321
f 1335 1321 1336
f 1321 1338 1336
f 1324 1339 1338
f 1331 1330 1340
f 1326 1340 1339
f 1341 1333 1343
f 1343 1333 1334
f 1328 1335 1334
f 1344 1341 1342
f 1341 1344 1676
f 1346 1335 1336
f 1356 1346 1336
f 1329 1337 1323
f 1337 1347 1323
f 1323 1347 1330
f 1349 1350 1340
f 1339 1350 1338
f 1330 1349 1340
f 1350 1339 1340
f 1342 1341 1345
f 1341 1343 1345
f 1343 1346 1345
f 1343 1334 1346
f 1334 1335 1346
f 1352 1344 1342
f 1358 1676 1344
f 1356 1336 1348
f 1337 1358 1347
f 1336 1338 1348
f 1349 1330 1347
f 1348 1338 1350
f 1345 1351 1342
f 1342 1351 1352
f 1345 1355 1351
f 1345 1346 1355
f 1361 1346 1356
f 1352 1353 1344
f 1358 1344 1353
f 1358 1359 1347
f 1347 1359 1349
f 1349 1359 1354
f 1354 1350 1349
f 1355 1352 1351
f 1357 1352 1355
f 1353 1352 1357
f 1353 1357 1358
f 1350 1526 1348
f 1369 1354 1359
f 1350 1354 1369
f 1346 1360 1355
f 1361 1360 1346
f 1355 1362 1363
f 1364 1362 1355
f 1360 1364 1355
f 1365 1361 1356
f 1365 1356 1366
f 1355 1363 1357
f 1363 1367 1357
f 1367 1358 1357
f 1356 1348 1409
f 1367 1369 1358
f 1638 1409 1348
f 1358 1369 1359
f 1350 1369 1370
f 1370 1526 1350
f 1371 1372 1373
f 1371 1360 1372
f 1361 1374 1360
f 1374 1361 1375
f 1371 1525 1537
f 1363 1362 1371
f 1360 1371 1537
f 1376 1377 1378
f 1377 1379 1528
f 1376 1379 1377
f 1394 1361 1527
f 1379 1524 1528
f 1380 1598 1381
f 1361 1394 1375
f 1598 1382 1381
f 1361 1365 1382
f 1382 1365 1366
f 1377 1383 1378
f 1380 1383 1377
f 1381 1383 1380
f 1384 1383 1381
f 1382 1384 1381
f 1385 1363 1371
f 1367 1363 1385
f 1385 1386 1387
f 1389 1368 1388
f 1356 1409 1366
f 1369 1367 1385
f 1369 1385 1387
f 1390 1387 1386
f 1390 1391 1387
f 1391 1369 1387
f 1389 1391 1390
f 1389 1388 1391
f 1388 1392 1391
f 1526 1392 1388
f 1370 1369 1391
f 1392 1370 1391
f 1526 1370 1392
f 1373 1372 1396
f 1360 1374 1372
f 1691 1693 1694
f 1373 1396 1371
f 1376 1378 1393
f 1376 1393 1527
f 1393 1394 1527
f 1395 1529 1382
f 1395 1382 1366
f 1403 1395 1366
f 1378 1383 1393
f 1384 1393 1383
f 1529 1393 1384
f 1382 1529 1384
f 1396 1397 1385
f 1396 1385 1371
f 1396 1398 1397
f 1403 1366 1409
f 1397 1386 1385
f 1531 1399 1386
f 1397 1398 1399
f 1386 1399 1400
f 1386 1400 1390
f 1372 1405 1396
f 1372 1402 1401
f 1374 1402 1372
f 1692 1693 1691
f 1395 1402 1530
f 1402 1395 1403
f 1417 1398 1396
f 1398 1417 1399
f 1404 1372 1401
f 1372 1404 1405
f 1406 1402 1403
f 1406 1403 1407
f 1417 1396 1412
f 1417 1408 1399
f 1399 1408 1410
f 1400 1399 1410
f 1390 1400 1410
f 1389 1390 1414
f 1390 1410 1414
f 1368 1389 1411
f 1389 1414 1411
f 1411 1409 1638
f 1405 1404 1429
f 1405 1429 1396
f 1403 1409 1407
f 1407 1409 1413
f 1411 1414 1413
f 1411 1413 1409
f 1408 1419 1410
f 1410 1419 1414
f 1404 1415 1429
f 1401 1651 1404
f 1404 1651 1415
f 1651 1401 1402
f 1412 1416 1417
f 1408 1417 1418
f 1419 1413 1414
f 1415 1420 1421
f 1415 1421 1429
f 1651 1420 1415
f 1653 1420 1651
f 1653 1651 1652
f 1651 1406 1424
f 1651 1402 1406
f 1416 1426 1417
f 1417 1426 1418
f 1418 1426 1408
f 1419 1408 1426
f 1419 1426 1413
f 1420 1427 1428
f 1421 1420 1428
f 1422 1427 1420
f 1421 1428 1429
f 1422 1434 1427
f 1434 1422 1423
f 1434 1423 1425
f 1406 1437 1424
f 1437 1406 1407
f 1396 1429 1412
f 1429 1430 1412
f 1416 1412 1430
f 1435 1416 1430
f 1435 1426 1416
f 1426 1457 1413
f 1427 1431 1428
f 1428 1431 1429
f 1427 1434 1431
f 1651 1424 1432
f 1650 1651 1432
f 1424 1437 1432
f 1429 1435 1430
f 1435 1429 1433
f 1619 1621 1708
f 1431 1433 1429
f 1431 1436 1433
f 1437 1650 1432
f 1439 1426 1435
f 1426 1453 1457
f 1619 1708 1442
f 1443 1437 1407
f 1435 1438 1439
f 1426 1439 1453
f 1620 1440 1441
f 1440 1619 1442
f 1620 1441 1433
f 1442 1708 1437
f 1442 1437 1443
f 1444 1443 1407
f 1433 1441 1435
f 1441 1445 1435
f 1445 1439 1438
f 1445 1438 1435
f 1445 1446 1439
f 1444 1407 1449
f 1449 1407 1413
f 1440 1447 1441
f 1442 1447 1440
f 1451 1447 1442
f 1443 1451 1442
f 1443 1444 1451
f 1441 1447 1445
f 1447 1448 1445
f 1451 1444 1449
f 1448 1446 1445
f 1446 1452 1439
f 1439 1452 1453
f 1413 1457 1482
f 1450 1447 1451
f 1448 1447 1450
f 1454 1451 1449
f 1448 1450 1446
f 1460 1454 1449
f 1461 1460 1449
f 1455 1695 1471
f 1471 1695 1450
f 1647 1695 1455
f 1452 1446 1646
f 1452 1456 1457
f 1452 1457 1453
f 1451 1458 1471
f 1450 1451 1471
f 1454 1458 1451
f 1454 1459 1458
f 1454 1460 1459
f 1462 1455 1471
f 1462 1471 1463
f 1462 1464 1455
f 1464 1465 1455
f 1533 1462 1463
f 1467 1533 1463
f 1455 1468 1647
f 1532 1534 1466
f 1533 1597 1462
f 1465 1468 1455
f 1449 1413 1461
f 1533 1467 1469
f 1456 1533 1469
f 1456 1469 1457
f 1458 1470 1471
f 1476 1470 1458
f 1459 1476 1458
f 1460 1476 1459
f 1460 1461 1476
f 1464 1462 1472
f 1465 1464 1472
f 1476 1461 1473
f 1463 1474 1467
f 1462 1597 1472
f 1465 1472 1597
f 1461 1413 1473
f 1473 1413 1480
f 1467 1474 1475
f 1469 1467 1475
f 1469 1475 1457
f 1480 1413 1482
f 1470 1682 1477
f 1470 1477 1471
f 1471 1477 1463
f 1478 1476 1473
f 1479 1474 1477
f 1477 1474 1463
f 1473 1480 1478
f 1474 1479 1481
f 1474 1481 1475
f 1475 1481 1457
f 1457 1481 1482
f 1681 1683 1477
f 1484 1485 1483
f 1478 1484 1483
f 1478 1483 1476
f 1485 1484 1481
f 1484 1486 1481
f 1478 1480 1486
f 1484 1478 1486
f 1486 1482 1481
f 1480 1482 1486
f 1487 1483 1485
f 1477 1493 1492
f 1479 1477 1492
f 1479 1492 1481
f 1477 1683 1490
f 1477 1490 1493
f 1488 1487 1485
f 1481 1673 1488
f 1488 1485 1481
f 1683 1489 1490
f 1489 1483 1487
f 1491 1489 1487
f 1671 1491 1487
f 1487 1488 1672
f 1489 1493 1490
f 1489 1491 1494
f 1494 1491 1671
f 1492 1493 1495
f 1495 1494 1671
f 1489 1496 1493
f 1489 1494 1496
f 1493 1496 1495
f 1494 1495 1496
