g 508
v 168.0 326.5 5.0
v 169.0 327.0 4.5
v 169.0 328.0 4.5
v 166.0 329.0 4.5
v 165.5 329.0 5.0
v 171.0 329.0 4.5
v 171.0 328.5 5.0
v 171.5 329.0 5.0
v 171.0 331.0 4.5
v 171.5 331.0 5.0
v 165.5 332.0 5.0
v 167.0 333.0 4.5
v 169.0 333.0 4.5
v 169.0 334.0 4.5
v 167.0 335.0 4.5
v 166.5 335.0 5.0
v 168.0 334.5 5.0
v 167.0 335.5 5.0
v 170.0 326.5 6.0
v 170.5 327.0 6.0
v 166.5 329.0 6.0
v 171.0 328.5 6.0
v 171.5 332.0 6.0
v 166.5 334.0 6.0
v 170.5 334.0 6.0
v 170.0 334.5 6.0
v 169.0 334.5 7.0
v 168.0 335.5 7.0
v 170.5 333.0 8.0
v 169.0 334.5 8.0
v 168.0 335.5 8.0
v 170.5 328.0 9.0
v 171.5 329.0 9.0
v 165.5 330.0 9.0
v 168.0 334.5 9.0
v 169.0 335.5 9.0
v 170.5 327.0 10.0
v 171.5 328.0 10.0
v 166.5 330.0 10.0
v 165.5 332.0 10.0
v 166.5 334.0 10.0
v 171.5 334.0 10.0
v 167.0 334.5 10.0
v 169.5 335.0 10.0
v 171.0 334.5 10.0
v 165.5 331.0 11.0
v 166.5 332.0 11.0
v 166.5 333.0 11.0
v 168.5 336.0 11.0
v 169.5 336.0 11.0
v 169.0 336.5 11.0
v 172.5 331.0 12.0
v 170.0 334.5 12.0
v 171.5 332.0 13.0
v 165.5 333.0 13.0
v 166.0 333.5 13.0
v 171.5 334.0 13.0
v 170.0 335.5 13.0
v 170.0 326.5 14.0
v 171.5 329.0 14.0
v 172.5 330.0 14.0
v 165.5 331.0 14.0
v 167.0 333.5 14.0
v 168.0 334.5 14.0
v 170.0 334.5 14.0
v 171.0 335.5 14.0
v 169.0 325.5 15.0
v 171.0 326.5 15.0
v 171.5 327.0 15.0
v 172.5 329.0 15.0
v 166.5 332.0 15.0
v 165.5 333.0 15.0
v 172.5 333.0 15.0
v 171.5 334.0 15.0
v 167.0 334.5 15.0
v 170.0 335.5 15.0
v 149.0 313.0 15.5
v 149.0 312.5 16.0
v 148.5 313.0 16.0
v 149.5 313.0 16.0
v 149.0 314.0 15.5
v 148.5 314.0 16.0
v 149.5 314.0 16.0
v 149.0 314.5 16.0
v 166.5 328.0 16.0
v 166.0 333.0 15.5
v 167.0 332.5 16.0
v 167.0 333.0 15.5
v 167.5 334.0 16.0
v 172.5 334.0 16.0
v 170.0 334.5 16.0
v 172.0 334.5 16.0
v 149.0 311.0 16.5
v 149.0 310.5 17.0
v 148.5 311.0 17.0
v 149.5 311.0 17.0
v 149.0 312.5 17.0
v 148.5 313.0 17.0
v 149.5 313.0 17.0
v 171.0 326.5 17.0
v 171.5 327.0 17.0
v 167.5 328.0 17.0
v 166.5 329.0 17.0
v 171.5 334.0 17.0
v 170.0 334.5 17.0
v 171.5 335.0 17.0
v 171.0 335.5 17.0
v 149.0 313.5 18.0
v 149.5 314.0 18.0
v 170.0 326.5 18.0
v 171.5 328.0 18.0
v 166.5 329.0 18.0
v 166.5 330.0 18.0
v 172.5 331.0 18.0
v 171.5 334.0 18.0
v 171.0 334.5 18.0
v 149.0 310.5 19.0
v 148.5 311.0 19.0
v 149.5 311.0 19.0
v 149.0 313.0 18.5
v 169.0 325.5 19.0
v 167.5 327.0 19.0
v 171.0 326.5 19.0
v 171.5 327.0 19.0
v 167.5 330.0 19.0
v 166.5 331.0 19.0
v 173.5 331.0 19.0
v 173.5 332.0 19.0
v 167.5 333.0 19.0
v 169.0 334.5 19.0
v 148.5 312.0 20.0
v 149.5 314.0 20.0
v 168.0 325.5 20.0
v 167.5 326.0 20.0
v 169.0 325.5 20.0
v 171.5 328.0 20.0
v 172.5 330.0 20.0
v 167.5 331.0 20.0
v 173.5 331.0 20.0
v 150.0 311.5 21.0
v 150.5 312.0 21.0
v 150.0 314.0 20.5
v 148.5 315.0 21.0
v 150.0 315.0 20.5
v 150.5 315.0 21.0
v 149.0 315.5 21.0
v 150.0 315.5 21.0
v 172.5 329.0 21.0
v 171.0 334.5 21.0
v 148.5 315.0 22.0
v 169.0 326.5 22.0
v 167.5 328.0 22.0
v 173.0 328.5 22.0
v 173.5 329.0 22.0
v 167.5 332.0 22.0
v 168.5 333.0 22.0
v 172.0 334.5 22.0
v 149.0 311.5 23.0
v 150.0 311.5 23.0
v 150.5 312.0 23.0
v 148.5 316.0 23.0
v 149.0 316.5 23.0
v 167.5 328.0 23.0
v 168.5 332.0 23.0
v 173.5 333.0 23.0
v 148.5 313.0 24.0
v 150.5 313.0 24.0
v 150.5 315.0 24.0
v 149.5 316.0 24.0
v 172.5 330.0 24.0
v 167.5 331.0 24.0
v 170.0 334.5 24.0
v 150.0 312.5 25.0
v 149.0 316.5 25.0
v 150.0 317.0 24.5
v 150.0 319.0 24.5
v 149.5 319.0 25.0
v 150.5 319.0 25.0
v 150.0 319.5 25.0
v 170.0 326.5 25.0
v 168.5 329.0 25.0
v 167.5 330.0 25.0
v 168.5 331.0 25.0
v 170.0 333.5 25.0
v 151.0 312.5 26.0
v 152.0 314.0 25.5
v 152.5 314.0 26.0
v 152.0 316.0 25.5
v 152.5 316.0 26.0
v 148.5 317.0 26.0
v 149.5 318.0 26.0
v 152.0 318.0 25.5
v 152.0 317.5 26.0
v 151.5 318.0 26.0
v 152.5 318.0 26.0
v 152.0 318.5 26.0
v 169.0 326.5 26.0
v 168.5 327.0 26.0
v 149.0 312.5 27.0
v 148.5 313.0 27.0
v 152.5 316.0 27.0
v 151.0 317.0 26.5
v 152.0 317.0 26.5
v 151.0 317.5 27.0
v 151.5 318.0 27.0
v 152.5 318.0 27.0
v 149.5 319.0 27.0
v 152.0 318.5 27.0
v 150.0 319.5 27.0
v 168.5 328.0 27.0
v 167.5 330.0 27.0
v 173.5 330.0 27.0
v 168.5 333.0 27.0
v 169.0 333.5 27.0
v 151.0 312.5 28.0
v 148.5 314.0 28.0
v 152.0 313.5 28.0
v 153.5 316.0 28.0
v 150.0 317.5 28.0
v 150.0 318.0 27.5
v 152.0 317.5 28.0
v 150.0 319.0 27.5
v 151.0 318.5 28.0
v 170.0 332.5 28.0
v 170.5 333.0 28.0
v 150.0 312.5 29.0
v 152.0 312.5 29.0
v 148.5 314.0 29.0
v 154.0 313.5 29.0
v 154.5 314.0 29.0
v 153.5 316.0 29.0
v 148.5 317.0 29.0
v 149.0 317.5 29.0
v 152.0 317.5 29.0
v 158.0 318.0 28.5
v 157.5 318.0 29.0
v 159.0 318.0 28.5
v 151.0 318.5 29.0
v 158.0 319.0 28.5
v 160.0 319.0 28.5
v 160.5 319.0 29.0
v 159.0 320.0 28.5
v 160.0 320.0 28.5
v 160.5 320.0 29.0
v 151.0 312.5 30.0
v 153.0 313.5 30.0
v 148.5 315.0 30.0
v 154.5 316.0 30.0
v 153.5 318.0 30.0
v 153.0 318.5 30.0
v 157.5 320.0 30.0
v 169.5 329.0 30.0
v 174.5 331.0 30.0
v 174.5 333.0 30.0
v 151.0 313.5 31.0
v 153.5 314.0 31.0
v 154.5 315.0 31.0
v 159.0 315.5 31.0
v 159.5 316.0 31.0
v 154.5 317.0 31.0
v 160.5 317.0 31.0
v 156.5 318.0 31.0
v 151.0 318.5 31.0
v 160.5 319.0 31.0
v 161.5 320.0 31.0
v 158.5 323.0 31.0
v 160.0 323.0 30.5
v 162.0 323.0 30.5
v 159.0 323.5 31.0
v 162.0 324.0 30.5
v 162.5 324.0 31.0
v 169.5 328.0 31.0
v 168.5 330.0 31.0
v 174.5 331.0 31.0
v 168.5 332.0 31.0
v 170.5 334.0 31.0
v 171.0 334.5 31.0
v 157.5 315.0 32.0
v 148.5 316.0 32.0
v 156.5 317.0 32.0
v 157.5 318.0 32.0
v 160.5 318.0 32.0
v 157.5 319.0 32.0
v 161.5 320.0 32.0
v 161.5 321.0 32.0
v 157.5 322.0 32.0
v 162.5 322.0 32.0
v 159.0 323.5 32.0
v 163.5 324.0 32.0
v 160.0 325.0 31.5
v 162.0 326.0 31.5
v 161.0 326.5 32.0
v 162.0 326.5 32.0
v 171.0 327.5 32.0
v 173.0 328.5 32.0
v 169.5 330.0 32.0
v 174.5 330.0 32.0
v 158.0 315.5 33.0
v 159.0 315.5 33.0
v 159.5 316.0 33.0
v 149.5 317.0 33.0
v 154.5 317.0 33.0
v 157.5 318.0 33.0
v 153.0 318.5 33.0
v 158.5 321.0 33.0
v 157.5 322.0 33.0
v 162.5 322.0 33.0
v 163.5 323.0 33.0
v 163.5 325.0 33.0
v 159.5 326.0 33.0
v 160.0 326.5 33.0
v 162.0 327.5 33.0
v 169.5 332.0 33.0
v 172.0 333.5 33.0
v 174.0 333.5 33.0
v 173.0 334.5 33.0
v 151.0 313.5 34.0
v 149.5 315.0 34.0
v 158.0 316.0 33.5
v 159.0 316.0 33.5
v 158.0 318.0 33.5
v 154.0 318.5 34.0
v 159.0 319.0 33.5
v 158.5 321.0 34.0
v 161.0 320.5 34.0
v 158.5 325.0 34.0
v 164.5 325.0 34.0
v 159.5 326.0 34.0
v 164.5 326.0 34.0
v 161.0 327.5 34.0
v 169.5 329.0 34.0
v 169.5 331.0 34.0
v 170.5 332.0 34.0
v 175.5 333.0 34.0
v 175.0 333.5 34.0
v 155.5 316.0 35.0
v 155.5 317.0 35.0
v 154.5 318.0 35.0
v 159.0 322.0 34.5
v 162.0 321.5 35.0
v 158.5 323.0 35.0
v 164.5 324.0 35.0
v 158.5 325.0 35.0
v 164.5 325.0 35.0
v 162.0 328.5 35.0
v 172.0 328.5 35.0
v 174.0 328.5 35.0
v 176.5 332.0 35.0
v 174.0 333.5 35.0
v 173.0 334.5 35.0
v 151.0 313.5 36.0
v 149.5 315.0 36.0
v 149.5 316.0 36.0
v 155.5 318.0 36.0
v 155.0 318.5 36.0
v 163.0 322.5 36.0
v 165.5 325.0 36.0
v 170.5 328.0 36.0
v 172.0 327.5 36.0
v 152.0 313.5 37.0
v 150.5 315.0 37.0
v 155.0 318.5 37.0
v 160.0 323.0 36.5
v 164.0 323.5 37.0
v 159.5 325.0 37.0
v 159.5 326.0 37.0
v 166.5 326.0 37.0
v 166.0 328.0 36.5
v 166.5 328.0 37.0
v 172.0 327.5 37.0
v 162.0 328.5 37.0
v 173.0 328.5 37.0
v 175.0 328.5 37.0
v 176.5 330.0 37.0
v 170.5 332.0 37.0
v 153.0 313.5 38.0
v 156.5 318.0 38.0
v 163.0 323.5 38.0
v 166.0 324.5 38.0
v 166.5 325.0 38.0
v 164.0 328.5 38.0
v 165.0 329.5 38.0
v 171.5 332.0 38.0
v 176.5 332.0 38.0
v 152.0 313.5 39.0
v 153.0 314.5 39.0
v 154.0 314.5 39.0
v 155.0 319.5 39.0
v 161.0 325.0 38.5
v 163.0 324.5 39.0
v 165.0 324.5 39.0
v 167.5 327.0 39.0
v 167.5 328.0 39.0
v 174.0 327.5 39.0
v 168.0 328.5 39.0
v 167.5 329.0 39.0
v 168.0 329.0 38.5
v 168.5 329.0 39.0
v 166.0 329.5 39.0
v 168.0 329.5 39.0
v 176.5 330.0 39.0
v 172.0 333.5 39.0
v 153.0 313.5 40.0
v 155.0 314.5 40.0
v 156.5 316.0 40.0
v 152.0 318.5 40.0
v 156.5 319.0 40.0
v 163.0 325.0 39.5
v 166.0 325.5 40.0
v 167.5 327.0 40.0
v 163.5 328.0 40.0
v 167.5 328.0 40.0
v 174.0 327.5 40.0
v 167.5 329.0 40.0
v 168.5 329.0 40.0
v 176.0 328.5 40.0
v 176.5 329.0 40.0
v 166.0 329.5 40.0
v 175.5 330.0 40.0
v 175.5 331.0 40.0
v 152.0 313.5 41.0
v 150.5 315.0 41.0
v 150.5 317.0 41.0
v 156.5 318.0 41.0
v 154.0 318.5 41.0
v 157.5 319.0 41.0
v 153.0 319.5 41.0
v 157.0 319.5 41.0
v 164.0 326.0 40.5
v 164.0 327.0 40.5
v 164.5 327.0 41.0
v 167.0 327.0 40.5
v 167.0 327.5 41.0
v 168.0 327.5 41.0
v 168.5 328.0 41.0
v 173.0 327.5 41.0
v 175.0 328.0 40.5
v 175.0 327.5 41.0
v 175.5 328.0 41.0
v 164.5 329.0 41.0
v 167.0 329.0 40.5
v 165.0 329.5 41.0
v 167.5 330.0 41.0
v 168.5 330.0 41.0
v 168.0 330.5 41.0
v 152.0 314.5 42.0
v 151.5 316.0 42.0
v 156.5 316.0 42.0
v 156.5 318.0 42.0
v 157.5 319.0 42.0
v 155.0 320.5 42.0
v 156.0 320.5 42.0
v 173.0 326.5 42.0
v 164.5 328.0 42.0
v 167.0 328.0 41.5
v 168.0 327.5 42.0
v 167.0 329.0 41.5
v 166.0 329.5 42.0
v 173.0 333.5 42.0
v 175.0 333.5 42.0
v 152.0 315.0 42.5
v 153.0 315.0 42.5
v 152.5 316.0 43.0
v 156.0 315.5 43.0
v 156.5 316.0 43.0
v 157.5 318.0 43.0
v 154.0 319.5 43.0
v 174.0 326.5 43.0
v 165.0 328.0 42.5
v 166.0 328.0 42.5
v 168.0 327.5 43.0
v 167.5 328.0 43.0
v 168.5 328.0 43.0
v 166.0 329.0 42.5
v 170.5 329.0 43.0
v 167.5 330.0 43.0
v 169.5 330.0 43.0
v 175.5 332.0 43.0
v 173.0 332.5 43.0
v 153.0 315.5 44.0
v 155.0 316.5 44.0
v 156.0 316.5 44.0
v 156.5 317.0 44.0
v 151.5 318.0 44.0
v 153.0 319.5 44.0
v 153.5 320.0 44.0
v 158.5 320.0 44.0
v 154.0 320.5 44.0
v 157.0 320.5 44.0
v 156.0 321.5 44.0
v 172.0 326.5 44.0
v 168.0 328.0 43.5
v 170.5 328.0 44.0
v 169.0 328.5 44.0
v 169.5 329.0 44.0
v 170.5 330.0 44.0
v 176.5 330.0 44.0
v 170.5 331.0 44.0
v 175.5 331.0 44.0
v 172.0 332.5 44.0
v 175.0 332.5 44.0
v 155.0 315.5 45.0
v 157.0 316.5 45.0
v 158.5 318.0 45.0
v 158.5 321.0 45.0
v 157.0 321.5 45.0
v 158.0 321.5 45.0
v 174.0 326.5 45.0
v 175.5 329.0 45.0
v 170.5 330.0 45.0
v 171.5 330.0 45.0
v 169.5 331.0 45.0
v 171.5 331.0 45.0
v 176.0 331.0 44.5
v 176.5 331.0 45.0
v 167.5 332.0 45.0
v 175.0 331.5 45.0
v 176.0 331.5 45.0
v 168.0 332.5 45.0
v 169.0 332.5 45.0
v 155.0 316.5 46.0
v 153.5 319.0 46.0
v 159.5 320.0 46.0
v 155.0 320.5 46.0
v 175.0 326.5 46.0
v 176.5 328.0 46.0
v 168.0 328.5 46.0
v 167.5 329.0 46.0
v 169.0 328.5 46.0
v 170.5 330.0 46.0
v 171.5 330.0 46.0
v 176.5 331.0 46.0
v 170.5 332.0 46.0
v 176.0 331.5 46.0
v 170.0 332.5 46.0
v 155.0 316.5 47.0
v 157.0 316.5 47.0
v 152.5 319.0 47.0
v 153.5 320.0 47.0
v 160.5 320.0 47.0
v 158.0 321.5 47.0
v 157.0 322.5 47.0
v 173.0 325.5 47.0
v 171.0 326.5 47.0
v 170.5 329.0 47.0
v 169.0 329.5 47.0
v 170.0 329.5 47.0
v 171.0 330.0 46.5
v 170.5 331.0 47.0
v 170.5 332.0 47.0
v 155.0 316.5 48.0
v 158.0 316.5 48.0
v 153.5 318.0 48.0
v 160.5 319.0 48.0
v 160.0 322.0 47.5
v 160.5 322.0 48.0
v 156.0 322.5 48.0
v 159.0 322.5 48.0
v 160.0 322.5 48.0
v 172.0 325.5 48.0
v 174.0 325.5 48.0
v 176.5 328.0 48.0
v 170.5 330.0 48.0
v 170.0 330.5 48.0
v 171.0 331.0 47.5
v 170.0 331.5 48.0
v 171.0 331.5 48.0
v 169.0 332.5 48.0
v 160.5 320.0 49.0
v 161.5 321.0 49.0
v 160.5 322.0 49.0
v 158.0 323.5 49.0
v 159.0 323.5 49.0
v 170.0 331.0 48.5
v 171.0 330.5 49.0
v 168.0 331.5 49.0
v 167.5 332.0 49.0
v 169.5 332.0 49.0
v 172.0 331.5 49.0
v 168.0 332.5 49.0
v 160.5 318.0 50.0
v 153.5 319.0 50.0
v 153.5 320.0 50.0
v 155.0 321.5 50.0
v 175.0 326.5 50.0
v 173.5 330.0 50.0
v 166.0 331.0 49.5
v 169.0 331.0 49.5
v 165.0 332.0 49.5
v 169.0 331.5 50.0
v 170.0 331.5 50.0
v 171.0 331.5 50.0
v 165.0 332.5 50.0
v 158.0 316.5 51.0
v 160.0 317.5 51.0
v 154.5 320.0 51.0
v 153.5 321.0 51.0
v 154.0 321.5 51.0
v 156.0 322.5 51.0
v 161.0 323.5 51.0
v 174.0 325.5 51.0
v 174.5 326.0 51.0
v 167.5 327.0 51.0
v 173.0 327.0 50.5
v 173.0 326.5 51.0
v 174.0 327.0 50.5
v 175.0 327.0 50.5
v 173.0 327.5 51.0
v 175.0 328.0 50.5
v 174.5 328.0 51.0
v 167.0 329.0 50.5
v 174.5 329.0 51.0
v 172.5 330.0 51.0
v 173.0 329.5 51.0
v 174.0 329.5 51.0
v 169.0 331.0 50.5
v 170.0 331.0 50.5
v 173.5 331.0 51.0
v 163.5 332.0 51.0
v 171.0 332.0 50.5
v 173.0 331.5 51.0
v 156.0 317.5 52.0
v 155.5 318.0 52.0
v 158.0 317.5 52.0
v 155.5 319.0 52.0
v 159.0 318.5 52.0
v 160.5 319.0 52.0
v 155.0 320.0 51.5
v 154.0 321.0 51.5
v 162.5 322.0 52.0
v 157.0 322.5 52.0
v 162.5 323.0 52.0
v 160.0 324.5 52.0
v 161.0 324.5 52.0
v 169.0 324.5 52.0
v 172.0 324.5 52.0
v 167.5 326.0 52.0
v 174.0 326.0 51.5
v 171.5 327.0 52.0
v 172.0 326.5 52.0
v 166.0 327.5 52.0
v 172.0 327.5 52.0
v 174.0 327.5 52.0
v 174.5 328.0 52.0
v 165.0 329.0 51.5
v 163.5 331.0 52.0
v 173.0 332.0 51.5
v 173.5 332.0 52.0
v 164.0 332.5 52.0
v 172.0 332.5 52.0
v 173.0 332.5 52.0
v 157.0 317.5 53.0
v 155.5 319.0 53.0
v 160.0 318.5 53.0
v 160.5 319.0 53.0
v 155.5 320.0 53.0
v 162.0 320.5 53.0
v 162.5 321.0 53.0
v 159.0 324.5 53.0
v 169.0 324.5 53.0
v 172.0 324.5 53.0
v 173.5 326.0 53.0
v 167.5 327.0 53.0
v 172.0 327.0 52.5
v 173.5 327.0 53.0
v 165.0 327.5 53.0
v 172.5 330.0 53.0
v 162.5 332.0 53.0
v 157.0 318.5 54.0
v 159.0 318.5 54.0
v 160.0 319.5 54.0
v 156.5 322.0 54.0
v 163.5 323.0 54.0
v 163.5 324.0 54.0
v 168.0 324.5 54.0
v 167.5 325.0 54.0
v 171.0 324.5 54.0
v 169.0 325.5 54.0
v 170.0 325.5 54.0
v 166.5 327.0 54.0
v 172.5 327.0 54.0
v 163.5 330.0 54.0
v 172.5 330.0 54.0
v 163.5 331.0 54.0
v 162.5 332.0 54.0
v 157.0 319.0 54.5
v 163.5 322.0 55.0
v 158.5 324.0 55.0
v 169.0 324.5 55.0
v 170.0 324.5 55.0
v 171.0 324.5 55.0
v 166.0 326.0 54.5
v 172.5 326.0 55.0
v 166.0 327.0 54.5
v 167.0 326.5 55.0
v 173.5 327.0 55.0
v 162.5 330.0 55.0
v 173.0 330.0 54.5
v 174.0 329.5 55.0
v 174.0 330.0 54.5
v 174.5 330.0 55.0
v 174.0 330.5 55.0
v 163.0 332.5 55.0
v 159.0 319.5 56.0
v 158.5 321.0 56.0
v 157.5 322.0 56.0
v 166.0 325.0 55.5
v 167.0 324.5 56.0
v 162.0 326.0 55.5
v 163.0 326.0 55.5
v 165.0 326.0 55.5
v 167.0 326.0 55.5
v 172.0 325.5 56.0
v 173.5 327.0 56.0
v 173.5 330.0 56.0
v 162.5 331.0 56.0
v 174.5 331.0 56.0
v 161.5 332.0 56.0
v 173.5 332.0 56.0
v 159.0 320.5 57.0
v 163.0 321.5 57.0
v 167.0 324.5 57.0
v 162.5 328.0 57.0
v 173.5 328.0 57.0
v 161.5 330.0 57.0
v 173.5 330.0 57.0
v 161.5 331.0 57.0
v 160.0 320.5 58.0
v 169.0 323.5 58.0
v 159.5 326.0 58.0
v 172.0 325.5 58.0
v 172.5 327.0 58.0
v 161.5 329.0 58.0
v 174.5 330.0 58.0
v 162.0 320.5 59.0
v 161.0 321.5 59.0
v 163.0 321.5 59.0
v 158.5 323.0 59.0
v 158.5 325.0 59.0
v 170.0 324.5 59.0
v 172.5 326.0 59.0
v 173.5 327.0 59.0
v 173.5 329.0 59.0
v 174.5 330.0 59.0
v 173.5 331.0 59.0
v 173.0 332.5 59.0
v 162.0 320.5 60.0
v 165.0 320.5 60.0
v 161.0 321.5 60.0
v 171.0 323.5 60.0
v 171.5 324.0 60.0
v 171.5 325.0 60.0
v 159.5 326.0 60.0
v 159.5 327.0 60.0
v 160.5 329.0 60.0
v 174.5 329.0 60.0
v 161.5 332.0 60.0
v 174.5 332.0 60.0
v 162.0 332.5 60.0
v 169.0 321.5 61.0
v 171.5 324.0 61.0
v 172.5 325.0 61.0
v 158.5 326.0 61.0
v 160.5 328.0 61.0
v 173.5 329.0 61.0
v 163.0 332.5 61.0
v 165.0 319.5 62.0
v 161.0 320.5 62.0
v 168.0 320.5 62.0
v 159.5 328.0 62.0
v 174.5 330.0 62.0
v 174.5 332.0 62.0
v 174.0 332.5 62.0
v 162.0 319.5 63.0
v 166.0 319.5 63.0
v 160.0 320.5 63.0
v 159.5 321.0 63.0
v 168.0 320.5 63.0
v 170.0 321.5 63.0
v 170.5 322.0 63.0
v 158.5 323.0 63.0
v 172.5 325.0 63.0
v 158.5 326.0 63.0
v 173.5 327.0 63.0
v 159.5 328.0 63.0
v 162.5 331.0 63.0
v 162.5 332.0 63.0
v 163.0 332.5 63.0
v 173.0 332.5 63.0
v 166.0 320.0 63.5
v 160.0 321.0 63.5
v 161.0 321.0 63.5
v 167.0 321.0 63.5
v 160.0 322.0 63.5
v 170.0 322.0 63.5
v 159.0 323.0 63.5
v 170.0 323.0 63.5
v 172.0 326.0 63.5
v 160.0 327.0 63.5
v 160.0 328.0 63.5
v 173.0 330.0 63.5
v 174.0 331.0 63.5
v 163.0 332.0 63.5
v 173.0 332.0 63.5
v 170.0 334.5 14.0
v 167.0 332.5 16.0
v 149.5 316.0 24.0
v 149.0 316.5 25.0
v 152.0 317.5 26.0
v 151.0 317.0 26.5
v 151.0 317.5 27.0
v 151.5 318.0 27.0
v 167.0 327.0 40.5
v 175.0 328.0 40.5
v 170.5 329.0 47.0
v 170.5 329.0 47.0
v 170.0 329.5 47.0
v 171.0 330.0 46.5
v 170.5 330.0 48.0
v 171.0 331.0 47.5
v 170.0 331.5 48.0
v 171.0 330.5 49.0
v 175.0 326.5 50.0
v 169.0 331.0 49.5
v 169.0 331.5 50.0
v 170.0 331.5 50.0
v 173.0 326.5 51.0
v 174.0 327.0 50.5
v 174.0 326.0 51.5
v 172.5 331.0 52.0
v 169.0 325.5 54.0
v 166.5 327.0 54.0
v 173.0 330.0 54.5
v 173.0 330.0 54.5
v 174.0 330.5 55.0
v 171.0 330.0 46.5
v 170.5 330.0 46.0
v 168.0 334.5 5.0
v 168.0 334.5 5.0
v 168.0 335.5 7.0
v 174.0 327.0 50.5
v 174.0 327.5 52.0
v 152.0 317.0 26.5
v 152.5 316.0 27.0
v 152.5 316.0 27.0
v 152.5 316.0 26.0
v 170.0 334.5 14.0
v 170.0 334.5 14.0
v 170.0 334.5 14.0
v 170.0 334.5 14.0
v 170.0 335.5 15.0
v 170.0 334.5 16.0
v 168.0 334.5 9.0
v 168.0 334.5 9.0
v 168.0 335.5 8.0
v 169.5 332.0 49.0
v 155.0 314.5 40.0
v 155.0 314.5 40.0
v 167.0 329.0 40.5
v 167.0 329.0 40.5
v 168.0 331.5 49.0
v 170.0 325.5 57.0
v 170.0 325.5 57.0
v 150.0 317.0 24.5
v 151.0 317.5 27.0
v 151.0 317.0 26.5
v 150.0 312.5 25.0
v 150.0 312.5 25.0
v 150.0 312.5 25.0
v 150.0 317.0 24.5
v 150.0 317.5 28.0
v 150.0 317.5 28.0
v 170.0 335.5 15.0
v 160.5 320.0 49.0
v 160.5 320.0 49.0
v 160.5 320.0 49.0
v 160.5 320.0 49.0
v 160.5 320.0 47.0
v 159.5 320.0 46.0
v 157.5 319.0 42.0
v 157.5 319.0 42.0
v 160.0 319.5 54.0
v 159.0 322.0 34.5
v 159.0 322.0 34.5
v 148.5 317.0 26.0
v 155.0 321.5 50.0
v 155.0 321.5 50.0
v 149.0 316.5 23.0
v 149.5 316.0 24.0
v 159.0 323.5 32.0
v 169.5 335.0 10.0
v 169.0 334.5 8.0
v 169.0 334.5 8.0
v 169.0 334.5 8.0
v 169.0 335.5 9.0
v 169.5 335.0 10.0
v 169.5 335.0 10.0
v 171.0 334.5 10.0
v 152.0 317.5 28.0
v 152.5 316.0 27.0
v 171.0 332.0 50.5
v 171.0 332.0 50.5
v 174.0 326.0 51.5
v 174.0 326.0 51.5
v 174.0 327.5 52.0
v 168.0 330.5 42.0
v 168.0 330.5 42.0
v 168.0 328.0 43.5
v 168.0 334.5 14.0
v 168.0 334.5 14.0
v 168.0 334.5 14.0
v 168.0 334.5 14.0
v 170.0 334.5 14.0
v 174.0 330.5 55.0
v 174.0 330.5 55.0
v 174.5 331.0 56.0
v 174.5 331.0 56.0
v 152.5 319.0 47.0
v 152.5 319.0 47.0
v 153.5 318.0 48.0
v 161.5 321.0 49.0
v 170.0 325.5 57.0
v 170.0 325.5 57.0
v 172.5 326.0 59.0
v 172.5 326.0 59.0
v 172.5 326.0 59.0
v 171.5 325.0 60.0
v 169.0 324.5 55.0
v 169.0 324.5 55.0
v 167.0 326.0 55.5
v 167.0 326.0 55.5
v 167.0 326.5 55.0
v 166.5 327.0 54.0
v 152.5 316.0 43.0
v 172.0 328.5 23.0
v 172.0 328.5 23.0
v 171.0 326.5 19.0
v 173.0 328.5 22.0
v 153.5 318.0 48.0
v 154.0 315.5 44.0
v 154.0 315.5 44.0
v 155.0 316.5 44.0
v 155.0 316.5 44.0
v 155.0 315.5 45.0
v 155.0 315.5 45.0
v 155.0 316.5 46.0
v 155.0 316.5 46.0
v 152.0 318.5 40.0
v 152.0 318.5 40.0
v 176.0 328.5 40.0
v 158.0 314.5 32.0
v 158.0 314.5 32.0
v 172.0 334.0 16.5
v 172.0 334.0 16.5
v 172.0 334.0 16.5
v 171.5 334.0 17.0
v 170.0 334.5 17.0
v 171.0 335.5 17.0
v 171.5 335.0 17.0
v 169.5 332.0 49.0
v 173.5 332.0 56.0
v 170.0 326.5 25.0
v 170.0 326.5 25.0
v 171.0 327.5 32.0
v 168.5 328.0 27.0
v 169.0 326.5 26.0
v 157.5 319.0 42.0
v 157.0 319.5 41.0
v 156.0 320.5 42.0
v 152.0 318.5 40.0
v 154.0 318.5 41.0
v 154.0 318.5 41.0
v 154.0 318.5 41.0
v 157.5 319.0 42.0
v 160.5 322.0 49.0
v 156.5 317.0 32.0
v 148.5 315.0 22.0
v 148.5 315.0 21.0
v 148.5 315.0 21.0
v 155.0 320.0 51.5
v 169.5 335.0 10.0
v 171.5 334.0 10.0
v 154.0 313.5 29.0
v 154.0 313.5 29.0
v 153.5 316.0 29.0
v 153.5 316.0 29.0
v 154.5 314.0 29.0
v 173.5 327.0 53.0
v 173.5 327.0 53.0
v 173.5 327.0 53.0
v 172.5 326.0 55.0
v 172.5 327.0 54.0
v 170.0 334.5 14.0
v 171.5 335.0 14.0
v 171.5 335.0 14.0
v 170.0 334.5 12.0
v 170.0 334.5 12.0
v 170.0 335.5 13.0
v 170.0 335.5 13.0
v 171.5 334.0 15.0
v 171.0 327.5 32.0
v 169.0 330.5 49.0
v 169.0 330.5 49.0
v 169.0 330.5 49.0
v 170.0 331.0 48.5
v 169.0 332.5 48.0
v 169.0 331.0 49.5
v 170.0 330.5 48.0
v 151.5 316.0 42.0
v 153.0 315.0 42.5
v 159.0 322.0 34.5
v 159.0 322.0 34.5
v 167.5 329.0 39.0
v 168.5 329.0 40.0
v 168.5 329.0 40.0
v 168.5 329.0 40.0
v 168.5 329.0 40.0
v 167.0 329.0 40.5
v 168.0 327.5 41.0
v 167.5 328.0 40.0
v 174.0 326.0 51.5
v 175.5 328.0 41.0
v 175.0 328.0 40.5
v 176.5 330.0 44.0
v 176.5 330.0 44.0
v 175.5 329.0 45.0
v 150.5 313.0 24.0
v 170.0 334.5 17.0
v 151.0 312.5 26.0
v 151.0 312.5 26.0
v 151.0 317.0 26.5
v 152.0 316.0 25.5
v 152.0 314.0 25.5
v 161.5 321.0 49.0
v 161.5 321.0 32.0
v 171.0 327.5 32.0
v 167.0 329.0 41.5
v 155.0 318.5 37.0
v 155.0 318.5 37.0
v 155.0 318.5 37.0
v 156.5 318.0 38.0
v 156.5 316.0 40.0
v 156.5 316.0 40.0
v 156.5 316.0 40.0
v 162.5 332.0 63.0
v 162.5 332.0 63.0
v 162.5 331.0 63.0
v 159.5 328.0 63.0
v 159.5 328.0 63.0
v 159.5 328.0 63.0
v 160.0 328.0 63.5
v 173.0 330.0 63.5
v 173.0 330.0 63.5
v 173.0 330.0 63.5
v 173.5 330.0 57.0
v 174.5 330.0 58.0
v 174.5 330.0 59.0
v 170.0 331.0 50.5
v 170.5 330.0 48.0
v 173.0 326.5 51.0
v 173.0 327.5 51.0
v 173.0 327.5 51.0
v 169.5 335.0 10.0
v 168.0 334.5 14.0
v 168.0 334.5 14.0
v 162.0 320.5 60.0
v 162.0 320.5 60.0
v 172.0 325.5 58.0
v 172.5 326.0 59.0
v 173.5 329.0 59.0
v 163.0 326.0 55.5
v 163.0 326.0 55.5
v 165.0 320.5 60.0
v 171.0 331.5 48.0
v 170.5 332.0 47.0
v 175.5 332.0 43.0
v 175.5 332.0 43.0
v 157.5 318.0 43.0
v 152.5 316.0 43.0
v 153.0 315.5 44.0
v 161.0 321.0 63.5
v 157.5 318.0 32.0
v 157.5 318.0 32.0
v 157.5 318.0 32.0
v 156.5 318.0 31.0
v 156.5 318.0 31.0
v 157.5 318.0 29.0
v 158.0 314.5 32.0
v 155.0 314.5 40.0
v 153.0 315.0 42.5
v 152.0 318.5 40.0
v 153.0 318.5 33.0
v 153.0 318.5 33.0
v 153.0 318.5 33.0
v 153.0 318.5 33.0
v 149.5 317.0 33.0
v 149.5 317.0 33.0
v 149.5 315.0 34.0
v 149.5 315.0 34.0
v 148.5 316.0 32.0
v 148.5 312.0 20.0
v 148.5 312.0 20.0
v 149.0 311.5 23.0
v 148.5 313.0 24.0
v 154.0 318.5 34.0
v 154.5 318.0 35.0
v 168.0 331.5 49.0
v 171.0 326.5 47.0
v 167.0 329.0 50.5
v 167.0 329.0 50.5
v 167.0 329.0 50.5
v 163.5 331.0 52.0
v 163.5 332.0 51.0
v 167.0 329.0 50.5
v 170.0 325.5 54.0
v 160.0 323.0 30.5
v 159.5 320.0 46.0
v 159.5 320.0 46.0
v 158.5 318.0 45.0
v 153.5 319.0 46.0
v 168.5 328.0 27.0
v 169.0 325.5 54.0
v 175.0 326.5 50.0
v 175.0 327.0 50.5
v 151.0 317.5 27.0
v 148.5 316.0 32.0
v 150.0 312.5 29.0
v 150.0 312.5 29.0
v 158.0 315.5 33.0
v 157.5 318.0 32.0
v 157.5 322.0 33.0
v 170.0 326.5 18.0
f 2 1 3
f 1 5 4
f 3 1 4
f 7 6 8
f 3 4 6
f 11 4 5
f 9 6 13
f 10 8 6
f 9 10 6
f 6 4 11
f 13 6 11
f 13 11 12
f 13 12 14
f 14 12 17
f 16 15 12
f 15 17 12
f 15 16 18
f 17 15 18
f 2 20 19
f 2 3 20
f 3 22 20
f 5 1 21
f 3 6 22
f 6 7 22
f 22 7 8
f 8 10 33
f 9 23 10
f 10 23 33
f 13 25 9
f 23 9 25
f 13 14 25
f 24 16 12
f 25 14 26
f 16 24 18
f 838 18 24
f 33 22 8
f 5 34 11
f 40 12 11
f 48 12 40
f 12 48 24
f 27 14 17
f 14 27 26
f 839 24 28
f 27 17 840
f 2 19 1
f 20 22 32
f 22 33 32
f 5 21 34
f 34 46 11
f 33 23 25
f 29 33 25
f 29 25 42
f 26 27 981
f 27 893 981
f 42 25 26
f 981 42 26
f 28 24 31
f 894 27 840
f 855 894 840
f 1 85 21
f 85 39 21
f 34 21 39
f 48 41 24
f 33 29 42
f 24 41 43
f 24 43 35
f 24 35 31
f 30 853 36
f 894 855 854
f 896 892 895
f 19 59 1
f 59 19 20
f 37 59 20
f 37 20 32
f 37 32 33
f 37 33 38
f 39 46 34
f 46 40 11
f 982 897 898
f 36 853 891
f 85 46 39
f 47 40 46
f 38 33 52
f 40 47 48
f 48 1064 41
f 41 1064 43
f 43 1064 35
f 1064 44 35
f 1063 49 51
f 50 1063 51
f 60 37 38
f 62 46 85
f 52 33 54
f 33 42 54
f 1063 53 45
f 1065 49 1063
f 911 53 50
f 50 53 1063
f 49 912 51
f 50 51 911
f 102 85 1
f 47 46 55
f 47 55 56
f 48 47 56
f 54 42 57
f 848 45 53
f 57 42 45
f 848 57 45
f 996 910 58
f 993 997 999
f 59 37 60
f 60 38 52
f 61 60 52
f 54 73 52
f 52 73 61
f 46 62 55
f 56 55 72
f 48 56 63
f 56 72 63
f 48 63 1064
f 848 994 57
f 57 1000 54
f 909 65 998
f 994 848 66
f 67 102 59
f 102 1 59
f 68 59 60
f 68 60 69
f 69 60 61
f 69 61 70
f 62 85 71
f 70 61 73
f 62 72 55
f 71 72 62
f 73 54 1000
f 63 72 75
f 63 75 1064
f 847 74 995
f 913 64 76
f 995 66 847
f 77 78 79
f 78 77 80
f 81 77 79
f 82 81 79
f 83 80 77
f 81 83 77
f 81 82 84
f 83 81 84
f 59 100 67
f 68 100 59
f 68 69 100
f 87 86 71
f 806 88 86
f 86 72 71
f 806 105 88
f 72 86 75
f 75 86 88
f 89 88 105
f 75 88 89
f 1000 90 73
f 75 89 105
f 75 105 1064
f 91 955 850
f 90 1000 805
f 90 805 92
f 92 850 955
f 1064 91 873
f 849 851 852
f 93 94 95
f 94 93 96
f 78 97 98
f 79 78 98
f 97 78 80
f 99 97 80
f 79 98 82
f 80 83 99
f 67 121 102
f 121 67 100
f 100 69 101
f 102 103 85
f 85 103 71
f 103 113 71
f 113 806 71
f 90 955 73
f 91 1064 105
f 955 91 105
f 953 106 104
f 90 92 955
f 959 957 958
f 120 93 95
f 93 120 132
f 93 132 96
f 97 108 98
f 98 108 82
f 108 97 99
f 108 99 109
f 109 99 83
f 82 108 143
f 84 82 979
f 109 83 84
f 978 109 84
f 100 110 121
f 100 101 110
f 111 110 101
f 111 101 69
f 103 102 112
f 111 69 70
f 112 113 103
f 70 73 114
f 126 806 113
f 73 955 114
f 806 129 105
f 115 954 956
f 116 115 106
f 106 115 104
f 1028 116 107
f 106 107 116
f 94 117 118
f 95 94 118
f 117 94 96
f 119 117 96
f 96 132 119
f 120 95 143
f 108 120 143
f 120 108 109
f 120 109 132
f 132 109 978
f 122 102 121
f 110 111 937
f 937 111 124
f 102 125 112
f 113 112 125
f 113 138 126
f 125 138 113
f 70 114 127
f 138 806 126
f 128 127 114
f 806 138 129
f 114 955 128
f 128 954 115
f 1028 129 130
f 1028 130 116
f 128 115 116
f 117 131 118
f 118 131 95
f 131 117 119
f 131 119 132
f 95 131 143
f 133 121 135
f 122 133 134
f 121 133 122
f 121 935 135
f 110 935 121
f 123 936 1132
f 937 124 153
f 136 938 124
f 136 124 111
f 102 152 125
f 136 111 70
f 137 70 127
f 139 137 127
f 127 128 139
f 139 128 165
f 138 149 129
f 129 149 130
f 130 149 116
f 132 140 1101
f 140 132 141
f 141 132 142
f 142 145 141
f 978 142 132
f 143 144 142
f 144 145 142
f 144 143 146
f 147 144 146
f 145 144 147
f 133 151 152
f 133 152 134
f 134 152 122
f 135 151 133
f 135 935 151
f 122 152 102
f 148 938 136
f 148 136 70
f 152 138 125
f 148 70 137
f 148 137 139
f 156 149 138
f 149 165 128
f 149 128 116
f 160 140 141
f 141 145 160
f 146 143 150
f 146 150 147
f 938 148 139
f 938 139 154
f 139 165 154
f 156 138 155
f 149 157 165
f 149 156 172
f 140 159 1102
f 1102 159 158
f 159 140 160
f 131 1103 143
f 143 166 150
f 169 147 150
f 169 145 147
f 150 161 888
f 889 977 162
f 163 152 151
f 938 154 935
f 171 155 138
f 171 164 155
f 155 164 156
f 149 172 157
f 1103 166 143
f 159 1104 158
f 1027 1104 159
f 1027 159 160
f 160 145 1027
f 150 166 161
f 168 145 169
f 151 197 198
f 935 180 151
f 151 180 197
f 163 182 152
f 151 182 163
f 152 182 138
f 138 182 171
f 170 935 154
f 164 213 156
f 154 165 170
f 167 173 166
f 1027 145 867
f 200 808 166
f 145 168 868
f 868 168 870
f 166 808 161
f 168 169 864
f 888 161 808
f 889 162 174
f 177 176 175
f 176 177 179
f 178 176 179
f 182 151 181
f 935 170 180
f 182 183 171
f 171 183 164
f 184 172 156
f 166 199 200
f 166 173 199
f 1030 186 187
f 185 176 810
f 869 176 185
f 1033 1029 1031
f 1033 1031 1032
f 189 187 186
f 188 189 186
f 885 175 807
f 885 191 175
f 192 193 194
f 193 192 195
f 175 191 177
f 192 194 196
f 195 192 196
f 179 177 209
f 209 178 179
f 180 170 212
f 182 211 213
f 213 183 182
f 170 165 212
f 172 277 157
f 173 1030 199
f 187 189 900
f 1031 843 1032
f 1032 843 845
f 1032 845 846
f 810 176 865
f 193 812 194
f 809 866 205
f 193 203 202
f 866 204 205
f 203 193 195
f 203 195 201
f 844 195 206
f 191 207 177
f 176 178 865
f 1125 178 209
f 194 205 208
f 196 194 208
f 206 195 196
f 208 206 196
f 177 207 209
f 197 1121 198
f 198 1121 151
f 966 963 965
f 151 1121 181
f 1121 182 181
f 211 182 1121
f 183 213 164
f 156 213 214
f 156 214 184
f 172 184 277
f 215 200 199
f 1030 215 199
f 215 1030 187
f 215 216 200
f 187 217 215
f 216 232 200
f 200 232 808
f 218 984 187
f 900 218 187
f 808 232 190
f 885 232 233
f 191 885 233
f 191 871 220
f 191 233 872
f 220 219 1125
f 205 204 899
f 206 899 844
f 220 222 207
f 191 220 207
f 1125 209 222
f 1125 222 220
f 872 223 811
f 205 899 208
f 811 223 221
f 206 208 899
f 207 222 209
f 213 224 214
f 184 214 224
f 224 225 184
f 226 216 215
f 228 216 226
f 215 217 227
f 227 217 983
f 217 187 983
f 216 228 232
f 230 229 986
f 984 218 231
f 900 221 218
f 218 221 234
f 235 237 259
f 223 872 238
f 234 221 223
f 238 234 223
f 239 235 236
f 237 235 239
f 259 237 240
f 259 240 241
f 239 242 237
f 240 237 243
f 243 237 242
f 244 241 240
f 243 244 240
f 962 964 210
f 252 211 1121
f 253 180 212
f 224 213 275
f 212 165 253
f 245 226 215
f 227 245 215
f 227 983 245
f 983 987 246
f 226 247 228
f 987 985 246
f 228 247 232
f 247 1096 232
f 232 1096 233
f 233 1096 872
f 1096 238 872
f 234 249 218
f 218 249 231
f 238 1096 263
f 234 238 250
f 250 238 263
f 249 234 250
f 239 251 242
f 242 267 243
f 251 267 242
f 243 267 244
f 252 273 211
f 211 273 213
f 273 275 213
f 165 254 253
f 245 255 226
f 245 983 255
f 983 246 255
f 1126 247 226
f 256 246 231
f 256 231 248
f 256 248 257
f 231 260 248
f 248 260 257
f 235 258 1088
f 235 1088 236
f 236 1088 1083
f 259 258 235
f 260 231 249
f 1087 1082 1086
f 259 241 261
f 1085 283 236
f 283 239 236
f 261 241 264
f 239 283 251
f 264 241 244
f 264 244 265
f 267 265 244
f 268 265 267
f 267 251 266
f 267 266 269
f 268 267 270
f 270 271 268
f 210 964 272
f 1121 272 252
f 272 273 252
f 294 180 253
f 274 294 253
f 224 275 276
f 276 225 224
f 253 254 274
f 225 276 184
f 315 254 165
f 184 276 277
f 376 256 257
f 1096 247 279
f 1084 951 976
f 1092 260 249
f 261 323 259
f 323 261 282
f 1096 1092 263
f 263 1092 250
f 1092 249 250
f 1130 283 262
f 261 264 282
f 282 264 265
f 284 282 265
f 283 286 251
f 284 265 285
f 285 265 268
f 286 890 251
f 890 266 251
f 285 268 287
f 287 268 271
f 269 266 890
f 290 267 288
f 1116 269 890
f 267 290 270
f 271 270 290
f 271 290 289
f 291 290 292
f 291 329 290
f 293 291 292
f 329 291 293
f 273 272 296
f 295 294 274
f 295 274 297
f 313 273 296
f 275 273 313
f 275 313 276
f 165 157 316
f 157 277 316
f 316 315 165
f 226 255 1099
f 246 256 376
f 1128 1097 1100
f 258 298 952
f 258 299 298
f 299 258 259
f 300 299 259
f 257 260 302
f 280 278 1129
f 302 260 1092
f 280 1129 281
f 298 303 1130
f 323 300 259
f 303 283 1130
f 282 1011 323
f 282 284 1011
f 283 323 286
f 286 323 305
f 285 1011 284
f 305 1131 286
f 307 285 287
f 306 890 286
f 307 287 271
f 271 289 307
f 307 289 308
f 289 290 309
f 289 309 308
f 310 290 288
f 290 310 292
f 290 329 309
f 292 310 311
f 292 311 328
f 293 292 328
f 272 358 331
f 358 272 964
f 272 331 296
f 274 334 297
f 274 254 315
f 276 314 277
f 314 316 277
f 317 1099 255
f 1127 318 301
f 376 257 302
f 298 299 320
f 319 298 320
f 299 300 320
f 1096 1098 1092
f 1092 1105 302
f 319 321 303
f 298 319 303
f 320 321 319
f 300 323 320
f 303 321 283
f 323 283 321
f 323 321 320
f 323 324 305
f 1035 325 1012
f 1131 305 884
f 305 324 339
f 285 340 325
f 340 285 307
f 306 883 890
f 326 328 288
f 328 310 288
f 309 329 327
f 311 310 328
f 329 293 368
f 293 328 330
f 293 330 312
f 368 293 312
f 295 347 294
f 331 332 296
f 295 348 347
f 297 348 295
f 348 297 334
f 332 313 296
f 332 333 313
f 313 333 276
f 274 315 334
f 276 333 402
f 276 402 314
f 334 315 335
f 314 402 350
f 316 314 350
f 350 315 316
f 255 246 317
f 1099 317 352
f 352 353 1099
f 376 302 336
f 1093 1099 353
f 337 336 302
f 302 1105 1106
f 322 304 338
f 304 970 338
f 323 1011 324
f 340 1012 325
f 1012 341 288
f 307 356 340
f 356 307 308
f 288 341 326
f 356 308 309
f 341 343 326
f 309 327 356
f 356 327 342
f 342 327 344
f 343 328 326
f 327 329 344
f 329 368 344
f 312 330 345
f 294 347 346
f 331 358 332
f 335 315 460
f 315 349 460
f 460 334 335
f 349 315 350
f 317 246 351
f 317 351 352
f 361 1094 353
f 302 1106 354
f 302 354 337
f 354 1106 355
f 363 1012 340
f 1012 363 341
f 365 341 363
f 341 365 343
f 342 344 357
f 365 328 343
f 365 366 328
f 366 330 328
f 344 368 357
f 368 312 382
f 1001 359 358
f 345 330 371
f 382 312 345
f 1036 346 359
f 359 346 347
f 375 402 333
f 384 348 334
f 349 350 402
f 360 351 246
f 351 361 352
f 360 361 351
f 352 361 353
f 387 376 336
f 336 337 1040
f 337 354 1040
f 1095 361 1091
f 338 970 1038
f 355 338 1038
f 362 354 355
f 363 340 356
f 364 363 356
f 356 342 364
f 342 357 364
f 357 368 367
f 330 366 371
f 369 367 368
f 370 358 359
f 359 372 370
f 347 372 359
f 347 348 374
f 347 374 373
f 332 375 333
f 348 384 374
f 349 402 460
f 384 334 460
f 246 376 360
f 385 361 360
f 1042 387 336
f 378 363 364
f 390 378 364
f 364 357 390
f 357 379 390
f 366 365 389
f 357 367 379
f 379 367 380
f 389 430 366
f 371 366 430
f 367 369 399
f 382 345 381
f 345 371 381
f 399 368 382
f 399 369 368
f 370 372 419
f 347 373 372
f 401 373 374
f 358 383 332
f 383 375 332
f 374 384 401
f 376 385 360
f 376 386 385
f 376 387 386
f 1043 336 1040
f 361 423 1091
f 1038 970 388
f 378 390 363
f 363 389 365
f 363 390 389
f 379 391 390
f 379 409 391
f 409 379 380
f 430 389 408
f 409 380 367
f 409 367 392
f 393 392 367
f 399 393 367
f 419 394 370
f 371 411 381
f 382 381 411
f 395 396 397
f 395 397 398
f 372 373 419
f 397 396 400
f 398 397 400
f 419 373 401
f 358 498 383
f 383 402 375
f 361 385 422
f 385 386 403
f 403 386 387
f 387 1042 1089
f 1044 1039 1041
f 377 1038 407
f 377 407 405
f 407 1038 388
f 390 408 389
f 408 390 391
f 409 408 391
f 410 409 392
f 430 411 371
f 392 393 410
f 410 393 412
f 394 413 370
f 413 394 419
f 440 382 411
f 395 1017 396
f 1014 414 1013
f 399 412 393
f 415 395 398
f 419 437 413
f 419 416 437
f 416 419 417
f 382 440 442
f 399 382 418
f 382 442 418
f 418 412 399
f 1013 414 1014
f 400 396 1017
f 1016 398 400
f 419 401 420
f 402 383 498
f 401 384 420
f 384 460 420
f 385 421 422
f 403 421 385
f 403 387 421
f 361 422 423
f 857 405 424
f 973 388 970
f 424 405 407
f 424 407 426
f 388 973 967
f 407 388 428
f 968 388 967
f 426 407 428
f 429 408 409
f 408 429 430
f 431 430 409
f 430 429 409
f 410 432 409
f 411 430 431
f 432 433 409
f 432 410 412
f 813 1020 434
f 432 1019 433
f 1018 434 1020
f 1019 441 435
f 370 436 475
f 370 413 436
f 413 437 438
f 438 437 1022
f 411 431 440
f 1015 441 414
f 441 1015 435
f 358 370 475
f 950 417 814
f 859 412 418
f 1015 860 443
f 1015 414 860
f 1015 444 435
f 417 419 814
f 1015 443 445
f 444 1015 445
f 419 420 814
f 402 459 460
f 422 446 461
f 422 421 446
f 421 387 446
f 387 462 446
f 1089 462 387
f 422 461 447
f 423 422 447
f 448 858 424
f 423 447 948
f 448 424 449
f 449 424 426
f 450 449 426
f 949 485 427
f 425 406 427
f 880 426 428
f 974 972 451
f 452 974 451
f 409 469 431
f 469 454 431
f 433 455 409
f 455 433 456
f 456 433 1019
f 456 1019 435
f 473 456 435
f 475 436 453
f 413 438 436
f 442 440 454
f 454 440 431
f 442 458 418
f 457 859 458
f 458 859 418
f 1037 443 860
f 435 444 473
f 473 444 445
f 445 443 906
f 1023 420 439
f 479 402 498
f 420 460 439
f 402 479 459
f 461 446 462
f 1079 1009 1010
f 447 461 462
f 1090 404 934
f 858 464 463
f 448 464 858
f 465 464 448
f 1079 484 1009
f 1009 484 949
f 465 448 449
f 485 949 484
f 465 449 450
f 465 450 466
f 425 427 467
f 427 485 467
f 971 467 490
f 451 971 490
f 452 451 490
f 1078 881 969
f 469 409 470
f 409 455 470
f 456 471 472
f 455 456 472
f 471 456 473
f 453 436 468
f 468 436 509
f 436 438 1026
f 1026 438 1022
f 454 469 442
f 458 442 469
f 458 469 474
f 474 469 470
f 455 457 474
f 470 455 474
f 455 472 1037
f 457 458 474
f 1037 476 443
f 908 473 445
f 906 443 476
f 477 906 476
f 358 475 498
f 439 460 478
f 460 459 479
f 1076 460 479
f 463 940 480
f 464 940 463
f 464 481 941
f 482 481 464
f 482 464 465
f 482 465 483
f 483 465 466
f 486 467 485
f 467 486 488
f 467 488 490
f 489 452 490
f 466 452 487
f 487 452 489
f 453 468 491
f 471 908 472
f 471 473 908
f 491 493 475
f 453 491 475
f 472 908 1037
f 1037 908 476
f 492 907 494
f 494 907 477
f 494 477 495
f 1026 1022 1025
f 475 496 498
f 520 477 476
f 479 498 500
f 439 478 499
f 499 478 514
f 1077 479 501
f 479 500 501
f 501 514 1077
f 1080 484 1079
f 521 484 1080
f 946 943 945
f 941 481 947
f 502 942 482
f 483 503 482
f 483 466 504
f 483 504 503
f 485 484 920
f 920 522 485
f 504 466 487
f 485 522 486
f 487 505 504
f 489 490 506
f 487 489 506
f 507 487 506
f 505 487 507
f 468 508 491
f 508 468 509
f 544 493 491
f 493 544 475
f 544 511 475
f 908 528 476
f 511 496 475
f 495 477 512
f 513 496 511
f 498 496 513
f 439 499 514
f 439 514 515
f 439 515 497
f 477 520 512
f 500 498 513
f 514 517 518
f 515 514 518
f 476 516 519
f 520 476 519
f 517 500 513
f 501 500 517
f 514 501 517
f 944 482 521
f 482 503 521
f 504 537 503
f 522 539 486
f 488 486 539
f 490 488 524
f 488 539 524
f 504 505 541
f 490 524 506
f 507 506 541
f 541 505 507
f 491 508 544
f 508 509 525
f 525 509 526
f 908 527 528
f 494 529 908
f 908 529 527
f 529 494 495
f 837 529 495
f 495 510 837
f 509 1024 526
f 495 512 533
f 495 533 510
f 510 533 837
f 531 513 511
f 497 515 526
f 526 515 532
f 520 533 512
f 518 517 534
f 532 515 518
f 534 532 518
f 533 520 535
f 536 484 521
f 503 537 521
f 536 939 484
f 1120 553 919
f 537 504 523
f 522 918 539
f 1119 541 555
f 1117 1119 555
f 506 524 557
f 562 525 526
f 544 545 511
f 527 577 528
f 546 527 529
f 837 546 529
f 530 547 546
f 530 548 547
f 817 818 816
f 545 836 511
f 511 836 531
f 562 526 532
f 528 577 476
f 836 837 549
f 837 533 549
f 531 836 565
f 531 565 513
f 476 577 516
f 549 533 550
f 517 513 579
f 579 534 517
f 535 520 1075
f 550 533 535
f 521 594 536
f 536 594 551
f 521 537 594
f 551 939 536
f 537 523 554
f 537 554 552
f 538 939 539
f 554 523 540
f 1118 555 875
f 879 874 878
f 540 569 554
f 524 539 557
f 556 875 555
f 506 557 542
f 541 506 542
f 541 542 558
f 555 541 558
f 559 555 558
f 556 555 559
f 508 543 560
f 543 561 560
f 635 544 508
f 543 508 561
f 508 525 561
f 562 561 525
f 544 563 545
f 547 815 819
f 586 562 534
f 527 1107 577
f 546 1107 527
f 547 1107 546
f 564 1107 547
f 836 549 565
f 547 819 564
f 534 579 586
f 532 534 562
f 565 821 1074
f 820 1075 566
f 565 549 550
f 1075 568 566
f 565 1074 513
f 516 577 580
f 519 516 580
f 520 519 568
f 519 580 568
f 568 1075 520
f 551 582 939
f 939 582 539
f 875 556 571
f 558 542 557
f 571 559 558
f 571 556 559
f 558 557 572
f 573 558 572
f 635 508 560
f 561 601 560
f 601 561 562
f 1111 1059 1108
f 609 562 586
f 575 1059 1111
f 574 1002 564
f 1008 588 861
f 822 574 819
f 574 564 819
f 566 1003 1005
f 566 568 1003
f 1006 578 1004
f 567 566 1005
f 575 567 1005
f 575 579 567
f 567 579 513
f 580 960 568
f 537 552 594
f 552 554 581
f 582 583 539
f 554 569 581
f 557 539 583
f 584 557 583
f 557 584 599
f 557 599 631
f 975 558 600
f 975 600 570
f 975 570 876
f 557 631 572
f 600 558 573
f 635 611 544
f 585 601 562
f 562 609 585
f 577 587 589
f 576 1111 577
f 1111 587 577
f 1111 576 590
f 588 825 861
f 1007 1004 578
f 824 856 591
f 588 826 825
f 591 856 902
f 575 617 592
f 575 592 579
f 577 589 593
f 620 960 580
f 623 551 622
f 594 624 551
f 624 622 551
f 552 595 594
f 581 595 552
f 551 623 582
f 595 581 627
f 583 582 596
f 581 569 627
f 886 596 597
f 583 596 584
f 886 597 598
f 570 600 630
f 573 572 672
f 573 672 600
f 635 560 636
f 602 601 585
f 635 603 1109
f 605 828 604
f 1123 1124 606
f 823 828 602
f 841 1062 604
f 606 609 610
f 606 1124 609
f 607 585 609
f 609 586 610
f 586 612 610
f 613 614 586
f 614 615 586
f 615 612 586
f 1111 619 587
f 575 1111 617
f 1111 616 617
f 830 613 586
f 830 586 618
f 618 586 579
f 587 619 589
f 1111 590 616
f 591 616 590
f 1058 616 591
f 902 1058 591
f 592 617 901
f 620 830 592
f 830 579 592
f 579 830 621
f 621 618 579
f 589 619 593
f 595 624 594
f 623 625 582
f 595 626 624
f 627 626 595
f 582 980 596
f 980 582 625
f 597 596 980
f 597 980 629
f 657 877 1034
f 597 629 598
f 887 598 629
f 628 887 629
f 584 980 631
f 657 921 630
f 584 631 599
f 600 632 630
f 572 631 672
f 634 600 633
f 636 560 829
f 601 1021 560
f 601 602 903
f 635 637 603
f 639 605 604
f 639 640 605
f 903 828 605
f 602 828 903
f 827 642 608
f 604 1062 639
f 639 1062 642
f 1060 643 638
f 1060 1061 643
f 1062 841 842
f 905 606 610
f 644 905 610
f 641 645 1114
f 615 614 644
f 615 644 612
f 612 644 610
f 1113 1114 1112
f 1114 645 1112
f 619 646 649
f 830 620 650
f 647 830 650
f 621 830 618
f 647 648 830
f 593 619 649
f 650 620 580
f 651 647 650
f 648 647 651
f 669 623 622
f 669 622 652
f 652 622 624
f 624 669 652
f 623 653 625
f 669 653 623
f 624 626 669
f 627 654 626
f 626 654 669
f 655 654 627
f 653 656 625
f 627 569 655
f 631 980 656
f 656 980 625
f 657 630 658
f 630 632 658
f 658 632 673
f 672 659 600
f 600 673 632
f 600 659 633
f 673 600 634
f 635 636 660
f 660 637 635
f 1122 637 660
f 829 661 636
f 662 661 829
f 637 663 603
f 640 639 664
f 640 664 827
f 662 904 665
f 1114 663 641
f 641 663 666
f 663 1110 603
f 639 642 664
f 827 664 642
f 665 904 905
f 905 644 665
f 641 666 645
f 644 614 988
f 1112 645 666
f 613 667 614
f 667 613 830
f 649 646 668
f 667 830 648
f 649 668 746
f 649 746 593
f 671 670 654
f 654 670 669
f 654 655 671
f 656 653 686
f 882 655 569
f 656 686 631
f 877 657 671
f 631 686 672
f 659 688 633
f 673 634 674
f 677 660 636
f 661 677 636
f 678 675 676
f 678 676 637
f 679 831 660
f 677 679 660
f 661 693 677
f 661 662 693
f 680 663 676
f 663 637 676
f 662 665 992
f 693 662 992
f 680 666 663
f 696 681 990
f 989 614 696
f 696 614 699
f 1112 711 710
f 646 1071 682
f 666 711 1112
f 699 614 667
f 683 699 667
f 682 684 646
f 702 683 667
f 684 668 646
f 685 668 684
f 667 648 702
f 702 648 719
f 668 685 703
f 668 703 746
f 577 593 746
f 580 577 746
f 580 746 650
f 719 648 651
f 669 686 653
f 669 670 671
f 686 669 671
f 735 657 658
f 686 706 672
f 658 673 687
f 672 706 688
f 688 659 672
f 673 674 687
f 687 674 1072
f 634 633 688
f 709 674 634
f 676 675 929
f 690 677 691
f 1071 674 709
f 929 931 676
f 675 678 689
f 1115 689 678
f 690 689 1115
f 677 690 1115
f 677 693 691
f 832 695 692
f 680 692 694
f 931 680 676
f 932 933 930
f 694 711 666
f 680 694 666
f 681 696 991
f 697 682 1071
f 699 698 700
f 833 699 683
f 699 700 701
f 682 697 684
f 915 700 834
f 683 702 833
f 701 700 915
f 685 697 703
f 684 697 685
f 704 686 671
f 705 686 704
f 706 686 705
f 671 657 704
f 690 923 689
f 691 923 690
f 634 688 730
f 634 730 709
f 692 707 711
f 707 710 711
f 692 712 707
f 712 708 707
f 708 712 928
f 691 693 923
f 991 713 862
f 692 711 694
f 692 695 712
f 713 991 696
f 714 713 696
f 696 699 714
f 1071 716 697
f 715 714 699
f 699 701 715
f 915 715 701
f 914 917 715
f 718 703 716
f 703 697 716
f 717 835 961
f 651 650 746
f 746 719 651
f 704 720 738
f 704 738 705
f 704 657 720
f 721 658 687
f 706 705 688
f 1073 721 1072
f 721 687 1072
f 730 688 738
f 707 708 722
f 708 923 722
f 689 923 708
f 709 730 1071
f 713 714 863
f 733 1071 730
f 733 723 1071
f 863 714 724
f 1071 723 716
f 725 716 723
f 714 715 724
f 724 715 1055
f 725 727 716
f 715 917 1055
f 716 727 718
f 916 719 726
f 738 720 728
f 657 728 720
f 657 735 728
f 658 721 735
f 705 738 688
f 707 748 710
f 707 722 748
f 729 722 923
f 923 740 729
f 731 863 732
f 732 863 724
f 723 733 725
f 1070 724 1055
f 1070 1055 1056
f 734 726 745
f 726 719 745
f 745 719 746
f 703 718 759
f 703 759 746
f 738 728 736
f 735 736 728
f 721 737 735
f 748 737 721
f 748 722 729
f 740 923 926
f 739 730 738
f 739 753 730
f 922 1068 1069
f 741 731 732
f 924 732 724
f 924 724 742
f 724 1070 742
f 733 786 725
f 1057 1070 1056
f 725 786 727
f 744 734 745
f 1067 737 748
f 1066 736 735
f 749 736 1066
f 735 737 1067
f 729 750 760
f 729 740 750
f 926 750 740
f 750 926 751
f 751 925 927
f 784 924 742
f 754 730 753
f 754 764 730
f 733 730 755
f 755 730 764
f 755 786 733
f 742 743 744
f 742 744 756
f 745 758 744
f 744 758 756
f 727 757 718
f 746 758 745
f 718 757 759
f 768 738 749
f 738 736 749
f 1066 768 749
f 760 750 761
f 761 750 751
f 761 751 927
f 761 752 924
f 761 924 762
f 762 924 798
f 763 753 739
f 763 754 753
f 798 924 784
f 765 784 742
f 765 742 756
f 765 756 771
f 756 758 771
f 759 757 786
f 786 757 727
f 759 766 746
f 758 746 773
f 748 774 1067
f 767 774 748
f 793 729 769
f 748 729 793
f 729 760 769
f 797 761 762
f 739 738 763
f 738 783 763
f 763 783 799
f 799 754 763
f 770 764 754
f 764 786 755
f 786 766 759
f 771 758 802
f 802 758 772
f 746 766 788
f 773 746 788
f 772 758 773
f 767 775 774
f 767 748 775
f 776 768 1081
f 774 792 1067
f 1081 768 747
f 748 793 775
f 769 778 793
f 738 776 777
f 738 777 794
f 768 776 738
f 760 778 769
f 760 779 778
f 781 738 794
f 779 760 761
f 779 761 780
f 780 761 797
f 782 797 762
f 738 781 783
f 762 798 782
f 754 799 770
f 799 1048 770
f 785 764 770
f 784 765 801
f 785 786 764
f 765 802 801
f 802 765 771
f 786 787 766
f 766 787 788
f 773 788 789
f 804 802 773
f 804 773 789
f 772 773 802
f 774 775 790
f 776 791 777
f 791 776 1081
f 775 793 790
f 777 791 794
f 1081 794 791
f 778 779 795
f 779 780 795
f 781 794 796
f 1081 801 794
f 801 796 794
f 778 797 793
f 795 797 778
f 795 780 797
f 774 801 1081
f 790 801 774
f 781 796 783
f 793 801 790
f 797 801 793
f 782 798 797
f 798 801 797
f 799 783 796
f 801 799 796
f 798 784 801
f 799 800 1048
f 801 800 799
f 1049 1051 1053
f 1050 1052 1047
f 1054 803 1046
f 1047 1052 1045
f 804 803 801
f 802 804 801
f 787 803 788
f 789 788 803
f 804 789 803
